{
  "name": "Langrisser I & II",
  "slug": "langrisser-i-ii",
  "year": null,
  "description": "",
  "banner_url": "https://lutris.net/games/banner/langrisser-i-ii.jpg",
  "icon_url": "https://lutris.net/games/icon/langrisser-i-ii.png",
  "is_public": false,
  "updated": "2020-10-09T23:38:29.706941Z",
  "provider_games": [],
  "steamid": 1060220,
  "gogid": null,
  "gogslug": "",
  "humblestoreid": "",
  "id": 39755
}