{
  "id": 19074,
  "game_id": 30822,
  "game_slug": "vampire-the-masquerade-coteries-of-new-york",
  "name": "Vampire: The Masquerade - Coteries of New York",
  "year": 2019,
  "user": "welblade",
  "runner": "wine",
  "slug": "vampire-the-masquerade-coteri-gog-mfplat",
  "version": "GOG + MFPLAT",
  "description": "This versions is 100% working, the script will install mfplat that is required to show the game background, fixing the black screen issue.If mf-install download fails, cancel and restart the script.",
  "notes": "For now, Media Foundation Platform is necessary to make the game work, the script mf-install, install it on the created prefix, if you want to check the script before run it, the source code is here on my git:  https://gitlab.com/lutris-utils/mf-install",
  "created_at": "2020-03-22T19:13:19.759000Z",
  "updated_at": "2020-04-03T19:49:50.305719Z",
  "draft": false,
  "published": true,
  "published_by": 494,
  "rating": "",
  "steamid": 1096410,
  "gogid": 1636588470,
  "gogslug": "vampire_the_masquerade_coteries_of_new_york",
  "humbleid": "",
  "humblestoreid": "",
  "humblestoreid_real": "",
  "script": {
    "files": [
      {
        "mfinstall": {
          "filename": "mf-install.zip",
          "referer": "https://lutris.net",
          "url": "https://gitlab.com/lutris-utils/mf-install/-/archive/master/mf-install-master.zip"
        }
      },
      {
        "setup": "N/A:Select Windows GOG setup exe"
      }
    ],
    "game": {
      "exe": "drive_c/GOG Games/Vampire The Masquerade - Coteries of New York/VtM Coteries of New York.exe",
      "prefix": "$GAMEDIR"
    },
    "installer": [
      {
        "task": {
          "arch": "win64",
          "description": "Creating WINE prefix.",
          "install_gecko": false,
          "install_mono": false,
          "name": "create_prefix",
          "prefix": "$GAMEDIR"
        }
      },
      {
        "extract": {
          "description": "Installing Media Foundation Platform.",
          "dst": "$CACHE",
          "file": "mfinstall",
          "format": "zip"
        }
      },
      {
        "task": {
          "arch": "win64",
          "args": "/SP- /SILENT /SUPPRESSMSGBOXES /NOCANCEL",
          "description": "Be patient, this task may take several minutes.",
          "executable": "setup",
          "name": "wineexec",
          "prefix": "$GAMEDIR"
        }
      },
      {
        "execute": {
          "command": "$CACHE/mf-install.sh;",
          "env": {
            "WINEPREFIX": "$GAMEDIR"
          }
        }
      }
    ]
  },
  "content": "files:\n- mfinstall:\n    filename: mf-install.zip\n    referer: https://lutris.net\n    url: https://gitlab.com/lutris-utils/mf-install/-/archive/master/mf-install-master.zip\n- setup: N/A:Select Windows GOG setup exe\ngame:\n  exe: drive_c/GOG Games/Vampire The Masquerade - Coteries of New York/VtM Coteries\n    of New York.exe\n  prefix: $GAMEDIR\ninstaller:\n- task:\n    arch: win64\n    description: Creating WINE prefix.\n    install_gecko: false\n    install_mono: false\n    name: create_prefix\n    prefix: $GAMEDIR\n- extract:\n    description: Installing Media Foundation Platform.\n    dst: $CACHE\n    file: mfinstall\n    format: zip\n- task:\n    arch: win64\n    args: /SP- /SILENT /SUPPRESSMSGBOXES /NOCANCEL\n    description: Be patient, this task may take several minutes.\n    executable: setup\n    name: wineexec\n    prefix: $GAMEDIR\n- execute:\n    command: $CACHE/mf-install.sh;\n    env:\n      WINEPREFIX: $GAMEDIR\n"
}