{
  "name": "Heroes Chronicles [Chapter 1] - Warlords of the Wasteland",
  "slug": "heroes-chronicles-chapter-1-warlords-of-the-wastel",
  "year": null,
  "description": "",
  "banner_url": "",
  "icon_url": "",
  "is_public": true,
  "updated": "2020-05-31T00:17:44.552786Z",
  "provider_games": [
    {
      "name": "Heroes Chronicles [Chapter 1] - Warlords of the Wasteland",
      "slug": "1207661743",
      "service": "gog"
    }
  ],
  "steamid": null,
  "gogid": 1207661743,
  "gogslug": "heroes_chronicles_chapter_1_warlords_of_the_wasteland",
  "humblestoreid": "",
  "id": 36918
}