{
  "name": "Hero Defense",
  "slug": "hero-defense",
  "year": null,
  "description": "",
  "banner_url": "https://lutris.net/games/banner/hero-defense.jpg",
  "icon_url": "https://lutris.net/games/icon/hero-defense.png",
  "is_public": true,
  "updated": "2020-10-08T10:14:26.401154Z",
  "provider_games": [
    {
      "name": "Hero Defense",
      "slug": "423620",
      "service": "steam"
    }
  ],
  "steamid": 423620,
  "gogid": null,
  "gogslug": "",
  "humblestoreid": "",
  "id": 10424
}