{
  "name": "Kare wa Kanojo",
  "slug": "kare-wa-kanojo",
  "year": 2011,
  "description": "Summer of Heisei period 9 (1997), you play as a young boy who just moved to a small village near Osaka. You will meet three girls in this new school. One of them keeps a really deep secret… What secret? Well, if you can decode the title, you’ll guess it…",
  "banner_url": "https://lutris.net/games/banner/kare-wa-kanojo.jpg",
  "icon_url": "",
  "is_public": true,
  "updated": "2020-11-01T11:03:44.060462Z",
  "provider_games": [
    {
      "name": "Kare wa Kanojo",
      "slug": "1024790",
      "service": "steam"
    }
  ],
  "steamid": 1024790,
  "gogid": null,
  "gogslug": "",
  "humblestoreid": "",
  "id": 13904
}