{
  "name": "BE-A Walker",
  "slug": "be-a-walker",
  "year": null,
  "description": "",
  "banner_url": "https://lutris.net/games/banner/be-a-walker.jpg",
  "icon_url": "https://lutris.net/games/icon/be-a-walker.png",
  "is_public": true,
  "updated": "2020-10-08T09:56:53.286449Z",
  "provider_games": [
    {
      "name": "BE-A Walker",
      "slug": "864160",
      "service": "steam"
    }
  ],
  "steamid": 864160,
  "gogid": null,
  "gogslug": "",
  "humblestoreid": "",
  "id": 32653
}