{
  "id": 15597,
  "game_id": 1652,
  "game_slug": "underrail",
  "name": "Underrail",
  "year": 2015,
  "user": "gamer1968",
  "runner": "wine",
  "slug": "underrail-gog",
  "version": "GOG",
  "description": null,
  "notes": "",
  "created_at": "2019-09-15T23:58:13.647000Z",
  "updated_at": "2019-10-16T22:17:56.952789Z",
  "draft": false,
  "published": true,
  "published_by": 19464,
  "rating": "",
  "steamid": 250520,
  "gogid": 1447688349,
  "gogslug": "underrail",
  "humbleid": "",
  "humblestoreid": "",
  "humblestoreid_real": "",
  "script": {
    "files": [
      {
        "game": "N/A:Please select the GOG installer"
      }
    ],
    "game": {
      "arch": "win64",
      "exe": "$GAMEDIR/drive_c/GOG Games/UnderRail/underrail.exe",
      "prefix": "$GAMEDIR"
    },
    "installer": [
      {
        "task": {
          "executable": "game",
          "name": "wineexec",
          "prefix": "$GAMEDIR"
        }
      },
      {
        "task": {
          "app": "dotnet4",
          "description": "Installing .NET 4.0",
          "name": "winetricks",
          "prefix": "$GAMEDIR"
        }
      },
      {
        "task": {
          "app": "xna40",
          "description": "Installing XNA",
          "name": "winetricks",
          "prefix": "$GAMEDIR"
        }
      }
    ]
  },
  "content": "files:\n- game: N/A:Please select the GOG installer\ngame:\n  arch: win64\n  exe: $GAMEDIR/drive_c/GOG Games/UnderRail/underrail.exe\n  prefix: $GAMEDIR\ninstaller:\n- task:\n    executable: game\n    name: wineexec\n    prefix: $GAMEDIR\n- task:\n    app: dotnet4\n    description: Installing .NET 4.0\n    name: winetricks\n    prefix: $GAMEDIR\n- task:\n    app: xna40\n    description: Installing XNA\n    name: winetricks\n    prefix: $GAMEDIR\n"
}