{
  "id": 4119,
  "game_id": 2135,
  "game_slug": "strata",
  "name": "Strata",
  "year": 2014,
  "user": "FakeShemp",
  "runner": "linux",
  "slug": "strata-humble",
  "version": "Humble",
  "description": "",
  "notes": "",
  "created_at": "2017-06-04T20:36:12.778854Z",
  "updated_at": "2017-06-04T22:09:07.618413Z",
  "draft": false,
  "published": true,
  "published_by": null,
  "rating": "",
  "steamid": 286380,
  "gogid": null,
  "gogslug": "",
  "humbleid": "strata",
  "humblestoreid": "strata",
  "humblestoreid_real": "strata",
  "script": {
    "exe": "Strata.x86",
    "exe64": "Strata.x86_64",
    "files": [
      {
        "file1": "N/A:Please select the Humble archive"
      }
    ],
    "installer": [
      {
        "extract": {
          "file": "$file1"
        }
      }
    ]
  },
  "content": "exe: Strata.x86\nexe64: Strata.x86_64\nfiles:\n- file1: N/A:Please select the Humble archive\ninstaller:\n- extract:\n    file: $file1\n"
}