{
  "name": "Crowntakers",
  "slug": "crowntakers",
  "year": 2014,
  "description": "In an ever-changing world, heroes are the only constants.\r\n\r\nDark times are imminent: the king’s abduction throws a once peaceful land into turmoil. Being the chosen one elected by the king himself through one of your dreams, you embark on an adventurous journey to free him from the hands of the evil duke and go down in history as the kingdom’s greatest hero. But time is of the essence…\r\n\r\nCrowntakers combines turn-based strategy with RPG elements and takes you at the behest of the crown into a medieval fantasy world full of challenging encounters and epic adventures. With its randomly generated world, Crowntakers offers a varied gaming experience every time you set out to fight evil. As a hero on a mission, you’ll have to assemble a group of brave mercenaries to take on cruel enemies like barbarians, ferocious animals or deceitful thieves. Embark on challenging quests, gather vital resources and finally banish evil from the world.",
  "banner_url": "https://lutris.net/games/banner/crowntakers.jpg",
  "icon_url": "https://lutris.net/games/icon/crowntakers.png",
  "is_public": true,
  "updated": "2020-08-15T23:50:34.428175Z",
  "provider_games": [
    {
      "name": "Crowntakers",
      "slug": "crowntakers",
      "service": "humblebundle"
    },
    {
      "name": "Crowntakers",
      "slug": "294370",
      "service": "steam"
    }
  ],
  "steamid": 294370,
  "gogid": null,
  "gogslug": "",
  "humblestoreid": "crowntakers",
  "id": 4209
}