{
  "id": 23587,
  "game_id": 15308,
  "game_slug": "roblox",
  "name": "ROBLOX",
  "year": 2006,
  "user": "dev_zetta",
  "runner": "wine",
  "slug": "roblox-change-me-1",
  "version": "Change Me",
  "description": "Downloads and installs the standard player from Roblox",
  "notes": "still doesn't work. has error with captcha",
  "created_at": "2020-09-29T18:47:35.663330Z",
  "updated_at": "2020-09-29T18:47:35.663363Z",
  "draft": false,
  "published": false,
  "published_by": 20548,
  "rating": "",
  "steamid": null,
  "gogid": null,
  "gogslug": "",
  "humbleid": "",
  "humblestoreid": "",
  "humblestoreid_real": "",
  "script": {
    "files": [
      {
        "setup": "https://setup.rbxcdn.com/RobloxPlayerLauncher.exe"
      }
    ],
    "game": {
      "arch": "win64",
      "exe": "drive_c/Program Files (x86)/Roblox/Versions/version-f44a4c3c254d47db/RobloxPlayerBeta.exe",
      "prefix": "$GAMEDIR"
    },
    "installer": [
      {
        "task": {
          "arch": "win64",
          "description": "Installing the game",
          "executable": "setup",
          "name": "wineexec",
          "prefix": "$GAMEDIR"
        }
      }
    ],
    "wine": {
      "overrides": {
        "api-ms-win-crt-private-l1-1-0": "native,builtin",
        "ucrtbase": "native,builtin"
      }
    }
  },
  "content": "files:\n- setup: https://setup.rbxcdn.com/RobloxPlayerLauncher.exe\ngame:\n  arch: win64\n  exe: drive_c/Program Files (x86)/Roblox/Versions/version-f44a4c3c254d47db/RobloxPlayerBeta.exe\n  prefix: $GAMEDIR\ninstaller:\n- task:\n    arch: win64\n    description: Installing the game\n    executable: setup\n    name: wineexec\n    prefix: $GAMEDIR\nwine:\n  overrides:\n    api-ms-win-crt-private-l1-1-0: native,builtin\n    ucrtbase: native,builtin\n"
}