{
  "id": 15577,
  "game_id": 10269,
  "game_slug": "police-quest-in-pursuit-of-the-death-angel",
  "name": "Police Quest: In Pursuit of the Death Angel",
  "year": 1987,
  "user": "appoloin",
  "runner": "scummvm",
  "slug": "police-quest-in-pursuit-of-th-ms-dos",
  "version": "MS-DOS",
  "description": null,
  "notes": "",
  "created_at": "2019-09-15T16:17:37.703250Z",
  "updated_at": "2019-09-15T16:17:37.703277Z",
  "draft": false,
  "published": false,
  "published_by": null,
  "rating": "",
  "steamid": null,
  "gogid": 1207661263,
  "gogslug": "police_quest_in_pursuit_of_the_death_angel",
  "humbleid": "",
  "humblestoreid": "",
  "humblestoreid_real": "",
  "script": {
    "files": [
      {
        "game": "N/A:Select a file with the extension *.001"
      }
    ],
    "game": {
      "game_id": "sci",
      "path": "$GAMEDIR"
    },
    "installer": [
      {
        "write_file": {
          "content": "#!/bin/bash\nsrc=$1\ndst=$2\nsrc_path=$(echo \"$1\" | sed -r \"s/(.+)\\/.+/\\1/\")\ncp -avr \"$src_path/.\"  \"$dst\"",
          "file": "$CACHE/bulkcopy.sh"
        }
      },
      {
        "chmodx": "$CACHE/bulkcopy.sh"
      },
      {
        "execute": {
          "args": "$game $GAMEDIR",
          "file": "$CACHE/bulkcopy.sh"
        }
      }
    ]
  },
  "content": "files:\n- game: N/A:Select a file with the extension *.001\ngame:\n  game_id: sci\n  path: $GAMEDIR\ninstaller:\n- write_file:\n    content: '#!/bin/bash\n\n      src=$1\n\n      dst=$2\n\n      src_path=$(echo \"$1\" | sed -r \"s/(.+)\\/.+/\\1/\")\n\n      cp -avr \"$src_path/.\"  \"$dst\"'\n    file: $CACHE/bulkcopy.sh\n- chmodx: $CACHE/bulkcopy.sh\n- execute:\n    args: $game $GAMEDIR\n    file: $CACHE/bulkcopy.sh\n"
}