{
  "id": 22062,
  "game_id": 1801,
  "game_slug": "space-engineers",
  "name": "Space Engineers",
  "year": 2013,
  "user": "galross",
  "runner": "steam",
  "slug": "space-engineers-proton",
  "version": "Proton",
  "description": "Applies Space Engineers Proton Patches: https://github.com/Linux74656/SpaceEngineersLinuxPatches",
  "notes": "Do not run installer until you've manually installed through Steam and have performed the first time setup. Requires Java to be installed. Check out the github link in the description for more troubleshooting steps if you run into issues.",
  "created_at": "2020-07-01T06:35:00.520820Z",
  "updated_at": "2020-07-01T06:35:00.520846Z",
  "draft": false,
  "published": false,
  "published_by": null,
  "rating": "",
  "steamid": 244850,
  "gogid": null,
  "gogslug": "",
  "humbleid": "",
  "humblestoreid": "",
  "humblestoreid_real": "",
  "script": {
    "files": [
      {
        "PatcherGUI": "https://github.com/Linux74656/SpaceEngineersLinuxPatches/raw/master/PatcherGUI.jar"
      }
    ],
    "game": {
      "appid": 244850
    },
    "installer": [
      {
        "execute": {
          "command": "chmod a+x $PatcherGUI",
          "description": "Marking as executable..."
        }
      },
      {
        "execute": {
          "command": "java -jar $PatcherGUI",
          "description": "Follow prompt on PatcherGUI"
        }
      }
    ]
  },
  "content": "files:\n- PatcherGUI: https://github.com/Linux74656/SpaceEngineersLinuxPatches/raw/master/PatcherGUI.jar\ngame:\n  appid: 244850\ninstaller:\n- execute:\n    command: chmod a+x $PatcherGUI\n    description: Marking as executable...\n- execute:\n    command: java -jar $PatcherGUI\n    description: Follow prompt on PatcherGUI\n"
}