{
  "name": "3DMark",
  "slug": "3dmark",
  "year": null,
  "description": "3DMark includes everything you need to benchmark your PC and mobile devices in one app. Whether you're gaming on a smartphone, tablet, notebook, or a desktop gaming PC, 3DMark includes a benchmark designed specifically for your hardware.",
  "banner_url": "https://lutris.net/games/banner/3dmark.jpg",
  "icon_url": "https://lutris.net/games/icon/3dmark.png",
  "is_public": true,
  "updated": "2019-12-22T19:00:39.438929Z",
  "provider_games": [
    {
      "name": "3DMark",
      "slug": "223850",
      "service": "steam"
    }
  ],
  "steamid": 223850,
  "gogid": null,
  "gogslug": "",
  "humblestoreid": "",
  "id": 1933
}