{
  "id": 5076,
  "game_id": 12309,
  "game_slug": "pocket-mirror",
  "name": "Pocket Mirror",
  "year": 2016,
  "user": "FakeShemp",
  "runner": "wine",
  "slug": "pocket-mirror-itchio",
  "version": "itch.io",
  "description": "",
  "notes": "",
  "created_at": "2017-07-17T18:23:36.669511Z",
  "updated_at": "2018-05-19T03:41:56.760710Z",
  "draft": false,
  "published": true,
  "published_by": null,
  "rating": "",
  "steamid": null,
  "gogid": null,
  "gogslug": "",
  "humbleid": "",
  "humblestoreid": "",
  "humblestoreid_real": "",
  "script": {
    "files": [
      {
        "file1": "N/A:Please select the itch.io archive"
      }
    ],
    "game": {
      "arch": "win32",
      "exe": "drive_c/Program Files/Pocket Mirror/Pocket Mirror.exe",
      "prefix": "$GAMEDIR"
    },
    "installer": [
      {
        "extract": {
          "dst": "$GAMEDIR/drive_c/Program Files",
          "file": "$file1"
        }
      }
    ]
  },
  "content": "files:\n- file1: N/A:Please select the itch.io archive\ngame:\n  arch: win32\n  exe: drive_c/Program Files/Pocket Mirror/Pocket Mirror.exe\n  prefix: $GAMEDIR\ninstaller:\n- extract:\n    dst: $GAMEDIR/drive_c/Program Files\n    file: $file1\n"
}