{
  "id": 11722,
  "game_id": 14336,
  "game_slug": "the-first-tree",
  "name": "The First Tree",
  "year": 2017,
  "user": "Sorunome",
  "runner": "linux",
  "slug": "the-first-tree-gog",
  "version": "GOG",
  "description": null,
  "notes": "",
  "created_at": "2019-01-26T14:43:23.489000Z",
  "updated_at": "2019-01-27T01:30:37.585129Z",
  "draft": false,
  "published": true,
  "published_by": 19464,
  "rating": "",
  "steamid": 555150,
  "gogid": 1499274528,
  "gogslug": "the_first_tree",
  "humbleid": "thefirsttree",
  "humblestoreid": "thefirsttree",
  "humblestoreid_real": "thefirsttree",
  "script": {
    "files": [
      {
        "the_first_tree": "N/A: Plese select the GOG.com Linux installer (the_first_tree_gog_1_25523.sh)"
      }
    ],
    "game": {
      "exe": "start.sh"
    },
    "installer": [
      {
        "extract": {
          "dst": "$CACHE/GOG",
          "file": "the_first_tree",
          "format": "zip"
        }
      },
      {
        "merge": {
          "dst": "$GAMEDIR",
          "src": "$CACHE/GOG/data/noarch/"
        }
      }
    ]
  },
  "content": "files:\n- the_first_tree: 'N/A: Plese select the GOG.com Linux installer (the_first_tree_gog_1_25523.sh)'\ngame:\n  exe: start.sh\ninstaller:\n- extract:\n    dst: $CACHE/GOG\n    file: the_first_tree\n    format: zip\n- merge:\n    dst: $GAMEDIR\n    src: $CACHE/GOG/data/noarch/\n"
}