{
  "name": "Black Desert Online - Legendary Package",
  "slug": "black-desert-online-legendary-package",
  "year": null,
  "description": "",
  "banner_url": "https://lutris.net/games/banner/black-desert-online-legendary-package.jpg",
  "icon_url": "https://lutris.net/games/icon/black-desert-online-legendary-package.png",
  "is_public": true,
  "updated": "2020-10-08T09:57:30.092803Z",
  "provider_games": [
    {
      "name": "Black Desert - Legendary Package",
      "slug": "836632",
      "service": "steam"
    }
  ],
  "steamid": 836632,
  "gogid": null,
  "gogslug": "",
  "humblestoreid": "",
  "id": 24521
}