{
  "name": "Into the Dark",
  "slug": "into-the-dark",
  "year": null,
  "description": "",
  "banner_url": "https://lutris.net/games/banner/into-the-dark.jpg",
  "icon_url": "https://lutris.net/games/icon/into-the-dark.png",
  "is_public": true,
  "updated": "2020-10-08T09:20:58.469396Z",
  "provider_games": [
    {
      "name": "Into the Dark",
      "slug": "266050",
      "service": "steam"
    }
  ],
  "steamid": 266050,
  "gogid": null,
  "gogslug": "",
  "humblestoreid": "",
  "id": 2450
}