{
  "name": "Dream",
  "slug": "dream",
  "year": null,
  "description": "",
  "banner_url": "https://lutris.net/games/banner/dream.jpg",
  "icon_url": "https://lutris.net/games/icon/dream.png",
  "is_public": true,
  "updated": "2020-10-08T09:54:19.094940Z",
  "provider_games": [
    {
      "name": "Dream",
      "slug": "1437994027",
      "service": "gog"
    },
    {
      "name": "Dream",
      "slug": "229580",
      "service": "steam"
    }
  ],
  "steamid": 229580,
  "gogid": 1437994027,
  "gogslug": "dream",
  "humblestoreid": "",
  "id": 1538
}