{
  "name": "Mahjong Daireikai",
  "slug": "mahjong-daireikai",
  "year": 1989,
  "description": "",
  "banner_url": "",
  "icon_url": "https://lutris.net/games/icon/mahjong-daireikai.png",
  "is_public": true,
  "updated": "2020-05-26T03:35:31.378702Z",
  "provider_games": [
    {
      "name": "Mahjong Daireikai",
      "slug": "daireika",
      "service": "mame"
    }
  ],
  "steamid": null,
  "gogid": null,
  "gogslug": "",
  "humblestoreid": "",
  "id": 33806
}