{
  "name": "GOD WARS The Complete Legend",
  "slug": "god-wars-the-complete-legend",
  "year": null,
  "description": "",
  "banner_url": "https://lutris.net/games/banner/god-wars-the-complete-legend.jpg",
  "icon_url": "https://lutris.net/games/icon/god-wars-the-complete-legend.png",
  "is_public": true,
  "updated": "2020-10-08T10:12:42.636954Z",
  "provider_games": [
    {
      "name": "GOD WARS The Complete Legend",
      "slug": "1038810",
      "service": "steam"
    }
  ],
  "steamid": 1038810,
  "gogid": null,
  "gogslug": "",
  "humblestoreid": "",
  "id": 33075
}