{
  "name": "0°N 0°W",
  "slug": "0n-0w",
  "year": 2018,
  "description": "0°N 0°W is a peaceful first person exploration game. There's nothing to fight or be scared of, just a wild dimension full of open worlds to discover. The focus is a meditative adventure apt for all ages. It's a place of beauty, of imagination; a playground for the curious voyager in search of something new, something you'll never forget!\r\n\r\nExperience a gorgeous environment where nothing is what it seems, a cosmic labyrinth where doors always lead to different destinations, an anomalous zone where mass gingerly defies gravity, a universe of inspiration, of dreams: Experience 0°N 0°W .",
  "banner_url": "https://lutris.net/games/banner/0n-0w.jpg",
  "icon_url": "https://lutris.net/games/icon/0n-0w.png",
  "is_public": true,
  "updated": "2019-12-22T18:55:16.980793Z",
  "provider_games": [
    {
      "name": "0°N 0°W",
      "slug": "670750",
      "service": "steam"
    }
  ],
  "steamid": 670750,
  "gogid": null,
  "gogslug": "",
  "humblestoreid": "",
  "id": 21374
}