{
  "name": "Knights of Valour 3 / Sanguo Zhan Ji 3",
  "slug": "knights-of-valour-3-sanguo-zhan-ji-3",
  "year": 2011,
  "description": "",
  "banner_url": "",
  "icon_url": "https://lutris.net/games/icon/knights-of-valour-3-sanguo-zhan-ji-3.png",
  "is_public": true,
  "updated": "2020-05-26T03:35:04.551595Z",
  "provider_games": [
    {
      "name": "Knights of Valour 3 / Sanguo Zhan Ji 3",
      "slug": "kov3",
      "service": "mame"
    }
  ],
  "steamid": null,
  "gogid": null,
  "gogslug": "",
  "humblestoreid": "",
  "id": 34665
}