{
  "name": "Imperium Galactica II: Alliances",
  "slug": "imperium-galactica-ii-alliances",
  "year": 1999,
  "description": "",
  "banner_url": "https://lutris.net/games/banner/imperium-galactica-ii-alliances.jpg",
  "icon_url": "",
  "is_public": true,
  "updated": "2020-05-31T00:17:45.452048Z",
  "provider_games": [
    {
      "name": "Imperium Galactica II: Alliances",
      "slug": "1254614904",
      "service": "gog"
    }
  ],
  "steamid": null,
  "gogid": 1254614904,
  "gogslug": "imperium_galactica_ii_alliances",
  "humblestoreid": "",
  "id": 24047
}