{
  "name": "Knockout League",
  "slug": "knockout-league",
  "year": null,
  "description": "",
  "banner_url": "https://lutris.net/games/banner/knockout-league.jpg",
  "icon_url": "https://lutris.net/games/icon/knockout-league.png",
  "is_public": true,
  "updated": "2020-10-08T10:07:44.323989Z",
  "provider_games": [
    {
      "name": "Knockout League",
      "slug": "488920",
      "service": "steam"
    }
  ],
  "steamid": 488920,
  "gogid": null,
  "gogslug": "",
  "humblestoreid": "",
  "id": 14949
}