{
  "name": "A.I. Invasion",
  "slug": "ai-invasion",
  "year": null,
  "description": "",
  "banner_url": "https://lutris.net/games/banner/ai-invasion.jpg",
  "icon_url": "https://lutris.net/games/icon/ai-invasion.png",
  "is_public": true,
  "updated": "2020-10-08T10:15:32.109816Z",
  "provider_games": [
    {
      "name": "A.I. Invasion",
      "slug": "386540",
      "service": "steam"
    }
  ],
  "steamid": 386540,
  "gogid": null,
  "gogslug": "",
  "humblestoreid": "",
  "id": 10697
}