{
  "name": "East Tower - Kurenai",
  "slug": "east-tower-kurenai",
  "year": null,
  "description": "",
  "banner_url": "https://lutris.net/games/banner/east-tower-kurenai.jpg",
  "icon_url": "https://lutris.net/games/icon/east-tower-kurenai.png",
  "is_public": true,
  "updated": "2020-10-08T10:16:26.137052Z",
  "provider_games": [
    {
      "name": "East Tower - Kurenai (ET Series Vol. 4)",
      "slug": "356560",
      "service": "steam"
    }
  ],
  "steamid": 356560,
  "gogid": null,
  "gogslug": "",
  "humblestoreid": "",
  "id": 6954
}