{
  "id": 22628,
  "game_id": 26983,
  "game_slug": "the-kings-bird",
  "name": "The King's Bird",
  "year": null,
  "user": "WarBird",
  "runner": "wine",
  "slug": "the-kings-bird-itchio",
  "version": "Itch.io",
  "description": null,
  "notes": "",
  "created_at": "2020-07-29T22:47:27.784989Z",
  "updated_at": "2020-07-29T22:47:27.785017Z",
  "draft": true,
  "published": false,
  "published_by": null,
  "rating": "",
  "steamid": 812550,
  "gogid": null,
  "gogslug": "",
  "humbleid": "",
  "humblestoreid": "",
  "humblestoreid_real": "",
  "script": {
    "files": [
      {
        "zipfile": "N/A:Please select the Itch.io zip file"
      }
    ],
    "game": {
      "exe": "$GAMEDIR/TheKingsBird.exe",
      "prefix": "$GAMEDIR/prefix",
      "working_dir": "$GAMEDIR/prefix"
    },
    "installer": [
      {
        "extract": {
          "dst": "$CACHE",
          "file": "zipfile",
          "format": "zip"
        }
      },
      {
        "merge": {
          "dst": "$GAMEDIR",
          "src": "$CACHE"
        }
      }
    ]
  },
  "content": "files:\n- zipfile: N/A:Please select the Itch.io zip file\ngame:\n  exe: $GAMEDIR/TheKingsBird.exe\n  prefix: $GAMEDIR/prefix\n  working_dir: $GAMEDIR/prefix\ninstaller:\n- extract:\n    dst: $CACHE\n    file: zipfile\n    format: zip\n- merge:\n    dst: $GAMEDIR\n    src: $CACHE\n"
}