{
  "name": "CrossCells",
  "slug": "crosscells",
  "year": null,
  "description": "",
  "banner_url": "https://lutris.net/games/banner/crosscells.jpg",
  "icon_url": "https://lutris.net/games/icon/crosscells.png",
  "is_public": true,
  "updated": "2020-10-08T10:03:13.897275Z",
  "provider_games": [
    {
      "name": "CrossCells",
      "slug": "632000",
      "service": "steam"
    }
  ],
  "steamid": 632000,
  "gogid": null,
  "gogslug": "",
  "humblestoreid": "",
  "id": 11837
}