{
  "name": "Hana Awase",
  "slug": "hana-awase",
  "year": 1982,
  "description": "",
  "banner_url": "",
  "icon_url": "https://lutris.net/games/icon/hana-awase.png",
  "is_public": true,
  "updated": "2020-05-26T03:34:24.671440Z",
  "provider_games": [
    {
      "name": "Hana Awase",
      "slug": "hanaawas",
      "service": "mame"
    }
  ],
  "steamid": null,
  "gogid": null,
  "gogslug": "",
  "humblestoreid": "",
  "id": 34350
}