{
  "name": "Gremlins vs Automatons",
  "slug": "gremlins-vs-automatons",
  "year": null,
  "description": "",
  "banner_url": "https://lutris.net/games/banner/gremlins-vs-automatons.jpg",
  "icon_url": "https://lutris.net/games/icon/gremlins-vs-automatons.png",
  "is_public": true,
  "updated": "2020-10-08T10:04:39.991351Z",
  "provider_games": [
    {
      "name": "Gremlins vs Automatons",
      "slug": "1726175185",
      "service": "gog"
    },
    {
      "name": "Gremlins vs Automatons",
      "slug": "587670",
      "service": "steam"
    }
  ],
  "steamid": 587670,
  "gogid": 1726175185,
  "gogslug": "gremlins_vs_automatons",
  "humblestoreid": "",
  "id": 10309
}