{
  "id": 15547,
  "game_id": 23667,
  "game_slug": "eric-the-unready",
  "name": "Eric the Unready",
  "year": 1993,
  "user": "appoloin",
  "runner": "dosbox",
  "slug": "eric-the-unready-ms-dos",
  "version": "MS-DOS",
  "description": null,
  "notes": "",
  "created_at": "2019-09-14T19:04:04.184014Z",
  "updated_at": "2019-10-14T02:23:18.470020Z",
  "draft": false,
  "published": true,
  "published_by": null,
  "rating": "",
  "steamid": null,
  "gogid": 2038903037,
  "gogslug": "eric_the_unready",
  "humbleid": "",
  "humblestoreid": "",
  "humblestoreid_real": "",
  "script": {
    "files": [
      {
        "game": "N/A:Select the file Eric.EXE"
      }
    ],
    "game": {
      "main_file": "$GAMEDIR/Eric.conf"
    },
    "installer": [
      {
        "execute": {
          "args": "$GAMEDIR/HDD $GAMEDIR/HDD/Eric",
          "file": "mkdir"
        }
      },
      {
        "write_file": {
          "content": "#!/bin/bash\nsrc=$1\ndst=$2\nsrc_path=$(echo \"$1\" | sed -r \"s/(.+)\\/.+/\\1/\")\ncp -avr \"$src_path/.\"  \"$dst\"",
          "file": "$CACHE/bulkcopy.sh"
        }
      },
      {
        "chmodx": "$CACHE/bulkcopy.sh"
      },
      {
        "execute": {
          "args": "$game $GAMEDIR/HDD/Eric",
          "file": "$CACHE/bulkcopy.sh"
        }
      },
      {
        "write_file": {
          "content": "[sdl]\nsensitivity=20\n[autoexec]\nmount C \"$GAMEDIR/HDD\" -t dir\nC:\ncd Eric\nEric.EXE  mt32\nexit",
          "file": "$GAMEDIR/Eric.conf"
        }
      }
    ]
  },
  "content": "files:\n- game: N/A:Select the file Eric.EXE\ngame:\n  main_file: $GAMEDIR/Eric.conf\ninstaller:\n- execute:\n    args: $GAMEDIR/HDD $GAMEDIR/HDD/Eric\n    file: mkdir\n- write_file:\n    content: '#!/bin/bash\n\n      src=$1\n\n      dst=$2\n\n      src_path=$(echo \"$1\" | sed -r \"s/(.+)\\/.+/\\1/\")\n\n      cp -avr \"$src_path/.\"  \"$dst\"'\n    file: $CACHE/bulkcopy.sh\n- chmodx: $CACHE/bulkcopy.sh\n- execute:\n    args: $game $GAMEDIR/HDD/Eric\n    file: $CACHE/bulkcopy.sh\n- write_file:\n    content: '[sdl]\n\n      sensitivity=20\n\n      [autoexec]\n\n      mount C \"$GAMEDIR/HDD\" -t dir\n\n      C:\n\n      cd Eric\n\n      Eric.EXE  mt32\n\n      exit'\n    file: $GAMEDIR/Eric.conf\n"
}