{
  "name": "Barrel Patrol 3D",
  "slug": "barrel-patrol-3d",
  "year": 2001,
  "description": "This game is based loosely on the arcade classic of the late 70's called \"Ripoff\".\r\nThe idea is simply to protect your barrels from the enemy tanks.\r\nShoot them, run into them, get them to shoot each other -- it doesn't matter,\r\njust protect your barrels from them.\r\n\r\nOnce an enemy locks onto a barrel, they will try to drag it outside the game\r\nfield where it will be beamed up to their space station and presumably the world\r\nwould be a worse place for it, so don't let it happen.\r\n\r\nThe game is over when all barrels have been transported to the enemy space station.\r\n\r\nCollect power-ups to enhance your tank's weaponry.  Be careful, enemy tanks can\r\nalso power-up.  Power-up's last the duration of the tank's life and are cumulative.",
  "banner_url": "https://lutris.net/games/banner/barrel-patrol-3d.jpg",
  "icon_url": "https://lutris.net/games/icon/barrel-patrol-3d.png",
  "is_public": true,
  "updated": "2019-01-23T08:28:31.691295Z",
  "provider_games": [],
  "steamid": null,
  "gogid": null,
  "gogslug": "",
  "humblestoreid": "",
  "id": 14767
}