{
  "name": "Comic Book Hero: The Greatest Cape",
  "slug": "comic-book-hero-the-greatest-cape",
  "year": null,
  "description": "",
  "banner_url": "https://lutris.net/games/banner/comic-book-hero-the-greatest-cape.jpg",
  "icon_url": "https://lutris.net/games/icon/comic-book-hero-the-greatest-cape.png",
  "is_public": true,
  "updated": "2020-10-08T10:14:30.163417Z",
  "provider_games": [
    {
      "name": "Comic Book Hero: The Greatest Cape",
      "slug": "422130",
      "service": "steam"
    }
  ],
  "steamid": 422130,
  "gogid": null,
  "gogslug": "",
  "humblestoreid": "",
  "id": 8182
}