{
  "name": "Fruit Attacks VR",
  "slug": "fruit-attacks-vr",
  "year": null,
  "description": "",
  "banner_url": "https://lutris.net/games/banner/fruit-attacks-vr.jpg",
  "icon_url": "https://lutris.net/games/icon/fruit-attacks-vr.png",
  "is_public": true,
  "updated": "2020-10-08T09:59:09.387486Z",
  "provider_games": [
    {
      "name": "Fruit Attacks VR",
      "slug": "739950",
      "service": "steam"
    }
  ],
  "steamid": 739950,
  "gogid": null,
  "gogslug": "",
  "humblestoreid": "",
  "id": 31573
}