{
  "id": 2885,
  "game_id": 7885,
  "game_slug": "dungeon-keeper-2",
  "name": "Dungeon Keeper 2",
  "year": 1999,
  "user": "ssf",
  "runner": "wine",
  "slug": "dungeon-keeper-2-gogcom",
  "version": "GOG.com",
  "description": "-Disable upstream CSMT",
  "notes": "",
  "created_at": "2016-10-11T21:51:20.121000Z",
  "updated_at": "2020-06-10T07:18:15.001059Z",
  "draft": false,
  "published": true,
  "published_by": 20548,
  "rating": "",
  "steamid": null,
  "gogid": 1207658959,
  "gogslug": "dungeon_keeper_2",
  "humbleid": "",
  "humblestoreid": "",
  "humblestoreid_real": "",
  "script": {
    "files": [
      {
        "game": "N/A:Please select the GOG.com Windows installer."
      }
    ],
    "game": {
      "arch": "win32",
      "exe": "drive_c/GOG Games/Dungeon Keeper 2/DKII-DX.exe",
      "prefix": "$GAMEDIR"
    },
    "installer": [
      {
        "task": {
          "description": "Creating Wine prefix",
          "name": "create_prefix",
          "prefix": "$GAMEDIR"
        }
      },
      {
        "task": {
          "args": "/SILENT /SP- /NOCANCEL /SUPPRESSMSGBOXES",
          "description": "Installing...",
          "executable": "game",
          "name": "wineexec",
          "prefix": "$GAMEDIR"
        }
      },
      {
        "task": {
          "arch": "win32",
          "key": "csmt",
          "name": "set_regedit",
          "path": "HKEY_CURRENT_USER\\Software\\Wine\\Direct3D",
          "prefix": "$GAMEDIR",
          "type": "REG_DWORD",
          "value": "00000000"
        }
      }
    ]
  },
  "content": "files:\n- game: N/A:Please select the GOG.com Windows installer.\ngame:\n  arch: win32\n  exe: drive_c/GOG Games/Dungeon Keeper 2/DKII-DX.exe\n  prefix: $GAMEDIR\ninstaller:\n- task:\n    description: Creating Wine prefix\n    name: create_prefix\n    prefix: $GAMEDIR\n- task:\n    args: /SILENT /SP- /NOCANCEL /SUPPRESSMSGBOXES\n    description: Installing...\n    executable: game\n    name: wineexec\n    prefix: $GAMEDIR\n- task:\n    arch: win32\n    key: csmt\n    name: set_regedit\n    path: HKEY_CURRENT_USER\\Software\\Wine\\Direct3D\n    prefix: $GAMEDIR\n    type: REG_DWORD\n    value: '00000000'\n"
}