{
  "name": "Hooks And Shotguns",
  "slug": "hooks-and-shotguns",
  "year": 2020,
  "description": "Hooks And Shotguns is a bullet-hell platformer where you have to save your brother!\r\n\r\nShoot shotguns and swing around like a madman! In Hooks & Shotguns, your brother, who is the only family have left, has been captured in a soul trap by your life-long enemy, Silo, before he broke it to pieces. You have to put it back together and save him!",
  "banner_url": "https://lutris.net/games/banner/hooks-and-shotguns.jpg",
  "icon_url": "",
  "is_public": false,
  "updated": "2020-10-03T04:56:22.366501Z",
  "provider_games": [],
  "steamid": null,
  "gogid": null,
  "gogslug": "",
  "humblestoreid": "",
  "id": 39601
}