{
  "name": "Dragon Ball Z - Budokai 3",
  "slug": "dragon-ball-z-budokai-3",
  "year": 2004,
  "description": "Dragonball Z: Budokai 3 takes you beyond the earlier Dragon Ball Z sagas. Experience the full force of the most powerful fighters in the universe, in a challenge like no other. Discover a new \"Dragon World\", wilder match-ups and amazing new missions -- and see if your martial skills will prevail against deadly new villains! \r\n\r\n-    Flex and blast through incredible game world made from gorgeous cel-shaded graphics\r\n-    Customize your characters and unlock features from previous Budokai games\r\n-    The most lethal villains of DBZ are waiting to challenge you -- from Cell and Freza, to Buu in three forms\r\n-    Even more explosive Ki energy attacks to devastate your opponents\r\n-    Challenge your friends in brutal Multiplayer and VS. Tournament Modes",
  "banner_url": "https://lutris.net/games/banner/dragon-ball-z-budokai-3.jpg",
  "icon_url": "",
  "is_public": true,
  "updated": "2019-02-26T14:36:52.606016Z",
  "provider_games": [],
  "steamid": null,
  "gogid": null,
  "gogslug": "",
  "humblestoreid": "",
  "id": 26002
}