{
  "id": 2335,
  "game_id": 2056,
  "game_slug": "blocks-that-matter",
  "name": "Blocks That Matter",
  "year": 2011,
  "user": "Lulu",
  "runner": "linux",
  "slug": "blocks-that-matter-gog",
  "version": "GOG",
  "description": null,
  "notes": "",
  "created_at": "2016-07-24T18:34:41.984000Z",
  "updated_at": "2019-10-21T04:16:13.070741Z",
  "draft": false,
  "published": true,
  "published_by": 19464,
  "rating": "",
  "steamid": 111800,
  "gogid": 1207665193,
  "gogslug": "blocks_that_matter",
  "humbleid": "blocksthatmatter",
  "humblestoreid": "blocksthatmatter",
  "humblestoreid_real": "blocksthatmatter",
  "script": {
    "files": [
      {
        "goginstaller": "N/A:Please select the GOG.com Linux installer"
      }
    ],
    "game": {
      "exe": "start.sh"
    },
    "installer": [
      {
        "extract": {
          "dst": "$CACHE/GOG",
          "file": "goginstaller",
          "format": "zip"
        }
      },
      {
        "merge": {
          "dst": "$GAMEDIR",
          "src": "$CACHE/GOG/data/noarch/"
        }
      }
    ]
  },
  "content": "files:\n- goginstaller: N/A:Please select the GOG.com Linux installer\ngame:\n  exe: start.sh\ninstaller:\n- extract:\n    dst: $CACHE/GOG\n    file: goginstaller\n    format: zip\n- merge:\n    dst: $GAMEDIR\n    src: $CACHE/GOG/data/noarch/\n"
}