{
  "name": "BEARZERKERS",
  "slug": "bearzerkers",
  "year": null,
  "description": "",
  "banner_url": "https://lutris.net/games/banner/bearzerkers.jpg",
  "icon_url": "https://lutris.net/games/icon/bearzerkers.png",
  "is_public": true,
  "updated": "2020-10-08T09:19:42.758441Z",
  "provider_games": [
    {
      "name": "BEARZERKERS",
      "slug": "325300",
      "service": "steam"
    }
  ],
  "steamid": 325300,
  "gogid": null,
  "gogslug": "",
  "humblestoreid": "",
  "id": 23443
}