{
  "id": 13523,
  "game_id": 10600,
  "game_slug": "hollow-knight",
  "name": "Hollow Knight",
  "year": 2017,
  "user": "darktiger",
  "runner": "wine",
  "slug": "hollow-knight-gog-w-dxvk",
  "version": "GOG w/ DXVK",
  "description": null,
  "notes": "",
  "created_at": "2019-05-14T13:49:08.578000Z",
  "updated_at": "2020-01-23T02:57:13.490909Z",
  "draft": false,
  "published": true,
  "published_by": 19464,
  "rating": "",
  "steamid": 367520,
  "gogid": 1308320804,
  "gogslug": "hollow_knight",
  "humbleid": "hollow_knight_YZt44",
  "humblestoreid": "hollow_knight_YZt44",
  "humblestoreid_real": "hollow_knight_YZt44",
  "script": {
    "files": [
      {
        "game": "N/A: Please select the GOG.com Windows installer."
      }
    ],
    "game": {
      "exe": "drive_c/GOG Games/Hollow Knight/hollow_knight.exe",
      "prefix": "$GAMEDIR"
    },
    "installer": [
      {
        "task": {
          "description": "Installing game",
          "executable": "game",
          "name": "wineexec",
          "prefix": "$GAMEDIR"
        }
      }
    ],
    "system": {
      "vk_icd": "off"
    },
    "wine": {
      "dxvk": true,
      "esync": true
    }
  },
  "content": "files:\n- game: 'N/A: Please select the GOG.com Windows installer.'\ngame:\n  exe: drive_c/GOG Games/Hollow Knight/hollow_knight.exe\n  prefix: $GAMEDIR\ninstaller:\n- task:\n    description: Installing game\n    executable: game\n    name: wineexec\n    prefix: $GAMEDIR\nsystem:\n  vk_icd: 'off'\nwine:\n  dxvk: true\n  esync: true\n"
}