{
  "name": "Gift To Humanity",
  "slug": "gift-to-humanity",
  "year": null,
  "description": "",
  "banner_url": "https://lutris.net/games/banner/gift-to-humanity.jpg",
  "icon_url": "https://lutris.net/games/icon/gift-to-humanity.png",
  "is_public": true,
  "updated": "2020-10-08T10:09:09.045718Z",
  "provider_games": [
    {
      "name": "Gift To Humanity",
      "slug": "677210",
      "service": "steam"
    }
  ],
  "steamid": 677210,
  "gogid": null,
  "gogslug": "",
  "humblestoreid": "",
  "id": 14880
}