{
  "name": "An Octonaut Odyssey",
  "slug": "an-octonaut-odyssey",
  "year": null,
  "description": "",
  "banner_url": "https://lutris.net/games/banner/an-octonaut-odyssey.jpg",
  "icon_url": "https://lutris.net/games/icon/an-octonaut-odyssey.png",
  "is_public": true,
  "updated": "2020-10-08T10:05:18.194945Z",
  "provider_games": [
    {
      "name": "An Octonaut Odyssey",
      "slug": "566320",
      "service": "steam"
    }
  ],
  "steamid": 566320,
  "gogid": null,
  "gogslug": "",
  "humblestoreid": "",
  "id": 22375
}