{
  "name": "Alpine Ski",
  "slug": "alpine-ski",
  "year": 1982,
  "description": "",
  "banner_url": "https://lutris.net/games/banner/alpine-ski.jpg",
  "icon_url": "https://lutris.net/games/icon/alpine-ski.png",
  "is_public": true,
  "updated": "2020-05-26T03:31:48.445956Z",
  "provider_games": [
    {
      "name": "Alpine Ski",
      "slug": "alpine",
      "service": "mame"
    }
  ],
  "steamid": null,
  "gogid": null,
  "gogslug": "",
  "humblestoreid": "",
  "id": 33293
}