{
  "name": "Going Nowhere: The Dream",
  "slug": "going-nowhere-the-dream",
  "year": null,
  "description": "",
  "banner_url": "https://lutris.net/games/banner/going-nowhere-the-dream.jpg",
  "icon_url": "https://lutris.net/games/icon/going-nowhere-the-dream.png",
  "is_public": true,
  "updated": "2020-10-08T10:01:10.566302Z",
  "provider_games": [
    {
      "name": "Going Nowhere: The Dream",
      "slug": "691240",
      "service": "steam"
    }
  ],
  "steamid": 691240,
  "gogid": null,
  "gogslug": "",
  "humblestoreid": "",
  "id": 17066
}