{
  "name": "Agony UNRATED",
  "slug": "agony-unrated",
  "year": null,
  "description": "",
  "banner_url": "https://lutris.net/games/banner/agony-unrated.jpg",
  "icon_url": "https://lutris.net/games/icon/agony-unrated.png",
  "is_public": true,
  "updated": "2020-10-08T10:17:19.599922Z",
  "provider_games": [
    {
      "name": "Agony UNRATED",
      "slug": "879420",
      "service": "steam"
    }
  ],
  "steamid": 879420,
  "gogid": null,
  "gogslug": "",
  "humblestoreid": "",
  "id": 25287
}