{
  "name": "HARDCORE MECHA",
  "slug": "hardcore-mecha",
  "year": null,
  "description": "",
  "banner_url": "https://lutris.net/games/banner/hardcore-mecha.jpg",
  "icon_url": "https://lutris.net/games/icon/hardcore-mecha.png",
  "is_public": true,
  "updated": "2020-10-08T09:59:00.076099Z",
  "provider_games": [
    {
      "name": "HARDCORE MECHA",
      "slug": "746580",
      "service": "steam"
    }
  ],
  "steamid": 746580,
  "gogid": null,
  "gogslug": "",
  "humblestoreid": "",
  "id": 29088
}