{
  "name": "Jurassic Park: The Game",
  "slug": "jurassic-park-the-game",
  "year": 2011,
  "description": "Security systems have failed and the creatures of the park roam free. Now, a rogue corporation will stop at nothing to acquire the dinosaur embryos stolen and lost by Dennis Nedry. Experience a brand new adventure set during the events of the first Jurassic Park movie and see new areas and dinosaurs in this landmark adventure 65 million years in the making!",
  "banner_url": "https://lutris.net/games/banner/jurassic-park-the-game.jpg",
  "icon_url": "https://lutris.net/games/icon/jurassic-park-the-game.png",
  "is_public": true,
  "updated": "2019-01-23T08:30:01.667612Z",
  "provider_games": [
    {
      "name": "Jurassic Park: The Game",
      "slug": "201830",
      "service": "steam"
    }
  ],
  "steamid": 201830,
  "gogid": null,
  "gogslug": "",
  "humblestoreid": "",
  "id": 4396
}