{
  "name": "Always The Same Blue Sky...",
  "slug": "always-the-same-blue-sky",
  "year": 2013,
  "description": "You play as a thoughtful young soul, bumbling your way through late adolescence; you've been through a lot for your age and consequently are a little numb. This is why you don't bat an eyelid when, out of the blue, you're transferred to yet another school, in yet another remote location. Little do you know that this small island is nothing like the others, that the events that occur on it will change everything.\r\n\r\nIn an already niche genre of storytelling, Always The Same Blue Sky stands out as a truly unique seaside adventure; a timeless tale of love, mystery and humanity.",
  "banner_url": "https://lutris.net/games/banner/always-the-same-blue-sky.jpg",
  "icon_url": "https://lutris.net/games/icon/always-the-same-blue-sky.png",
  "is_public": true,
  "updated": "2019-01-23T08:28:20.209782Z",
  "provider_games": [
    {
      "name": "Always The Same Blue Sky...",
      "slug": "363410",
      "service": "steam"
    }
  ],
  "steamid": 363410,
  "gogid": null,
  "gogslug": "",
  "humblestoreid": "",
  "id": 6082
}