{
  "name": "GunNail",
  "slug": "gunnail",
  "year": 1993,
  "description": "",
  "banner_url": "",
  "icon_url": "https://lutris.net/games/icon/gunnail.png",
  "is_public": true,
  "updated": "2020-05-26T03:34:21.927292Z",
  "provider_games": [
    {
      "name": "GunNail",
      "slug": "gunnail",
      "service": "mame"
    }
  ],
  "steamid": null,
  "gogid": null,
  "gogslug": "",
  "humblestoreid": "",
  "id": 34333
}