{
  "name": "Back to the Future: Ep 2 - Get Tannen!",
  "slug": "back-to-the-future-ep-2-get-tannen",
  "year": 2011,
  "description": "While keeping an eye on young Doc Brown's proverbial date with scientific destiny, Marty and 1980's Doc must prevent gang boss Kid Tannen from wreaking havoc on Marty's family, and erasing his girlfriend from the future.",
  "banner_url": "https://lutris.net/games/banner/back-to-the-future-ep-2-get-tannen.jpg",
  "icon_url": "https://lutris.net/games/icon/back-to-the-future-ep-2-get-tannen.png",
  "is_public": true,
  "updated": "2019-01-23T08:28:30.386122Z",
  "provider_games": [
    {
      "name": "Back to the Future: Ep 2 - Get Tannen!",
      "slug": "94500",
      "service": "steam"
    }
  ],
  "steamid": 94500,
  "gogid": null,
  "gogslug": "",
  "humblestoreid": "",
  "id": 175
}