{
  "name": "DERE EVIL .EXE",
  "slug": "dere-evil-exe",
  "year": 2018,
  "description": "DERE EVIL EXE is both a terrifying thriller with a gripping story and an unorthodox retro platformer with unique puzzles and obstacles.",
  "banner_url": "https://lutris.net/games/banner/dere-evil-exe.jpg",
  "icon_url": "",
  "is_public": false,
  "updated": "2020-09-09T19:53:54.830496Z",
  "provider_games": [],
  "steamid": null,
  "gogid": null,
  "gogslug": "",
  "humblestoreid": "",
  "id": 38742
}