{
  "name": "iTunes",
  "slug": "itunes",
  "year": null,
  "description": "",
  "banner_url": "https://lutris.net/games/banner/itunes.jpg",
  "icon_url": "",
  "is_public": true,
  "updated": "2020-08-10T10:16:54.503165Z",
  "provider_games": [],
  "steamid": null,
  "gogid": null,
  "gogslug": "",
  "humblestoreid": "",
  "id": 28750
}