{
  "name": "Hentai Mosaique Vip Room",
  "slug": "hentai-mosaique-vip-room",
  "year": null,
  "description": "",
  "banner_url": "https://lutris.net/games/banner/hentai-mosaique-vip-room.jpg",
  "icon_url": "https://lutris.net/games/icon/hentai-mosaique-vip-room.png",
  "is_public": true,
  "updated": "2020-10-08T10:12:45.432506Z",
  "provider_games": [
    {
      "name": "Hentai Mosaique Vip Room",
      "slug": "1035610",
      "service": "steam"
    }
  ],
  "steamid": 1035610,
  "gogid": null,
  "gogslug": "",
  "humblestoreid": "",
  "id": 37200
}