{
  "name": "Egypt: Old Kingdom",
  "slug": "egypt-old-kingdom",
  "year": null,
  "description": "",
  "banner_url": "https://lutris.net/games/banner/egypt-old-kingdom.jpg",
  "icon_url": "https://lutris.net/games/icon/egypt-old-kingdom.png",
  "is_public": true,
  "updated": "2020-05-31T00:17:41.249692Z",
  "provider_games": [
    {
      "name": "Egypt: Old Kingdom Demo",
      "slug": "1441370961",
      "service": "gog"
    },
    {
      "name": "Egypt: Old Kingdom",
      "slug": "1422781192",
      "service": "gog"
    },
    {
      "name": "Egypt: Old Kingdom",
      "slug": "646500",
      "service": "steam"
    }
  ],
  "steamid": 646500,
  "gogid": 1422781192,
  "gogslug": "egypt_old_kingdom",
  "humblestoreid": "",
  "id": 20961
}