{
  "id": 8943,
  "game_id": 15398,
  "game_slug": "xoxo-droplets",
  "name": "XOXO Droplets",
  "year": 2017,
  "user": "kimchitea",
  "runner": "linux",
  "slug": "xoxo-droplets-itchio",
  "version": "itch.io",
  "description": null,
  "notes": "Tested with the free version. Should work with the extended version as well if the file names are the same.",
  "created_at": "2018-06-28T18:21:50.635000Z",
  "updated_at": "2018-06-29T03:40:04.734160Z",
  "draft": false,
  "published": true,
  "published_by": null,
  "rating": "",
  "steamid": 622060,
  "gogid": null,
  "gogslug": "",
  "humbleid": "",
  "humblestoreid": "",
  "humblestoreid_real": "",
  "script": {
    "exe": "XOXO_Droplets.sh",
    "files": [
      {
        "file1": "N/A:Please select the itch.io archive"
      }
    ],
    "installer": [
      {
        "extract": {
          "file": "$file1"
        }
      },
      {
        "chmodx": "$GAMEDIR/XOXO_Droplets.sh"
      },
      {
        "chmodx": "$GAMEDIR/lib/linux-i686/XOXO_Droplets"
      },
      {
        "chmodx": "$GAMEDIR/lib/linux-x86_64/XOXO_Droplets"
      }
    ]
  },
  "content": "exe: XOXO_Droplets.sh\nfiles:\n- file1: N/A:Please select the itch.io archive\ninstaller:\n- extract:\n    file: $file1\n- chmodx: $GAMEDIR/XOXO_Droplets.sh\n- chmodx: $GAMEDIR/lib/linux-i686/XOXO_Droplets\n- chmodx: $GAMEDIR/lib/linux-x86_64/XOXO_Droplets\n"
}