{
  "name": "Cosmic Chasm",
  "slug": "cosmic-chasm",
  "year": 1983,
  "description": "",
  "banner_url": "",
  "icon_url": "https://lutris.net/games/icon/cosmic-chasm.png",
  "is_public": true,
  "updated": "2020-05-26T03:32:55.795186Z",
  "provider_games": [
    {
      "name": "Cosmic Chasm",
      "slug": "cchasm",
      "service": "mame"
    }
  ],
  "steamid": null,
  "gogid": null,
  "gogslug": "",
  "humblestoreid": "",
  "id": 33621
}