{
  "name": "Armada Skies",
  "slug": "armada-skies",
  "year": null,
  "description": "",
  "banner_url": "https://lutris.net/games/banner/armada-skies.jpg",
  "icon_url": "https://lutris.net/games/icon/armada-skies.png",
  "is_public": true,
  "updated": "2020-10-08T09:58:16.762920Z",
  "provider_games": [
    {
      "name": "Armada Skies",
      "slug": "776320",
      "service": "steam"
    }
  ],
  "steamid": 776320,
  "gogid": null,
  "gogslug": "",
  "humblestoreid": "",
  "id": 20403
}