{
  "name": "Doom 64",
  "slug": "doom-64",
  "year": 1997,
  "description": "A single Demon Entity escaped detection. Systematically it altered, decaying dead carnage back into grotesque living tissue. The Demons have returned - stronger and more vicious than ever before. Your mission is clear, there are no options:\r\n\r\nKILL OR BE KILLED!\r\n\r\n*    Stunning 3D graphics, ultra-smooth game play & CD quality music/sound effects blend seamlessly to make this the most incredible version of DOOM ever!\r\n*    Be on the lookout for enhanced weapons, unbelievable secrets and startling surprises as you journey through the nightmare world of DOOM 64.\r\n*    Choose 1 to 4 of difficulty settings and prepare to match wits with 16 radically redesigned creatures. They could be anywhere, so stay alert as you fight your way through more than 30 terrifying levels!\r\n*    Designed only for the N64, this all new version of DOOM ushers in a new era of game play and performance!",
  "banner_url": "https://lutris.net/games/banner/doom-64.jpg",
  "icon_url": "https://lutris.net/games/icon/doom-64.png",
  "is_public": true,
  "updated": "2020-03-10T01:34:19.722522Z",
  "provider_games": [
    {
      "name": "DOOM 64",
      "slug": "1148590",
      "service": "steam"
    }
  ],
  "steamid": 1148590,
  "gogid": null,
  "gogslug": "",
  "humblestoreid": "",
  "id": 5029
}