{
  "name": "Cheyenne",
  "slug": "cheyenne",
  "year": 1984,
  "description": "",
  "banner_url": "https://lutris.net/games/banner/cheyenne.jpg",
  "icon_url": "https://lutris.net/games/icon/cheyenne.png",
  "is_public": true,
  "updated": "2020-05-26T03:32:46.314641Z",
  "provider_games": [
    {
      "name": "Cheyenne",
      "slug": "cheyenne",
      "service": "mame"
    }
  ],
  "steamid": null,
  "gogid": null,
  "gogslug": "",
  "humblestoreid": "",
  "id": 33663
}