{
  "id": 12679,
  "game_id": 22218,
  "game_slug": "this-is-the-police-2",
  "name": "This Is the Police 2",
  "year": null,
  "user": "cxf",
  "runner": "linux",
  "slug": "this-is-the-police-2-gog",
  "version": "GOG",
  "description": null,
  "notes": "",
  "created_at": "2019-04-08T06:56:06.278616Z",
  "updated_at": "2019-04-08T06:56:19.656261Z",
  "draft": false,
  "published": true,
  "published_by": null,
  "rating": "",
  "steamid": 785740,
  "gogid": 1544762955,
  "gogslug": "this_is_the_police_2",
  "humbleid": "",
  "humblestoreid": "",
  "humblestoreid_real": "",
  "script": {
    "files": [
      {
        "goginstaller": "N/A:Please select the GOG.com Linux installer"
      }
    ],
    "game": {
      "exe": "start.sh"
    },
    "installer": [
      {
        "extract": {
          "dst": "$CACHE/GOG",
          "file": "goginstaller",
          "format": "zip"
        }
      },
      {
        "merge": {
          "dst": "$GAMEDIR",
          "src": "$CACHE/GOG/data/noarch/"
        }
      }
    ]
  },
  "content": "files:\n- goginstaller: N/A:Please select the GOG.com Linux installer\ngame:\n  exe: start.sh\ninstaller:\n- extract:\n    dst: $CACHE/GOG\n    file: goginstaller\n    format: zip\n- merge:\n    dst: $GAMEDIR\n    src: $CACHE/GOG/data/noarch/\n"
}