{
  "name": "Gain Ground",
  "slug": "gain-ground",
  "year": 1988,
  "description": "",
  "banner_url": "",
  "icon_url": "https://lutris.net/games/icon/gain-ground.png",
  "is_public": true,
  "updated": "2020-05-26T03:33:59.284235Z",
  "provider_games": [
    {
      "name": "Gain Ground",
      "slug": "gground",
      "service": "mame"
    }
  ],
  "steamid": null,
  "gogid": null,
  "gogslug": "",
  "humblestoreid": "",
  "id": 34231
}