{
  "id": 4604,
  "game_id": 3534,
  "game_slug": "coin-crypt",
  "name": "Coin Crypt",
  "year": 2013,
  "user": "FakeShemp",
  "runner": "wine",
  "slug": "coin-crypt-humble",
  "version": "Humble",
  "description": "",
  "notes": "",
  "created_at": "2017-06-25T18:58:59.801443Z",
  "updated_at": "2018-05-19T03:41:49.536600Z",
  "draft": false,
  "published": true,
  "published_by": null,
  "rating": "",
  "steamid": 264690,
  "gogid": null,
  "gogslug": "",
  "humbleid": "coincrypt",
  "humblestoreid": "coincrypt",
  "humblestoreid_real": "coincrypt",
  "script": {
    "files": [
      {
        "file1": "N/A:Please select the Humble archive"
      }
    ],
    "game": {
      "arch": "win32",
      "exe": "drive_c/Program Files/Coin Crypt/CoinCrypt.exe",
      "prefix": "$GAMEDIR"
    },
    "installer": [
      {
        "extract": {
          "dst": "$GAMEDIR/drive_c/Program Files/Coin Crypt",
          "file": "$file1"
        }
      }
    ]
  },
  "content": "files:\n- file1: N/A:Please select the Humble archive\ngame:\n  arch: win32\n  exe: drive_c/Program Files/Coin Crypt/CoinCrypt.exe\n  prefix: $GAMEDIR\ninstaller:\n- extract:\n    dst: $GAMEDIR/drive_c/Program Files/Coin Crypt\n    file: $file1\n"
}