{
  "name": "Dungeons & Darkness",
  "slug": "dungeons-darkness",
  "year": null,
  "description": "",
  "banner_url": "https://lutris.net/games/banner/dungeons-darkness.jpg",
  "icon_url": "https://lutris.net/games/icon/dungeons-darkness.png",
  "is_public": true,
  "updated": "2020-10-08T10:13:00.960367Z",
  "provider_games": [
    {
      "name": "Dungeons & Darkness",
      "slug": "479990",
      "service": "steam"
    }
  ],
  "steamid": 479990,
  "gogid": null,
  "gogslug": "",
  "humblestoreid": "",
  "id": 18403
}