{
  "name": "Freakout : TV Calamity Show",
  "slug": "freakout-tv-calamity-show",
  "year": 2018,
  "description": "Freakout : TV Calamity Show is a juicy Top-Down-Dual-Stick-Shooter ! Where you embody a hero who will be fighting insane ennemies and who will be helped by a crazy rebelion ! The gameplay is rough and intense, inspired by old school arcade games and more recent Die & Retry shooters. Solo game, the story's starting point is inside a TV Reality Show, taking place in a dystopian disturbed mutant universe !",
  "banner_url": "https://lutris.net/games/banner/freakout-tv-calamity-show.jpg",
  "icon_url": "",
  "is_public": true,
  "updated": "2019-01-23T08:29:34.843105Z",
  "provider_games": [],
  "steamid": null,
  "gogid": null,
  "gogslug": "",
  "humblestoreid": "",
  "id": 19008
}