{
  "name": "Boot Hill",
  "slug": "boot-hill",
  "year": 1977,
  "description": "",
  "banner_url": "https://lutris.net/games/banner/boot-hill.jpg",
  "icon_url": "https://lutris.net/games/icon/boot-hill.png",
  "is_public": true,
  "updated": "2020-05-26T03:32:24.334507Z",
  "provider_games": [
    {
      "name": "Boot Hill",
      "slug": "boothill",
      "service": "mame"
    }
  ],
  "steamid": null,
  "gogid": null,
  "gogslug": "",
  "humblestoreid": "",
  "id": 33520
}