{
  "name": "Draw Puzzle",
  "slug": "draw-puzzle",
  "year": null,
  "description": "",
  "banner_url": "https://lutris.net/games/banner/draw-puzzle.jpg",
  "icon_url": "https://lutris.net/games/icon/draw-puzzle.png",
  "is_public": true,
  "updated": "2020-10-08T10:09:28.389574Z",
  "provider_games": [
    {
      "name": "Draw Puzzle",
      "slug": "664180",
      "service": "steam"
    }
  ],
  "steamid": 664180,
  "gogid": null,
  "gogslug": "",
  "humblestoreid": "",
  "id": 16751
}