{
  "id": 5485,
  "game_id": 6864,
  "game_slug": "lavapools",
  "name": "Lavapools",
  "year": null,
  "user": "FakeShemp",
  "runner": "wine",
  "slug": "lavapools-groupees",
  "version": "Groupees",
  "description": "",
  "notes": "",
  "created_at": "2017-08-22T16:11:12.466000Z",
  "updated_at": "2018-05-19T03:41:55.820781Z",
  "draft": false,
  "published": true,
  "published_by": null,
  "rating": "",
  "steamid": 401510,
  "gogid": null,
  "gogslug": "",
  "humbleid": "",
  "humblestoreid": "",
  "humblestoreid_real": "",
  "script": {
    "files": [
      {
        "file1": "N/A:Please select the Groupees installer"
      }
    ],
    "game": {
      "arch": "win32",
      "exe": "drive_c/Program Files/Lavapools/Lavapools_WIN_RC1.exe",
      "prefix": "$GAMEDIR"
    },
    "installer": [
      {
        "task": {
          "args": "/sp- /verysilent /norestart /suppressmsgboxes /nogui",
          "executable": "$file1",
          "name": "wineexec",
          "prefix": "$GAMEDIR"
        }
      }
    ]
  },
  "content": "files:\n- file1: N/A:Please select the Groupees installer\ngame:\n  arch: win32\n  exe: drive_c/Program Files/Lavapools/Lavapools_WIN_RC1.exe\n  prefix: $GAMEDIR\ninstaller:\n- task:\n    args: /sp- /verysilent /norestart /suppressmsgboxes /nogui\n    executable: $file1\n    name: wineexec\n    prefix: $GAMEDIR\n"
}