{
  "id": 2208,
  "game_id": 2405,
  "game_slug": "rocketsrocketsrockets",
  "name": "ROCKETSROCKETSROCKETS",
  "year": null,
  "user": "Lulu",
  "runner": "linux",
  "slug": "rocketsrocketsrockets-humble-bundle",
  "version": "Humble Bundle",
  "description": "",
  "notes": "",
  "created_at": "2016-06-26T21:33:10.155484Z",
  "updated_at": "2016-08-12T01:44:55.916711Z",
  "draft": false,
  "published": true,
  "published_by": null,
  "rating": "",
  "steamid": 289760,
  "gogid": null,
  "gogslug": "",
  "humbleid": "",
  "humblestoreid": "",
  "humblestoreid_real": "",
  "script": {
    "exe": "Linux/Rockets.x86",
    "exe64": "Linux/Rockets.x86_64",
    "files": [
      {
        "rocketsrocketsrockets-game": "N/A: Please select the .zip install file downloaded from humblebundle.com"
      }
    ],
    "installer": [
      {
        "extract": {
          "file": "rocketsrocketsrockets-game"
        }
      },
      {
        "chmodx": "$GAMEDIR/Linux/Rockets.x86"
      },
      {
        "chmodx": "$GAMEDIR/Linux/Rockets.x86_64"
      }
    ],
    "steamid": "289760"
  },
  "content": "exe: Linux/Rockets.x86\nexe64: Linux/Rockets.x86_64\nfiles:\n- rocketsrocketsrockets-game: 'N/A: Please select the .zip install file downloaded\n    from humblebundle.com'\ninstaller:\n- extract:\n    file: rocketsrocketsrockets-game\n- chmodx: $GAMEDIR/Linux/Rockets.x86\n- chmodx: $GAMEDIR/Linux/Rockets.x86_64\nsteamid: '289760'\n"
}