{
  "name": "911: First Responders",
  "slug": "911-first-responders",
  "year": null,
  "description": "",
  "banner_url": "https://lutris.net/games/banner/911-first-responders.jpg",
  "icon_url": "https://lutris.net/games/icon/911-first-responders.png",
  "is_public": false,
  "updated": "2019-01-23T08:28:09.931812Z",
  "provider_games": [],
  "steamid": 323610,
  "gogid": null,
  "gogslug": "",
  "humblestoreid": "",
  "id": 5899
}