{
  "name": "Danko and treasure map",
  "slug": "danko-and-treasure-map",
  "year": null,
  "description": "",
  "banner_url": "https://lutris.net/games/banner/danko-and-treasure-map.jpg",
  "icon_url": "https://lutris.net/games/icon/danko-and-treasure-map.png",
  "is_public": false,
  "updated": "2019-01-23T08:29:03.859238Z",
  "provider_games": [],
  "steamid": 575130,
  "gogid": null,
  "gogslug": "",
  "humblestoreid": "",
  "id": 12940
}