{
  "name": "AstronTycoon",
  "slug": "astrontycoon",
  "year": null,
  "description": "",
  "banner_url": "https://lutris.net/games/banner/astrontycoon.jpg",
  "icon_url": "https://lutris.net/games/icon/astrontycoon.png",
  "is_public": true,
  "updated": "2020-10-08T09:57:09.939525Z",
  "provider_games": [
    {
      "name": "AstronTycoon",
      "slug": "851790",
      "service": "steam"
    }
  ],
  "steamid": 851790,
  "gogid": null,
  "gogslug": "",
  "humblestoreid": "",
  "id": 31664
}