{
  "name": "Construct 2 Free",
  "slug": "construct-2-free",
  "year": null,
  "description": "",
  "banner_url": "https://lutris.net/games/banner/construct-2-free.jpg",
  "icon_url": "https://lutris.net/games/icon/construct-2-free.png",
  "is_public": true,
  "updated": "2020-10-08T09:54:20.455783Z",
  "provider_games": [
    {
      "name": "Construct 2 Free",
      "slug": "227240",
      "service": "steam"
    }
  ],
  "steamid": 227240,
  "gogid": null,
  "gogslug": "",
  "humblestoreid": "",
  "id": 3201
}