{
  "name": "Dugi Guides",
  "slug": "dugi-guides",
  "year": null,
  "description": "In-Game World of Warcraft Leveling Guide\r\nDiscover How to Power Level Your Character From Level 1-120\r\nWith Dugi In-Game Guide...\r\n\r\nNow Available!\r\nWoW Classic 1-60 Leveling Guide",
  "banner_url": "https://lutris.net/games/banner/dugi-guides.jpg",
  "icon_url": "",
  "is_public": true,
  "updated": "2020-03-22T07:20:12.755423Z",
  "provider_games": [],
  "steamid": null,
  "gogid": null,
  "gogslug": "",
  "humblestoreid": "",
  "id": 31995
}