{
  "name": "Glaive: Brick Breaker",
  "slug": "glaive-brick-breaker",
  "year": null,
  "description": "",
  "banner_url": "https://lutris.net/games/banner/glaive-brick-breaker.jpg",
  "icon_url": "https://lutris.net/games/icon/glaive-brick-breaker.png",
  "is_public": true,
  "updated": "2020-10-08T10:08:40.354531Z",
  "provider_games": [
    {
      "name": "Glaive: Brick Breaker",
      "slug": "822140",
      "service": "steam"
    }
  ],
  "steamid": 822140,
  "gogid": null,
  "gogslug": "",
  "humblestoreid": "",
  "id": 22783
}