{
  "name": "Gang Busters",
  "slug": "gang-busters",
  "year": 1988,
  "description": "",
  "banner_url": "https://lutris.net/games/banner/gang-busters.jpg",
  "icon_url": "https://lutris.net/games/icon/gang-busters.png",
  "is_public": true,
  "updated": "2020-05-26T03:34:02.518018Z",
  "provider_games": [
    {
      "name": "Gang Busters",
      "slug": "gbusters",
      "service": "mame"
    }
  ],
  "steamid": null,
  "gogid": null,
  "gogslug": "",
  "humblestoreid": "",
  "id": 34210
}