{
  "name": "Letter Quest: Grimm's Journey",
  "slug": "letter-quest-grimms-journey",
  "year": 2014,
  "description": "Letter Quest is a turn-based RPG where players attack monsters by spelling words. But be careful since the monsters know how to fight back - they can create different letter tiles such as poison, plague, stone, whirlwind, duplicator, spike and flipped, steal your health, heal themselves, use critical attacks, and much, much more!\r\n\r\nDon't worry - Grimm and Rose have a lot of tricks up their sleeves too, including crystal tiles that give special bonuses, upgradeable weapons, books that provide unique boosts, special items, upgrades, potions, and more!",
  "banner_url": "https://lutris.net/games/banner/letter-quest-grimms-journey.jpg",
  "icon_url": "https://lutris.net/games/icon/letter-quest-grimms-journey.png",
  "is_public": true,
  "updated": "2019-01-23T08:30:10.269666Z",
  "provider_games": [
    {
      "name": "Letter Quest: Grimm's Journey",
      "slug": "328730",
      "service": "steam"
    }
  ],
  "steamid": 328730,
  "gogid": null,
  "gogslug": "",
  "humblestoreid": "",
  "id": 3511
}