{
  "name": "FIREFIGHT RELOADED",
  "slug": "firefight-reloaded",
  "year": 2015,
  "description": "Welcome to FIREFIGHT RELOADED, where the greatest warrior is determined by how many enemies they kill. Customize your experience with loads of countless options to choose from. Use your quick movement and overpowered footwear to be the best in the battlefield.",
  "banner_url": "https://lutris.net/games/banner/firefight-reloaded.jpg",
  "icon_url": "https://lutris.net/games/icon/firefight-reloaded.png",
  "is_public": true,
  "updated": "2019-06-11T18:48:56.777950Z",
  "provider_games": [
    {
      "name": "FIREFIGHT RELOADED",
      "slug": "397680",
      "service": "steam"
    }
  ],
  "steamid": 397680,
  "gogid": null,
  "gogslug": "",
  "humblestoreid": "",
  "id": 6393
}