{
  "name": "LogiGun",
  "slug": "logigun",
  "year": null,
  "description": "",
  "banner_url": "https://lutris.net/games/banner/logigun.jpg",
  "icon_url": "https://lutris.net/games/icon/logigun.png",
  "is_public": true,
  "updated": "2020-10-08T09:20:05.759496Z",
  "provider_games": [
    {
      "name": "LogiGun",
      "slug": "308360",
      "service": "steam"
    }
  ],
  "steamid": 308360,
  "gogid": null,
  "gogslug": "",
  "humblestoreid": "",
  "id": 2603
}