{
  "name": "Hidden Catch 2",
  "slug": "hidden-catch-2",
  "year": 1999,
  "description": "",
  "banner_url": "",
  "icon_url": "https://lutris.net/games/icon/hidden-catch-2.png",
  "is_public": true,
  "updated": "2020-05-26T03:34:33.540623Z",
  "provider_games": [
    {
      "name": "Hidden Catch 2",
      "slug": "hidctch2",
      "service": "mame"
    }
  ],
  "steamid": null,
  "gogid": null,
  "gogslug": "",
  "humblestoreid": "",
  "id": 34394
}