{
  "id": 17773,
  "game_id": 382,
  "game_slug": "vampire-the-masquerade-bloodlines",
  "name": "Vampire: The Masquerade - Bloodlines",
  "year": 2004,
  "user": "gto",
  "runner": "wine",
  "slug": "vampire-the-masquerade-bloodl-dvd",
  "version": "DVD",
  "description": "DVD version + 1.2 Official Patch",
  "notes": "This installer automatically download and install the official 1.2 patch (It is strongly suggested to manually download and install the last unofficial patch)",
  "created_at": "2020-01-05T23:35:31.270000Z",
  "updated_at": "2020-11-15T21:35:23.215416Z",
  "draft": false,
  "published": true,
  "published_by": 494,
  "rating": "",
  "steamid": 2600,
  "gogid": 1207659240,
  "gogslug": "vampire_the_masquerade_bloodlines",
  "humbleid": "",
  "humblestoreid": "",
  "humblestoreid_real": "",
  "script": {
    "files": [
      {
        "patch12": "N/A:Please select 1.2 patch archive available for download at https://www.moddb.com/games/vampire-the-masquerade-bloodlines/downloads/vtmb-official-12-patch"
      }
    ],
    "game": {
      "arch": "win32",
      "exe": "drive_c/Program Files/Activision/Vampire - Bloodlines/vampire.exe",
      "prefix": "$GAMEDIR"
    },
    "installer": [
      {
        "task": {
          "name": "create_prefix",
          "prefix": "$GAMEDIR"
        }
      },
      {
        "insert-disc": {
          "description": "Insert disc",
          "requires": "setup.exe"
        }
      },
      {
        "task": {
          "executable": "$DISC/setup.exe",
          "name": "wineexec",
          "prefix": "$GAMEDIR"
        }
      },
      {
        "move": {
          "description": "Moving the patch",
          "dst": "$GAMEDIR/drive_c/VTMB_1_2.exe",
          "src": "patch12"
        }
      },
      {
        "task": {
          "description": "Running the Patch.",
          "executable": "$GAMEDIR/drive_c/VTMB_1_2.exe",
          "name": "wineexec",
          "prefix": "$GAMEDIR"
        }
      }
    ]
  },
  "content": "files:\n- patch12: N/A:Please select 1.2 patch archive available for download at https://www.moddb.com/games/vampire-the-masquerade-bloodlines/downloads/vtmb-official-12-patch\ngame:\n  arch: win32\n  exe: drive_c/Program Files/Activision/Vampire - Bloodlines/vampire.exe\n  prefix: $GAMEDIR\ninstaller:\n- task:\n    name: create_prefix\n    prefix: $GAMEDIR\n- insert-disc:\n    description: Insert disc\n    requires: setup.exe\n- task:\n    executable: $DISC/setup.exe\n    name: wineexec\n    prefix: $GAMEDIR\n- move:\n    description: Moving the patch\n    dst: $GAMEDIR/drive_c/VTMB_1_2.exe\n    src: patch12\n- task:\n    description: Running the Patch.\n    executable: $GAMEDIR/drive_c/VTMB_1_2.exe\n    name: wineexec\n    prefix: $GAMEDIR\n"
}