{
  "name": "Aztecalypse",
  "slug": "aztecalypse",
  "year": null,
  "description": "",
  "banner_url": "https://lutris.net/games/banner/aztecalypse.jpg",
  "icon_url": "https://lutris.net/games/icon/aztecalypse.png",
  "is_public": true,
  "updated": "2020-10-08T10:06:54.763410Z",
  "provider_games": [
    {
      "name": "Aztecalypse",
      "slug": "517010",
      "service": "steam"
    }
  ],
  "steamid": 517010,
  "gogid": null,
  "gogslug": "",
  "humblestoreid": "",
  "id": 10896
}