{
  "name": "Hurricane",
  "slug": "hurricane",
  "year": null,
  "description": "",
  "banner_url": "https://lutris.net/games/banner/hurricane.jpg",
  "icon_url": "https://lutris.net/games/icon/hurricane.png",
  "is_public": true,
  "updated": "2020-10-08T10:07:18.985979Z",
  "provider_games": [
    {
      "name": "Hurricane",
      "slug": "503240",
      "service": "steam"
    }
  ],
  "steamid": 503240,
  "gogid": null,
  "gogslug": "",
  "humblestoreid": "",
  "id": 16866
}