{
  "name": "Explodemon",
  "slug": "explodemon",
  "year": null,
  "description": "",
  "banner_url": "https://lutris.net/games/banner/explodemon.jpg",
  "icon_url": "https://lutris.net/games/icon/explodemon.png",
  "is_public": true,
  "updated": "2020-10-08T09:20:41.933005Z",
  "provider_games": [
    {
      "name": "Explodemon",
      "slug": "281820",
      "service": "steam"
    }
  ],
  "steamid": 281820,
  "gogid": null,
  "gogslug": "",
  "humblestoreid": "",
  "id": 2181
}