{
  "name": "Arkham Nightmares",
  "slug": "arkham-nightmares",
  "year": null,
  "description": "",
  "banner_url": "https://lutris.net/games/banner/arkham-nightmares.jpg",
  "icon_url": "https://lutris.net/games/icon/arkham-nightmares.png",
  "is_public": true,
  "updated": "2020-10-08T10:07:00.002335Z",
  "provider_games": [
    {
      "name": "Arkham Nightmares",
      "slug": "513810",
      "service": "steam"
    }
  ],
  "steamid": 513810,
  "gogid": null,
  "gogslug": "",
  "humblestoreid": "",
  "id": 36521
}