{
  "name": "Abstract Golfing",
  "slug": "abstract-golfing",
  "year": null,
  "description": "",
  "banner_url": "https://lutris.net/games/banner/abstract-golfing.jpg",
  "icon_url": "https://lutris.net/games/icon/abstract-golfing.png",
  "is_public": false,
  "updated": "2019-01-23T08:28:10.574086Z",
  "provider_games": [],
  "steamid": 860520,
  "gogid": null,
  "gogslug": "",
  "humblestoreid": "",
  "id": 21291
}