{
  "name": "Bernackels' Shoggoth",
  "slug": "bernackels-shoggoth",
  "year": null,
  "description": "",
  "banner_url": "https://lutris.net/games/banner/bernackels-shoggoth.jpg",
  "icon_url": "https://lutris.net/games/icon/bernackels-shoggoth.png",
  "is_public": true,
  "updated": "2020-10-08T09:59:13.253525Z",
  "provider_games": [
    {
      "name": "Bernackels' Shoggoth",
      "slug": "737690",
      "service": "steam"
    }
  ],
  "steamid": 737690,
  "gogid": null,
  "gogslug": "",
  "humblestoreid": "",
  "id": 19423
}