{
  "name": "Dragon's Dogma: Dark Arisen",
  "slug": "dragons-dogma-dark-arisen",
  "year": 2013,
  "description": "A mysterious island known as Bitterblack Isle appears off the coast of Gransys. Its depths have claimed the lives of many Arisen their voices still haunt the labyrinth that lies deep beneath its surface--a labyrinth ripe with secrets waiting to be discovered.\r\n\r\nThe time to take up arms has come once again. Delve into the isle's depths and uncover its dark secret!",
  "banner_url": "https://lutris.net/games/banner/dragons-dogma-dark-arisen.jpg",
  "icon_url": "https://lutris.net/games/icon/dragons-dogma-dark-arisen.png",
  "is_public": true,
  "updated": "2020-05-31T00:17:40.571030Z",
  "provider_games": [
    {
      "name": "Dragon's Dogma: Dark Arisen",
      "slug": "1242384383",
      "service": "gog"
    },
    {
      "name": "Dragon's Dogma: Dark Arisen",
      "slug": "367500",
      "service": "steam"
    }
  ],
  "steamid": 367500,
  "gogid": 1242384383,
  "gogslug": "dragons_dogma_dark_arisen",
  "humblestoreid": "",
  "id": 5960
}