{
  "name": "Magic Box",
  "slug": "magic-box",
  "year": null,
  "description": "",
  "banner_url": "https://lutris.net/games/banner/magic-box.jpg",
  "icon_url": "https://lutris.net/games/icon/magic-box.png",
  "is_public": true,
  "updated": "2020-10-08T10:05:01.951155Z",
  "provider_games": [
    {
      "name": "Magic Box",
      "slug": "575750",
      "service": "steam"
    }
  ],
  "steamid": 575750,
  "gogid": null,
  "gogslug": "",
  "humblestoreid": "",
  "id": 12946
}