{
  "name": "Go! Go! Nippon! ~My First Trip to Japan~",
  "slug": "go-go-nippon-my-first-trip-to-japan",
  "year": null,
  "description": "",
  "banner_url": "https://lutris.net/games/banner/go-go-nippon-my-first-trip-to-japan.jpg",
  "icon_url": "https://lutris.net/games/icon/go-go-nippon-my-first-trip-to-japan.png",
  "is_public": true,
  "updated": "2020-10-08T10:17:55.107247Z",
  "provider_games": [
    {
      "name": "Go! Go! Nippon! ~My First Trip to Japan~",
      "slug": "251870",
      "service": "steam"
    }
  ],
  "steamid": 251870,
  "gogid": null,
  "gogslug": "",
  "humblestoreid": "",
  "id": 2884
}