{
  "name": "Another Adventure",
  "slug": "another-adventure",
  "year": null,
  "description": "",
  "banner_url": "https://lutris.net/games/banner/another-adventure.jpg",
  "icon_url": "https://lutris.net/games/icon/another-adventure.png",
  "is_public": true,
  "updated": "2020-10-08T10:04:07.717922Z",
  "provider_games": [
    {
      "name": "Another Adventure",
      "slug": "604450",
      "service": "steam"
    }
  ],
  "steamid": 604450,
  "gogid": null,
  "gogslug": "",
  "humblestoreid": "",
  "id": 10375
}