{
  "name": "Final Fantasy Origins",
  "slug": "final-fantasy-origins",
  "year": 2002,
  "description": "Final Fantasy Origins delivers the first two games in the Final Fantasy series. Originally released in 1998 in Japan, Final Fantasy II never came to North America, but now RPG fans will be able to experience the emotion-packed sequel and its predecessor with all-new event scenes, enhanced graphics, and improved sound. Whether you're on a quest to recover a magical Crystal or on a journey to stop a merciless ruler, both games provide grand stories complemented with deep characterization and touching music.",
  "banner_url": "https://lutris.net/games/banner/final-fantasy-origins.jpg",
  "icon_url": "",
  "is_public": true,
  "updated": "2019-01-23T08:29:30.782917Z",
  "provider_games": [],
  "steamid": null,
  "gogid": null,
  "gogslug": "",
  "humblestoreid": "",
  "id": 20668
}