{
  "id": 5680,
  "game_id": 2178,
  "game_slug": "imperial-glory",
  "name": "Imperial Glory",
  "year": null,
  "user": "FakeShemp",
  "runner": "wine",
  "slug": "imperial-glory-groupees",
  "version": "Groupees",
  "description": "",
  "notes": "",
  "created_at": "2017-09-10T19:38:28.616000Z",
  "updated_at": "2018-05-19T03:41:52.405124Z",
  "draft": false,
  "published": true,
  "published_by": null,
  "rating": "",
  "steamid": 277450,
  "gogid": 1207658798,
  "gogslug": "imperial_glory",
  "humbleid": "",
  "humblestoreid": "",
  "humblestoreid_real": "",
  "script": {
    "files": [
      {
        "file1": "N/A:Please select the Groupees archive"
      }
    ],
    "game": {
      "arch": "win32",
      "exe": "drive_c/Program Files/Pyro Studios/Imperial Glory/ImperialGlory.exe",
      "prefix": "$GAMEDIR"
    },
    "installer": [
      {
        "extract": {
          "dst": "$CACHE",
          "file": "$file1"
        }
      },
      {
        "task": {
          "args": "/sp- /verysilent /norestart /suppressmsgboxes /nogui",
          "executable": "$CACHE/setup.exe",
          "name": "wineexec",
          "prefix": "$GAMEDIR"
        }
      }
    ]
  },
  "content": "files:\n- file1: N/A:Please select the Groupees archive\ngame:\n  arch: win32\n  exe: drive_c/Program Files/Pyro Studios/Imperial Glory/ImperialGlory.exe\n  prefix: $GAMEDIR\ninstaller:\n- extract:\n    dst: $CACHE\n    file: $file1\n- task:\n    args: /sp- /verysilent /norestart /suppressmsgboxes /nogui\n    executable: $CACHE/setup.exe\n    name: wineexec\n    prefix: $GAMEDIR\n"
}