{
  "id": 21342,
  "game_id": 37231,
  "game_slug": "8bitdo-ultimate-software",
  "name": "8bitdo Ultimate Software",
  "year": 2017,
  "user": "rubtsov493@gmail.com",
  "runner": "wine",
  "slug": "8bitdo-ultimate-software-installer",
  "version": "Installer",
  "description": null,
  "notes": "",
  "created_at": "2020-06-08T14:26:48.750029Z",
  "updated_at": "2020-06-08T14:26:48.750054Z",
  "draft": true,
  "published": false,
  "published_by": null,
  "rating": "",
  "steamid": null,
  "gogid": null,
  "gogslug": "",
  "humbleid": "",
  "humblestoreid": "",
  "humblestoreid_real": "",
  "script": {
    "files": [
      {
        "zip_file": "https://download.8bitdo.com/Tools/FirmwareUpdater/8BitDo_Firmware_Updater_win.zip"
      }
    ],
    "game": {
      "exe": "C:/8BitDo-Ultimate-Software-for-Windows_V1.30/8BitDo Ultimate Software.exe"
    },
    "installer": [
      {
        "task": {
          "arch": "win64",
          "name": "create_prefix",
          "prefix": "$GAMEDIR"
        }
      },
      {
        "extract": {
          "dst": "$GAMEDIR",
          "src": "zip_file"
        }
      }
    ]
  },
  "content": "files:\n- zip_file: https://download.8bitdo.com/Tools/FirmwareUpdater/8BitDo_Firmware_Updater_win.zip\ngame:\n  exe: C:/8BitDo-Ultimate-Software-for-Windows_V1.30/8BitDo Ultimate Software.exe\ninstaller:\n- task:\n    arch: win64\n    name: create_prefix\n    prefix: $GAMEDIR\n- extract:\n    dst: $GAMEDIR\n    src: zip_file\n"
}