{
  "name": "Inkanians",
  "slug": "inkanians",
  "year": 2015,
  "description": "Inkanians is a puzzle game on you control a squared-inca moving boxes, slide blocks, teleport... to collect all the diamonds of the level.",
  "banner_url": "https://lutris.net/games/banner/inkanians.jpg",
  "icon_url": "",
  "is_public": false,
  "updated": "2020-09-13T16:54:15.238066Z",
  "provider_games": [],
  "steamid": null,
  "gogid": null,
  "gogslug": "",
  "humblestoreid": "",
  "id": 38870
}