{
  "name": "CS2D",
  "slug": "cs2d",
  "year": 2004,
  "description": "CS2D is a fast-paced top-down multiplayer shooter! FREE for Windows, Linux & MacOS!\r\n\r\nTwo teams fight each other in action packed matches. With a variety of missions like bomb planting, hostage rescue, V.I.P. assassination, capture the flag, construction, zombies, deathmatch and team deathmatch. You have access to a huge arsenal of weapons - also including crazy stuff like portal guns, lasers, RPGs and much more. Play online, in LAN or against bots. Use the built-in map editor to create your own maps within seconds or write Lua scripts to modify and extend the game!\r\n\r\nCS2D is 100% FREE! Zero costs. No payments. No pay to win. No way to spend money.\r\nThat's right! You don't have to pay anything to play this game! We just want you to have some fun!",
  "banner_url": "https://lutris.net/games/banner/cs2d.jpg",
  "icon_url": "https://lutris.net/games/icon/cs2d.png",
  "is_public": true,
  "updated": "2019-01-23T08:29:01.693120Z",
  "provider_games": [
    {
      "name": "CS2D",
      "slug": "666220",
      "service": "steam"
    }
  ],
  "steamid": 666220,
  "gogid": null,
  "gogslug": "",
  "humblestoreid": "",
  "id": 14834
}