{
  "name": "Idioctopus",
  "slug": "idioctopus",
  "year": null,
  "description": "",
  "banner_url": "https://lutris.net/games/banner/idioctopus.jpg",
  "icon_url": "https://lutris.net/games/icon/idioctopus.png",
  "is_public": true,
  "updated": "2020-10-08T10:05:10.458886Z",
  "provider_games": [
    {
      "name": "Idioctopus",
      "slug": "571330",
      "service": "steam"
    }
  ],
  "steamid": 571330,
  "gogid": null,
  "gogslug": "",
  "humblestoreid": "",
  "id": 16907
}