{
  "name": "Grimmwood",
  "slug": "grimmwood",
  "year": 2018,
  "description": "Explore – Craft – Survive: Grimmwood is a challenging social multiplayer RPG seamlessly blending survival, roguelike and exploration. Defend your village together with up to 30 strangers in a mystical forest against the merciless monsters who unleash their wrath against your shelter every night!",
  "banner_url": "https://lutris.net/games/banner/grimmwood.jpg",
  "icon_url": "",
  "is_public": true,
  "updated": "2019-01-23T08:29:43.664941Z",
  "provider_games": [
    {
      "name": "Grimmwood",
      "slug": "809280",
      "service": "steam"
    }
  ],
  "steamid": 809280,
  "gogid": null,
  "gogslug": "",
  "humblestoreid": "",
  "id": 18150
}