{
  "name": "Curse of Mermos",
  "slug": "curse-of-mermos",
  "year": null,
  "description": "",
  "banner_url": "https://lutris.net/games/banner/curse-of-mermos.jpg",
  "icon_url": "https://lutris.net/games/icon/curse-of-mermos.png",
  "is_public": true,
  "updated": "2020-10-08T10:16:33.062751Z",
  "provider_games": [
    {
      "name": "Curse of Mermos",
      "slug": "352160",
      "service": "steam"
    }
  ],
  "steamid": 352160,
  "gogid": null,
  "gogslug": "",
  "humblestoreid": "",
  "id": 5132
}