{
  "name": "C. Kane",
  "slug": "c-kane",
  "year": null,
  "description": "",
  "banner_url": "https://lutris.net/games/banner/c-kane.jpg",
  "icon_url": "https://lutris.net/games/icon/c-kane.png",
  "is_public": true,
  "updated": "2019-01-23T08:28:53.738225Z",
  "provider_games": [
    {
      "name": "C. Kane",
      "slug": "385030",
      "service": "steam"
    }
  ],
  "steamid": 385030,
  "gogid": null,
  "gogslug": "",
  "humblestoreid": "",
  "id": 6839
}