{
  "name": "HacX: Twitch 'n Kill",
  "slug": "hacx-twitch-n-kill",
  "year": 1997,
  "description": "Hacx was originally released - as an add-on for Doom II - by Banjo Software as a commercial release in the late 90's. It later become a free downloadable product. Since Banjo was trying to rush the game out to the market prior to the release of Quake, it was released as a faulty and rather ill-refined game - some of the maps are rather amateurish and incomplete, a whole lot of texture bugs, etc. Banjo and crew were able to fix many of the texture bugs and released version 1.1, which had its own set of problems. Despite the problems of the original releases, Hacx remains quite popular within the Doom community today - over 10 years later.",
  "banner_url": "https://lutris.net/games/banner/hacx-twitch-n-kill.jpg",
  "icon_url": "https://lutris.net/games/icon/hacx-twitch-n-kill.png",
  "is_public": true,
  "updated": "2019-01-23T08:29:45.657197Z",
  "provider_games": [],
  "steamid": null,
  "gogid": null,
  "gogslug": "",
  "humblestoreid": "",
  "id": 3250
}