{
  "name": "Golden Treasure: The Great Green",
  "slug": "golden-treasure-the-great-green",
  "year": 2019,
  "description": "The Sun is your Father. The Earth is your Mother. All beings are your Prey.\r\n\r\nEnter the mind and body of a dragon and experience life through the senses of these powerful and mysterious beings. Explore, discover, hunt, and forge your destiny among the Draak-Kin, the True Children of Above and Below.\r\n\r\nIn a world which is still wild and free, where nature reigns supreme, you will encounter amazing beings, hunt dozens of species of prey, uncover lost cultures and ways of being, and perhaps even change the future of dragonkind with 4 different endings. All of your choices matter, and the life you create for yourself will be unlike any other.",
  "banner_url": "https://lutris.net/games/banner/golden-treasure-the-great-green.jpg",
  "icon_url": "",
  "is_public": false,
  "updated": "2020-09-20T15:20:32.733040Z",
  "provider_games": [],
  "steamid": null,
  "gogid": null,
  "gogslug": "",
  "humblestoreid": "",
  "id": 39148
}