{
  "id": 22060,
  "game_id": 12386,
  "game_slug": "tangledeep",
  "name": "Tangledeep",
  "year": 2018,
  "user": "hapster",
  "runner": "linux",
  "slug": "tangledeep-gog-with-dlcs",
  "version": "GOG with DLCs",
  "description": null,
  "notes": "",
  "created_at": "2020-06-30T23:14:04.939000Z",
  "updated_at": "2020-08-11T07:12:45.297667Z",
  "draft": false,
  "published": true,
  "published_by": 20548,
  "rating": "",
  "steamid": 628770,
  "gogid": 1703478259,
  "gogslug": "tangledeep",
  "humbleid": "tangledeep",
  "humblestoreid": "tangledeep",
  "humblestoreid_real": "tangledeep",
  "script": {
    "exe": "game/start.sh",
    "files": [
      {
        "game": "N/A: Please select the GOG.com Linux installer"
      },
      {
        "dlc1": "N/A: Please select the GOG.com Dawn of Dragons DLC Linux installer"
      },
      {
        "dlc2": "N/A: Please select the GOG.com Legend of Shara DLC Linux installer"
      },
      {
        "unzip": "http://lutris.net/files/tools/unzip.tar.gz"
      }
    ],
    "installer": [
      {
        "extract": {
          "dst": "$CACHE",
          "file": "$unzip"
        }
      },
      {
        "execute": {
          "args": "$game -d \"$GAMEDIR\" \"data/noarch/*\"",
          "description": "Extracting game data, it will take a while...",
          "file": "$CACHE/unzip"
        }
      },
      {
        "execute": {
          "args": "$dlc1 -d \"$GAMEDIR\" \"data/noarch/*\"",
          "description": "Extracting game data, it will take a while...",
          "file": "$CACHE/unzip"
        }
      },
      {
        "execute": {
          "args": "$dlc2 -d \"$GAMEDIR\" \"data/noarch/*\"",
          "description": "Extracting game data, it will take a while...",
          "file": "$CACHE/unzip"
        }
      },
      {
        "rename": {
          "dst": "$GAMEDIR/game",
          "src": "$GAMEDIR/data/noarch"
        }
      }
    ]
  },
  "content": "exe: game/start.sh\nfiles:\n- game: 'N/A: Please select the GOG.com Linux installer'\n- dlc1: 'N/A: Please select the GOG.com Dawn of Dragons DLC Linux installer'\n- dlc2: 'N/A: Please select the GOG.com Legend of Shara DLC Linux installer'\n- unzip: http://lutris.net/files/tools/unzip.tar.gz\ninstaller:\n- extract:\n    dst: $CACHE\n    file: $unzip\n- execute:\n    args: $game -d \"$GAMEDIR\" \"data/noarch/*\"\n    description: Extracting game data, it will take a while...\n    file: $CACHE/unzip\n- execute:\n    args: $dlc1 -d \"$GAMEDIR\" \"data/noarch/*\"\n    description: Extracting game data, it will take a while...\n    file: $CACHE/unzip\n- execute:\n    args: $dlc2 -d \"$GAMEDIR\" \"data/noarch/*\"\n    description: Extracting game data, it will take a while...\n    file: $CACHE/unzip\n- rename:\n    dst: $GAMEDIR/game\n    src: $GAMEDIR/data/noarch\n"
}