{
  "name": "Crayon Physics Deluxe",
  "slug": "crayon-physics-deluxe",
  "year": 2009,
  "description": "Crayon Physics Deluxe is a 2D physics puzzle / sandbox game, in which you get to experience what it would be like if your drawings would be magically transformed into real physical objects. Solve puzzles with your artistic vision and creative use of physics. \r\n\r\nKey features: \r\n* Awesome physics \r\n* Over 70 levels \r\n* Easy to use level editor \r\n* Rockets, ropes and hinges",
  "banner_url": "https://lutris.net/games/banner/crayon-physics-deluxe.jpg",
  "icon_url": "https://lutris.net/games/icon/crayon-physics-deluxe.png",
  "is_public": true,
  "updated": "2020-08-15T23:50:34.391814Z",
  "provider_games": [
    {
      "name": "Crayon Physics Deluxe",
      "slug": "crayonphysicsdeluxe_android_pc_soundtrack",
      "service": "humblebundle"
    },
    {
      "name": "Crayon Physics Deluxe",
      "slug": "crayonphysicsdeluxe",
      "service": "humblebundle"
    },
    {
      "name": "Crayon Physics Deluxe",
      "slug": "26900",
      "service": "steam"
    }
  ],
  "steamid": 26900,
  "gogid": null,
  "gogslug": "",
  "humblestoreid": "crayonphysicsdeluxe_android_pc_soundtrack",
  "id": 223
}