{
  "name": "Lovely Planet 2: April Skies",
  "slug": "lovely-planet-2-april-skies",
  "year": null,
  "description": "",
  "banner_url": "https://lutris.net/games/banner/lovely-planet-2-april-skies.jpg",
  "icon_url": "https://lutris.net/games/icon/lovely-planet-2-april-skies.png",
  "is_public": true,
  "updated": "2020-10-08T09:16:15.655630Z",
  "provider_games": [
    {
      "name": "Lovely Planet 2: April Skies",
      "slug": "1019590",
      "service": "steam"
    }
  ],
  "steamid": 1019590,
  "gogid": null,
  "gogslug": "",
  "humblestoreid": "",
  "id": 29508
}