{
  "name": "Hidden Through Time",
  "slug": "hidden-through-time",
  "year": null,
  "description": "",
  "banner_url": "https://lutris.net/games/banner/hidden-through-time.jpg",
  "icon_url": "https://lutris.net/games/icon/hidden-through-time.png",
  "is_public": true,
  "updated": "2020-10-08T10:06:35.995516Z",
  "provider_games": [
    {
      "name": "Hidden Through Time",
      "slug": "524910",
      "service": "steam"
    }
  ],
  "steamid": 524910,
  "gogid": null,
  "gogslug": "",
  "humblestoreid": "",
  "id": 37996
}