{
  "name": "Cursor Challenge",
  "slug": "cursor-challenge",
  "year": null,
  "description": "",
  "banner_url": "https://lutris.net/games/banner/cursor-challenge.jpg",
  "icon_url": "https://lutris.net/games/icon/cursor-challenge.png",
  "is_public": true,
  "updated": "2020-10-08T10:13:28.929157Z",
  "provider_games": [
    {
      "name": "Cursor Challenge",
      "slug": "458700",
      "service": "steam"
    }
  ],
  "steamid": 458700,
  "gogid": null,
  "gogslug": "",
  "humblestoreid": "",
  "id": 11268
}