{
  "name": "Frets on Fire",
  "slug": "frets-on-fire",
  "year": 2006,
  "description": "Frets on Fire is a game of musical skill and fast fingers. The aim of the game is to play guitar with the keyboard as accurately as possible.\r\n\r\nFeatures: \r\n* Unique inverted keyboard gameplay style\r\n* Support for guitar controllers and generic joysticks\r\n* Includes a song editor for making your own tunes\r\n* Compete with others on the World Charts\r\n* Hundreds of songs composed by the community\r\n* Supports importing Guitar Hero I and Guitar Hero II songs\r\n* Multi-platform; runs on Linux, FreeBSD, Windows and Mac OS X\r\n* Open source, full Python source code available",
  "banner_url": "https://lutris.net/games/banner/frets-on-fire.jpg",
  "icon_url": "https://lutris.net/games/icon/frets-on-fire.png",
  "is_public": true,
  "updated": "2019-01-23T08:29:35.394338Z",
  "provider_games": [],
  "steamid": null,
  "gogid": null,
  "gogslug": "",
  "humblestoreid": "",
  "id": 3560
}