{
  "name": "HYPER DRIVE - The Insane Gravity Race",
  "slug": "hyper-drive-the-insane-gravity-race",
  "year": null,
  "description": "",
  "banner_url": "https://lutris.net/games/banner/hyper-drive-the-insane-gravity-race.jpg",
  "icon_url": "https://lutris.net/games/icon/hyper-drive-the-insane-gravity-race.png",
  "is_public": false,
  "updated": "2019-01-23T08:29:53.644100Z",
  "provider_games": [],
  "steamid": 679220,
  "gogid": null,
  "gogslug": "",
  "humblestoreid": "",
  "id": 20218
}