{
  "name": "Halcyon 6: Starbase Commander",
  "slug": "halcyon-6-starbase-commander",
  "year": 2016,
  "description": "On the edge of Terran space lies Halcyon 6, a derelict starbase left behind by a mysterious precursor race. Your mission is to reclaim the derelict station and rebuild it. A mysterious alien force is making a beeline towards Earth and this starbase is the best chance for the New Terran Federation to establish new alliances, research new technologies and otherwise figure out a way to stop the impending invasion.\r\n\r\nUsing only the resources you can salvage from the derelict station and gathered from nearby star systems, it’s up to you to rebuild the starbase to lead the Terran Republic’s scientific research, exploration and diplomatic efforts on the edge of known space.\r\nHalcyon 6 is a passion project who’s design is inspired by our years spent playing classic games like Star Control, Master of Orion, X-COM, Civilization, and new classics like FTL.",
  "banner_url": "https://lutris.net/games/banner/halcyon-6-starbase-commander.jpg",
  "icon_url": "",
  "is_public": true,
  "updated": "2020-05-31T00:17:44.165214Z",
  "provider_games": [
    {
      "name": "Halcyon 6: Starbase Commander",
      "slug": "1937342852",
      "service": "gog"
    },
    {
      "name": "Halcyon 6: Starbase Commander (CLASSIC)",
      "slug": "371200",
      "service": "steam"
    }
  ],
  "steamid": 371200,
  "gogid": 1937342852,
  "gogslug": "halcyon_6_starbase_commander",
  "humblestoreid": "",
  "id": 7680
}