{
  "name": "Alien Shooter",
  "slug": "alien-shooter",
  "year": null,
  "description": "",
  "banner_url": "https://lutris.net/games/banner/alien-shooter.jpg",
  "icon_url": "https://lutris.net/games/icon/alien-shooter.png",
  "is_public": true,
  "updated": "2019-01-23T08:28:18.766637Z",
  "provider_games": [
    {
      "name": "Alien Shooter",
      "slug": "33100",
      "service": "steam"
    }
  ],
  "steamid": 33100,
  "gogid": null,
  "gogslug": "",
  "humblestoreid": "",
  "id": 919
}