{
  "name": "Funcube",
  "slug": "funcube",
  "year": 2000,
  "description": "",
  "banner_url": "",
  "icon_url": "https://lutris.net/games/icon/funcube.png",
  "is_public": true,
  "updated": "2020-05-26T03:33:56.613514Z",
  "provider_games": [
    {
      "name": "Funcube",
      "slug": "funcube",
      "service": "mame"
    }
  ],
  "steamid": null,
  "gogid": null,
  "gogslug": "",
  "humblestoreid": "",
  "id": 34156
}