{
  "name": "Heroes of Loot 2",
  "slug": "heroes-of-loot-2",
  "year": null,
  "description": "",
  "banner_url": "https://lutris.net/games/banner/heroes-of-loot-2.jpg",
  "icon_url": "https://lutris.net/games/icon/heroes-of-loot-2.png",
  "is_public": true,
  "updated": "2020-10-08T10:13:58.532555Z",
  "provider_games": [
    {
      "name": "Heroes of Loot 2",
      "slug": "439880",
      "service": "steam"
    }
  ],
  "steamid": 439880,
  "gogid": null,
  "gogslug": "",
  "humblestoreid": "",
  "id": 14856
}