{
  "name": "Burntime",
  "slug": "burntime",
  "year": 1993,
  "description": "Deserts cover the globe, cities are destroyed, the end of every civilization is near. The few survivors search for drinking water and food. They eat all they can find.\r\n\r\nLike a Role-Playing-Game, you travel through the world and meet many computer-played characters. You want to rule the world. But there are other 3 characters with the same aim.\r\n\r\nYou spend the most game time looking at the map, which takes up several screens. The position of the 4 characters, their occupied conquests, the cities, and the health condition of your character are shown on the map.\r\n\r\nThe different settlements you can occupy are old factories, camping-grounds or ruins of old mega-cities. The five great cities are opened for all competitors and can’t be occupied. In these cities you cannot fight against your enemies.\r\n\r\nSometimes you meet a human for changing news, items or take them in your party. There are different classes of computer-characters: fighters, engineers or doctors for example. Every character of your party can carry up to 6 items (food, weapons). These items are produced by the settlements you control.\r\n\r\nFrom https://www.mobygames.com/game/dos/burntime",
  "banner_url": "https://lutris.net/games/banner/burntime.jpg",
  "icon_url": "",
  "is_public": true,
  "updated": "2020-01-03T01:57:59.005147Z",
  "provider_games": [],
  "steamid": null,
  "gogid": null,
  "gogslug": "",
  "humblestoreid": "",
  "id": 30982
}