{
  "id": 9746,
  "game_id": 20947,
  "game_slug": "doppelganger-dawn-of-the-inverted-souls",
  "name": "Doppelganger: Dawn of the Inverted Souls",
  "year": 2013,
  "user": "kimchitea",
  "runner": "linux",
  "slug": "doppelganger-dawn-of-the-inve-itchio",
  "version": "itch.io",
  "description": null,
  "notes": "",
  "created_at": "2018-08-15T16:53:40.242000Z",
  "updated_at": "2018-08-16T06:20:14.681255Z",
  "draft": false,
  "published": true,
  "published_by": null,
  "rating": "",
  "steamid": null,
  "gogid": null,
  "gogslug": "",
  "humbleid": "",
  "humblestoreid": "",
  "humblestoreid_real": "",
  "script": {
    "exe": "Doppelganger_Dawn of The Inverted Souls.sh",
    "files": [
      {
        "file1": "N/A:Please select the Windows installer"
      }
    ],
    "installer": [
      {
        "merge": {
          "dst": "$CACHE/doppelganger.zip",
          "src": "$file1"
        }
      },
      {
        "extract": {
          "dst": "$GAMEDIR",
          "file": "$CACHE/doppelganger.zip"
        }
      },
      {
        "chmodx": "$GAMEDIR/Doppelganger_Dawn of The Inverted Souls.sh"
      },
      {
        "chmodx": "$GAMEDIR/lib/linux-i686/python"
      },
      {
        "chmodx": "$GAMEDIR/lib/linux-x86_64/python"
      }
    ]
  },
  "content": "exe: Doppelganger_Dawn of The Inverted Souls.sh\nfiles:\n- file1: N/A:Please select the Windows installer\ninstaller:\n- merge:\n    dst: $CACHE/doppelganger.zip\n    src: $file1\n- extract:\n    dst: $GAMEDIR\n    file: $CACHE/doppelganger.zip\n- chmodx: $GAMEDIR/Doppelganger_Dawn of The Inverted Souls.sh\n- chmodx: $GAMEDIR/lib/linux-i686/python\n- chmodx: $GAMEDIR/lib/linux-x86_64/python\n"
}