{
  "name": "Atlantis III: The New World",
  "slug": "atlantis-iii-the-new-world",
  "year": 2001,
  "description": "Step back into the land of dreams and legends...\r\n\r\nEmbark on an incredible adventure and become immersed in an extraordinary tale of intrigue and mystery.\r\n\r\nAssume the role of an archaeologist, as you search for the existence of a metropolis built, according to myth and legend, by the ancient Egyptians. Your quest for the mysterious secrets, that have eluded many, will take you on a journey through worlds of unequaled beauty.\r\n\r\nLet wisdom be your guide as you travel through time and spirit, and encounter challenging puzzles along your path. Discover and explore the stunning surroundings of the vast Sahara Desert, the wondrous icy plains of Syberia, and the fascinating lands of ancient Egypt.\r\n\r\nThe greatest treasure of all time lies waiting to be discovered.\r\n\r\nMain features:\r\n* An epic adventure set across many worlds\r\n* Stunningly realistic 3D graphics\r\n* Original and compelling storyline",
  "banner_url": "https://lutris.net/games/banner/atlantis-iii-the-new-world.jpg",
  "icon_url": "",
  "is_public": true,
  "updated": "2019-01-23T08:28:28.273495Z",
  "provider_games": [],
  "steamid": null,
  "gogid": null,
  "gogslug": "",
  "humblestoreid": "",
  "id": 15165
}