{
  "name": "ARK Park",
  "slug": "ark-park",
  "year": null,
  "description": "",
  "banner_url": "https://lutris.net/games/banner/ark-park.jpg",
  "icon_url": "https://lutris.net/games/icon/ark-park.png",
  "is_public": true,
  "updated": "2020-10-08T10:06:24.717673Z",
  "provider_games": [
    {
      "name": "ARK Park",
      "slug": "529910",
      "service": "steam"
    }
  ],
  "steamid": 529910,
  "gogid": null,
  "gogslug": "",
  "humblestoreid": "",
  "id": 21739
}