{
  "name": "Chronicle Keepers: The Dreaming Garden",
  "slug": "chronicle-keepers-the-dreaming-garden",
  "year": null,
  "description": "",
  "banner_url": "https://lutris.net/games/banner/chronicle-keepers-the-dreaming-garden.jpg",
  "icon_url": "https://lutris.net/games/icon/chronicle-keepers-the-dreaming-garden.png",
  "is_public": true,
  "updated": "2020-10-08T10:15:48.550673Z",
  "provider_games": [
    {
      "name": "Chronicle Keepers: The Dreaming Garden",
      "slug": "377120",
      "service": "steam"
    }
  ],
  "steamid": 377120,
  "gogid": null,
  "gogslug": "",
  "humblestoreid": "",
  "id": 12478
}