{
  "name": "Landmark",
  "slug": "landmark",
  "year": null,
  "description": "",
  "banner_url": "https://lutris.net/games/banner/landmark.jpg",
  "icon_url": "https://lutris.net/games/icon/landmark.png",
  "is_public": true,
  "updated": "2020-10-08T09:20:20.377126Z",
  "provider_games": [
    {
      "name": "Landmark",
      "slug": "297810",
      "service": "steam"
    }
  ],
  "steamid": 297810,
  "gogid": null,
  "gogslug": "",
  "humblestoreid": "",
  "id": 4261
}