{
  "name": "Karl Quappe",
  "slug": "karl-quappe",
  "year": 2017,
  "description": "Karl needs to get home quickly! On his way he will have to avoid many dangers.\r\n\r\nFirst he must cross a highway, avoiding traffic. Then he must cross a rapid river to reach his home.\r\n\r\nHis mortal enemies are out in force to get him, but can you outsmart them?\r\n\r\nCan you rescue Karl's girlfiend and bring them both home safely?\r\n\r\nMake your way home and save the day in Malban's exciting version of the arcade classic for the Vectrex system.\r\n\r\nIncludes Competition, Training and Hardcore modes, plus high score and options saving to the included non-volatile memory.",
  "banner_url": "https://lutris.net/games/banner/karl-quappe.jpg",
  "icon_url": "",
  "is_public": true,
  "updated": "2019-01-23T08:30:02.417088Z",
  "provider_games": [],
  "steamid": null,
  "gogid": null,
  "gogslug": "",
  "humblestoreid": "",
  "id": 20119
}