{
  "name": "Aik's Cheese Adventures",
  "slug": "aiks-cheese-adventures",
  "year": null,
  "description": "",
  "banner_url": "https://lutris.net/games/banner/aiks-cheese-adventures.jpg",
  "icon_url": "https://lutris.net/games/icon/aiks-cheese-adventures.png",
  "is_public": false,
  "updated": "2019-01-23T08:28:16.395044Z",
  "provider_games": [],
  "steamid": 850790,
  "gogid": null,
  "gogslug": "",
  "humblestoreid": "",
  "id": 23328
}