{
  "name": "A Show of Kindness",
  "slug": "a-show-of-kindness",
  "year": null,
  "description": "",
  "banner_url": "https://lutris.net/games/banner/a-show-of-kindness.jpg",
  "icon_url": "https://lutris.net/games/icon/a-show-of-kindness.png",
  "is_public": true,
  "updated": "2020-10-08T09:16:44.508068Z",
  "provider_games": [
    {
      "name": "A Show of Kindness",
      "slug": "974840",
      "service": "steam"
    }
  ],
  "steamid": 974840,
  "gogid": null,
  "gogslug": "",
  "humblestoreid": "",
  "id": 23700
}