{
  "id": 5350,
  "game_id": 6838,
  "game_slug": "witches-heroes-and-magic",
  "name": "Witches, Heroes and Magic",
  "year": null,
  "user": "FakeShemp",
  "runner": "wine",
  "slug": "witches-heroes-and-magic-groupees",
  "version": "Groupees",
  "description": "",
  "notes": "",
  "created_at": "2017-08-12T13:17:37.381000Z",
  "updated_at": "2018-05-19T03:41:57.963139Z",
  "draft": false,
  "published": true,
  "published_by": null,
  "rating": "",
  "steamid": 378510,
  "gogid": null,
  "gogslug": "",
  "humbleid": "",
  "humblestoreid": "",
  "humblestoreid_real": "",
  "script": {
    "files": [
      {
        "file1": "N/A:Please select the Groupees installer"
      }
    ],
    "game": {
      "arch": "win32",
      "exe": "drive_c/Program Files/Witches, Heroes and Magic/WHAM.exe",
      "prefix": "$GAMEDIR"
    },
    "installer": [
      {
        "task": {
          "args": "/S",
          "executable": "$file1",
          "name": "wineexec",
          "prefix": "$GAMEDIR"
        }
      },
      {
        "task": {
          "app": "corefonts",
          "name": "winetricks",
          "prefix": "$GAMEDIR"
        }
      }
    ]
  },
  "content": "files:\n- file1: N/A:Please select the Groupees installer\ngame:\n  arch: win32\n  exe: drive_c/Program Files/Witches, Heroes and Magic/WHAM.exe\n  prefix: $GAMEDIR\ninstaller:\n- task:\n    args: /S\n    executable: $file1\n    name: wineexec\n    prefix: $GAMEDIR\n- task:\n    app: corefonts\n    name: winetricks\n    prefix: $GAMEDIR\n"
}