{
  "name": "Freedom Fighter",
  "slug": "freedom-fighter",
  "year": null,
  "description": "",
  "banner_url": "https://lutris.net/games/banner/freedom-fighter.jpg",
  "icon_url": "https://lutris.net/games/icon/freedom-fighter.png",
  "is_public": true,
  "updated": "2020-10-08T10:06:59.002396Z",
  "provider_games": [
    {
      "name": "Freedom Fighter",
      "slug": "514360",
      "service": "steam"
    }
  ],
  "steamid": 514360,
  "gogid": null,
  "gogslug": "",
  "humblestoreid": "",
  "id": 16871
}