{
  "name": "Find your way",
  "slug": "find-your-way",
  "year": 2018,
  "description": "\"Find your way\" is a third-person shooter in a wild west setting. You are in the Sayver City. For many years this city was a calm place of wild west.\r\nBut now the gang of J. James that terrorized Great Plains comes to this place. You as a sheriff\r\nlong-awaited meeting with James himself, as you are bound by an unquenchable thirst for revenge ...\r\nFeatures:\r\n\r\n    Realistic graphics with day night cycle\r\n    Realistic interaction with the NPCs, especially in tactical battles\r\n    Wild West atmosphere\r\n    Endless game mode\r\n    Thrilling music and SFX",
  "banner_url": "https://lutris.net/games/banner/find-your-way.jpg",
  "icon_url": "",
  "is_public": true,
  "updated": "2019-01-23T08:29:31.258655Z",
  "provider_games": [
    {
      "name": "Find your way",
      "slug": "848010",
      "service": "steam"
    }
  ],
  "steamid": 848010,
  "gogid": null,
  "gogslug": "",
  "humblestoreid": "",
  "id": 18181
}