{
  "name": "Automobili Lamborghini",
  "slug": "automobili-lamborghini",
  "year": 1997,
  "description": "Are you ready for the ride of your life? This car circuit racing game will have you driving the car of your dreams: a Lamborghini Diablo! Trade in your econo-car and burn up the fast lane!\r\n\r\nYou'll have your choice of four different race styles; six challenging racetracks; manual or automatic transmission; and other options such as pit stops and multi-player split screen mode.\r\n\r\n• Race styles: Arcade, Tournament, Championship and Time Trial!\r\n• Feel every bump and crash with the Nintendo Rumble Pak!\r\n• Play with up to four players in split screen mode!\r\n• Save your record times onto a controller pak!\r\n• Best playability a racing fan can dream of!",
  "banner_url": "https://lutris.net/games/banner/automobili-lamborghini.jpg",
  "icon_url": "",
  "is_public": true,
  "updated": "2019-01-23T08:28:29.089830Z",
  "provider_games": [],
  "steamid": null,
  "gogid": null,
  "gogslug": "",
  "humblestoreid": "",
  "id": 17319
}