{
  "name": "Lost Moon",
  "slug": "lost-moon",
  "year": null,
  "description": "",
  "banner_url": "https://lutris.net/games/banner/lost-moon.jpg",
  "icon_url": "https://lutris.net/games/icon/lost-moon.png",
  "is_public": true,
  "updated": "2020-10-08T10:14:57.412486Z",
  "provider_games": [
    {
      "name": "Lost Moon",
      "slug": "406090",
      "service": "steam"
    }
  ],
  "steamid": 406090,
  "gogid": null,
  "gogslug": "",
  "humblestoreid": "",
  "id": 5482
}