{
  "name": "BlazBlue Cross Tag Battle",
  "slug": "blazblue-cross-tag-battle",
  "year": null,
  "description": "",
  "banner_url": "https://lutris.net/games/banner/blazblue-cross-tag-battle.jpg",
  "icon_url": "https://lutris.net/games/icon/blazblue-cross-tag-battle.png",
  "is_public": true,
  "updated": "2020-10-08T10:16:58.019079Z",
  "provider_games": [
    {
      "name": "BlazBlue Cross Tag Battle",
      "slug": "702890",
      "service": "steam"
    }
  ],
  "steamid": 702890,
  "gogid": null,
  "gogslug": "",
  "humblestoreid": "",
  "id": 19051
}