{
  "name": "Dungeon Journey",
  "slug": "dungeon-journey",
  "year": null,
  "description": "",
  "banner_url": "https://lutris.net/games/banner/dungeon-journey.jpg",
  "icon_url": "https://lutris.net/games/icon/dungeon-journey.png",
  "is_public": true,
  "updated": "2020-10-08T10:07:49.384785Z",
  "provider_games": [
    {
      "name": "Dungeon Journey",
      "slug": "485490",
      "service": "steam"
    }
  ],
  "steamid": 485490,
  "gogid": null,
  "gogslug": "",
  "humblestoreid": "",
  "id": 7587
}