{
  "name": "Dragon's Wake",
  "slug": "dragons-wake",
  "year": null,
  "description": "",
  "banner_url": "https://lutris.net/games/banner/dragons-wake.jpg",
  "icon_url": "https://lutris.net/games/icon/dragons-wake.png",
  "is_public": true,
  "updated": "2020-10-08T10:17:40.683489Z",
  "provider_games": [
    {
      "name": "Dragon's Wake",
      "slug": "399070",
      "service": "steam"
    }
  ],
  "steamid": 399070,
  "gogid": null,
  "gogslug": "",
  "humblestoreid": "",
  "id": 8739
}