{
  "name": "DUE PROCESS",
  "slug": "due-process",
  "year": null,
  "description": "",
  "banner_url": "https://lutris.net/games/banner/due-process.jpg",
  "icon_url": "https://lutris.net/games/icon/due-process.png",
  "is_public": true,
  "updated": "2020-10-08T10:17:29.889638Z",
  "provider_games": [
    {
      "name": "Due Process",
      "slug": "753650",
      "service": "steam"
    }
  ],
  "steamid": 753650,
  "gogid": null,
  "gogslug": "",
  "humblestoreid": "",
  "id": 29657
}