{
  "name": "Biodrone Battle",
  "slug": "biodrone-battle",
  "year": null,
  "description": "",
  "banner_url": "https://lutris.net/games/banner/biodrone-battle.jpg",
  "icon_url": "https://lutris.net/games/icon/biodrone-battle.png",
  "is_public": true,
  "updated": "2019-01-23T08:28:35.987000Z",
  "provider_games": [
    {
      "name": "Biodrone Battle",
      "slug": "377290",
      "service": "steam"
    }
  ],
  "steamid": 377290,
  "gogid": null,
  "gogslug": "",
  "humblestoreid": "",
  "id": 5719
}