{
  "name": "Full Spectrum Warrior",
  "slug": "full-spectrum-warrior",
  "year": null,
  "description": "",
  "banner_url": "https://lutris.net/games/banner/full-spectrum-warrior.jpg",
  "icon_url": "https://lutris.net/games/icon/full-spectrum-warrior.png",
  "is_public": true,
  "updated": "2020-10-08T10:02:59.629925Z",
  "provider_games": [
    {
      "name": "Full Spectrum Warrior",
      "slug": "1207660633",
      "service": "gog"
    },
    {
      "name": "Full Spectrum Warrior",
      "slug": "4520",
      "service": "steam"
    }
  ],
  "steamid": 4520,
  "gogid": 1207660633,
  "gogslug": "full_spectrum_warrior",
  "humblestoreid": "",
  "id": 1779
}