{
  "name": "Goblin and Coins",
  "slug": "goblin-and-coins",
  "year": null,
  "description": "",
  "banner_url": "https://lutris.net/games/banner/goblin-and-coins.jpg",
  "icon_url": "https://lutris.net/games/icon/goblin-and-coins.png",
  "is_public": true,
  "updated": "2020-10-08T10:05:47.403130Z",
  "provider_games": [
    {
      "name": "Goblin and Coins",
      "slug": "551580",
      "service": "steam"
    }
  ],
  "steamid": 551580,
  "gogid": null,
  "gogslug": "",
  "humblestoreid": "",
  "id": 12138
}