{
  "name": "BIOS",
  "slug": "bios",
  "year": null,
  "description": "",
  "banner_url": "https://lutris.net/games/banner/bios.jpg",
  "icon_url": "https://lutris.net/games/icon/bios.png",
  "is_public": true,
  "updated": "2020-10-08T10:16:36.030320Z",
  "provider_games": [
    {
      "name": "BIOS",
      "slug": "350600",
      "service": "steam"
    }
  ],
  "steamid": 350600,
  "gogid": null,
  "gogslug": "",
  "humblestoreid": "",
  "id": 10249
}