{
  "name": "Gnome",
  "slug": "gnome",
  "year": 2007,
  "description": "",
  "banner_url": "",
  "icon_url": "https://lutris.net/games/icon/gnome.png",
  "is_public": true,
  "updated": "2020-05-26T03:34:08.936809Z",
  "provider_games": [
    {
      "name": "Gnome",
      "slug": "gnome_9",
      "service": "mame"
    }
  ],
  "steamid": null,
  "gogid": null,
  "gogslug": "",
  "humblestoreid": "",
  "id": 34258
}