{
  "name": "Machinations: Fog of War",
  "slug": "machinations-fog-of-war",
  "year": null,
  "description": "",
  "banner_url": "https://lutris.net/games/banner/machinations-fog-of-war.jpg",
  "icon_url": "https://lutris.net/games/icon/machinations-fog-of-war.png",
  "is_public": true,
  "updated": "2020-10-08T10:06:53.455610Z",
  "provider_games": [
    {
      "name": "Machinations: Fog of War",
      "slug": "517240",
      "service": "steam"
    }
  ],
  "steamid": 517240,
  "gogid": null,
  "gogslug": "",
  "humblestoreid": "",
  "id": 16213
}