{
  "id": 1870,
  "game_id": 258,
  "game_slug": "jamestown",
  "name": "Jamestown",
  "year": 2011,
  "user": "strider",
  "runner": "linux",
  "slug": "jamestown-humble-bundle",
  "version": "Humble Bundle",
  "description": "",
  "notes": "",
  "created_at": "2016-01-14T10:42:52.991957Z",
  "updated_at": "2016-08-12T03:28:01.987916Z",
  "draft": false,
  "published": true,
  "published_by": null,
  "rating": "",
  "steamid": 94200,
  "gogid": null,
  "gogslug": "",
  "humbleid": "jamestown",
  "humblestoreid": "jamestown",
  "humblestoreid_real": "jamestown",
  "script": {
    "exe": "Jamestown-x86",
    "files": [
      {
        "archive": "N/A:\"Select the archive downloaded from Humble Bundle\""
      },
      {
        "steamapi": "https://github.com/ValveSoftware/source-sdk-2013/raw/master/sp/src/lib/public/linux32/libsteam_api.so"
      }
    ],
    "installer": [
      {
        "extract": {
          "dst": "$CACHE",
          "file": "archive"
        }
      },
      {
        "execute": {
          "args": "--destination=$GAMEDIR",
          "file": "$CACHE/JamestownInstaller_1_0_2-bin"
        }
      },
      {
        "move": {
          "dst": "$GAMEDIR",
          "src": "steamapi"
        }
      }
    ]
  },
  "content": "exe: Jamestown-x86\nfiles:\n- archive: N/A:\"Select the archive downloaded from Humble Bundle\"\n- steamapi: https://github.com/ValveSoftware/source-sdk-2013/raw/master/sp/src/lib/public/linux32/libsteam_api.so\ninstaller:\n- extract:\n    dst: $CACHE\n    file: archive\n- execute:\n    args: --destination=$GAMEDIR\n    file: $CACHE/JamestownInstaller_1_0_2-bin\n- move:\n    dst: $GAMEDIR\n    src: steamapi\n"
}