{
  "name": "Everything is Garbage",
  "slug": "everything-is-garbage",
  "year": 2020,
  "description": "A absurd factory game by Free Lives. Create everything from motels to obelisks - all powered by garbage and with a wonderful musical beat.\r\n\r\nMade in 72hrs for Ludum Dare 47 by Sam, Evan, Jay and Robbie\r\n\r\nCreate intricate garbage powered supply chains all with the ultimate goal of powering the great Obelisk of Startups (tm).",
  "banner_url": "https://lutris.net/games/banner/everything-is-garbage.jpg",
  "icon_url": "",
  "is_public": false,
  "updated": "2020-10-17T07:51:11.596817Z",
  "provider_games": [],
  "steamid": null,
  "gogid": null,
  "gogslug": "",
  "humblestoreid": "",
  "id": 39845
}