{
  "name": "Blameless",
  "slug": "blameless",
  "year": null,
  "description": "",
  "banner_url": "https://lutris.net/games/banner/blameless.jpg",
  "icon_url": "https://lutris.net/games/icon/blameless.png",
  "is_public": true,
  "updated": "2020-10-08T10:06:23.756187Z",
  "provider_games": [
    {
      "name": "Blameless",
      "slug": "530330",
      "service": "steam"
    }
  ],
  "steamid": 530330,
  "gogid": null,
  "gogslug": "",
  "humblestoreid": "",
  "id": 8250
}