{
  "id": 2572,
  "game_id": 48,
  "game_slug": "aquaria",
  "name": "Aquaria",
  "year": 2007,
  "user": "ssf",
  "runner": "linux",
  "slug": "aquaria-gogcom",
  "version": "GOG.com",
  "description": null,
  "notes": "",
  "created_at": "2016-08-23T16:22:25.954000Z",
  "updated_at": "2019-10-27T07:43:48.429004Z",
  "draft": false,
  "published": true,
  "published_by": 19464,
  "rating": "",
  "steamid": 24420,
  "gogid": 1430398832,
  "gogslug": "aquaria",
  "humbleid": "aquaria",
  "humblestoreid": "aquaria",
  "humblestoreid_real": "aquaria",
  "script": {
    "files": [
      {
        "goginstaller": "N/A:Please select the GOG.com Linux installer"
      }
    ],
    "game": {
      "exe": "start.sh"
    },
    "installer": [
      {
        "extract": {
          "dst": "$CACHE/GOG",
          "file": "goginstaller",
          "format": "zip"
        }
      },
      {
        "merge": {
          "dst": "$GAMEDIR",
          "src": "$CACHE/GOG/data/noarch/"
        }
      }
    ]
  },
  "content": "files:\n- goginstaller: N/A:Please select the GOG.com Linux installer\ngame:\n  exe: start.sh\ninstaller:\n- extract:\n    dst: $CACHE/GOG\n    file: goginstaller\n    format: zip\n- merge:\n    dst: $GAMEDIR\n    src: $CACHE/GOG/data/noarch/\n"
}