{
  "name": "Altar Guardian",
  "slug": "altar-guardian",
  "year": null,
  "description": "",
  "banner_url": "https://lutris.net/games/banner/altar-guardian.jpg",
  "icon_url": "https://lutris.net/games/icon/altar-guardian.png",
  "is_public": false,
  "updated": "2019-01-23T08:28:19.915534Z",
  "provider_games": [],
  "steamid": 543770,
  "gogid": null,
  "gogslug": "",
  "humblestoreid": "",
  "id": 10030
}