{
  "name": "ClearMem :: Free Up Your RAM",
  "slug": "clearmem-free-up-your-ram",
  "year": null,
  "description": "",
  "banner_url": "https://lutris.net/games/banner/clearmem-free-up-your-ram.jpg",
  "icon_url": "https://lutris.net/games/icon/clearmem-free-up-your-ram.png",
  "is_public": true,
  "updated": "2020-10-08T09:58:11.884892Z",
  "provider_games": [
    {
      "name": "ClearMem :: Free Up Your RAM",
      "slug": "780100",
      "service": "steam"
    }
  ],
  "steamid": 780100,
  "gogid": null,
  "gogslug": "",
  "humblestoreid": "",
  "id": 20695
}