{
  "name": "Gauntlet Slayer Edition",
  "slug": "gauntlet-slayer-edition",
  "year": 2014,
  "description": "",
  "banner_url": "https://lutris.net/games/banner/gauntlet-slayer-edition.jpg",
  "icon_url": "",
  "is_public": true,
  "updated": "2020-05-31T00:17:43.350240Z",
  "provider_games": [
    {
      "name": "Gauntlet™ Slayer Edition",
      "slug": "1430183808",
      "service": "gog"
    }
  ],
  "steamid": null,
  "gogid": 1430183808,
  "gogslug": "gauntlet_slayer_edition",
  "humblestoreid": "",
  "id": 24088
}