{
  "name": "Castlevania Harmony of Despair",
  "slug": "castlevania-harmony-of-despair",
  "year": 2016,
  "description": "",
  "banner_url": "https://lutris.net/games/banner/castlevania-harmony-of-despair.jpg",
  "icon_url": "",
  "is_public": false,
  "updated": "2020-09-17T17:37:53.132422Z",
  "provider_games": [],
  "steamid": null,
  "gogid": null,
  "gogslug": "",
  "humblestoreid": "",
  "id": 39068
}