{
  "id": 15496,
  "game_id": 23645,
  "game_slug": "spellcasting-101-sorcerers-get-all-the-girls",
  "name": "Spellcasting 101: Sorcerers Get All The Girls",
  "year": 1990,
  "user": "appoloin",
  "runner": "dosbox",
  "slug": "spellcasting-101-sorcerers-ge-ms-dos",
  "version": "MS-DOS",
  "description": null,
  "notes": "",
  "created_at": "2019-09-12T21:48:23.600714Z",
  "updated_at": "2019-09-12T21:48:23.600744Z",
  "draft": false,
  "published": false,
  "published_by": null,
  "rating": "",
  "steamid": null,
  "gogid": null,
  "gogslug": "",
  "humbleid": "",
  "humblestoreid": "",
  "humblestoreid_real": "",
  "script": {
    "files": [
      {
        "game": "N/A:Select the file S101.EXE"
      }
    ],
    "game": {
      "main_file": "$GAMEDIR/spell.conf"
    },
    "installer": [
      {
        "execute": {
          "args": "$GAMEDIR/HDD $GAMEDIR/HDD/spell",
          "file": "mkdir"
        }
      },
      {
        "write_file": {
          "content": "#!/bin/bash\nsrc=$1\ndst=$2\nsrc_path=$(echo \"$1\" | sed -r \"s/(.+)\\/.+/\\1/\")\ncp -avr \"$src_path/.\"  \"$dst\"",
          "file": "$CACHE/bulkcopy.sh"
        }
      },
      {
        "chmodx": "$CACHE/bulkcopy.sh"
      },
      {
        "execute": {
          "args": "$game $GAMEDIR/HDD/spell",
          "file": "$CACHE/bulkcopy.sh"
        }
      },
      {
        "write_file": {
          "content": "[sdl]\nsensitivity=20\n[autoexec]\nmount C \"$GAMEDIR/HDD\" -t dir\nC:\ncd spell\nS101.EXE mt32\nexit",
          "file": "$GAMEDIR/spell.conf"
        }
      }
    ]
  },
  "content": "files:\n- game: N/A:Select the file S101.EXE\ngame:\n  main_file: $GAMEDIR/spell.conf\ninstaller:\n- execute:\n    args: $GAMEDIR/HDD $GAMEDIR/HDD/spell\n    file: mkdir\n- write_file:\n    content: '#!/bin/bash\n\n      src=$1\n\n      dst=$2\n\n      src_path=$(echo \"$1\" | sed -r \"s/(.+)\\/.+/\\1/\")\n\n      cp -avr \"$src_path/.\"  \"$dst\"'\n    file: $CACHE/bulkcopy.sh\n- chmodx: $CACHE/bulkcopy.sh\n- execute:\n    args: $game $GAMEDIR/HDD/spell\n    file: $CACHE/bulkcopy.sh\n- write_file:\n    content: '[sdl]\n\n      sensitivity=20\n\n      [autoexec]\n\n      mount C \"$GAMEDIR/HDD\" -t dir\n\n      C:\n\n      cd spell\n\n      S101.EXE mt32\n\n      exit'\n    file: $GAMEDIR/spell.conf\n"
}