{
  "name": "Legend of the Silver Fox",
  "slug": "legend-of-the-silver-fox",
  "year": 2016,
  "description": "Elenor loved the stories her father used to tell her. Especially the one about the Silver Fox. However, this was not a story. She knew it was true; the mysterious animal existed! In order to prove that her father was right all along she searches the Silver Fox herself. Together with her best friend, Jack who lives at the dairy, she keeps exploring the forest. One day, however, she meets another mysterious boy in the woods …",
  "banner_url": "https://lutris.net/games/banner/legend-of-the-silver-fox.jpg",
  "icon_url": "",
  "is_public": true,
  "updated": "2019-01-23T08:30:09.226120Z",
  "provider_games": [],
  "steamid": null,
  "gogid": null,
  "gogslug": "",
  "humblestoreid": "",
  "id": 15172
}