{
  "name": "F.E.A.R.",
  "slug": "fear",
  "year": 2005,
  "description": "Be the hero in your own cinematic epic of action, tension and terror. A mysterious paramilitary force infiltrates a multi-billion dollar aerospace compound, taking hostages but issuing no demands. The government responds by sending in a Special Forces team only to have them obliterated. Live footage of the massacre shows an inexplicable wave of destruction tearing the soldiers apart. With no other recourse, the elite F.E.A.R. (First Encounter Assault Recon) team is assembled to deal with the extraordinary circumstances. They are given one simple mission: Evaluate the threat and eliminate the intruders at any cost.",
  "banner_url": "https://lutris.net/games/banner/fear.jpg",
  "icon_url": "https://lutris.net/games/icon/fear.png",
  "is_public": true,
  "updated": "2020-06-01T04:04:53.859023Z",
  "provider_games": [
    {
      "name": "F.E.A.R. Platinum",
      "slug": "1423058413",
      "service": "gog"
    },
    {
      "name": "F.E.A.R.",
      "slug": "21090",
      "service": "steam"
    }
  ],
  "steamid": 21090,
  "gogid": 1423058413,
  "gogslug": "fear_platinum",
  "humblestoreid": "fear",
  "id": 609
}