{
  "name": "Let's Explore The Jungle (Junior Field Trips)",
  "slug": "lets-explore-the-jungle-junior-field-trips",
  "year": null,
  "description": "",
  "banner_url": "https://lutris.net/games/banner/lets-explore-the-jungle-junior-field-trips.jpg",
  "icon_url": "https://lutris.net/games/icon/lets-explore-the-jungle-junior-field-trips.png",
  "is_public": true,
  "updated": "2019-01-23T08:30:10.185709Z",
  "provider_games": [
    {
      "name": "Let's Explore The Jungle (Junior Field Trips)",
      "slug": "363070",
      "service": "steam"
    }
  ],
  "steamid": 363070,
  "gogid": null,
  "gogslug": "",
  "humblestoreid": "",
  "id": 4582
}