{
  "name": "Faraway Islands",
  "slug": "faraway-islands",
  "year": null,
  "description": "",
  "banner_url": "https://lutris.net/games/banner/faraway-islands.jpg",
  "icon_url": "https://lutris.net/games/icon/faraway-islands.png",
  "is_public": true,
  "updated": "2020-10-08T10:05:02.695821Z",
  "provider_games": [
    {
      "name": "Faraway Islands",
      "slug": "576060",
      "service": "steam"
    }
  ],
  "steamid": 576060,
  "gogid": null,
  "gogslug": "",
  "humblestoreid": "",
  "id": 12953
}