{
  "name": "Depths of Dread",
  "slug": "depths-of-dread",
  "year": null,
  "description": "",
  "banner_url": "https://lutris.net/games/banner/depths-of-dread.jpg",
  "icon_url": "https://lutris.net/games/icon/depths-of-dread.png",
  "is_public": true,
  "updated": "2020-10-08T10:07:27.576282Z",
  "provider_games": [
    {
      "name": "Depths of Dread",
      "slug": "498550",
      "service": "steam"
    }
  ],
  "steamid": 498550,
  "gogid": null,
  "gogslug": "",
  "humblestoreid": "",
  "id": 25458
}