{
  "id": 16612,
  "game_id": 30159,
  "game_slug": "willy-bear-beach",
  "name": "Willy Bear Beach",
  "year": 2015,
  "user": "kimchitea",
  "runner": "linux",
  "slug": "willy-bear-beach-itchio",
  "version": "itch.io",
  "description": null,
  "notes": "",
  "created_at": "2019-11-04T15:09:15.052000Z",
  "updated_at": "2019-11-06T23:15:45.375275Z",
  "draft": false,
  "published": true,
  "published_by": 19464,
  "rating": "",
  "steamid": null,
  "gogid": null,
  "gogslug": "",
  "humbleid": "",
  "humblestoreid": "",
  "humblestoreid_real": "",
  "script": {
    "files": [
      {
        "file1": "N/A:Please select the game archive"
      }
    ],
    "game": {
      "exe": "Willy Bear Beach.sh"
    },
    "installer": [
      {
        "extract": {
          "file": "file1"
        }
      },
      {
        "chmodx": "$GAMEDIR/Willy Bear Beach.sh"
      },
      {
        "chmodx": "$GAMEDIR/lib/linux-i686/Willy Bear Beach"
      },
      {
        "chmodx": "$GAMEDIR/lib/linux-x86_64/Willy Bear Beach"
      }
    ]
  },
  "content": "files:\n- file1: N/A:Please select the game archive\ngame:\n  exe: Willy Bear Beach.sh\ninstaller:\n- extract:\n    file: file1\n- chmodx: $GAMEDIR/Willy Bear Beach.sh\n- chmodx: $GAMEDIR/lib/linux-i686/Willy Bear Beach\n- chmodx: $GAMEDIR/lib/linux-x86_64/Willy Bear Beach\n"
}