{
  "name": "Envoy 2",
  "slug": "envoy-2",
  "year": null,
  "description": "",
  "banner_url": "https://lutris.net/games/banner/envoy-2.jpg",
  "icon_url": "https://lutris.net/games/icon/envoy-2.png",
  "is_public": false,
  "updated": "2019-01-23T08:29:23.869357Z",
  "provider_games": [],
  "steamid": 448940,
  "gogid": null,
  "gogslug": "",
  "humblestoreid": "",
  "id": 7544
}