{
  "name": "Global ATC Simulator",
  "slug": "global-atc-simulator",
  "year": null,
  "description": "",
  "banner_url": "https://lutris.net/games/banner/global-atc-simulator.jpg",
  "icon_url": "https://lutris.net/games/icon/global-atc-simulator.png",
  "is_public": true,
  "updated": "2020-10-08T09:20:54.019801Z",
  "provider_games": [
    {
      "name": "Global ATC Simulator",
      "slug": "270830",
      "service": "steam"
    }
  ],
  "steamid": 270830,
  "gogid": null,
  "gogslug": "",
  "humblestoreid": "",
  "id": 14310
}