{
  "name": "Cooking Witch",
  "slug": "cooking-witch",
  "year": null,
  "description": "",
  "banner_url": "https://lutris.net/games/banner/cooking-witch.jpg",
  "icon_url": "https://lutris.net/games/icon/cooking-witch.png",
  "is_public": true,
  "updated": "2020-10-08T10:06:59.450101Z",
  "provider_games": [
    {
      "name": "Cooking Witch",
      "slug": "514580",
      "service": "steam"
    }
  ],
  "steamid": 514580,
  "gogid": null,
  "gogslug": "",
  "humblestoreid": "",
  "id": 11425
}