{
  "name": "A Lenda do Herói - O Herói desta Canção",
  "slug": "a-lenda-do-heroi-o-heroi-desta-cancao",
  "year": 2017,
  "description": "Aventure-se no mundo de pixel art onde as ações do jogador são cantadas de forma cômica nesse jogo de aventura em pixel art 2D.",
  "banner_url": "https://lutris.net/games/banner/a-lenda-do-heroi-o-heroi-desta-cancao.jpg",
  "icon_url": "https://lutris.net/games/icon/a-lenda-do-heroi-o-heroi-desta-cancao.png",
  "is_public": true,
  "updated": "2019-01-23T08:28:18.039187Z",
  "provider_games": [
    {
      "name": "Songs for a Hero",
      "slug": "389170",
      "service": "steam"
    }
  ],
  "steamid": 389170,
  "gogid": null,
  "gogslug": "",
  "humblestoreid": "",
  "id": 13289
}