{
  "name": "Junk Jack",
  "slug": "junk-jack",
  "year": null,
  "description": "",
  "banner_url": "https://lutris.net/games/banner/junk-jack.jpg",
  "icon_url": "https://lutris.net/games/icon/junk-jack.png",
  "is_public": true,
  "updated": "2019-01-23T08:30:01.616246Z",
  "provider_games": [
    {
      "name": "Junk Jack",
      "slug": "414190",
      "service": "steam"
    }
  ],
  "steamid": 414190,
  "gogid": null,
  "gogslug": "",
  "humblestoreid": "",
  "id": 9129
}