{
  "name": "Dungeon Girl",
  "slug": "dungeon-girl",
  "year": null,
  "description": "",
  "banner_url": "https://lutris.net/games/banner/dungeon-girl.jpg",
  "icon_url": "https://lutris.net/games/icon/dungeon-girl.png",
  "is_public": true,
  "updated": "2019-01-23T08:29:19.088895Z",
  "provider_games": [
    {
      "name": "Dungeon Girl",
      "slug": "494090",
      "service": "steam"
    }
  ],
  "steamid": 494090,
  "gogid": null,
  "gogslug": "",
  "humblestoreid": "",
  "id": 20561
}