{
  "name": "Mahjong Gottsu ee-kanji",
  "slug": "mahjong-gottsu-ee-kanji",
  "year": 1991,
  "description": "",
  "banner_url": "",
  "icon_url": "https://lutris.net/games/icon/mahjong-gottsu-ee-kanji.png",
  "is_public": true,
  "updated": "2020-05-26T03:35:35.329859Z",
  "provider_games": [
    {
      "name": "Mahjong Gottsu ee-kanji",
      "slug": "mjgottsu",
      "service": "mame"
    }
  ],
  "steamid": null,
  "gogid": null,
  "gogslug": "",
  "humblestoreid": "",
  "id": 34944
}