{
  "name": "Clue/Cluedo: The Classic Mystery Game",
  "slug": "cluecluedo-the-classic-mystery-game",
  "year": null,
  "description": "",
  "banner_url": "https://lutris.net/games/banner/cluecluedo-the-classic-mystery-game.jpg",
  "icon_url": "https://lutris.net/games/icon/cluecluedo-the-classic-mystery-game.png",
  "is_public": true,
  "updated": "2019-06-10T12:00:26.802149Z",
  "provider_games": [
    {
      "name": "Clue/Cluedo: The Classic Mystery Game",
      "slug": "794800",
      "service": "steam"
    }
  ],
  "steamid": 794800,
  "gogid": null,
  "gogslug": "",
  "humblestoreid": "",
  "id": 27798
}