{
  "name": "GameRanger",
  "slug": "gameranger",
  "year": 1997,
  "description": "GameRanger is a free download for Mac and PC that lets you play over 700 games and demos online with friends and opponents worldwide. GameRanger offers features like profiles, friends lists, instant messaging, in-game voice communication, and competitive ladders/rankings/ratings.",
  "banner_url": "https://lutris.net/games/banner/gameranger.jpg",
  "icon_url": "",
  "is_public": true,
  "updated": "2020-01-01T06:52:44.242897Z",
  "provider_games": [],
  "steamid": null,
  "gogid": null,
  "gogslug": "",
  "humblestoreid": "",
  "id": 30611
}