{
  "name": "Incredible Dracula: Vargosi Returns",
  "slug": "incredible-dracula-vargosi-returns",
  "year": null,
  "description": "",
  "banner_url": "https://lutris.net/games/banner/incredible-dracula-vargosi-returns.jpg",
  "icon_url": "https://lutris.net/games/icon/incredible-dracula-vargosi-returns.png",
  "is_public": true,
  "updated": "2020-10-08T09:18:54.599371Z",
  "provider_games": [
    {
      "name": "Incredible Dracula: Vargosi Returns",
      "slug": "1175150",
      "service": "steam"
    }
  ],
  "steamid": 1175150,
  "gogid": null,
  "gogslug": "",
  "humblestoreid": "",
  "id": 32521
}