{
  "id": 19323,
  "game_id": 1265,
  "game_slug": "sonic-adventure-dx",
  "name": "Sonic Adventure DX",
  "year": 2003,
  "user": "soredake",
  "runner": "steam",
  "slug": "sonic-adventure-dx-proton",
  "version": "Proton",
  "description": null,
  "notes": "",
  "created_at": "2020-03-31T10:25:32.208683Z",
  "updated_at": "2020-03-31T10:25:40.080756Z",
  "draft": false,
  "published": true,
  "published_by": null,
  "rating": "",
  "steamid": 71250,
  "gogid": null,
  "gogslug": "",
  "humbleid": "",
  "humblestoreid": "",
  "humblestoreid_real": "",
  "script": {
    "game": {
      "appid": 71250
    }
  },
  "content": "game:\n  appid: 71250\n"
}