{
  "name": "Glow",
  "slug": "glow",
  "year": null,
  "description": "",
  "banner_url": "https://lutris.net/games/banner/glow.jpg",
  "icon_url": "https://lutris.net/games/icon/glow.png",
  "is_public": true,
  "updated": "2020-10-08T10:07:39.239079Z",
  "provider_games": [
    {
      "name": "Glow",
      "slug": "491830",
      "service": "steam"
    }
  ],
  "steamid": 491830,
  "gogid": null,
  "gogslug": "",
  "humblestoreid": "",
  "id": 10845
}