{
  "name": "Chronicles of a Dark Lord: Episode 1 Tides of Fate Complete",
  "slug": "chronicles-of-a-dark-lord-episode-1-tides-of-fate-",
  "year": null,
  "description": "",
  "banner_url": "https://lutris.net/games/banner/chronicles-of-a-dark-lord-episode-1-tides-of-fate-.jpg",
  "icon_url": "https://lutris.net/games/icon/chronicles-of-a-dark-lord-episode-1-tides-of-fate-.png",
  "is_public": false,
  "updated": "2019-01-23T08:28:52.477441Z",
  "provider_games": [],
  "steamid": 336280,
  "gogid": null,
  "gogslug": "",
  "humblestoreid": "",
  "id": 3624
}