{
  "name": "Awesome Shapes",
  "slug": "awesome-shapes",
  "year": 2013,
  "description": "[ Awesome Shapes ] is an adventure video game about friendship and eternity. When horizon ends your adventure begins. There, in the depths of outer space you do not know who we are. But you're not alone. We are not alone. Sounds of stars are waiting for you. When horizon ends friendship is most important. Dive in.",
  "banner_url": "https://lutris.net/games/banner/awesome-shapes.jpg",
  "icon_url": "",
  "is_public": true,
  "updated": "2019-01-23T08:28:29.824054Z",
  "provider_games": [],
  "steamid": null,
  "gogid": null,
  "gogslug": "",
  "humblestoreid": "",
  "id": 3926
}