{
  "name": "Dangerous Games: Illusionist Collector's Edition",
  "slug": "dangerous-games-illusionist-collectors-edition",
  "year": null,
  "description": "",
  "banner_url": "https://lutris.net/games/banner/dangerous-games-illusionist-collectors-edition.jpg",
  "icon_url": "https://lutris.net/games/icon/dangerous-games-illusionist-collectors-edition.png",
  "is_public": true,
  "updated": "2020-10-08T10:00:22.514513Z",
  "provider_games": [
    {
      "name": "Dangerous Games: Illusionist Collector's Edition",
      "slug": "723920",
      "service": "steam"
    }
  ],
  "steamid": 723920,
  "gogid": null,
  "gogslug": "",
  "humblestoreid": "",
  "id": 24371
}