{
  "name": "Legend of Heroes",
  "slug": "legend-of-heroes",
  "year": 2000,
  "description": "Legend of Heroes is a 2D side-scrolling beat 'em-up taking place in ancient China at the time of the Northern and Southern dynasties. The country was invaded by the Huns and the warrior princess Falan managed to hold off their army and saved it from Hun occupation. However a year later the Huns try again with a second invasion. The game offers four warriors to choose. They are Falan, Liang, Jili and Cheng each with their own moves.",
  "banner_url": "https://lutris.net/games/banner/legend-of-heroes.jpg",
  "icon_url": "https://lutris.net/games/icon/legend-of-heroes.png",
  "is_public": true,
  "updated": "2020-05-26T03:35:13.871692Z",
  "provider_games": [
    {
      "name": "Legend of Heroes",
      "slug": "legendoh",
      "service": "mame"
    }
  ],
  "steamid": null,
  "gogid": null,
  "gogslug": "",
  "humblestoreid": "",
  "id": 25630
}