{
  "name": "Demolition Derby",
  "slug": "demolition-derby",
  "year": 1984,
  "description": "",
  "banner_url": "https://lutris.net/games/banner/demolition-derby.jpg",
  "icon_url": "https://lutris.net/games/icon/demolition-derby.png",
  "is_public": true,
  "updated": "2020-05-26T03:33:11.145733Z",
  "provider_games": [
    {
      "name": "Demolition Derby",
      "slug": "demoderb",
      "service": "mame"
    }
  ],
  "steamid": null,
  "gogid": null,
  "gogslug": "",
  "humblestoreid": "",
  "id": 33868
}