{
  "name": "American Election",
  "slug": "american-election",
  "year": 2019,
  "description": "",
  "banner_url": "https://lutris.net/games/banner/american-election.jpg",
  "icon_url": "",
  "is_public": false,
  "updated": "2020-09-17T03:12:54.754256Z",
  "provider_games": [],
  "steamid": null,
  "gogid": null,
  "gogslug": "",
  "humblestoreid": "",
  "id": 39029
}