{
  "name": "Grand Theft Auto: Vice City",
  "slug": "grand-theft-auto-vice-city",
  "year": 2002,
  "description": "Welcome to the 1980s.\r\nFrom the decade of big hair, excess and pastel suits comes a story of one man's rise to the top of the criminal pile as Grand Theft Auto returns. Vice City is a huge urban sprawl ranging from the beach to the swamps and the glitz to the ghetto, and is the most varied, complete and alive digital city ever created. Combining non-linear gameplay with a character driven narrative, you arrive in a town brimming with delights and degradation and are given the opportunity to take it over as you choose.",
  "banner_url": "https://lutris.net/games/banner/grand-theft-auto-vice-city.jpg",
  "icon_url": "https://lutris.net/games/icon/grand-theft-auto-vice-city.png",
  "is_public": true,
  "updated": "2019-01-23T08:29:42.526104Z",
  "provider_games": [
    {
      "name": "Grand Theft Auto: Vice City",
      "slug": "12110",
      "service": "steam"
    }
  ],
  "steamid": 12110,
  "gogid": null,
  "gogslug": "",
  "humblestoreid": "grand-theft-auto-vice-city",
  "id": 134
}