{
  "name": "Don't Feed",
  "slug": "dont-feed",
  "year": null,
  "description": "",
  "banner_url": "https://lutris.net/games/banner/dont-feed.jpg",
  "icon_url": "https://lutris.net/games/icon/dont-feed.png",
  "is_public": true,
  "updated": "2020-10-08T10:00:41.026686Z",
  "provider_games": [
    {
      "name": "Don't Feed",
      "slug": "712090",
      "service": "steam"
    }
  ],
  "steamid": 712090,
  "gogid": null,
  "gogslug": "",
  "humblestoreid": "",
  "id": 15496
}