{
  "name": "Desperados III",
  "slug": "desperados-iii",
  "year": null,
  "description": "",
  "banner_url": "https://lutris.net/games/banner/desperados-iii.jpg",
  "icon_url": "https://lutris.net/games/icon/desperados-iii.png",
  "is_public": true,
  "updated": "2020-10-08T10:17:50.906297Z",
  "provider_games": [
    {
      "name": "Desperados III",
      "slug": "610370",
      "service": "steam"
    }
  ],
  "steamid": 610370,
  "gogid": null,
  "gogslug": "",
  "humblestoreid": "",
  "id": 37543
}