{
  "name": "Hacker Evolution - Untold",
  "slug": "hacker-evolution-untold",
  "year": null,
  "description": "",
  "banner_url": "https://lutris.net/games/banner/hacker-evolution-untold.jpg",
  "icon_url": "https://lutris.net/games/icon/hacker-evolution-untold.png",
  "is_public": true,
  "updated": "2019-01-23T08:29:45.474598Z",
  "provider_games": [
    {
      "name": "Hacker Evolution - Untold",
      "slug": "70110",
      "service": "steam"
    }
  ],
  "steamid": 70110,
  "gogid": null,
  "gogslug": "",
  "humblestoreid": "",
  "id": 446
}