{
  "id": 6274,
  "game_id": 563,
  "game_slug": "prey-2006",
  "name": "Prey (2006)",
  "year": 2006,
  "user": "soredake",
  "runner": "linux",
  "slug": "prey-native-steam-data",
  "version": "Native (Steam data)",
  "description": null,
  "notes": "",
  "created_at": "2017-11-07T20:44:36.443000Z",
  "updated_at": "2018-05-05T02:04:31.097156Z",
  "draft": false,
  "published": true,
  "published_by": null,
  "rating": "",
  "steamid": 3970,
  "gogid": null,
  "gogslug": "",
  "humbleid": "",
  "humblestoreid": "",
  "humblestoreid_real": "",
  "script": {
    "files": [
      {
        "steamdata": "$WINESTEAM:3970:/"
      },
      {
        "installer": "https://icculus.org/prey/downloads/prey-installer-02192009.bin"
      }
    ],
    "game": {
      "exe": "prey",
      "working_dir": "$GAMEDIR"
    },
    "installer": [
      {
        "execute": {
          "args": "$installer  -d \"$GAMEDIR\" \"data/prey-linux-x86/*\"",
          "file": "unzip"
        }
      },
      {
        "merge": {
          "dst": "$GAMEDIR",
          "src": "$GAMEDIR/data/prey-linux-x86"
        }
      },
      {
        "merge": {
          "dst": "$GAMEDIR/base",
          "src": "$steamdata/base/"
        }
      }
    ]
  },
  "content": "files:\n- steamdata: $WINESTEAM:3970:/\n- installer: https://icculus.org/prey/downloads/prey-installer-02192009.bin\ngame:\n  exe: prey\n  working_dir: $GAMEDIR\ninstaller:\n- execute:\n    args: $installer  -d \"$GAMEDIR\" \"data/prey-linux-x86/*\"\n    file: unzip\n- merge:\n    dst: $GAMEDIR\n    src: $GAMEDIR/data/prey-linux-x86\n- merge:\n    dst: $GAMEDIR/base\n    src: $steamdata/base/\n"
}