{
  "id": 19891,
  "game_id": 563,
  "game_slug": "prey-2006",
  "name": "Prey (2006)",
  "year": 2006,
  "user": "oster",
  "runner": "wine",
  "slug": "prey-installer",
  "version": "Installer",
  "description": null,
  "notes": "In base/autoexec.cfg need set screen resolution if you have widescreen monitor",
  "created_at": "2020-04-22T15:27:22.711000Z",
  "updated_at": "2020-05-13T00:21:56.766711Z",
  "draft": false,
  "published": true,
  "published_by": 64834,
  "rating": "",
  "steamid": 3970,
  "gogid": null,
  "gogslug": "",
  "humbleid": "",
  "humblestoreid": "",
  "humblestoreid_real": "",
  "script": {
    "files": [
      {
        "setup": "N/A:Select the game's setup file"
      }
    ],
    "game": {
      "arch": "win32",
      "exe": "drive_c/Program Files/Prey/PREY.exe",
      "prefix": "$GAMEDIR"
    },
    "installer": [
      {
        "task": {
          "description": "Creating Wine prefix",
          "name": "create_prefix",
          "prefix": "$GAMEDIR/prefix"
        }
      },
      {
        "task": {
          "app": "d3dcompiler_43 d3dcompiler_47 d3dx9",
          "name": "winetricks",
          "prefix": "$GAMEDIR/prefix"
        }
      },
      {
        "task": {
          "arch": "win32",
          "executable": "setup",
          "name": "wineexec",
          "prefix": "$GAMEDIR"
        }
      }
    ],
    "wine": {
      "dxvk": true,
      "esync": true
    }
  },
  "content": "files:\n- setup: N/A:Select the game's setup file\ngame:\n  arch: win32\n  exe: drive_c/Program Files/Prey/PREY.exe\n  prefix: $GAMEDIR\ninstaller:\n- task:\n    description: Creating Wine prefix\n    name: create_prefix\n    prefix: $GAMEDIR/prefix\n- task:\n    app: d3dcompiler_43 d3dcompiler_47 d3dx9\n    name: winetricks\n    prefix: $GAMEDIR/prefix\n- task:\n    arch: win32\n    executable: setup\n    name: wineexec\n    prefix: $GAMEDIR\nwine:\n  dxvk: true\n  esync: true\n"
}