{
  "name": "Fechtbuch: Introducing Petr Nůsek",
  "slug": "fechtbuch-introducing-petr-nusek",
  "year": null,
  "description": "",
  "banner_url": "https://lutris.net/games/banner/fechtbuch-introducing-petr-nusek.jpg",
  "icon_url": "https://lutris.net/games/icon/fechtbuch-introducing-petr-nusek.png",
  "is_public": true,
  "updated": "2020-10-08T10:12:54.654723Z",
  "provider_games": [
    {
      "name": "Fechtbuch: Introducing Petr Nůsek",
      "slug": "1025172",
      "service": "steam"
    }
  ],
  "steamid": 1025172,
  "gogid": null,
  "gogslug": "",
  "humblestoreid": "",
  "id": 26286
}