{
  "name": "DORAEMON  STORY OF SEASONS",
  "slug": "doraemon-story-of-seasons",
  "year": null,
  "description": "",
  "banner_url": "https://lutris.net/games/banner/doraemon-story-of-seasons.jpg",
  "icon_url": "https://lutris.net/games/icon/doraemon-story-of-seasons.png",
  "is_public": true,
  "updated": "2020-10-08T10:17:19.934487Z",
  "provider_games": [
    {
      "name": "DORAEMON  STORY OF SEASONS",
      "slug": "965230",
      "service": "steam"
    }
  ],
  "steamid": 965230,
  "gogid": null,
  "gogslug": "",
  "humblestoreid": "",
  "id": 33093
}