{
  "name": "Fallen Enchantress: Legendary Heroes",
  "slug": "fallen-enchantress-legendary-heroes",
  "year": null,
  "description": "",
  "banner_url": "https://lutris.net/games/banner/fallen-enchantress-legendary-heroes.jpg",
  "icon_url": "https://lutris.net/games/icon/fallen-enchantress-legendary-heroes.png",
  "is_public": true,
  "updated": "2020-05-31T00:17:42.103947Z",
  "provider_games": [
    {
      "name": "Fallen Enchantress: Legendary Heroes ",
      "slug": "1445591825",
      "service": "gog"
    },
    {
      "name": "Fallen Enchantress: Legendary Heroes",
      "slug": "228260",
      "service": "steam"
    }
  ],
  "steamid": 228260,
  "gogid": 1449593992,
  "gogslug": "fallen_enchantress_legendary_heroes",
  "humblestoreid": "",
  "id": 844
}