{
  "name": "EverQuest: Secrets of Faydwer",
  "slug": "everquest-secrets-of-faydwer",
  "year": null,
  "description": "",
  "banner_url": "https://lutris.net/games/banner/everquest-secrets-of-faydwer.jpg",
  "icon_url": "",
  "is_public": true,
  "updated": "2020-10-08T10:02:25.607787Z",
  "provider_games": [
    {
      "name": "EverQuest: Secrets of Faydwer",
      "slug": "24120",
      "service": "steam"
    }
  ],
  "steamid": 24120,
  "gogid": null,
  "gogslug": "",
  "humblestoreid": "",
  "id": 3726
}