{
  "name": "Disney Sports: Basketball",
  "slug": "disney-sports-basketball",
  "year": 2003,
  "description": "Mickey and his pals are holding court! Are you ready for some of the fastest-paced, highest-flying, hardest-slamming basketball action you've ever seen? Disney Sports Basketball brings exaggerated moves and original locations to life as your favorite Disney characters take to the court.\r\n\r\nGame features include 2-on-2 courtside action, 6 game modes including a full range of mini games and over 25 magic items to boost performance.",
  "banner_url": "https://lutris.net/games/banner/disney-sports-basketball.jpg",
  "icon_url": "",
  "is_public": true,
  "updated": "2019-01-23T08:29:13.019581Z",
  "provider_games": [],
  "steamid": null,
  "gogid": null,
  "gogslug": "",
  "humblestoreid": "",
  "id": 12131
}