{
  "name": "Escape This",
  "slug": "escape-this",
  "year": null,
  "description": "",
  "banner_url": "https://lutris.net/games/banner/escape-this.jpg",
  "icon_url": "https://lutris.net/games/icon/escape-this.png",
  "is_public": true,
  "updated": "2020-10-08T10:13:13.372192Z",
  "provider_games": [
    {
      "name": "Escape This",
      "slug": "467370",
      "service": "steam"
    }
  ],
  "steamid": 467370,
  "gogid": null,
  "gogslug": "",
  "humblestoreid": "",
  "id": 7572
}