{
  "name": "Giants: Citizen Kabuto",
  "slug": "giants-citizen-kabuto",
  "year": 2000,
  "description": "Before man climbed down from the trees to shop in megastores and drink cappuccino, before the Earth wadded itself into a cool blue ball, before the Moon even existed, there was the Island. The Island, a massive fragment of a long-lost planet, hurtling blindly through space. Upon the surface of this paradise wanders the giant, Kabuto. Little does Kabuto know that the Island was home to others before him. In the oceans, there dwells a matriarchal race called the Sea Reapers. In their pride, they created Kabuto, as a defense against intruders. But Kabuto became conscious of himself, his loneliness, his pain - and he went berserk.\r\nSpace castaways, the Meccs piloted their ship through space, looking for their missing friends. If you haven’t guessed already, they ended up on the Island. Faced with yet another unscheduled layover while on their way to Planet Majorca, the Meccs decide to make the best of their temporary home. Just their luck - the natives are already embroiled in their own little war, and the Mecc visitors are most unwelcome!\r\nMeccaryns... Sea Reapers... Kabuto... One island isn’t big enough for the three of them.",
  "banner_url": "https://lutris.net/games/banner/giants-citizen-kabuto.jpg",
  "icon_url": "https://lutris.net/games/icon/giants-citizen-kabuto.png",
  "is_public": true,
  "updated": "2020-05-31T00:17:43.501827Z",
  "provider_games": [
    {
      "name": "Giants: Citizen Kabuto",
      "slug": "1207658650",
      "service": "gog"
    },
    {
      "name": "Giants: Citizen Kabuto",
      "slug": "557750",
      "service": "steam"
    }
  ],
  "steamid": 557750,
  "gogid": 1207658650,
  "gogslug": "giants_citizen_kabuto",
  "humblestoreid": "",
  "id": 7055
}