{
  "id": 18608,
  "game_id": 381,
  "game_slug": "fallout",
  "name": "Fallout",
  "year": 1997,
  "user": "soredake",
  "runner": "steam",
  "slug": "fallout-proton",
  "version": "Proton",
  "description": null,
  "notes": "",
  "created_at": "2020-02-29T19:56:28.540708Z",
  "updated_at": "2020-04-04T11:06:25.893655Z",
  "draft": false,
  "published": true,
  "published_by": null,
  "rating": "",
  "steamid": 38400,
  "gogid": 1440166342,
  "gogslug": "fallout",
  "humbleid": "",
  "humblestoreid": "",
  "humblestoreid_real": "",
  "script": {
    "game": {
      "appid": 38400
    },
    "system": {
      "env": {
        "WINEDLLOVERRIDES": "ddraw=n,b"
      }
    }
  },
  "content": "game:\r\n  appid: 38400\r\nsystem:\r\n  env:\r\n    WINEDLLOVERRIDES: ddraw=n,b"
}