{
  "name": "Egg Venture",
  "slug": "egg-venture",
  "year": 1997,
  "description": "",
  "banner_url": "https://lutris.net/games/banner/egg-venture.jpg",
  "icon_url": "https://lutris.net/games/icon/egg-venture.png",
  "is_public": true,
  "updated": "2020-05-26T03:33:32.531378Z",
  "provider_games": [
    {
      "name": "Egg Venture",
      "slug": "eggventr",
      "service": "mame"
    }
  ],
  "steamid": null,
  "gogid": null,
  "gogslug": "",
  "humblestoreid": "",
  "id": 33998
}