{
  "id": 4485,
  "game_id": 9681,
  "game_slug": "zeus-poseidon",
  "name": "Zeus + Poseidon",
  "year": null,
  "user": "Lucki",
  "runner": "wine",
  "slug": "zeus-poseidon-gog-w-widescreen-fix",
  "version": "GOG w/ Widescreen Fix (archive)",
  "description": "Requires GOG installer v2 or above.",
  "notes": "",
  "created_at": "2017-06-18T16:37:25.855000Z",
  "updated_at": "2020-04-19T07:29:33.288188Z",
  "draft": false,
  "published": true,
  "published_by": 20548,
  "rating": "",
  "steamid": 566050,
  "gogid": 1207659039,
  "gogslug": "zeus_poseidon",
  "humbleid": "",
  "humblestoreid": "",
  "humblestoreid_real": "",
  "script": {
    "files": [
      {
        "setup": "N/A:Select the Windows installer downloaded from GOG"
      },
      {
        "wide": "https://web.archive.org/web/20190909101400/https://www.wsgfmedia.com/jackfuste/Zeus/Zeus.7z"
      },
      {
        "save1": {
          "filename": "Zeus.inf",
          "url": "https://drive.google.com/uc?export=download&id=0B_fe1fNijaueMGZYNTdybEhxUDg"
        }
      },
      {
        "save2": {
          "filename": "Zeusmap.inf",
          "url": "https://drive.google.com/uc?export=download&id=0B_fe1fNijaueMFNJSFZOUFFkWjA"
        }
      }
    ],
    "game": {
      "exe": "$GAMEDIR/drive_c/GOG Games/Zeus and Poseidon/Zeus.exe",
      "prefix": "$GAMEDIR"
    },
    "installer": [
      {
        "task": {
          "args": "/silent /nogui /suppressmsgboxes /dir=\"C:\\GOG Games\\Zeus and Poseidon\"",
          "executable": "$setup",
          "name": "wineexec",
          "prefix": "$GAMEDIR"
        }
      },
      {
        "extract": {
          "dst": "$CACHE",
          "file": "$wide"
        }
      },
      {
        "merge": {
          "dst": "$GAMEDIR/drive_c/GOG Games/Zeus and Poseidon",
          "src": "$save1"
        }
      },
      {
        "merge": {
          "dst": "$GAMEDIR/drive_c/GOG Games/Zeus and Poseidon",
          "src": "$save2"
        }
      },
      {
        "input_menu": {
          "description": "Choose the desired resolution:",
          "id": "RESOLUTION",
          "options": [
            {
              "1280x720": "1280x720"
            },
            {
              "1280x800": "1280x800"
            },
            {
              "1280x1024": "1280x1024"
            },
            {
              "1360x768": "1360x768"
            },
            {
              "1440x900": "1440x900"
            },
            {
              "1600x900": "1600x900"
            },
            {
              "1680x1050": "1680x1050"
            },
            {
              "1920x1080": "1920x1080"
            },
            {
              "1920x1200": "1920x1200"
            },
            {
              "2048x1152": "2048x1152"
            },
            {
              "2560x1440": "2560x1440"
            },
            {
              "2560x1600": "2560x1600"
            }
          ],
          "preselect": "1920x1080"
        }
      },
      {
        "merge": {
          "dst": "$GAMEDIR/drive_c/GOG Games/Zeus and Poseidon",
          "src": "$CACHE/$INPUT_RESOLUTION"
        }
      }
    ]
  },
  "content": "files:\n- setup: N/A:Select the Windows installer downloaded from GOG\n- wide: https://web.archive.org/web/20190909101400/https://www.wsgfmedia.com/jackfuste/Zeus/Zeus.7z\n- save1:\n    filename: Zeus.inf\n    url: https://drive.google.com/uc?export=download&id=0B_fe1fNijaueMGZYNTdybEhxUDg\n- save2:\n    filename: Zeusmap.inf\n    url: https://drive.google.com/uc?export=download&id=0B_fe1fNijaueMFNJSFZOUFFkWjA\ngame:\n  exe: $GAMEDIR/drive_c/GOG Games/Zeus and Poseidon/Zeus.exe\n  prefix: $GAMEDIR\ninstaller:\n- task:\n    args: /silent /nogui /suppressmsgboxes /dir=\"C:\\GOG Games\\Zeus and Poseidon\"\n    executable: $setup\n    name: wineexec\n    prefix: $GAMEDIR\n- extract:\n    dst: $CACHE\n    file: $wide\n- merge:\n    dst: $GAMEDIR/drive_c/GOG Games/Zeus and Poseidon\n    src: $save1\n- merge:\n    dst: $GAMEDIR/drive_c/GOG Games/Zeus and Poseidon\n    src: $save2\n- input_menu:\n    description: 'Choose the desired resolution:'\n    id: RESOLUTION\n    options:\n    - 1280x720: 1280x720\n    - 1280x800: 1280x800\n    - 1280x1024: 1280x1024\n    - 1360x768: 1360x768\n    - 1440x900: 1440x900\n    - 1600x900: 1600x900\n    - 1680x1050: 1680x1050\n    - 1920x1080: 1920x1080\n    - 1920x1200: 1920x1200\n    - 2048x1152: 2048x1152\n    - 2560x1440: 2560x1440\n    - 2560x1600: 2560x1600\n    preselect: 1920x1080\n- merge:\n    dst: $GAMEDIR/drive_c/GOG Games/Zeus and Poseidon\n    src: $CACHE/$INPUT_RESOLUTION\n"
}