{
  "name": "League of Pirates",
  "slug": "league-of-pirates",
  "year": null,
  "description": "",
  "banner_url": "https://lutris.net/games/banner/league-of-pirates.jpg",
  "icon_url": "https://lutris.net/games/icon/league-of-pirates.png",
  "is_public": true,
  "updated": "2020-10-08T10:00:28.596581Z",
  "provider_games": [
    {
      "name": "League of Pirates",
      "slug": "719720",
      "service": "steam"
    }
  ],
  "steamid": 719720,
  "gogid": null,
  "gogslug": "",
  "humblestoreid": "",
  "id": 18845
}