{
  "name": "Drunken Robot Pornography",
  "slug": "drunken-robot-pornography",
  "year": 2014,
  "description": "Drunken Robot Pornography (DRP) is a bullet-hell first-person shooter. Battle giant robots -- called Titans -- as they try to slice you apart with their lasers. Pick off their missile launchers, fry away their carbon fiber armor, and tear off their claws, leaving them writhing.",
  "banner_url": "https://lutris.net/games/banner/drunken-robot-pornography.jpg",
  "icon_url": "https://lutris.net/games/icon/drunken-robot-pornography.png",
  "is_public": true,
  "updated": "2019-01-23T08:29:18.330963Z",
  "provider_games": [
    {
      "name": "Drunken Robot Pornography",
      "slug": "209060",
      "service": "steam"
    }
  ],
  "steamid": 209060,
  "gogid": null,
  "gogslug": "",
  "humblestoreid": "",
  "id": 1676
}