{
  "name": "Batman",
  "slug": "batman",
  "year": 1991,
  "description": "Batman must save Gotham City from The Joker in this action game. Featuring stages with the Batmobile and the Batwing.",
  "banner_url": "https://lutris.net/games/banner/batman.jpg",
  "icon_url": "https://lutris.net/games/icon/batman.png",
  "is_public": true,
  "updated": "2020-05-26T03:32:04.429521Z",
  "provider_games": [
    {
      "name": "Batman",
      "slug": "batman",
      "service": "mame"
    }
  ],
  "steamid": null,
  "gogid": null,
  "gogslug": "",
  "humblestoreid": "",
  "id": 25029
}