{
  "id": 1555,
  "game_id": 196,
  "game_slug": "bittrip-beat",
  "name": "BIT.TRIP BEAT",
  "year": 2010,
  "user": "Jayman",
  "runner": "winesteam",
  "slug": "bittrip-beat-steam",
  "version": "Steam",
  "description": "",
  "notes": "Lacks sound",
  "created_at": "2015-05-25T13:39:19.293000Z",
  "updated_at": "2016-08-17T22:20:45.902777Z",
  "draft": false,
  "published": true,
  "published_by": null,
  "rating": "2",
  "steamid": 63700,
  "gogid": 1460735408,
  "gogslug": "bittrip_beat",
  "humbleid": "bittripbeat",
  "humblestoreid": "bittripbeat",
  "humblestoreid_real": "bittripbeat",
  "script": {
    "game": {
      "appid": 63700
    }
  },
  "content": "game:\r\n  appid: 63700"
}