{
  "name": "Frederic: Resurrection of Music Director's Cut",
  "slug": "frederic-resurrection-of-music-directors-cut",
  "year": null,
  "description": "",
  "banner_url": "https://lutris.net/games/banner/frederic-resurrection-of-music-directors-cut.jpg",
  "icon_url": "https://lutris.net/games/icon/frederic-resurrection-of-music-directors-cut.png",
  "is_public": true,
  "updated": "2020-10-08T10:13:37.880673Z",
  "provider_games": [
    {
      "name": "Frederic: Resurrection of Music Director's Cut",
      "slug": "453100",
      "service": "steam"
    }
  ],
  "steamid": 453100,
  "gogid": null,
  "gogslug": "",
  "humblestoreid": "",
  "id": 8533
}