{
  "name": "Boob Wars: Big Breasts vs Flat Chests",
  "slug": "boob-wars-big-breasts-vs-flat-chests",
  "year": 2010,
  "description": "At the beginning of the 22nd Century, an anomaly began occurring in the bodies of women...\r\n\r\nAll the women of the world became either E Cups and up or A cups and under. \"Big Breasts\" and \"Flat Chests\"...\r\n\r\nBy their division into these two groups, the debate over which was superior began. After the first incident of armed conflict, known as the \"Nyuuhen Tragedy,\" the entire world was split between the Big Breasts Tribe and the Flat Chests Tribe and an intense conflict ensued.\r\n\r\n87 years later...\r\n\r\nThe secret organization of Erorists, \"Eagle,\" has ordered our protagonist Takamura Manabu to pursue the mission of his career: \"Seduce Queen Milk Elioto of the Big Breasts Tribe and Queen Teresa Premadasa of the Flat Chests Tribe and bring this war to a close.\"\r\n\r\n\"Eagle\" immediately sent the Erorist, Takamura Manabu, to the two queens!!",
  "banner_url": "https://lutris.net/games/banner/boob-wars-big-breasts-vs-flat-chests.jpg",
  "icon_url": "",
  "is_public": true,
  "updated": "2019-04-23T03:21:55.560178Z",
  "provider_games": [],
  "steamid": null,
  "gogid": null,
  "gogslug": "",
  "humblestoreid": "",
  "id": 11838
}