{
  "name": "Catacomb",
  "slug": "catacomb",
  "year": 1982,
  "description": "",
  "banner_url": "",
  "icon_url": "https://lutris.net/games/icon/catacomb.png",
  "is_public": true,
  "updated": "2020-05-26T03:32:39.938949Z",
  "provider_games": [
    {
      "name": "Catacomb",
      "slug": "catacomb",
      "service": "mame"
    }
  ],
  "steamid": null,
  "gogid": null,
  "gogslug": "",
  "humblestoreid": "",
  "id": 33608
}