{
  "name": "Iron League",
  "slug": "iron-league",
  "year": null,
  "description": "",
  "banner_url": "https://lutris.net/games/banner/iron-league.jpg",
  "icon_url": "https://lutris.net/games/icon/iron-league.png",
  "is_public": true,
  "updated": "2020-10-08T09:58:23.532868Z",
  "provider_games": [
    {
      "name": "Iron League",
      "slug": "771060",
      "service": "steam"
    }
  ],
  "steamid": 771060,
  "gogid": null,
  "gogslug": "",
  "humblestoreid": "",
  "id": 18052
}