{
  "name": "Forkdrift",
  "slug": "forkdrift",
  "year": 2020,
  "description": "",
  "banner_url": "https://lutris.net/games/banner/forkdrift.jpg",
  "icon_url": "",
  "is_public": true,
  "updated": "2020-10-11T00:12:19.347793Z",
  "provider_games": [],
  "steamid": null,
  "gogid": null,
  "gogslug": "",
  "humblestoreid": "",
  "id": 39679
}