{
  "name": "Demon Master Chris",
  "slug": "demon-master-chris",
  "year": 2013,
  "description": "There is more than one world. Long ago, humanity learned of the existence of other worlds and researched methods to borrow their power. Now, even in our modern, technologically-advanced society, there are those who are able to reach out to beings from other worlds and fight alongside them, Saiga Chris is one such conjurer.\r\n\r\nAn orthodox 3D Ero RPG with a speedy battle system, simple controls, and wide screen display! Escape from another world while stripping and befriending monstergirls!",
  "banner_url": "https://lutris.net/games/banner/demon-master-chris.jpg",
  "icon_url": "",
  "is_public": true,
  "updated": "2019-04-22T20:31:31.955855Z",
  "provider_games": [],
  "steamid": null,
  "gogid": null,
  "gogslug": "",
  "humblestoreid": "",
  "id": 9798
}