{
  "name": "Kindred Spirits on the Roof",
  "slug": "kindred-spirits-on-the-roof",
  "year": 2016,
  "description": "- Let’s Make This a Yuritopia! -\r\n\r\nKokonotsuboshi Girls' Academy of Commerce, a school built on the site of an old castle, known as \"Shirojo.\" Toomi Yuna spends her time here on her own, until one day her lunch on the roof is suddenly interrupted by a pair of ghosts.\r\n\r\nEnoki Sachi, who died in an accident before the war, and Nagatani Megumi, who died of illness thirty years ago. These \"kindred spirits\" died with unrequited feelings in their hearts, met, and fell in love. They hold an ardent wish to experience their \"first time\" together before their eternal rest...But they don't know how.\r\n\r\nThe two haunting spirits enlist Yuna to help them foster more \"yuri\" couples at the school, to assist girls struggling with their hidden feelings, and with the hope that their successes will help them glean the insight they need.",
  "banner_url": "https://lutris.net/games/banner/kindred-spirits-on-the-roof.jpg",
  "icon_url": "https://lutris.net/games/icon/kindred-spirits-on-the-roof.png",
  "is_public": true,
  "updated": "2020-05-31T00:17:46.521860Z",
  "provider_games": [
    {
      "name": "Kindred Spirits on the Roof",
      "slug": "1880016212",
      "service": "gog"
    },
    {
      "name": "Kindred Spirits on the Roof",
      "slug": "402620",
      "service": "steam"
    }
  ],
  "steamid": 402620,
  "gogid": 1880016212,
  "gogslug": "kindred_spirits_on_the_roof",
  "humblestoreid": "",
  "id": 6749
}