{
  "name": "Amuse",
  "slug": "amuse",
  "year": 1982,
  "description": "",
  "banner_url": "",
  "icon_url": "https://lutris.net/games/icon/amuse.png",
  "is_public": true,
  "updated": "2020-05-26T03:31:50.180180Z",
  "provider_games": [
    {
      "name": "Amuse",
      "slug": "amuse",
      "service": "mame"
    }
  ],
  "steamid": null,
  "gogid": null,
  "gogslug": "",
  "humblestoreid": "",
  "id": 33304
}