{
  "name": "Hanafuda Hana Ginga [BET]",
  "slug": "hanafuda-hana-ginga-bet",
  "year": 1994,
  "description": "",
  "banner_url": "",
  "icon_url": "https://lutris.net/games/icon/hanafuda-hana-ginga-bet.png",
  "is_public": true,
  "updated": "2020-05-26T03:34:24.818226Z",
  "provider_games": [
    {
      "name": "Hanafuda Hana Ginga [BET]",
      "slug": "hginga",
      "service": "mame"
    }
  ],
  "steamid": null,
  "gogid": null,
  "gogslug": "",
  "humblestoreid": "",
  "id": 34391
}