{
  "name": "Cabelas Trophy Bucks",
  "slug": "cabelas-trophy-bucks",
  "year": null,
  "description": "",
  "banner_url": "https://lutris.net/games/banner/cabelas-trophy-bucks.jpg",
  "icon_url": "https://lutris.net/games/icon/cabelas-trophy-bucks.png",
  "is_public": false,
  "updated": "2019-01-23T08:28:44.098353Z",
  "provider_games": [],
  "steamid": 7970,
  "gogid": null,
  "gogslug": "",
  "humblestoreid": "",
  "id": 9364
}