{
  "name": "8bitdo Ultimate Software",
  "slug": "8bitdo-ultimate-software",
  "year": 2017,
  "description": "Utility software for configuration of 8bitdo SN30 Pro+ gamepad",
  "banner_url": "https://lutris.net/games/banner/8bitdo-ultimate-software.jpg",
  "icon_url": "",
  "is_public": true,
  "updated": "2020-06-16T20:35:55.074715Z",
  "provider_games": [],
  "steamid": null,
  "gogid": null,
  "gogslug": "",
  "humblestoreid": "",
  "id": 37231
}