{
  "name": "Dungeon Siege 2",
  "slug": "dungeon-siege-2",
  "year": 2005,
  "description": "",
  "banner_url": "https://lutris.net/games/banner/dungeon-siege-2.jpg",
  "icon_url": "https://lutris.net/games/icon/dungeon-siege-2.png",
  "is_public": true,
  "updated": "2020-05-22T20:07:25.058603Z",
  "provider_games": [
    {
      "name": "Dungeon Siege 2",
      "slug": "39200",
      "service": "steam"
    }
  ],
  "steamid": 39200,
  "gogid": null,
  "gogslug": "",
  "humblestoreid": "",
  "id": 817
}