{
  "name": "Ballistic Protection",
  "slug": "ballistic-protection",
  "year": null,
  "description": "",
  "banner_url": "https://lutris.net/games/banner/ballistic-protection.jpg",
  "icon_url": "https://lutris.net/games/icon/ballistic-protection.png",
  "is_public": false,
  "updated": "2019-01-23T08:28:31.114462Z",
  "provider_games": [],
  "steamid": 537860,
  "gogid": null,
  "gogslug": "",
  "humblestoreid": "",
  "id": 12776
}