{
  "id": 10122,
  "game_id": 21662,
  "game_slug": "valiant",
  "name": "Valiant",
  "year": 2015,
  "user": "miky_kr5",
  "runner": "zdoom",
  "slug": "valiant-regular",
  "version": "Regular",
  "description": "Pwad file from Doomworld. Requires either the DOOM 2 or the Freedoom phase 2 iwad to play.",
  "notes": "",
  "created_at": "2018-09-09T00:08:23.219047Z",
  "updated_at": "2018-09-09T03:07:50.615561Z",
  "draft": false,
  "published": true,
  "published_by": null,
  "rating": "",
  "steamid": 344180,
  "gogid": null,
  "gogslug": "",
  "humbleid": "",
  "humblestoreid": "",
  "humblestoreid_real": "",
  "script": {
    "files": [
      {
        "doom2": "N/A:Please select either the DOOM 2 or Freedoom phase 2 iwad file."
      },
      {
        "valiant": "http://youfailit.net/pub/idgames/levels/doom2/Ports/megawads/valiant.zip"
      }
    ],
    "game": {
      "files": [
        "Valiant.wad"
      ],
      "main_file": "$doom2"
    },
    "installer": [
      {
        "extract": {
          "dst": "$CACHE",
          "src": "$valiant"
        }
      },
      {
        "merge": {
          "dst": "$GAMEDIR",
          "src": "$doom2"
        }
      },
      {
        "merge": {
          "dst": "$GAMEDIR",
          "src": "$CACHE/Valiant.wad"
        }
      }
    ]
  },
  "content": "files:\n- doom2: N/A:Please select either the DOOM 2 or Freedoom phase 2 iwad file.\n- valiant: http://youfailit.net/pub/idgames/levels/doom2/Ports/megawads/valiant.zip\ngame:\n  files:\n  - Valiant.wad\n  main_file: $doom2\ninstaller:\n- extract:\n    dst: $CACHE\n    src: $valiant\n- merge:\n    dst: $GAMEDIR\n    src: $doom2\n- merge:\n    dst: $GAMEDIR\n    src: $CACHE/Valiant.wad\n"
}