{
  "id": 23382,
  "game_id": 7691,
  "game_slug": "the-powder-toy",
  "name": "Powder Toy",
  "year": null,
  "user": "jimj316",
  "runner": "linux",
  "slug": "powder-toy-change-me",
  "version": "Change Me",
  "description": null,
  "notes": "",
  "created_at": "2020-09-16T18:32:55.826921Z",
  "updated_at": "2020-09-16T18:32:55.826950Z",
  "draft": false,
  "published": false,
  "published_by": null,
  "rating": "",
  "steamid": null,
  "gogid": null,
  "gogslug": "",
  "humbleid": "",
  "humblestoreid": "",
  "humblestoreid_real": "",
  "script": {
    "files": [
      {
        "archive": "http://powdertoy.co.uk/Download/powder-lin32.zip"
      }
    ],
    "game": {
      "exe": "powder"
    },
    "installer": [
      {
        "extract": {
          "file": "archive",
          "format": "zip"
        }
      }
    ]
  },
  "content": "files:\n- archive: http://powdertoy.co.uk/Download/powder-lin32.zip\ngame:\n  exe: powder\ninstaller:\n- extract:\n    file: archive\n    format: zip\n"
}