{
  "name": "Die for Valhalla!",
  "slug": "die-for-valhalla",
  "year": null,
  "description": "",
  "banner_url": "https://lutris.net/games/banner/die-for-valhalla.jpg",
  "icon_url": "https://lutris.net/games/icon/die-for-valhalla.png",
  "is_public": true,
  "updated": "2020-10-08T10:04:05.150308Z",
  "provider_games": [
    {
      "name": "Die for Valhalla!",
      "slug": "606000",
      "service": "steam"
    }
  ],
  "steamid": 606000,
  "gogid": null,
  "gogslug": "",
  "humblestoreid": "",
  "id": 18974
}