{
  "id": 7132,
  "game_id": 15634,
  "game_slug": "secret-agenda",
  "name": "Secret Agenda",
  "year": 2016,
  "user": "t-rex91",
  "runner": "linux",
  "slug": "secret-agenda-nutaku",
  "version": "Nutaku",
  "description": null,
  "notes": "",
  "created_at": "2018-01-18T20:08:06.030000Z",
  "updated_at": "2018-06-21T15:59:15.400880Z",
  "draft": false,
  "published": true,
  "published_by": null,
  "rating": "",
  "steamid": null,
  "gogid": null,
  "gogslug": "",
  "humbleid": "",
  "humblestoreid": "",
  "humblestoreid_real": "",
  "script": {
    "exe": "SecretAgenda.sh",
    "files": [
      {
        "file1": "N/A:Please select the Nutaku archive"
      }
    ],
    "installer": [
      {
        "extract": {
          "file": "$file1"
        }
      }
    ]
  },
  "content": "exe: SecretAgenda.sh\nfiles:\n- file1: N/A:Please select the Nutaku archive\ninstaller:\n- extract:\n    file: $file1\n"
}