{
  "id": 5672,
  "game_id": 3128,
  "game_slug": "another-perspective",
  "name": "Another Perspective",
  "year": null,
  "user": "FakeShemp",
  "runner": "wine",
  "slug": "another-perspective-humble",
  "version": "Humble",
  "description": "",
  "notes": "",
  "created_at": "2017-09-10T17:36:29.771437Z",
  "updated_at": "2018-05-19T03:41:51.086238Z",
  "draft": false,
  "published": true,
  "published_by": null,
  "rating": "",
  "steamid": 305920,
  "gogid": null,
  "gogslug": "",
  "humbleid": "",
  "humblestoreid": "",
  "humblestoreid_real": "",
  "script": {
    "files": [
      {
        "file1": "N/A:Please select the Humble installer"
      }
    ],
    "game": {
      "arch": "win32",
      "exe": "drive_c/Program Files/Another Perspective/Another Perspective.exe",
      "prefix": "$GAMEDIR"
    },
    "installer": [
      {
        "task": {
          "args": "\"/S\" \"/D=\"C:\\\\Program Files\\\\Another Perspective\"\"",
          "executable": "$file1",
          "name": "wineexec",
          "prefix": "$GAMEDIR"
        }
      }
    ]
  },
  "content": "files:\n- file1: N/A:Please select the Humble installer\ngame:\n  arch: win32\n  exe: drive_c/Program Files/Another Perspective/Another Perspective.exe\n  prefix: $GAMEDIR\ninstaller:\n- task:\n    args: '\"/S\" \"/D=\"C:\\\\Program Files\\\\Another Perspective\"\"'\n    executable: $file1\n    name: wineexec\n    prefix: $GAMEDIR\n"
}