{
  "name": "Lines",
  "slug": "lines",
  "year": null,
  "description": "",
  "banner_url": "https://lutris.net/games/banner/lines.jpg",
  "icon_url": "https://lutris.net/games/icon/lines.png",
  "is_public": true,
  "updated": "2020-10-08T10:13:28.620697Z",
  "provider_games": [
    {
      "name": "Lines",
      "slug": "458540",
      "service": "steam"
    }
  ],
  "steamid": 458540,
  "gogid": null,
  "gogslug": "",
  "humblestoreid": "",
  "id": 16765
}