{
  "name": "ChargeShot",
  "slug": "chargeshot",
  "year": null,
  "description": "",
  "banner_url": "https://lutris.net/games/banner/chargeshot.jpg",
  "icon_url": "https://lutris.net/games/icon/chargeshot.png",
  "is_public": true,
  "updated": "2020-10-08T10:15:05.521612Z",
  "provider_games": [
    {
      "name": "ChargeShot",
      "slug": "401840",
      "service": "steam"
    }
  ],
  "steamid": 401840,
  "gogid": null,
  "gogslug": "",
  "humblestoreid": "",
  "id": 5744
}