{
  "name": "Crowtel Renovations",
  "slug": "crowtel-renovations",
  "year": null,
  "description": "",
  "banner_url": "https://lutris.net/games/banner/crowtel-renovations.jpg",
  "icon_url": "https://lutris.net/games/icon/crowtel-renovations.png",
  "is_public": true,
  "updated": "2020-10-08T10:05:05.831087Z",
  "provider_games": [
    {
      "name": "Crowtel Renovations",
      "slug": "573520",
      "service": "steam"
    }
  ],
  "steamid": 573520,
  "gogid": null,
  "gogslug": "",
  "humblestoreid": "",
  "id": 31167
}