{
  "id": 4579,
  "game_id": 3003,
  "game_slug": "bridge-constructor-medieval",
  "name": "Bridge Constructor Medieval",
  "year": null,
  "user": "FakeShemp",
  "runner": "wine",
  "slug": "bridge-constructor-medieval-humble",
  "version": "Humble",
  "description": "",
  "notes": "",
  "created_at": "2017-06-24T19:16:30.059000Z",
  "updated_at": "2018-05-19T03:41:49.520026Z",
  "draft": false,
  "published": true,
  "published_by": null,
  "rating": "",
  "steamid": 319850,
  "gogid": null,
  "gogslug": "",
  "humbleid": "",
  "humblestoreid": "",
  "humblestoreid_real": "",
  "script": {
    "files": [
      {
        "file1": "N/A:Please select the Humble installer"
      }
    ],
    "game": {
      "arch": "win32",
      "exe": "drive_c/Program Files/Bridge Constructor Medieval/Bridge_Constructor_Medieval.exe",
      "prefix": "$GAMEDIR"
    },
    "installer": [
      {
        "task": {
          "executable": "$file1",
          "name": "wineexec",
          "prefix": "$GAMEDIR"
        }
      }
    ]
  },
  "content": "files:\n- file1: N/A:Please select the Humble installer\ngame:\n  arch: win32\n  exe: drive_c/Program Files/Bridge Constructor Medieval/Bridge_Constructor_Medieval.exe\n  prefix: $GAMEDIR\ninstaller:\n- task:\n    executable: $file1\n    name: wineexec\n    prefix: $GAMEDIR\n"
}