{
  "name": "John Cena's Sexy High School Adventure!!! 2: AAs Through Time",
  "slug": "john-cenas-sexy-high-school-adventure-2-aas-throug",
  "year": 2015,
  "description": "When Fucco-san returned to school the next day, he realised that nobody was there! With his friend Senpai and a mysterious old man, he realises that he must go on an adventure to save time and the universe itself!\r\n\r\n* 4 endings!\r\n* Brand new story!\r\n* Actual references to wrestling!\r\n* Funnier scenes!\r\n* Tougher scenes...\r\n* New soundtrack!\r\n* Credits!\r\n* Wacky times!",
  "banner_url": "https://lutris.net/games/banner/john-cenas-sexy-high-school-adventure-2-aas-throug.jpg",
  "icon_url": "",
  "is_public": true,
  "updated": "2019-01-23T08:30:00.865844Z",
  "provider_games": [],
  "steamid": null,
  "gogid": null,
  "gogslug": "",
  "humblestoreid": "",
  "id": 9786
}