{
  "name": "Delicious - Emily's Hopes and Fears",
  "slug": "delicious-emilys-hopes-and-fears",
  "year": null,
  "description": "",
  "banner_url": "https://lutris.net/games/banner/delicious-emilys-hopes-and-fears.jpg",
  "icon_url": "https://lutris.net/games/icon/delicious-emilys-hopes-and-fears.png",
  "is_public": true,
  "updated": "2020-10-08T10:05:48.534343Z",
  "provider_games": [
    {
      "name": "Delicious - Emily's Hopes and Fears",
      "slug": "550400",
      "service": "steam"
    }
  ],
  "steamid": 550400,
  "gogid": null,
  "gogslug": "",
  "humblestoreid": "",
  "id": 16025
}