{
  "name": "GI Racing 2.0",
  "slug": "gi-racing-20",
  "year": null,
  "description": "",
  "banner_url": "https://lutris.net/games/banner/gi-racing-20.jpg",
  "icon_url": "https://lutris.net/games/icon/gi-racing-20.png",
  "is_public": true,
  "updated": "2020-10-08T10:07:24.442476Z",
  "provider_games": [
    {
      "name": "GI Racing 2.0",
      "slug": "500750",
      "service": "steam"
    }
  ],
  "steamid": 500750,
  "gogid": null,
  "gogslug": "",
  "humblestoreid": "",
  "id": 28143
}