{
  "name": "Asguaard",
  "slug": "asguaard",
  "year": null,
  "description": "",
  "banner_url": "https://lutris.net/games/banner/asguaard.jpg",
  "icon_url": "https://lutris.net/games/icon/asguaard.png",
  "is_public": true,
  "updated": "2020-10-08T09:19:31.146358Z",
  "provider_games": [
    {
      "name": "Asguaard",
      "slug": "332380",
      "service": "steam"
    }
  ],
  "steamid": 332380,
  "gogid": null,
  "gogslug": "",
  "humblestoreid": "",
  "id": 4776
}