{
  "name": "Alien Shooter: Revisited",
  "slug": "alien-shooter-revisited",
  "year": null,
  "description": "",
  "banner_url": "https://lutris.net/games/banner/alien-shooter-revisited.jpg",
  "icon_url": "https://lutris.net/games/icon/alien-shooter-revisited.png",
  "is_public": true,
  "updated": "2020-10-08T10:02:18.931176Z",
  "provider_games": [
    {
      "name": "Alien Shooter: Revisited",
      "slug": "33110",
      "service": "steam"
    }
  ],
  "steamid": 33110,
  "gogid": null,
  "gogslug": "",
  "humblestoreid": "",
  "id": 1492
}