{
  "name": "LEGO Indiana Jones: The Original Adventures",
  "slug": "lego-indiana-jones-the-original-adventures",
  "year": 2008,
  "description": "Build, Battle and Brawl your way out of trouble!\r\nPlay through all three classic Indiana Jones™ movies and relive your favorite Indy adventures in the tongue-in-cheek worlds of LEGO®.\r\n\r\n-    Explore and Discover - Battle enemies, solve puzzles, and seek out the world's greatest treasures.\r\n\r\n-    More Than 60 Playable Characters - Take control of Indy, his friends, and even his enemies. Team up with a friend and together search for fortune and glory.\r\n\r\n-    Whip Into Action! - Attack and disarm enemies, swing over perilous pits, and interact with LEGO® objects and puzzles!",
  "banner_url": "https://lutris.net/games/banner/lego-indiana-jones-the-original-adventures.jpg",
  "icon_url": "https://lutris.net/games/icon/lego-indiana-jones-the-original-adventures.png",
  "is_public": true,
  "updated": "2020-05-31T00:17:47.253360Z",
  "provider_games": [
    {
      "name": "LEGO® Indiana Jones™: The Original Adventures",
      "slug": "1194227151",
      "service": "gog"
    },
    {
      "name": "LEGOⓇ Indiana Jones™: The Original Adventures",
      "slug": "32330",
      "service": "steam"
    }
  ],
  "steamid": 32330,
  "gogid": 1194227151,
  "gogslug": "lego_indiana_jones_the_original_adventures",
  "humblestoreid": "",
  "id": 6128
}