{
  "name": "GrimGrimoire",
  "slug": "grimgrimoire",
  "year": 2007,
  "description": "The world of wizardry needs a new hero.\r\n\r\n* Magical World Setting\r\nWhat did you learn in\r\nschool today?\r\n\r\n* Daring RTS Battles\r\nCommand everything from cute\r\nlittle elves to ferocious dragons!\r\n\r\n* Breathtaking Summons\r\nDraw beautiful runes to\r\nsummon new familiars!\r\n\r\n* Extended Play Mode\r\nJust when you thought\r\nyou were done, 25\r\nBonus Levels await you.",
  "banner_url": "https://lutris.net/games/banner/grimgrimoire.jpg",
  "icon_url": "",
  "is_public": true,
  "updated": "2019-01-23T08:29:43.557298Z",
  "provider_games": [],
  "steamid": null,
  "gogid": null,
  "gogslug": "",
  "humblestoreid": "",
  "id": 21392
}