{
  "id": 17102,
  "game_id": 30551,
  "game_slug": "heroes-of-might-and-magic-v-bundle",
  "name": "Heroes of Might and Magic V: Bundle",
  "year": 2006,
  "user": "edjaa84",
  "runner": "wine",
  "slug": "heroes-of-might-and-magic-v-b-gog-hammers-of-fate",
  "version": "GOG Hammers of Fate",
  "description": "Heroes of Might and Magic V:  Hammers of Fate (acceso directo)\r\n\r\nRaPiMoDEBianPaKaGer",
  "notes": "",
  "created_at": "2019-11-30T02:38:29.955749Z",
  "updated_at": "2019-11-30T02:38:29.955784Z",
  "draft": true,
  "published": false,
  "published_by": null,
  "rating": "",
  "steamid": null,
  "gogid": null,
  "gogslug": "",
  "humbleid": "",
  "humblestoreid": "",
  "humblestoreid_real": "",
  "script": {
    "custom-name": "Hammers of Fate",
    "game": {
      "arch": "win64",
      "exe": "~/Games/heroes-of-might-and-magic-v-bundle/drive_c/GOG Games/Heroes of Might and Magic V/bina1/H5_Game.exe",
      "prefix": "~/Games/heroes-of-might-and-magic-v-bundle",
      "working_dir": "~/Games/heroes-of-might-and-magic-v-bundle/drive_c/GOG Games/Heroes of Might and Magic V/bina1"
    }
  },
  "content": "custom-name: Hammers of Fate\ngame:\n  arch: win64\n  exe: ~/Games/heroes-of-might-and-magic-v-bundle/drive_c/GOG Games/Heroes of Might\n    and Magic V/bina1/H5_Game.exe\n  prefix: ~/Games/heroes-of-might-and-magic-v-bundle\n  working_dir: ~/Games/heroes-of-might-and-magic-v-bundle/drive_c/GOG Games/Heroes\n    of Might and Magic V/bina1\n"
}