{
  "name": "Drunken Wrestlers",
  "slug": "drunken-wrestlers",
  "year": null,
  "description": "",
  "banner_url": "https://lutris.net/games/banner/drunken-wrestlers.jpg",
  "icon_url": "",
  "is_public": true,
  "updated": "2020-06-16T20:38:55.243947Z",
  "provider_games": [],
  "steamid": null,
  "gogid": null,
  "gogslug": "",
  "humblestoreid": "",
  "id": 36620
}