{
  "name": "Cheitha",
  "slug": "cheitha",
  "year": null,
  "description": "",
  "banner_url": "https://lutris.net/games/banner/cheitha.jpg",
  "icon_url": "https://lutris.net/games/icon/cheitha.png",
  "is_public": true,
  "updated": "2020-10-08T09:57:47.732790Z",
  "provider_games": [
    {
      "name": "Cheitha",
      "slug": "799910",
      "service": "steam"
    }
  ],
  "steamid": 799910,
  "gogid": null,
  "gogslug": "",
  "humblestoreid": "",
  "id": 22721
}