{
  "name": "Mahjong Channel Zoom In",
  "slug": "mahjong-channel-zoom-in",
  "year": 1990,
  "description": "",
  "banner_url": "",
  "icon_url": "https://lutris.net/games/icon/mahjong-channel-zoom-in.png",
  "is_public": true,
  "updated": "2020-05-26T03:35:30.033451Z",
  "provider_games": [
    {
      "name": "Mahjong Channel Zoom In",
      "slug": "mjzoomin",
      "service": "mame"
    }
  ],
  "steamid": null,
  "gogid": null,
  "gogslug": "",
  "humblestoreid": "",
  "id": 34976
}