{
  "name": "Disney Fairies: Tinker Bell's Adventure",
  "slug": "disney-fairies-tinker-bells-adventure",
  "year": null,
  "description": "",
  "banner_url": "https://lutris.net/games/banner/disney-fairies-tinker-bells-adventure.jpg",
  "icon_url": "https://lutris.net/games/icon/disney-fairies-tinker-bells-adventure.png",
  "is_public": true,
  "updated": "2020-10-08T09:19:53.242003Z",
  "provider_games": [
    {
      "name": "Disney Fairies: Tinker Bell's Adventure",
      "slug": "318350",
      "service": "steam"
    }
  ],
  "steamid": 318350,
  "gogid": null,
  "gogslug": "",
  "humblestoreid": "",
  "id": 21044
}