{
  "name": "Devil May Cry",
  "slug": "devil-may-cry",
  "year": 2001,
  "description": "Legend has it that 2000 years ago in the depths of hell, a demon rebelled against the devil, waging a one-man war in support of the human world. \r\n\r\nIn the present, Dante, a private investigator of the supernatural, realises that the devil is rallying to rise again against mankind. Deep within Dante's blood lies the power of ancient demons and as his power builds he transforms into a demon state where he can use his power against evil he encounters.\r\n\r\nCommencing his battle against the demonic legions with just a sword and his twin pistols, Ebony and Ivory, Dante will soon come across more powerful weapons, such as a shotgun to aid him in his mission. However, to defeat the devil Dante must also discover special weapons possessing various elemental powers. When channelled correctly these weapons will allow Dante to call upon demonic energy and launch powerful attacks against a range of enemies.",
  "banner_url": "https://lutris.net/games/banner/devil-may-cry.jpg",
  "icon_url": "",
  "is_public": true,
  "updated": "2019-01-23T08:29:10.975829Z",
  "provider_games": [],
  "steamid": null,
  "gogid": null,
  "gogslug": "",
  "humblestoreid": "",
  "id": 21935
}