{
  "id": 19303,
  "game_id": 5505,
  "game_slug": "star-wars-tie-fighter",
  "name": "STAR WARS®: TIE Fighter (1994)",
  "year": 1994,
  "user": "eagledelta1",
  "runner": "linux",
  "slug": "star-wars-tie-fighter-1994-gog-1995",
  "version": "GOG-1995",
  "description": "Install the 1995 Star Wars: TIE Fighter Collector's CD",
  "notes": "",
  "created_at": "2020-03-30T16:19:15.495664Z",
  "updated_at": "2020-03-30T16:19:15.495694Z",
  "draft": false,
  "published": false,
  "published_by": null,
  "rating": "",
  "steamid": null,
  "gogid": 1207666403,
  "gogslug": "star_wars_tie_fighter_1994",
  "humbleid": "",
  "humblestoreid": "",
  "humblestoreid_real": "",
  "script": {
    "files": [
      {
        "goginstaller": "N/A:Please select the GOG.com Linux installer"
      }
    ],
    "game": {
      "exe": "start.sh",
      "gogid": 1207667223
    },
    "installer": [
      {
        "extract": {
          "dst": "$CACHE/GOG",
          "file": "goginstaller",
          "format": "zip"
        }
      },
      {
        "merge": {
          "dst": "$GAMEDIR",
          "src": "$CACHE/GOG/data/noarch/"
        }
      }
    ]
  },
  "content": "files:\n- goginstaller: N/A:Please select the GOG.com Linux installer\ngame:\n  exe: start.sh\n  gogid: 1207667223\ninstaller:\n- extract:\n    dst: $CACHE/GOG\n    file: goginstaller\n    format: zip\n- merge:\n    dst: $GAMEDIR\n    src: $CACHE/GOG/data/noarch/\n"
}