{
  "name": "Angels & Demigods",
  "slug": "angels-demigods",
  "year": 2016,
  "description": "Travel with us into the distant future in which man plays god by creating angels to protect him. Immerse yourself in an alien world and discover why you were woken up after a long slumber. Meet friends and foes, discover their objectives and most importantly try to stay alive. Angels & Demigods is an atmospheric sci-fi visual novel being brought to you in VR. It is a story and dialogue centered game in which you create your own adventure by carefully choosing what you say and do.\r\n\r\nThe story takes place in the distant future on Saturn's moon Enceladus in the 190th century. You are given a task to bring back Ashley - a genetically engineered warrior \"angel\" who has fled the facility where she was being held in a dormant state. Through the interaction with her and other characters you unravel bits and pieces of a conspiracy.",
  "banner_url": "https://lutris.net/games/banner/angels-demigods.jpg",
  "icon_url": "https://lutris.net/games/icon/angels-demigods.png",
  "is_public": true,
  "updated": "2020-10-08T10:07:20.741823Z",
  "provider_games": [
    {
      "name": "Angels & Demigods",
      "slug": "503160",
      "service": "steam"
    }
  ],
  "steamid": 503160,
  "gogid": null,
  "gogslug": "",
  "humblestoreid": "",
  "id": 9544
}