{
  "name": "Empire Deluxe Combined Edition",
  "slug": "empire-deluxe-combined-edition",
  "year": null,
  "description": "",
  "banner_url": "https://lutris.net/games/banner/empire-deluxe-combined-edition.jpg",
  "icon_url": "https://lutris.net/games/icon/empire-deluxe-combined-edition.png",
  "is_public": true,
  "updated": "2019-06-10T12:00:26.885955Z",
  "provider_games": [
    {
      "name": "Empire Deluxe Combined Edition",
      "slug": "742700",
      "service": "steam"
    }
  ],
  "steamid": 742700,
  "gogid": null,
  "gogslug": "",
  "humblestoreid": "",
  "id": 27797
}