{
  "name": "Lizard",
  "slug": "lizard",
  "year": null,
  "description": "",
  "banner_url": "https://lutris.net/games/banner/lizard.jpg",
  "icon_url": "https://lutris.net/games/icon/lizard.png",
  "is_public": true,
  "updated": "2020-10-08T10:15:09.075235Z",
  "provider_games": [
    {
      "name": "Lizard",
      "slug": "400280",
      "service": "steam"
    }
  ],
  "steamid": 400280,
  "gogid": null,
  "gogslug": "",
  "humblestoreid": "",
  "id": 18996
}