{
  "name": "Awakening",
  "slug": "awakening",
  "year": null,
  "description": "",
  "banner_url": "https://lutris.net/games/banner/awakening.jpg",
  "icon_url": "https://lutris.net/games/icon/awakening.png",
  "is_public": true,
  "updated": "2020-10-08T10:00:48.004728Z",
  "provider_games": [
    {
      "name": "Awakening",
      "slug": "707340",
      "service": "steam"
    }
  ],
  "steamid": 707340,
  "gogid": null,
  "gogslug": "",
  "humblestoreid": "",
  "id": 18787
}