{
  "name": "Circuit Warz",
  "slug": "circuit-warz",
  "year": null,
  "description": "",
  "banner_url": "https://lutris.net/games/banner/circuit-warz.jpg",
  "icon_url": "https://lutris.net/games/icon/circuit-warz.png",
  "is_public": true,
  "updated": "2020-10-08T10:10:19.911000Z",
  "provider_games": [
    {
      "name": "Circuit Warz",
      "slug": "656620",
      "service": "steam"
    }
  ],
  "steamid": 656620,
  "gogid": null,
  "gogslug": "",
  "humblestoreid": "",
  "id": 13408
}