{
  "name": "Brain Lord",
  "slug": "brain-lord",
  "year": 1994,
  "description": "Beyond your memory lies a time filled with Dragons and men riding the skies together. The Dragon Warrior blood flows deeply through your family. Now, you are the only one left. Your father has spent a life time searching for the Ancient Dragons, a life lived in vain. It is up to you to find the Dragons. Before you lies a world filled with puzzles and riddles, enough to drive even the most rational insane. There are too many unanswered questions in your mind. What lies ahead? Where do I start? What will I find? There is a Dark Presence that awaits you. Can you unlock the secret? Are you strong enough to survive? ARE YOU A BRAIN LORD? We shall see...",
  "banner_url": "https://lutris.net/games/banner/brain-lord.jpg",
  "icon_url": "",
  "is_public": true,
  "updated": "2019-01-23T08:28:41.273324Z",
  "provider_games": [],
  "steamid": null,
  "gogid": null,
  "gogslug": "",
  "humblestoreid": "",
  "id": 11603
}