{
  "name": "Korokoro Pensuke",
  "slug": "korokoro-pensuke",
  "year": 1997,
  "description": "",
  "banner_url": "",
  "icon_url": "https://lutris.net/games/icon/korokoro-pensuke.png",
  "is_public": true,
  "updated": "2020-05-26T03:35:06.567405Z",
  "provider_games": [
    {
      "name": "Korokoro Pensuke",
      "slug": "koropens",
      "service": "mame"
    }
  ],
  "steamid": null,
  "gogid": null,
  "gogslug": "",
  "humblestoreid": "",
  "id": 34658
}