{
  "name": "Death Trap",
  "slug": "death-trap",
  "year": 2020,
  "description": "A RogueLike based Puzzler set in a randomly generated dungeon.",
  "banner_url": "https://lutris.net/games/banner/death-trap.jpg",
  "icon_url": "",
  "is_public": false,
  "updated": "2020-09-14T00:33:01.867920Z",
  "provider_games": [],
  "steamid": null,
  "gogid": null,
  "gogslug": "",
  "humblestoreid": "",
  "id": 38925
}