{
  "name": "Lycah",
  "slug": "lycah",
  "year": null,
  "description": "",
  "banner_url": "https://lutris.net/games/banner/lycah.jpg",
  "icon_url": "https://lutris.net/games/icon/lycah.png",
  "is_public": true,
  "updated": "2020-10-08T10:09:01.590424Z",
  "provider_games": [
    {
      "name": "Lycah",
      "slug": "681980",
      "service": "steam"
    }
  ],
  "steamid": 681980,
  "gogid": null,
  "gogslug": "",
  "humblestoreid": "",
  "id": 24914
}