{
  "name": "Anachronox",
  "slug": "anachronox",
  "year": 2001,
  "description": "Welcome to Anachronox, an abandoned alien artificial planet at the centre of the universe, now home to lowlifes, thieves, and scoundrels. Here we join Sylvester \"Sly Boots\" Bucelli--a down on his luck PI--and a cast of 6 other unlikely heroes on their quest to discover who or what is trying to destroy the universe. They are the only ones that believe it is happening, and the only ones that can do something about it.\r\n\r\nThis title is a very unique game in many ways. The combination of jRPG style turn-based combat, extraordinary characters with their own personalities, an epic and brilliantly told story, colorful graphics, and absolutely hilarious humor is something very rare. You will travel through galaxies, explore bizarre planets, and journey through space and time. There are no easy choices in this game, no obvious, predictable events, no black and white characters. This complexity made the game well reviewed--it has showed up on PC Gamer's Top 100 PC Games list three times!--and will keep you fascinated and amazed for many hours.",
  "banner_url": "https://lutris.net/games/banner/anachronox.jpg",
  "icon_url": "https://lutris.net/games/icon/anachronox.png",
  "is_public": true,
  "updated": "2020-05-31T00:17:34.203167Z",
  "provider_games": [
    {
      "name": "Anachronox",
      "slug": "1207659012",
      "service": "gog"
    },
    {
      "name": "Anachronox",
      "slug": "242940",
      "service": "steam"
    }
  ],
  "steamid": 242940,
  "gogid": 1207659012,
  "gogslug": "anachronox",
  "humblestoreid": "",
  "id": 1827
}