{
  "name": "ASTROKILL",
  "slug": "astrokill",
  "year": 2016,
  "description": "A modern space shooter and combat sim\r\nFocused on combat without compromising realism, ASTROKILL is a modern space shooter drawing inspiration from old-school games like TIE Fighter and Freespace 2. Players pilot fighters, gunships, interceptors, and medics (in 1st or 3rd person) from warring factions in ballistic dogfights. Wage war flying for either the sprawling Dominion of Man or the rebellious Outer Belt Alliance!",
  "banner_url": "https://lutris.net/games/banner/astrokill.jpg",
  "icon_url": "https://lutris.net/games/icon/astrokill.png",
  "is_public": true,
  "updated": "2019-01-23T08:28:27.880733Z",
  "provider_games": [
    {
      "name": "ASTROKILL",
      "slug": "376880",
      "service": "steam"
    }
  ],
  "steamid": 376880,
  "gogid": null,
  "gogslug": "",
  "humblestoreid": "",
  "id": 6970
}