{
  "name": "All That Remains",
  "slug": "all-that-remains",
  "year": null,
  "description": "",
  "banner_url": "https://lutris.net/games/banner/all-that-remains.jpg",
  "icon_url": "https://lutris.net/games/icon/all-that-remains.png",
  "is_public": true,
  "updated": "2020-10-08T09:58:54.708517Z",
  "provider_games": [
    {
      "name": "All That Remains",
      "slug": "749580",
      "service": "steam"
    }
  ],
  "steamid": 749580,
  "gogid": null,
  "gogslug": "",
  "humblestoreid": "",
  "id": 16776
}