{
  "name": "Host Master and the Conquest of Humor",
  "slug": "host-master-and-the-conquest-of-humor",
  "year": 2009,
  "description": "Tuxedo Tim has landed himself in another jimmy-jam! Can you find all 22 jokes he needs to entertain the audience at the Game Developers Choice Awards this Wednesday night? He'd do it himself, but he doesn't want to scuff his cummerbund!",
  "banner_url": "https://lutris.net/games/banner/host-master-and-the-conquest-of-humor.jpg",
  "icon_url": "",
  "is_public": true,
  "updated": "2019-01-23T08:29:52.336071Z",
  "provider_games": [],
  "steamid": null,
  "gogid": null,
  "gogslug": "",
  "humblestoreid": "",
  "id": 4492
}