{
  "name": "DUELEUM",
  "slug": "dueleum",
  "year": null,
  "description": "",
  "banner_url": "https://lutris.net/games/banner/dueleum.jpg",
  "icon_url": "https://lutris.net/games/icon/dueleum.png",
  "is_public": true,
  "updated": "2020-10-08T10:01:12.445029Z",
  "provider_games": [
    {
      "name": "DUELEUM",
      "slug": "689830",
      "service": "steam"
    }
  ],
  "steamid": 689830,
  "gogid": null,
  "gogslug": "",
  "humblestoreid": "",
  "id": 15463
}