{
  "name": "Deathsmiles",
  "slug": "deathsmiles-1",
  "year": 2007,
  "description": "",
  "banner_url": "",
  "icon_url": "https://lutris.net/games/icon/deathsmiles-1.png",
  "is_public": true,
  "updated": "2020-05-26T03:33:10.117817Z",
  "provider_games": [
    {
      "name": "Deathsmiles",
      "slug": "deathsml",
      "service": "mame"
    }
  ],
  "steamid": null,
  "gogid": null,
  "gogslug": "",
  "humblestoreid": "",
  "id": 33863
}