{
  "id": 4504,
  "game_id": 2411,
  "game_slug": "age-of-wonders",
  "name": "Age of Wonders",
  "year": 1999,
  "user": "FakeShemp",
  "runner": "wine",
  "slug": "age-of-wonders-humble",
  "version": "Humble",
  "description": "",
  "notes": "",
  "created_at": "2017-06-19T19:22:01.510000Z",
  "updated_at": "2018-05-19T03:41:50.877619Z",
  "draft": false,
  "published": true,
  "published_by": null,
  "rating": "",
  "steamid": 61500,
  "gogid": 1207658883,
  "gogslug": "age_of_wonders",
  "humbleid": "",
  "humblestoreid": "",
  "humblestoreid_real": "",
  "script": {
    "files": [
      {
        "file1": "N/A:Please select the Humble installer"
      }
    ],
    "game": {
      "arch": "win32",
      "exe": "drive_c/Program Files/Triumph Studios/Age of Wonders/AoW.exe",
      "prefix": "$GAMEDIR"
    },
    "installer": [
      {
        "task": {
          "executable": "$file1",
          "name": "wineexec",
          "prefix": "$GAMEDIR"
        }
      }
    ]
  },
  "content": "files:\n- file1: N/A:Please select the Humble installer\ngame:\n  arch: win32\n  exe: drive_c/Program Files/Triumph Studios/Age of Wonders/AoW.exe\n  prefix: $GAMEDIR\ninstaller:\n- task:\n    executable: $file1\n    name: wineexec\n    prefix: $GAMEDIR\n"
}