{
  "id": 14708,
  "game_id": 28555,
  "game_slug": "tomb-raider-v-chronicles",
  "name": "Tomb Raider V: Chronicles",
  "year": 2000,
  "user": "legluondunet",
  "runner": "wine",
  "slug": "tomb-raider-v-chronicles-gog-dgvoodoo2",
  "version": "GOG + DgVoodoo2",
  "description": "This script will facilitate you install of this game on Linux OS:\r\n\"Tomb Raider V: Chronicles\" provided by GOG using Lutris Wine runner.\r\nDuring install please let all options by default.\r\nThis script uses this projects:\r\ndgVoodoo2: http://www.dege.freeweb.hu/\r\nTomb Raider 2-3-4 WS Patch by Mr.Blackfour: https://tombraiders.net/stella/downloads/widescreen.html\r\nOther sources: https://www.tombraiderforums.com\r\nThanks to the people who contributed to play this game in the best conditions on Linux platform.",
  "notes": "- When you are in game, press \"P\" to return to main menu.\r\n-TR5 has insufficient controller support, I invite you to use a keymapper. You will find profiles for x360 (Antimicro) and Steam Controller (sc-controller) in the \"gamepad profiles\" folder.\r\n- Please report issue concerning this script on my Github page:\r\nhttps://github.com/legluondunet/MyLittleLutrisScripts/",
  "created_at": "2019-07-25T12:38:26.097000Z",
  "updated_at": "2020-09-11T22:20:48.969486Z",
  "draft": false,
  "published": true,
  "published_by": 494,
  "rating": "",
  "steamid": null,
  "gogid": 1207663523,
  "gogslug": "/tomb_raider_the_last_revelation_chronicles",
  "humbleid": "",
  "humblestoreid": "",
  "humblestoreid_real": "",
  "script": {
    "custom-name": "Tomb Raider V - Chronicles - GOG",
    "files": [
      {
        "gogsetup": "N/A:Select the installer downloaded from GOG"
      },
      {
        "dgv": "https://github.com/legluondunet/mlls-tools/raw/master/dgVoodoo2/dgVoodoo2_61.zip"
      },
      {
        "menu": "https://github.com/legluondunet/MyLittleLutrisScripts/raw/master/Tomb%20Raider%20V%20-%20Chronicles/tr5c.bat"
      },
      {
        "gpx360": "https://github.com/legluondunet/MyLittleLutrisScripts/raw/master/Tomb%20Raider%20V%20-%20Chronicles/gamepad%20profiles/tr5_x360.gamecontroller.amgp"
      },
      {
        "gpsteam": "https://github.com/legluondunet/MyLittleLutrisScripts/raw/master/Tomb%20Raider%20V%20-%20Chronicles/gamepad%20profiles/tr5_steam.sccprofile"
      },
      {
        "gpreadme": "https://github.com/legluondunet/MyLittleLutrisScripts/raw/master/Tomb%20Raider%20V%20-%20Chronicles/gamepad%20profiles/tr5_gamepad_readme.html"
      },
      {
        "wpp": "https://github.com/legluondunet/MyLittleLutrisScripts/raw/master/Tomb%20Raider%20V%20-%20Chronicles/tr5c.bmp"
      },
      {
        "patch": "https://github.com/legluondunet/MyLittleLutrisScripts/raw/master/Tomb%20Raider%20IV%20-%20The%20Last%20Revelation/TombRaider234_Patch.zip"
      },
      {
        "inno": "https://constexpr.org/innoextract/files/innoextract-1.9/innoextract-1.9-linux.tar.xz"
      }
    ],
    "game": {
      "arch": "win64",
      "args": "c:\\\\tr5c.bat",
      "exe": "drive_c/windows/syswow64/wineconsole.exe",
      "prefix": "$GAMEDIR"
    },
    "installer": [
      {
        "task": {
          "arch": "win64",
          "description": "Creating WINE prefix",
          "name": "create_prefix",
          "prefix": "$GAMEDIR"
        }
      },
      {
        "extract": {
          "dst": "$CACHE",
          "file": "inno"
        }
      },
      {
        "execute": {
          "args": "-d \"$CACHE\" --gog gogsetup",
          "file": "$CACHE/innoextract"
        }
      },
      {
        "merge": {
          "dst": "$GAMEDIR/drive_c/GOG Games/Tomb Raider 5/",
          "src": "$CACHE/app"
        }
      },
      {
        "extract": {
          "dst": "$GAMEDIR/drive_c/GOG Games/Tomb Raider 5/",
          "file": "dgv"
        }
      },
      {
        "copy": {
          "dst": "$GAMEDIR/drive_c/GOG Games/Tomb Raider 5/",
          "src": "$GAMEDIR/drive_c/GOG Games/Tomb Raider 5/MS/x86/DDraw.dll"
        }
      },
      {
        "copy": {
          "dst": "$GAMEDIR/drive_c/GOG Games/Tomb Raider 5/",
          "src": "$GAMEDIR/drive_c/GOG Games/Tomb Raider 5/MS/x86/D3DImm.dll"
        }
      },
      {
        "execute": {
          "command": "cd \"$GAMEDIR/drive_c/GOG Games/Tomb Raider 5/\"; mv dgVoodoo.conf dgVoodoo_original.conf"
        }
      },
      {
        "write_config": {
          "data": {
            "DirectX": {
              "ForceVerticalSync": true,
              "Resolution": "max_qhd_isf",
              "VRAM": 256,
              "dgVoodooWatermark": false
            },
            "General": {
              "CaptureMouse": false,
              "FullScreenMode": false,
              "ScalingMode": "stretched_ar"
            }
          },
          "file": "$GAMEDIR/drive_c/GOG Games/Tomb Raider 5/dgVoodoo.conf"
        }
      },
      {
        "task": {
          "arch": "win64",
          "key": "ddraw",
          "name": "set_regedit",
          "path": "HKEY_CURRENT_USER\\Software\\Wine\\DllOverrides\\",
          "prefix": "$GAMEDIR",
          "type": "REG_SZ",
          "value": "native,builtin"
        }
      },
      {
        "extract": {
          "dst": "$GAMEDIR/drive_c/GOG Games/Tomb Raider 5/",
          "src": "patch"
        }
      },
      {
        "copy": {
          "dst": "$GAMEDIR/drive_c/",
          "src": "menu"
        }
      },
      {
        "copy": {
          "dst": "$GAMEDIR/drive_c/",
          "src": "wpp"
        }
      },
      {
        "merge": {
          "dst": "$GAMEDIR/drive_c/GOG Games/Tomb Raider 5/gamepad profiles/",
          "src": "gpreadme"
        }
      },
      {
        "merge": {
          "dst": "$GAMEDIR/drive_c/GOG Games/Tomb Raider 5/gamepad profiles/",
          "src": "gpx360"
        }
      },
      {
        "merge": {
          "dst": "$GAMEDIR/drive_c/GOG Games/Tomb Raider 5/gamepad profiles/",
          "src": "gpsteam"
        }
      },
      {
        "task": {
          "arch": "win64",
          "key": "D3D",
          "name": "set_regedit",
          "path": "HKEY_CURRENT_USER\\Software\\Core Design\\Tomb Raider Chronicles\\System",
          "prefix": "$GAMEDIR",
          "type": "REG_DWORD",
          "value": 2
        }
      },
      {
        "task": {
          "arch": "win64",
          "key": "VMode",
          "name": "set_regedit",
          "path": "HKEY_CURRENT_USER\\Software\\Core Design\\Tomb Raider Chronicles\\System",
          "prefix": "$GAMEDIR",
          "type": "REG_DWORD",
          "value": "0000002b"
        }
      },
      {
        "task": {
          "arch": "win64",
          "key": "TFormat",
          "name": "set_regedit",
          "path": "HKEY_CURRENT_USER\\Software\\Core Design\\Tomb Raider Chronicles\\System",
          "prefix": "$GAMEDIR",
          "type": "REG_DWORD",
          "value": 2
        }
      },
      {
        "task": {
          "arch": "win64",
          "key": "Setup",
          "name": "set_regedit",
          "path": "HKEY_CURRENT_USER\\Software\\Core Design\\Tomb Raider Chronicles\\System",
          "prefix": "$GAMEDIR",
          "type": "REG_DWORD",
          "value": 1
        }
      },
      {
        "task": {
          "arch": "win64",
          "key": "AutoTarget",
          "name": "set_regedit",
          "path": "HKEY_CURRENT_USER\\Software\\Core Design\\Tomb Raider Chronicles\\Game",
          "prefix": "$GAMEDIR",
          "type": "REG_DWORD",
          "value": 1
        }
      },
      {
        "task": {
          "arch": "win64",
          "key": "SoundQuality",
          "name": "set_regedit",
          "path": "HKEY_CURRENT_USER\\Software\\Core Design\\Tomb Raider Chronicles\\Game",
          "prefix": "$GAMEDIR",
          "type": "REG_DWORD",
          "value": 2
        }
      },
      {
        "task": {
          "arch": "win64",
          "key": "csmt",
          "name": "set_regedit",
          "path": "HKEY_CURRENT_USER\\Software\\Wine\\Direct3D\\",
          "prefix": "$GAMEDIR",
          "type": "REG_DWORD",
          "value": "00000000"
        }
      },
      {
        "task": {
          "arch": "win64",
          "key": "wallpaper",
          "name": "set_regedit",
          "path": "HKEY_CURRENT_USER\\Control Panel\\Desktop\\",
          "prefix": "$GAMEDIR",
          "type": "REG_SZ",
          "value": "c:\\\\tr5c.bmp"
        }
      },
      {
        "task": {
          "arch": "win64",
          "key": "background",
          "name": "set_regedit",
          "path": "HKEY_CURRENT_USER\\Control Panel\\Colors\\",
          "prefix": "$GAMEDIR",
          "type": "REG_SZ",
          "value": "0 0 0"
        }
      },
      {
        "task": {
          "arch": "win64",
          "key": "ActiveTitle",
          "name": "set_regedit",
          "path": "HKEY_CURRENT_USER\\Control Panel\\Colors\\",
          "prefix": "$GAMEDIR",
          "type": "REG_SZ",
          "value": "0 0 0"
        }
      },
      {
        "task": {
          "arch": "win64",
          "key": "GradientActiveTitle",
          "name": "set_regedit",
          "path": "HKEY_CURRENT_USER\\Control Panel\\Colors\\",
          "prefix": "$GAMEDIR",
          "type": "REG_SZ",
          "value": "68 103 145"
        }
      },
      {
        "execute": {
          "command": "cd \"$GAMEDIR/drive_c/GOG Games/Tomb Raider 5/\"; rm -f -r 3Dfx Doc MS __support goggame* QuickGuide.html webcache.zip"
        }
      }
    ],
    "wine": {
      "Desktop": true
    }
  },
  "content": "custom-name: Tomb Raider V - Chronicles - GOG\nfiles:\n- gogsetup: N/A:Select the installer downloaded from GOG\n- dgv: https://github.com/legluondunet/mlls-tools/raw/master/dgVoodoo2/dgVoodoo2_61.zip\n- menu: https://github.com/legluondunet/MyLittleLutrisScripts/raw/master/Tomb%20Raider%20V%20-%20Chronicles/tr5c.bat\n- gpx360: https://github.com/legluondunet/MyLittleLutrisScripts/raw/master/Tomb%20Raider%20V%20-%20Chronicles/gamepad%20profiles/tr5_x360.gamecontroller.amgp\n- gpsteam: https://github.com/legluondunet/MyLittleLutrisScripts/raw/master/Tomb%20Raider%20V%20-%20Chronicles/gamepad%20profiles/tr5_steam.sccprofile\n- gpreadme: https://github.com/legluondunet/MyLittleLutrisScripts/raw/master/Tomb%20Raider%20V%20-%20Chronicles/gamepad%20profiles/tr5_gamepad_readme.html\n- wpp: https://github.com/legluondunet/MyLittleLutrisScripts/raw/master/Tomb%20Raider%20V%20-%20Chronicles/tr5c.bmp\n- patch: https://github.com/legluondunet/MyLittleLutrisScripts/raw/master/Tomb%20Raider%20IV%20-%20The%20Last%20Revelation/TombRaider234_Patch.zip\n- inno: https://constexpr.org/innoextract/files/innoextract-1.9/innoextract-1.9-linux.tar.xz\ngame:\n  arch: win64\n  args: c:\\\\tr5c.bat\n  exe: drive_c/windows/syswow64/wineconsole.exe\n  prefix: $GAMEDIR\ninstaller:\n- task:\n    arch: win64\n    description: Creating WINE prefix\n    name: create_prefix\n    prefix: $GAMEDIR\n- extract:\n    dst: $CACHE\n    file: inno\n- execute:\n    args: -d \"$CACHE\" --gog gogsetup\n    file: $CACHE/innoextract\n- merge:\n    dst: $GAMEDIR/drive_c/GOG Games/Tomb Raider 5/\n    src: $CACHE/app\n- extract:\n    dst: $GAMEDIR/drive_c/GOG Games/Tomb Raider 5/\n    file: dgv\n- copy:\n    dst: $GAMEDIR/drive_c/GOG Games/Tomb Raider 5/\n    src: $GAMEDIR/drive_c/GOG Games/Tomb Raider 5/MS/x86/DDraw.dll\n- copy:\n    dst: $GAMEDIR/drive_c/GOG Games/Tomb Raider 5/\n    src: $GAMEDIR/drive_c/GOG Games/Tomb Raider 5/MS/x86/D3DImm.dll\n- execute:\n    command: cd \"$GAMEDIR/drive_c/GOG Games/Tomb Raider 5/\"; mv dgVoodoo.conf dgVoodoo_original.conf\n- write_config:\n    data:\n      DirectX:\n        ForceVerticalSync: true\n        Resolution: max_qhd_isf\n        VRAM: 256\n        dgVoodooWatermark: false\n      General:\n        CaptureMouse: false\n        FullScreenMode: false\n        ScalingMode: stretched_ar\n    file: $GAMEDIR/drive_c/GOG Games/Tomb Raider 5/dgVoodoo.conf\n- task:\n    arch: win64\n    key: ddraw\n    name: set_regedit\n    path: HKEY_CURRENT_USER\\Software\\Wine\\DllOverrides\\\n    prefix: $GAMEDIR\n    type: REG_SZ\n    value: native,builtin\n- extract:\n    dst: $GAMEDIR/drive_c/GOG Games/Tomb Raider 5/\n    src: patch\n- copy:\n    dst: $GAMEDIR/drive_c/\n    src: menu\n- copy:\n    dst: $GAMEDIR/drive_c/\n    src: wpp\n- merge:\n    dst: $GAMEDIR/drive_c/GOG Games/Tomb Raider 5/gamepad profiles/\n    src: gpreadme\n- merge:\n    dst: $GAMEDIR/drive_c/GOG Games/Tomb Raider 5/gamepad profiles/\n    src: gpx360\n- merge:\n    dst: $GAMEDIR/drive_c/GOG Games/Tomb Raider 5/gamepad profiles/\n    src: gpsteam\n- task:\n    arch: win64\n    key: D3D\n    name: set_regedit\n    path: HKEY_CURRENT_USER\\Software\\Core Design\\Tomb Raider Chronicles\\System\n    prefix: $GAMEDIR\n    type: REG_DWORD\n    value: 2\n- task:\n    arch: win64\n    key: VMode\n    name: set_regedit\n    path: HKEY_CURRENT_USER\\Software\\Core Design\\Tomb Raider Chronicles\\System\n    prefix: $GAMEDIR\n    type: REG_DWORD\n    value: 0000002b\n- task:\n    arch: win64\n    key: TFormat\n    name: set_regedit\n    path: HKEY_CURRENT_USER\\Software\\Core Design\\Tomb Raider Chronicles\\System\n    prefix: $GAMEDIR\n    type: REG_DWORD\n    value: 2\n- task:\n    arch: win64\n    key: Setup\n    name: set_regedit\n    path: HKEY_CURRENT_USER\\Software\\Core Design\\Tomb Raider Chronicles\\System\n    prefix: $GAMEDIR\n    type: REG_DWORD\n    value: 1\n- task:\n    arch: win64\n    key: AutoTarget\n    name: set_regedit\n    path: HKEY_CURRENT_USER\\Software\\Core Design\\Tomb Raider Chronicles\\Game\n    prefix: $GAMEDIR\n    type: REG_DWORD\n    value: 1\n- task:\n    arch: win64\n    key: SoundQuality\n    name: set_regedit\n    path: HKEY_CURRENT_USER\\Software\\Core Design\\Tomb Raider Chronicles\\Game\n    prefix: $GAMEDIR\n    type: REG_DWORD\n    value: 2\n- task:\n    arch: win64\n    key: csmt\n    name: set_regedit\n    path: HKEY_CURRENT_USER\\Software\\Wine\\Direct3D\\\n    prefix: $GAMEDIR\n    type: REG_DWORD\n    value: '00000000'\n- task:\n    arch: win64\n    key: wallpaper\n    name: set_regedit\n    path: HKEY_CURRENT_USER\\Control Panel\\Desktop\\\n    prefix: $GAMEDIR\n    type: REG_SZ\n    value: c:\\\\tr5c.bmp\n- task:\n    arch: win64\n    key: background\n    name: set_regedit\n    path: HKEY_CURRENT_USER\\Control Panel\\Colors\\\n    prefix: $GAMEDIR\n    type: REG_SZ\n    value: 0 0 0\n- task:\n    arch: win64\n    key: ActiveTitle\n    name: set_regedit\n    path: HKEY_CURRENT_USER\\Control Panel\\Colors\\\n    prefix: $GAMEDIR\n    type: REG_SZ\n    value: 0 0 0\n- task:\n    arch: win64\n    key: GradientActiveTitle\n    name: set_regedit\n    path: HKEY_CURRENT_USER\\Control Panel\\Colors\\\n    prefix: $GAMEDIR\n    type: REG_SZ\n    value: 68 103 145\n- execute:\n    command: cd \"$GAMEDIR/drive_c/GOG Games/Tomb Raider 5/\"; rm -f -r 3Dfx Doc MS\n      __support goggame* QuickGuide.html webcache.zip\nwine:\n  Desktop: true\n"
}