{
  "name": "Incredible Dracula 4: Games Of Gods",
  "slug": "incredible-dracula-4-games-of-gods",
  "year": null,
  "description": "",
  "banner_url": "https://lutris.net/games/banner/incredible-dracula-4-games-of-gods.jpg",
  "icon_url": "https://lutris.net/games/icon/incredible-dracula-4-games-of-gods.png",
  "is_public": true,
  "updated": "2020-10-08T10:11:48.207126Z",
  "provider_games": [
    {
      "name": "Incredible Dracula 4: Games Of Gods",
      "slug": "1092510",
      "service": "steam"
    }
  ],
  "steamid": 1092510,
  "gogid": null,
  "gogslug": "",
  "humblestoreid": "",
  "id": 30132
}