{
  "name": "Capsized",
  "slug": "capsized",
  "year": 2011,
  "description": "Capsized is a fast paced 2d platformer developed by Alientrap Games, focused on intense action and exploration.\r\n\r\n\r\nAs a intrepid space traveler, your ship has crash landed on a mysterious alien planet. You must navigate through the perilous environment and fight off blood-thirsty creatures to save your crewmates and escape with your lives! \r\n\r\nArtist Jesse McGibney and programmer Lee Vermeulen create an immersive alien world teeming with bizarre life-forms and strange landscapes presented in a unique hand-drawn art style. Combining control elements of first person shooters and innovative physics based combat, Capsized emphasizes action without giving up the smart problem solving of classic platform games.",
  "banner_url": "https://lutris.net/games/banner/capsized.jpg",
  "icon_url": "https://lutris.net/games/icon/capsized.png",
  "is_public": true,
  "updated": "2020-08-15T23:50:34.258401Z",
  "provider_games": [
    {
      "name": "Capsized",
      "slug": "1207659151",
      "service": "gog"
    },
    {
      "name": "Capsized",
      "slug": "capsized",
      "service": "humblebundle"
    },
    {
      "name": "Capsized",
      "slug": "95300",
      "service": "steam"
    }
  ],
  "steamid": 95300,
  "gogid": 1207659151,
  "gogslug": "capsized",
  "humblestoreid": "capsized",
  "id": 197
}