{
  "name": "Fairies vs. Darklings: Arcane Edition",
  "slug": "fairies-vs-darklings-arcane-edition",
  "year": 2016,
  "description": "Travel to the fantasy land of Titania, a world once thriving with magic and peace... Until, from within its very heart, the seed of corruption started to grow and darkness threatened to enshroud all of its islands and their inhabitants in ruin and desolation. To save the world from this catastrophic fate, you shall yield the magical powers of the very land itself by matching gemstones, using the mana from within them to summon a variety of magical Fairies to aid you in your battle against the malicious Darklings.",
  "banner_url": "https://lutris.net/games/banner/fairies-vs-darklings-arcane-edition.jpg",
  "icon_url": "https://lutris.net/games/icon/fairies-vs-darklings-arcane-edition.png",
  "is_public": true,
  "updated": "2019-01-23T08:29:27.631273Z",
  "provider_games": [
    {
      "name": "Fairies vs. Darklings: Arcane Edition",
      "slug": "434230",
      "service": "steam"
    }
  ],
  "steamid": 434230,
  "gogid": null,
  "gogslug": "",
  "humblestoreid": "",
  "id": 11807
}