{
  "name": "Azure Dreams",
  "slug": "azure-dreams",
  "year": 1998,
  "description": "For years the Demon Tower has beckoned you and, today, on your fifteenth birthday, you have come of age. Do you follow in your father's footsteps and enter the Tower or live a peaceful life in the town of Monsbaia - it's time to choose. And so the story begins in Azure Dreams.\r\n\r\nPlay the role of an apprentice monster tamer searching a magical tower for demon eggs to collect and grow. Once collected, these eggs can be sold for profit or raised into friendly helpers that'll aid you in your exploration of the higher reaches of the tower.\r\n\r\nWith a flexible story system, that allows you to build a prosperous town using earned funds, and a random map generator that makes each foray into the tower a new experience, Azure Dreams will keep fans absorbed for hours in a game that combining traditional RPG elements with monster raising and city building.",
  "banner_url": "https://lutris.net/games/banner/azure-dreams.jpg",
  "icon_url": "",
  "is_public": true,
  "updated": "2019-01-23T08:28:30.123725Z",
  "provider_games": [],
  "steamid": null,
  "gogid": null,
  "gogslug": "",
  "humblestoreid": "",
  "id": 17634
}