{
  "name": "Leviathan: The Last Day of the Decade",
  "slug": "leviathan-the-last-day-of-the-decade",
  "year": 2013,
  "description": "\"Leviathan: The Last Day of the Decade\" is a detective story told by a dweller of a cruel dark fantasy world affected by the pandemic. The world ruled by a 5 noble-born kins under the suzerainty of the undead Plague King.\r\n\r\nA young man spends years to find a clue to bring justice for his mother's murderer. But what if the criminal is protected by the mighty family? And what if he is a man you really love?\r\n\r\nFeatures\r\n— The world of aristocracy full of money and power.\r\n— Romantic relationship.\r\n— Daemons from the depths of outer worlds!\r\n— Mysterious murder and secrets of the past!\r\n— City streets, full of adventures.\r\n— Stunning animated 2D graphics.",
  "banner_url": "https://lutris.net/games/banner/leviathan-the-last-day-of-the-decade.jpg",
  "icon_url": "https://lutris.net/games/icon/leviathan-the-last-day-of-the-decade.png",
  "is_public": true,
  "updated": "2019-01-23T08:30:10.360513Z",
  "provider_games": [
    {
      "name": "Leviathan: The Last Day of the Decade",
      "slug": "328270",
      "service": "steam"
    }
  ],
  "steamid": 328270,
  "gogid": null,
  "gogslug": "",
  "humblestoreid": "",
  "id": 1705
}