{
  "name": "Kansei",
  "slug": "kansei",
  "year": 2011,
  "description": "A teenager with the ability to relive the death of any corpse he touches finds himself tangled in another murder case when the owner of a high profile corporation dies under mysterious circumstances. This time, however, he's forced to team up with a group of kids with abilities as strange as his own. Unfortunately, these new team mates might be more dangerous than the killer they're hunting. \r\n\r\nEveryone has something to hide, and the past never stays hidden for long. Interrogate suspects, explore the house of the wealthy deceased, and unearth the secrets of others while you try to keep your own hidden.",
  "banner_url": "https://lutris.net/games/banner/kansei.jpg",
  "icon_url": "",
  "is_public": true,
  "updated": "2019-01-23T08:30:02.300329Z",
  "provider_games": [
    {
      "name": "Kansei",
      "slug": "771340",
      "service": "steam"
    }
  ],
  "steamid": 771340,
  "gogid": null,
  "gogslug": "",
  "humblestoreid": "",
  "id": 3920
}