{
  "name": "Liberation",
  "slug": "liberation",
  "year": 1984,
  "description": "",
  "banner_url": "",
  "icon_url": "https://lutris.net/games/icon/liberation.png",
  "is_public": true,
  "updated": "2020-05-26T03:35:15.839869Z",
  "provider_games": [
    {
      "name": "Liberation",
      "slug": "liberate",
      "service": "mame"
    }
  ],
  "steamid": null,
  "gogid": null,
  "gogslug": "",
  "humblestoreid": "",
  "id": 34723
}