{
  "name": "Gamble Fight Plus",
  "slug": "gamble-fight-plus",
  "year": null,
  "description": "",
  "banner_url": "https://lutris.net/games/banner/gamble-fight-plus.jpg",
  "icon_url": "https://lutris.net/games/icon/gamble-fight-plus.png",
  "is_public": true,
  "updated": "2020-10-08T10:12:52.016445Z",
  "provider_games": [
    {
      "name": "Gamble Fight Plus",
      "slug": "1028130",
      "service": "steam"
    }
  ],
  "steamid": 1028130,
  "gogid": null,
  "gogslug": "",
  "humblestoreid": "",
  "id": 28492
}