{
  "name": "King's Guard TD",
  "slug": "kings-guard-td",
  "year": null,
  "description": "",
  "banner_url": "https://lutris.net/games/banner/kings-guard-td.jpg",
  "icon_url": "https://lutris.net/games/icon/kings-guard-td.png",
  "is_public": true,
  "updated": "2020-10-08T10:13:13.662333Z",
  "provider_games": [
    {
      "name": "King's Guard TD",
      "slug": "466730",
      "service": "steam"
    }
  ],
  "steamid": 466730,
  "gogid": null,
  "gogslug": "",
  "humblestoreid": "",
  "id": 8332
}