{
  "id": 24724,
  "game_id": 40389,
  "game_slug": "trainz-simulator-2009-world-build-edition",
  "name": "Trainz Simulator 2009 World Build Edition",
  "year": 2009,
  "user": "Lanséria",
  "runner": "wine",
  "slug": "trainz-simulator-2009-world-b-latest",
  "version": "latest",
  "description": null,
  "notes": "",
  "created_at": "2020-11-26T11:21:02.754986Z",
  "updated_at": "2020-11-26T11:21:02.755011Z",
  "draft": true,
  "published": false,
  "published_by": null,
  "rating": "",
  "steamid": null,
  "gogid": null,
  "gogslug": "",
  "humbleid": "",
  "humblestoreid": "",
  "humblestoreid_real": "",
  "script": {
    "script": {
      "files": [
        {
          "installer": "N/A:Select the game's setup file"
        }
      ],
      "game": {
        "arch": "win32",
        "args": "--some-args",
        "exe": "$GAMEDIR/mygame",
        "prefix": "$GAMEDIR/prefix",
        "working_dir": "$GAMEDIR/prefix"
      },
      "installer": [
        {
          "task": {
            "executable": "installer",
            "name": "wineexec",
            "prefix": "$GAMEDIR/prefix"
          }
        }
      ],
      "system": {
        "env": {
          "SOMEENV": true,
          "WINEDLLOVERRIDES": "d3d11="
        },
        "terminal": true
      },
      "wine": {
        "Desktop": true,
        "overrides": {
          "ddraw.dll": "n"
        }
      }
    }
  },
  "content": "script:\n  files:\n  - installer: N/A:Select the game's setup file\n  game:\n    arch: win32\n    args: --some-args\n    exe: $GAMEDIR/mygame\n    prefix: $GAMEDIR/prefix\n    working_dir: $GAMEDIR/prefix\n  installer:\n  - task:\n      executable: installer\n      name: wineexec\n      prefix: $GAMEDIR/prefix\n  system:\n    env:\n      SOMEENV: true\n      WINEDLLOVERRIDES: d3d11=\n    terminal: true\n  wine:\n    Desktop: true\n    overrides:\n      ddraw.dll: n\n"
}