{
  "name": "Dropship Down",
  "slug": "dropship-down",
  "year": null,
  "description": "",
  "banner_url": "https://lutris.net/games/banner/dropship-down.jpg",
  "icon_url": "https://lutris.net/games/icon/dropship-down.png",
  "is_public": true,
  "updated": "2020-10-08T10:07:22.813987Z",
  "provider_games": [
    {
      "name": "Dropship Down",
      "slug": "501740",
      "service": "steam"
    }
  ],
  "steamid": 501740,
  "gogid": null,
  "gogslug": "",
  "humblestoreid": "",
  "id": 11492
}