{
  "name": "Call to Arms",
  "slug": "call-to-arms",
  "year": null,
  "description": "",
  "banner_url": "https://lutris.net/games/banner/call-to-arms.jpg",
  "icon_url": "https://lutris.net/games/icon/call-to-arms.png",
  "is_public": true,
  "updated": "2019-10-18T08:06:18.740827Z",
  "provider_games": [
    {
      "name": "Call to Arms",
      "slug": "302670",
      "service": "steam"
    }
  ],
  "steamid": 302670,
  "gogid": null,
  "gogslug": "",
  "humblestoreid": "",
  "id": 5897
}