{
  "name": "Hotdog Storm",
  "slug": "hotdog-storm",
  "year": 1996,
  "description": "",
  "banner_url": "",
  "icon_url": "https://lutris.net/games/icon/hotdog-storm.png",
  "is_public": true,
  "updated": "2020-05-26T03:34:37.001776Z",
  "provider_games": [
    {
      "name": "Hotdog Storm",
      "slug": "hotdogst",
      "service": "mame"
    }
  ],
  "steamid": null,
  "gogid": null,
  "gogslug": "",
  "humblestoreid": "",
  "id": 34427
}