{
  "name": "Fly in the House",
  "slug": "fly-in-the-house",
  "year": null,
  "description": "",
  "banner_url": "https://lutris.net/games/banner/fly-in-the-house.jpg",
  "icon_url": "https://lutris.net/games/icon/fly-in-the-house.png",
  "is_public": true,
  "updated": "2020-10-08T10:17:45.547919Z",
  "provider_games": [
    {
      "name": "Fly in the House",
      "slug": "350500",
      "service": "steam"
    }
  ],
  "steamid": 350500,
  "gogid": null,
  "gogslug": "",
  "humblestoreid": "",
  "id": 9880
}