{
  "name": "Daemonical",
  "slug": "daemonical",
  "year": null,
  "description": "",
  "banner_url": "https://lutris.net/games/banner/daemonical.jpg",
  "icon_url": "https://lutris.net/games/icon/daemonical.png",
  "is_public": true,
  "updated": "2020-10-08T09:58:13.854435Z",
  "provider_games": [
    {
      "name": "Daemonical",
      "slug": "779100",
      "service": "steam"
    }
  ],
  "steamid": 779100,
  "gogid": null,
  "gogslug": "",
  "humblestoreid": "",
  "id": 29057
}