{
  "name": "Dark Train",
  "slug": "dark-train",
  "year": null,
  "description": "",
  "banner_url": "https://lutris.net/games/banner/dark-train.jpg",
  "icon_url": "https://lutris.net/games/icon/dark-train.png",
  "is_public": true,
  "updated": "2019-01-23T08:29:05.131405Z",
  "provider_games": [
    {
      "name": "Dark Train",
      "slug": "532290",
      "service": "steam"
    }
  ],
  "steamid": 532290,
  "gogid": null,
  "gogslug": "",
  "humblestoreid": "",
  "id": 13644
}