{
  "id": 24647,
  "game_id": 4275,
  "game_slug": "elite-dangerous",
  "name": "Elite: Dangerous",
  "year": 2014,
  "user": "jiriks74",
  "runner": "wine",
  "slug": "elite-dangerous-epic-games",
  "version": "Epic Games",
  "description": null,
  "notes": "",
  "created_at": "2020-11-21T18:32:25.297338Z",
  "updated_at": "2020-11-21T18:32:25.297365Z",
  "draft": true,
  "published": false,
  "published_by": null,
  "rating": "",
  "steamid": 359320,
  "gogid": null,
  "gogslug": "",
  "humbleid": "",
  "humblestoreid": "",
  "humblestoreid_real": "",
  "script": {
    "files": [
      {
        "epic": "https://launcher-public-service-prod06.ol.epicgames.com/launcher/api/installer/download/EpicGamesLauncherInstaller.msi"
      }
    ],
    "game": {
      "arch": "win64",
      "args": "-opengl -SkipBuildPatchPrereq",
      "exe": "drive_c/Program Files (x86)/Epic Games/Launcher/Portal/Binaries/Win32/EpicGamesLauncher.exe",
      "prefix": "$GAMEDIR"
    },
    "installer": [
      {
        "task": {
          "arch": "win64",
          "description": "Creating Wine prefix",
          "name": "create_prefix",
          "prefix": "$GAMEDIR"
        }
      },
      {
        "task": {
          "app": "arial corefonts cjkfonts vcrun2019 d3dcompiler_43 d3dcompiler_47 d3dx9",
          "arch": "win64",
          "description": "Installing dependencies",
          "name": "winetricks",
          "prefix": "$GAMEDIR"
        }
      },
      {
        "task": {
          "app": "ie8",
          "arch": "win64",
          "description": "Installing Internet Explorer 8 (necessary!))",
          "name": "winetricks",
          "prefix": "$GAMEDIR"
        }
      },
      {
        "task": {
          "app": "dotnet452",
          "arch": "win64",
          "description": "Installing Dot.NET 4.5.2",
          "name": "winetricks",
          "prefix": "$GAMEDIR"
        }
      },
      {
        "task": {
          "app": "vcrun2010 vcrun2012 vcrun2015",
          "arch": "win64",
          "description": "Installing vcrun2010 vcrun2012 vcrun2015",
          "name": "winetricks",
          "prefix": "$GAMEDIR"
        }
      },
      {
        "task": {
          "app": "msls31",
          "description": "Installing MS Line Services",
          "name": "winetricks",
          "prefix": "$GAMEDIR"
        }
      },
      {
        "task": {
          "app": "quartz",
          "arch": "win64",
          "description": "Installing Quartz",
          "name": "winetricks",
          "prefix": "$GAMEDIR"
        }
      },
      {
        "task": {
          "app": "arial",
          "arch": "win64",
          "description": "Installing Arial",
          "name": "winetricks",
          "prefix": "$GAMEDIR"
        }
      },
      {
        "task": {
          "app": "win7",
          "arch": "win64",
          "description": "Set Windows version to Windows 7",
          "name": "winetricks",
          "prefix": "$GAMEDIR"
        }
      },
      {
        "task": {
          "arch": "win64",
          "args": "/silent",
          "description": "Installing Elite Dangerous",
          "executable": "setup",
          "name": "wineexec",
          "prefix": "$GAMEDIR"
        }
      },
      {
        "task": {
          "name": "winekill",
          "prefix": "$GAMEDIR"
        }
      }
    ],
    "system": {
      "env": {
        "MANGOHUD": 1,
        "MESA_GL_VERSION_OVERRIDE": "4.4COMPAT",
        "__GL_SHADER_DISK_CACHE": 1,
        "__GL_SHADER_DISK_CACHE_PATH": "$GAMEDIR"
      },
      "pulse_latency": true
    },
    "wine": {
      "dxvk": true
    }
  },
  "content": "files:\n- epic: https://launcher-public-service-prod06.ol.epicgames.com/launcher/api/installer/download/EpicGamesLauncherInstaller.msi\ngame:\n  arch: win64\n  args: -opengl -SkipBuildPatchPrereq\n  exe: drive_c/Program Files (x86)/Epic Games/Launcher/Portal/Binaries/Win32/EpicGamesLauncher.exe\n  prefix: $GAMEDIR\ninstaller:\n- task:\n    arch: win64\n    description: Creating Wine prefix\n    name: create_prefix\n    prefix: $GAMEDIR\n- task:\n    app: arial corefonts cjkfonts vcrun2019 d3dcompiler_43 d3dcompiler_47 d3dx9\n    arch: win64\n    description: Installing dependencies\n    name: winetricks\n    prefix: $GAMEDIR\n- task:\n    app: ie8\n    arch: win64\n    description: Installing Internet Explorer 8 (necessary!))\n    name: winetricks\n    prefix: $GAMEDIR\n- task:\n    app: dotnet452\n    arch: win64\n    description: Installing Dot.NET 4.5.2\n    name: winetricks\n    prefix: $GAMEDIR\n- task:\n    app: vcrun2010 vcrun2012 vcrun2015\n    arch: win64\n    description: Installing vcrun2010 vcrun2012 vcrun2015\n    name: winetricks\n    prefix: $GAMEDIR\n- task:\n    app: msls31\n    description: Installing MS Line Services\n    name: winetricks\n    prefix: $GAMEDIR\n- task:\n    app: quartz\n    arch: win64\n    description: Installing Quartz\n    name: winetricks\n    prefix: $GAMEDIR\n- task:\n    app: arial\n    arch: win64\n    description: Installing Arial\n    name: winetricks\n    prefix: $GAMEDIR\n- task:\n    app: win7\n    arch: win64\n    description: Set Windows version to Windows 7\n    name: winetricks\n    prefix: $GAMEDIR\n- task:\n    arch: win64\n    args: /silent\n    description: Installing Elite Dangerous\n    executable: setup\n    name: wineexec\n    prefix: $GAMEDIR\n- task:\n    name: winekill\n    prefix: $GAMEDIR\nsystem:\n  env:\n    MANGOHUD: 1\n    MESA_GL_VERSION_OVERRIDE: 4.4COMPAT\n    __GL_SHADER_DISK_CACHE: 1\n    __GL_SHADER_DISK_CACHE_PATH: $GAMEDIR\n  pulse_latency: true\nwine:\n  dxvk: true\n"
}