{
  "id": 1835,
  "game_id": 5471,
  "game_slug": "dx-ball-2",
  "name": "DX-Ball 2",
  "year": 1998,
  "user": "djazz",
  "runner": "wine",
  "slug": "dx-ball-2-demo",
  "version": "Demo",
  "description": "Includes 24 boards",
  "notes": "",
  "created_at": "2016-01-07T19:47:00.255777Z",
  "updated_at": "2018-05-19T03:41:48.534952Z",
  "draft": false,
  "published": true,
  "published_by": null,
  "rating": "",
  "steamid": null,
  "gogid": null,
  "gogslug": "",
  "humbleid": "",
  "humblestoreid": "",
  "humblestoreid_real": "",
  "script": {
    "exe": "drive_c/Program Files/LDA Games/DX-Ball 2/DXBall2.exe",
    "files": [
      {
        "installer": "http://www.longbowgames.com/downloads/DX-Ball%202%20Demo%20Install.exe"
      }
    ],
    "game": {
      "arch": "win32",
      "prefix": "$GAMEDIR"
    },
    "installer": [
      {
        "task": {
          "args": "/S",
          "executable": "installer",
          "name": "wineexec",
          "prefix": "$GAMEDIR"
        }
      },
      {
        "execute": {
          "args": "sed -i 's/MusicVoices = 8/MusicVoices = 24/;s/PlaybackRate = 22050/PlaybackRate = 44100/' '$GAMEDIR/drive_c/Program Files/LDA Games/DX-Ball 2/config.cfg'",
          "file": "/usr/bin/env"
        }
      }
    ]
  },
  "content": "exe: drive_c/Program Files/LDA Games/DX-Ball 2/DXBall2.exe\nfiles:\n- installer: http://www.longbowgames.com/downloads/DX-Ball%202%20Demo%20Install.exe\ngame:\n  arch: win32\n  prefix: $GAMEDIR\ninstaller:\n- task:\n    args: /S\n    executable: installer\n    name: wineexec\n    prefix: $GAMEDIR\n- execute:\n    args: sed -i 's/MusicVoices = 8/MusicVoices = 24/;s/PlaybackRate = 22050/PlaybackRate\n      = 44100/' '$GAMEDIR/drive_c/Program Files/LDA Games/DX-Ball 2/config.cfg'\n    file: /usr/bin/env\n"
}