{
  "id": 8482,
  "game_id": 19020,
  "game_slug": "contract-jack",
  "name": "Contract J.A.C.K.",
  "year": 2003,
  "user": "strider",
  "runner": "wine",
  "slug": "contract-jack-nolfrevivaltk",
  "version": "nolfrevival.tk",
  "description": "Installer for the abandonware version",
  "notes": "",
  "created_at": "2018-05-31T04:32:53.646000Z",
  "updated_at": "2018-05-31T04:48:29.255382Z",
  "draft": false,
  "published": true,
  "published_by": null,
  "rating": "",
  "steamid": null,
  "gogid": null,
  "gogslug": "",
  "humbleid": "",
  "humblestoreid": "",
  "humblestoreid_real": "",
  "script": {
    "files": [
      {
        "setup": "N/A:Provide the installer file"
      }
    ],
    "game": {
      "arch": "win32",
      "exe": "drive_c/Games/Contract Jack/ContractJack.exe",
      "prefix": "$GAMEDIR"
    },
    "installer": [
      {
        "task": {
          "arch": "win32",
          "description": "Creating Wine prefix",
          "name": "create_prefix",
          "prefix": "$GAMEDIR"
        }
      },
      {
        "task": {
          "app": "winxp",
          "arch": "win32",
          "description": "Setting Windows version to XP",
          "name": "winetricks",
          "prefix": "$GAMEDIR"
        }
      },
      {
        "task": {
          "arch": "win32",
          "description": "Installing Contract JACK",
          "executable": "$setup",
          "name": "wineexec",
          "prefix": "$GAMEDIR"
        }
      }
    ]
  },
  "content": "files:\n- setup: N/A:Provide the installer file\ngame:\n  arch: win32\n  exe: drive_c/Games/Contract Jack/ContractJack.exe\n  prefix: $GAMEDIR\ninstaller:\n- task:\n    arch: win32\n    description: Creating Wine prefix\n    name: create_prefix\n    prefix: $GAMEDIR\n- task:\n    app: winxp\n    arch: win32\n    description: Setting Windows version to XP\n    name: winetricks\n    prefix: $GAMEDIR\n- task:\n    arch: win32\n    description: Installing Contract JACK\n    executable: $setup\n    name: wineexec\n    prefix: $GAMEDIR\n"
}