{
  "name": "Allan Border's Cricket",
  "slug": "allan-borders-cricket",
  "year": 1993,
  "description": "WORLD CLASS CRICKET is the definitive cricket simulation for the home computer - created with the help of GRAHAM GOOCH, scorer of 333 runs against India at Lords, and one of the few England captains of recent years to lead his team to victory over the West Indies. Whether you choose to play test matches or limited over games, you’ll be amazed by the incredibly lifelike animation and the stunning graphics. Authentic batting and bowling statistics add to the realism.\r\n\r\nWORLD CLASS CRICKET allows you to get on the action and control batting, bowling and fielding. Alternatively you can just sit back and watch the computer play — it’s the ideal way to spend a wet summer’s day!\r\n\r\nAudiogenic developed the all-time classic Graham Gooch’s Test Cricket which from 1985 to 1992 was the world’s best cricket simulation. Only now is there a worthy successor, based around the technology of the 1990s - WORLD CLASS CRICKET!",
  "banner_url": "https://lutris.net/games/banner/allan-borders-cricket.jpg",
  "icon_url": "",
  "is_public": true,
  "updated": "2019-01-23T08:28:19.341305Z",
  "provider_games": [],
  "steamid": null,
  "gogid": null,
  "gogslug": "",
  "humblestoreid": "",
  "id": 12326
}