{
  "name": "Hanafuda Hana Tengoku [BET]",
  "slug": "hanafuda-hana-tengoku-bet",
  "year": 1992,
  "description": "",
  "banner_url": "",
  "icon_url": "https://lutris.net/games/icon/hanafuda-hana-tengoku-bet.png",
  "is_public": true,
  "updated": "2020-05-26T03:34:25.145167Z",
  "provider_games": [
    {
      "name": "Hanafuda Hana Tengoku [BET]",
      "slug": "htengoku",
      "service": "mame"
    }
  ],
  "steamid": null,
  "gogid": null,
  "gogslug": "",
  "humblestoreid": "",
  "id": 34444
}