{
  "name": "Gnarltoof's Revenge",
  "slug": "gnarltoofs-revenge",
  "year": null,
  "description": "",
  "banner_url": "https://lutris.net/games/banner/gnarltoofs-revenge.jpg",
  "icon_url": "https://lutris.net/games/icon/gnarltoofs-revenge.png",
  "is_public": false,
  "updated": "2019-01-23T08:29:40.386389Z",
  "provider_games": [],
  "steamid": 486340,
  "gogid": null,
  "gogslug": "",
  "humblestoreid": "",
  "id": 7124
}