{
  "name": "Kamikaze Cabbie",
  "slug": "kamikaze-cabbie",
  "year": 1984,
  "description": "",
  "banner_url": "",
  "icon_url": "https://lutris.net/games/icon/kamikaze-cabbie.png",
  "is_public": true,
  "updated": "2020-05-26T03:34:57.607898Z",
  "provider_games": [
    {
      "name": "Kamikaze Cabbie",
      "slug": "kamikcab",
      "service": "mame"
    }
  ],
  "steamid": null,
  "gogid": null,
  "gogslug": "",
  "humblestoreid": "",
  "id": 34598
}