{
  "id": 24695,
  "game_id": 29117,
  "game_slug": "remnant-from-the-ashes",
  "name": "Remnant: From the Ashes",
  "year": 2019,
  "user": "RayJin",
  "runner": "wine",
  "slug": "remnant-from-the-ashes-epic",
  "version": "Epic",
  "description": null,
  "notes": "",
  "created_at": "2020-11-24T15:19:00.105183Z",
  "updated_at": "2020-11-24T15:19:00.105211Z",
  "draft": false,
  "published": false,
  "published_by": null,
  "rating": "",
  "steamid": 617290,
  "gogid": null,
  "gogslug": "",
  "humbleid": "",
  "humblestoreid": "",
  "humblestoreid_real": "",
  "script": {
    "count": 1,
    "next": null,
    "previous": null,
    "results": [
      {
        "content": "files:\n- epic: https://launcher-public-service-prod06.ol.epicgames.com/launcher/api/installer/download/EpicGamesLauncherInstaller.msi\ngame:\n arch: win64\n args: -opengl -SkipBuildPatchPrereq\n exe: drive_c/Program Files (x86)/Epic Games/Launcher/Portal/Binaries/Win32/EpicGamesLauncher.exe\n prefix: $GAMEDIR\ninstaller:\n- task:\n arch: win64\n name: create_prefix\n prefix: $GAMEDIR\n- task:\n app: arial cjkfonts vcrun2019 d3dcompiler_43 d3dcompiler_47 d3dx9\n arch: win64\n description: Installing dependencies\n name: winetricks\n prefix: $GAMEDIR\n- copy:\n dst: $CACHE/epic/\n src: epic\n- task:\n arch: win64\n args: /i \"$CACHE/epic/EpicGamesLauncherInstaller.msi\" /q\n exclude_processes: EpicGamesLauncher.exe\n executable: msiexec\n name: wineexec\n prefix: $GAMEDIR\n- task:\n arch: win64\n name: winekill\n prefix: $GAMEDIR\nsystem:\n env:\n DXVK_HUD: compiler\n MESA_GL_VERSION_OVERRIDE: 4.4COMPAT\n __GL_SHADER_DISK_CACHE: 1\n __GL_SHADER_DISK_CACHE_PATH: $GAMEDIR\nwine:\n dxvk: true\n esync: true",
        "created_at": "2020-10-30T01:27:39.361002Z",
        "description": null,
        "draft": false,
        "game_id": 29117,
        "game_slug": "remnant-from-the-ashes",
        "gogid": null,
        "gogslug": "",
        "humbleid": "",
        "humblestoreid": "",
        "humblestoreid_real": "",
        "id": 24199,
        "name": "Remnant: From the Ashes",
        "notes": "",
        "published": false,
        "published_by": null,
        "rating": "",
        "runner": "steam",
        "script": {
          "files": [
            {
              "epic": "https://launcher-public-service-prod06.ol.epicgames.com/launcher/api/installer/download/EpicGamesLauncherInstaller.msi"
            }
          ],
          "game": {
            "arch": "win64",
            "args": "-opengl -SkipBuildPatchPrereq",
            "exe": "drive_c/Program Files (x86)/Epic Games/Launcher/Portal/Binaries/Win32/EpicGamesLauncher.exe",
            "prefix": "$GAMEDIR"
          },
          "installer": [
            {
              "task": {
                "arch": "win64",
                "name": "create_prefix",
                "prefix": "$GAMEDIR"
              }
            },
            {
              "task": {
                "app": "arial cjkfonts vcrun2019 d3dcompiler_43 d3dcompiler_47 d3dx9",
                "arch": "win64",
                "description": "Installing dependencies",
                "name": "winetricks",
                "prefix": "$GAMEDIR"
              }
            },
            {
              "copy": {
                "dst": "$CACHE/epic/",
                "src": "epic"
              }
            },
            {
              "task": {
                "arch": "win64",
                "args": "/i \"$CACHE/epic/EpicGamesLauncherInstaller.msi\" /q",
                "exclude_processes": "EpicGamesLauncher.exe",
                "executable": "msiexec",
                "name": "wineexec",
                "prefix": "$GAMEDIR"
              }
            },
            {
              "task": {
                "arch": "win64",
                "name": "winekill",
                "prefix": "$GAMEDIR"
              }
            }
          ],
          "system": {
            "env": {
              "DXVK_HUD": "compiler",
              "MESA_GL_VERSION_OVERRIDE": "4.4COMPAT",
              "__GL_SHADER_DISK_CACHE": 1,
              "__GL_SHADER_DISK_CACHE_PATH": "$GAMEDIR"
            }
          },
          "wine": {
            "dxvk": true,
            "esync": true
          }
        },
        "slug": "remnant-from-the-ashes-steam-proton",
        "steamid": 617290,
        "updated_at": "2020-10-30T01:27:39.361036Z",
        "user": "sr98vn",
        "version": "Steam Proton",
        "year": 2019
      }
    ]
  },
  "content": "count: 1\nnext: null\nprevious: null\nresults:\n- content: \"files:\\n- epic: https://launcher-public-service-prod06.ol.epicgames.com/launcher/api/installer/download/EpicGamesLauncherInstaller.msi\\n\\\n    game:\\n arch: win64\\n args: -opengl -SkipBuildPatchPrereq\\n exe: drive_c/Program\\\n    \\ Files (x86)/Epic Games/Launcher/Portal/Binaries/Win32/EpicGamesLauncher.exe\\n\\\n    \\ prefix: $GAMEDIR\\ninstaller:\\n- task:\\n arch: win64\\n name: create_prefix\\n\\\n    \\ prefix: $GAMEDIR\\n- task:\\n app: arial cjkfonts vcrun2019 d3dcompiler_43 d3dcompiler_47\\\n    \\ d3dx9\\n arch: win64\\n description: Installing dependencies\\n name: winetricks\\n\\\n    \\ prefix: $GAMEDIR\\n- copy:\\n dst: $CACHE/epic/\\n src: epic\\n- task:\\n arch: win64\\n\\\n    \\ args: /i \\\"$CACHE/epic/EpicGamesLauncherInstaller.msi\\\" /q\\n exclude_processes:\\\n    \\ EpicGamesLauncher.exe\\n executable: msiexec\\n name: wineexec\\n prefix: $GAMEDIR\\n\\\n    - task:\\n arch: win64\\n name: winekill\\n prefix: $GAMEDIR\\nsystem:\\n env:\\n DXVK_HUD:\\\n    \\ compiler\\n MESA_GL_VERSION_OVERRIDE: 4.4COMPAT\\n __GL_SHADER_DISK_CACHE: 1\\n\\\n    \\ __GL_SHADER_DISK_CACHE_PATH: $GAMEDIR\\nwine:\\n dxvk: true\\n esync: true\"\n  created_at: '2020-10-30T01:27:39.361002Z'\n  description: null\n  draft: false\n  game_id: 29117\n  game_slug: remnant-from-the-ashes\n  gogid: null\n  gogslug: ''\n  humbleid: ''\n  humblestoreid: ''\n  humblestoreid_real: ''\n  id: 24199\n  name: 'Remnant: From the Ashes'\n  notes: ''\n  published: false\n  published_by: null\n  rating: ''\n  runner: steam\n  script:\n    files:\n    - epic: https://launcher-public-service-prod06.ol.epicgames.com/launcher/api/installer/download/EpicGamesLauncherInstaller.msi\n    game:\n      arch: win64\n      args: -opengl -SkipBuildPatchPrereq\n      exe: drive_c/Program Files (x86)/Epic Games/Launcher/Portal/Binaries/Win32/EpicGamesLauncher.exe\n      prefix: $GAMEDIR\n    installer:\n    - task:\n        arch: win64\n        name: create_prefix\n        prefix: $GAMEDIR\n    - task:\n        app: arial cjkfonts vcrun2019 d3dcompiler_43 d3dcompiler_47 d3dx9\n        arch: win64\n        description: Installing dependencies\n        name: winetricks\n        prefix: $GAMEDIR\n    - copy:\n        dst: $CACHE/epic/\n        src: epic\n    - task:\n        arch: win64\n        args: /i \"$CACHE/epic/EpicGamesLauncherInstaller.msi\" /q\n        exclude_processes: EpicGamesLauncher.exe\n        executable: msiexec\n        name: wineexec\n        prefix: $GAMEDIR\n    - task:\n        arch: win64\n        name: winekill\n        prefix: $GAMEDIR\n    system:\n      env:\n        DXVK_HUD: compiler\n        MESA_GL_VERSION_OVERRIDE: 4.4COMPAT\n        __GL_SHADER_DISK_CACHE: 1\n        __GL_SHADER_DISK_CACHE_PATH: $GAMEDIR\n    wine:\n      dxvk: true\n      esync: true\n  slug: remnant-from-the-ashes-steam-proton\n  steamid: 617290\n  updated_at: '2020-10-30T01:27:39.361036Z'\n  user: sr98vn\n  version: Steam Proton\n  year: 2019\n"
}