{
  "name": "Aaaaa! - A Reckless Disregard for Gravity",
  "slug": "aaaaa-a-reckless-disregard-for-gravity",
  "year": 2009,
  "description": "The jumps you make off buildings floating above Boston, Massachusetts are all about style and timing. You perform stunts, weaving around the bustling City for points, making split-second decisions: do you snake around those girders to earn a dozen “kisses,” or glide along the side of that steel super-skyscraper for massive “hugs”?\r\n\r\nAaaaa! then throws in the spectators — as you fall, give fans the thumbs-up and protesters the finger. And if you’re hungry for a bit of civil disobedience, you can even ready the spraypaint and tag government buildings for points.\r\n\r\nThe game will also teach you how to debristle a pig.",
  "banner_url": "https://lutris.net/games/banner/aaaaa-a-reckless-disregard-for-gravity.jpg",
  "icon_url": "https://lutris.net/games/icon/aaaaa-a-reckless-disregard-for-gravity.png",
  "is_public": true,
  "updated": "2019-01-23T08:28:10.078383Z",
  "provider_games": [
    {
      "name": "AaAaAA!!! - A Reckless Disregard for Gravity",
      "slug": "15520",
      "service": "steam"
    }
  ],
  "steamid": 15520,
  "gogid": null,
  "gogslug": "",
  "humblestoreid": "",
  "id": 187
}