{
  "name": "An Airport Game",
  "slug": "an-airport-game",
  "year": 2019,
  "description": "In this top down RPG, your objective is to make your flight on time. You've got an hour to check a bag, get through TSA, and make it to your gate before your flight leaves. But be ready, because every possible fear you've ever had about air travel is about to happen to you!",
  "banner_url": "https://lutris.net/games/banner/an-airport-game.jpg",
  "icon_url": "",
  "is_public": false,
  "updated": "2020-09-25T07:35:11.784740Z",
  "provider_games": [],
  "steamid": null,
  "gogid": null,
  "gogslug": "",
  "humblestoreid": "",
  "id": 39228
}