{
  "name": "Grand Designer",
  "slug": "grand-designer",
  "year": null,
  "description": "",
  "banner_url": "https://lutris.net/games/banner/grand-designer.jpg",
  "icon_url": "https://lutris.net/games/icon/grand-designer.png",
  "is_public": true,
  "updated": "2020-10-08T10:15:56.965572Z",
  "provider_games": [
    {
      "name": "Grand Designer",
      "slug": "372590",
      "service": "steam"
    }
  ],
  "steamid": 372590,
  "gogid": null,
  "gogslug": "",
  "humblestoreid": "",
  "id": 21545
}