{
  "name": "Lovekami -Healing Harem-",
  "slug": "lovekami-healing-harem-",
  "year": null,
  "description": "",
  "banner_url": "https://lutris.net/games/banner/lovekami-healing-harem-.jpg",
  "icon_url": "https://lutris.net/games/icon/lovekami-healing-harem-.png",
  "is_public": true,
  "updated": "2020-10-08T09:17:23.716469Z",
  "provider_games": [
    {
      "name": "Lovekami -Healing Harem-",
      "slug": "938270",
      "service": "steam"
    }
  ],
  "steamid": 938270,
  "gogid": null,
  "gogslug": "",
  "humblestoreid": "",
  "id": 29535
}