{
  "name": "Kid no Hore Hore Daisakusen",
  "slug": "kid-no-hore-hore-daisakusen",
  "year": 1987,
  "description": "",
  "banner_url": "",
  "icon_url": "https://lutris.net/games/icon/kid-no-hore-hore-daisakusen.png",
  "is_public": true,
  "updated": "2020-05-26T03:35:01.434143Z",
  "provider_games": [
    {
      "name": "Kid no Hore Hore Daisakusen",
      "slug": "horekid",
      "service": "mame"
    }
  ],
  "steamid": null,
  "gogid": null,
  "gogslug": "",
  "humblestoreid": "",
  "id": 34421
}