{
  "name": "Black Viper: Sophia's Fate",
  "slug": "black-viper-sophias-fate",
  "year": null,
  "description": "",
  "banner_url": "https://lutris.net/games/banner/black-viper-sophias-fate.jpg",
  "icon_url": "https://lutris.net/games/icon/black-viper-sophias-fate.png",
  "is_public": true,
  "updated": "2020-10-08T09:19:45.667473Z",
  "provider_games": [
    {
      "name": "Black Viper: Sophia's Fate",
      "slug": "322990",
      "service": "steam"
    }
  ],
  "steamid": 322990,
  "gogid": null,
  "gogslug": "",
  "humblestoreid": "",
  "id": 6781
}