{
  "name": "Amazing Adventures: The Lost Tomb",
  "slug": "amazing-adventures-the-lost-tomb",
  "year": null,
  "description": "",
  "banner_url": "https://lutris.net/games/banner/amazing-adventures-the-lost-tomb.jpg",
  "icon_url": "https://lutris.net/games/icon/amazing-adventures-the-lost-tomb.png",
  "is_public": true,
  "updated": "2020-10-08T10:03:01.629317Z",
  "provider_games": [
    {
      "name": "Amazing Adventures: The Lost Tomb",
      "slug": "3510",
      "service": "steam"
    }
  ],
  "steamid": 3510,
  "gogid": null,
  "gogslug": "",
  "humblestoreid": "",
  "id": 3025
}