{
  "name": "Lines by Nestor Yavorskyy",
  "slug": "lines-by-nestor-yavorskyy",
  "year": null,
  "description": "",
  "banner_url": "https://lutris.net/games/banner/lines-by-nestor-yavorskyy.jpg",
  "icon_url": "https://lutris.net/games/icon/lines-by-nestor-yavorskyy.png",
  "is_public": true,
  "updated": "2020-10-08T10:00:21.062801Z",
  "provider_games": [
    {
      "name": "Lines X",
      "slug": "724740",
      "service": "steam"
    }
  ],
  "steamid": 724740,
  "gogid": null,
  "gogslug": "",
  "humblestoreid": "",
  "id": 15664
}