{
  "name": "Block Story",
  "slug": "block-story",
  "year": null,
  "description": "",
  "banner_url": "https://lutris.net/games/banner/block-story.jpg",
  "icon_url": "https://lutris.net/games/icon/block-story.png",
  "is_public": true,
  "updated": "2020-10-08T09:20:54.735573Z",
  "provider_games": [
    {
      "name": "Block Story",
      "slug": "270110",
      "service": "steam"
    }
  ],
  "steamid": 270110,
  "gogid": null,
  "gogslug": "",
  "humblestoreid": "",
  "id": 2539
}