{
  "name": "Last Striker / Kyuukyoku no Striker",
  "slug": "last-striker-kyuukyoku-no-striker",
  "year": 1989,
  "description": "",
  "banner_url": "",
  "icon_url": "https://lutris.net/games/icon/last-striker-kyuukyoku-no-striker.png",
  "is_public": true,
  "updated": "2020-05-26T03:35:12.716386Z",
  "provider_games": [
    {
      "name": "Last Striker / Kyuukyoku no Striker",
      "slug": "kyustrkr",
      "service": "mame"
    }
  ],
  "steamid": null,
  "gogid": null,
  "gogslug": "",
  "humblestoreid": "",
  "id": 34679
}