{
  "name": "Magic Joker",
  "slug": "magic-joker",
  "year": 2000,
  "description": "",
  "banner_url": "",
  "icon_url": "https://lutris.net/games/icon/magic-joker.png",
  "is_public": true,
  "updated": "2020-05-26T03:35:27.408713Z",
  "provider_games": [
    {
      "name": "Magic Joker",
      "slug": "magjoker",
      "service": "mame"
    }
  ],
  "steamid": null,
  "gogid": null,
  "gogslug": "",
  "humblestoreid": "",
  "id": 34797
}