{
  "name": "Krazy Bowl",
  "slug": "krazy-bowl",
  "year": 1994,
  "description": "",
  "banner_url": "https://lutris.net/games/banner/krazy-bowl.jpg",
  "icon_url": "https://lutris.net/games/icon/krazy-bowl.png",
  "is_public": true,
  "updated": "2020-05-26T03:35:08.024735Z",
  "provider_games": [
    {
      "name": "Krazy Bowl",
      "slug": "krzybowl",
      "service": "mame"
    }
  ],
  "steamid": null,
  "gogid": null,
  "gogslug": "",
  "humblestoreid": "",
  "id": 34670
}