{
  "name": "Central Limit Theorem",
  "slug": "central-limit-theorem",
  "year": 2018,
  "description": "Central Limit Theorem is a survival shooter where you have to protect your core for as long as you can from the shapes attacking it. It's a quick, simple, stressful, high-score shooter designed to be played between other, more substantial games.",
  "banner_url": "https://lutris.net/games/banner/central-limit-theorem.jpg",
  "icon_url": "",
  "is_public": false,
  "updated": "2020-09-25T07:04:02.710126Z",
  "provider_games": [],
  "steamid": null,
  "gogid": null,
  "gogslug": "",
  "humblestoreid": "",
  "id": 39223
}