{
  "name": "Inventioneers",
  "slug": "inventioneers",
  "year": null,
  "description": "",
  "banner_url": "https://lutris.net/games/banner/inventioneers.jpg",
  "icon_url": "https://lutris.net/games/icon/inventioneers.png",
  "is_public": true,
  "updated": "2020-10-08T10:15:15.961493Z",
  "provider_games": [
    {
      "name": "Inventioneers",
      "slug": "395580",
      "service": "steam"
    }
  ],
  "steamid": 395580,
  "gogid": null,
  "gogslug": "",
  "humblestoreid": "",
  "id": 30947
}