{
  "name": "Country Tales",
  "slug": "country-tales",
  "year": null,
  "description": "",
  "banner_url": "https://lutris.net/games/banner/country-tales.jpg",
  "icon_url": "https://lutris.net/games/icon/country-tales.png",
  "is_public": true,
  "updated": "2020-10-08T10:15:19.243653Z",
  "provider_games": [
    {
      "name": "Country Tales",
      "slug": "394270",
      "service": "steam"
    }
  ],
  "steamid": 394270,
  "gogid": null,
  "gogslug": "",
  "humblestoreid": "",
  "id": 15917
}