{
  "name": "Achievement Hunter: Darkness",
  "slug": "achievement-hunter-darkness",
  "year": null,
  "description": "",
  "banner_url": "https://lutris.net/games/banner/achievement-hunter-darkness.jpg",
  "icon_url": "https://lutris.net/games/icon/achievement-hunter-darkness.png",
  "is_public": false,
  "updated": "2019-01-23T08:28:11.099964Z",
  "provider_games": [],
  "steamid": 689990,
  "gogid": null,
  "gogslug": "",
  "humblestoreid": "",
  "id": 18718
}