{
  "name": "A Magical Tale: Cavern Crawler",
  "slug": "a-magical-tale-cavern-crawler",
  "year": 2017,
  "description": "In \"A Magical Tale: Cavern Crawler\", you have been given the task to complete each of the caverns located in each area! These cavern's contain 15 levels, filled with both action elements and puzzles! All areas have a distinct environment from the likes of lava, sand, ice or water. They all collaborate into a full quest with over 90+ levels overall to cater to your cavern crawling need!\r\n\r\nFor each task you interact with you will gain a single key, with said key you can unlock the door that has appeared on the screen, in order to progress to the next level!",
  "banner_url": "https://lutris.net/games/banner/a-magical-tale-cavern-crawler.jpg",
  "icon_url": "",
  "is_public": true,
  "updated": "2020-09-30T05:34:38.580218Z",
  "provider_games": [],
  "steamid": null,
  "gogid": null,
  "gogslug": "",
  "humblestoreid": "",
  "id": 39413
}