{
  "name": "Flight of the Amazon Queen",
  "slug": "flight-of-the-amazon-queen",
  "year": 1995,
  "description": "Flight of the Amazon Queen is an irreverent pastiche of the adventure serials that were popular in the 1940's. It is brimming with fun-filled action and a progressively difficult level of play. The game has over 100 different graphic locations with over 40 characters with which to interact. The story progresses through the use of full screen cutaway sequences giving the game dramatic depth. The CD-ROM version features full in-game speech using a variety of actors and atmospheric sound effects.",
  "banner_url": "https://lutris.net/games/banner/flight-of-the-amazon-queen.jpg",
  "icon_url": "https://lutris.net/games/icon/flight-of-the-amazon-queen.png",
  "is_public": true,
  "updated": "2020-05-31T00:17:42.674183Z",
  "provider_games": [
    {
      "name": "Flight of the Amazon Queen",
      "slug": "1207659723",
      "service": "gog"
    }
  ],
  "steamid": null,
  "gogid": 1207659723,
  "gogslug": "flight_of_the_amazon_queen",
  "humblestoreid": "",
  "id": 2053
}