{
  "id": 4515,
  "game_id": 2094,
  "game_slug": "agricultural-simulator-2013-steam-edition",
  "name": "Agricultural Simulator 2013 Steam Edition",
  "year": null,
  "user": "FakeShemp",
  "runner": "wine",
  "slug": "agricultural-simulator-2013-s-humble",
  "version": "Humble",
  "description": "",
  "notes": "",
  "created_at": "2017-06-19T21:50:07.060304Z",
  "updated_at": "2018-05-19T03:41:48.995652Z",
  "draft": false,
  "published": true,
  "published_by": null,
  "rating": "",
  "steamid": 236790,
  "gogid": null,
  "gogslug": "",
  "humbleid": "",
  "humblestoreid": "",
  "humblestoreid_real": "",
  "script": {
    "files": [
      {
        "file1": "N/A:Please select the Humble archive"
      }
    ],
    "game": {
      "arch": "win32",
      "exe": "drive_c/Program Files/Agricultural Simulator 2013/Agricultural Simulator 2013.exe",
      "prefix": "$GAMEDIR"
    },
    "installer": [
      {
        "extract": {
          "dst": "$CACHE",
          "file": "$file1"
        }
      },
      {
        "task": {
          "executable": "$CACHE/Agricultural Simulator 2013 Setup ST GOLD ALL v1.1.0.3.exe",
          "name": "wineexec",
          "prefix": "$GAMEDIR"
        }
      }
    ]
  },
  "content": "files:\n- file1: N/A:Please select the Humble archive\ngame:\n  arch: win32\n  exe: drive_c/Program Files/Agricultural Simulator 2013/Agricultural Simulator 2013.exe\n  prefix: $GAMEDIR\ninstaller:\n- extract:\n    dst: $CACHE\n    file: $file1\n- task:\n    executable: $CACHE/Agricultural Simulator 2013 Setup ST GOLD ALL v1.1.0.3.exe\n    name: wineexec\n    prefix: $GAMEDIR\n"
}