{
  "id": 12052,
  "game_id": 24072,
  "game_slug": "timespinner",
  "name": "Timespinner",
  "year": 2018,
  "user": "Nobu",
  "runner": "linux",
  "slug": "timespinner-gog",
  "version": "GOG",
  "description": null,
  "notes": "",
  "created_at": "2019-02-16T18:19:31.881000Z",
  "updated_at": "2019-02-19T04:48:27.014792Z",
  "draft": false,
  "published": true,
  "published_by": 19464,
  "rating": "",
  "steamid": 368620,
  "gogid": 1422911599,
  "gogslug": "timespinner",
  "humbleid": "",
  "humblestoreid": "",
  "humblestoreid_real": "",
  "script": {
    "files": [
      {
        "goginstaller": "N/A:Please select the GOG.com Linux installer"
      }
    ],
    "game": {
      "exe": "start.sh"
    },
    "installer": [
      {
        "extract": {
          "dst": "$CACHE/GOG",
          "file": "goginstaller",
          "format": "zip"
        }
      },
      {
        "merge": {
          "dst": "$GAMEDIR",
          "src": "$CACHE/GOG/data/noarch/"
        }
      }
    ]
  },
  "content": "files:\n- goginstaller: N/A:Please select the GOG.com Linux installer\ngame:\n  exe: start.sh\ninstaller:\n- extract:\n    dst: $CACHE/GOG\n    file: goginstaller\n    format: zip\n- merge:\n    dst: $GAMEDIR\n    src: $CACHE/GOG/data/noarch/\n"
}