{
  "name": "Heroes of Might and Magic III",
  "slug": "heroes-of-might-and-magic-iii",
  "year": 1999,
  "description": "Murder, treachery, resurrection, savage battles and ultimately-freedom!\r\nWhen Erathia's King Gryphonheart is murdered by traitors he is resurrected as an undead warlord who leads a ruthless invasion of his former Kingdom. Little resistance is met until his daughter Catherine, Queen of Enroth, returns to her homeland commanding an army of elite Enrothian warriors. Meanwhile the Necromancers raise large hordes of undead and advance towards the Erathian capitol. Queen Catherine receives the aid of her father's survived generals and embarks on a crusade to reclaim her lost land.\r\nYou control the greatest heroes and fiercest creatures in a conflict of epic proportions, as Cathereine fights to restore her family's rightful reign, uncover her father's killers and free him from the dark prison of his undead body!",
  "banner_url": "https://lutris.net/games/banner/heroes-of-might-and-magic-iii.jpg",
  "icon_url": "https://lutris.net/games/icon/heroes-of-might-and-magic-iii.png",
  "is_public": true,
  "updated": "2020-05-31T00:17:44.682671Z",
  "provider_games": [
    {
      "name": "Heroes of Might and Magic® 3: Complete",
      "slug": "1207658787",
      "service": "gog"
    }
  ],
  "steamid": null,
  "gogid": 1207658787,
  "gogslug": "heroes_of_might_and_magic_3_complete_edition",
  "humblestoreid": "",
  "id": 9736
}