{
  "name": "Kane & Lynch 2: Dog Days",
  "slug": "kane-lynch-2-dog-days",
  "year": null,
  "description": "",
  "banner_url": "https://lutris.net/games/banner/kane-lynch-2-dog-days.jpg",
  "icon_url": "https://lutris.net/games/icon/kane-lynch-2-dog-days.png",
  "is_public": true,
  "updated": "2019-01-23T08:30:02.203600Z",
  "provider_games": [
    {
      "name": "Kane & Lynch 2: Dog Days",
      "slug": "28000",
      "service": "steam"
    }
  ],
  "steamid": 28000,
  "gogid": null,
  "gogslug": "",
  "humblestoreid": "",
  "id": 1341
}