{
  "id": 11850,
  "game_id": 7320,
  "game_slug": "caesar-4",
  "name": "Caesar 4",
  "year": 2006,
  "user": "deckoff",
  "runner": "wine",
  "slug": "caesar-4-gog",
  "version": "GOG",
  "description": null,
  "notes": "Tested on gentoo.\r\n\r\n1024x768 resolution by default\r\nOn recent wine version (lutris-4.16) I got some screen resolution error where the desktop was not the correct resolution and the game was rendering on some strange region of the desktop. I need to activate either d9dk or virtual desktop, set the game in native resolution and then I don't need d9dk or virtual desktop anymore.",
  "created_at": "2019-02-04T23:34:47.460000Z",
  "updated_at": "2019-10-21T04:27:29.160256Z",
  "draft": false,
  "published": true,
  "published_by": 19464,
  "rating": "",
  "steamid": 517810,
  "gogid": 1460037487,
  "gogslug": "caesar_iv",
  "humbleid": "",
  "humblestoreid": "",
  "humblestoreid_real": "",
  "script": {
    "files": [
      {
        "setup": "N/A:Please select the GOG installer"
      }
    ],
    "game": {
      "arch": "win32",
      "exe": "drive_c/GOG Games/Caesar IV/CaesarIV.exe",
      "prefix": "$GAMEDIR"
    },
    "installer": [
      {
        "task": {
          "description": "Creating wine prefix",
          "name": "create_prefix",
          "prefix": "$GAMEDIR"
        }
      },
      {
        "task": {
          "app": "dotnet20",
          "name": "winetricks",
          "prefix": "$GAMEDIR"
        }
      },
      {
        "task": {
          "app": "msxml3",
          "name": "winetricks"
        }
      },
      {
        "task": {
          "app": "d3dx9_29",
          "name": "winetricks",
          "prefix": "$GAMEDIR"
        }
      },
      {
        "task": {
          "args": "/SP- /SUPPRESSMSGBOXES /NOCANCEL",
          "executable": "setup",
          "name": "wineexec",
          "prefix": "$GAMEDIR"
        }
      }
    ]
  },
  "content": "files:\n- setup: N/A:Please select the GOG installer\ngame:\n  arch: win32\n  exe: drive_c/GOG Games/Caesar IV/CaesarIV.exe\n  prefix: $GAMEDIR\ninstaller:\n- task:\n    description: Creating wine prefix\n    name: create_prefix\n    prefix: $GAMEDIR\n- task:\n    app: dotnet20\n    name: winetricks\n    prefix: $GAMEDIR\n- task:\n    app: msxml3\n    name: winetricks\n- task:\n    app: d3dx9_29\n    name: winetricks\n    prefix: $GAMEDIR\n- task:\n    args: /SP- /SUPPRESSMSGBOXES /NOCANCEL\n    executable: setup\n    name: wineexec\n    prefix: $GAMEDIR\n"
}