{
  "id": 4797,
  "game_id": 12066,
  "game_slug": "vertical-drop-heroes",
  "name": "Vertical Drop Heroes",
  "year": null,
  "user": "FakeShemp",
  "runner": "wine",
  "slug": "vertical-drop-heroes-humble",
  "version": "Humble",
  "description": "",
  "notes": "",
  "created_at": "2017-07-04T16:40:01.733494Z",
  "updated_at": "2018-05-19T03:41:55.060110Z",
  "draft": false,
  "published": true,
  "published_by": null,
  "rating": "",
  "steamid": null,
  "gogid": null,
  "gogslug": "",
  "humbleid": "",
  "humblestoreid": "",
  "humblestoreid_real": "",
  "script": {
    "files": [
      {
        "file1": "N/A:Please select the Humble archive"
      }
    ],
    "game": {
      "arch": "win32",
      "exe": "drive_c/Program Files/Vertical Drop Heroes/Vertical Drop Heroes Classic.exe",
      "prefix": "$GAMEDIR"
    },
    "installer": [
      {
        "extract": {
          "dst": "$GAMEDIR/drive_c/Program Files/Vertical Drop Heroes",
          "file": "$file1"
        }
      }
    ]
  },
  "content": "files:\n- file1: N/A:Please select the Humble archive\ngame:\n  arch: win32\n  exe: drive_c/Program Files/Vertical Drop Heroes/Vertical Drop Heroes Classic.exe\n  prefix: $GAMEDIR\ninstaller:\n- extract:\n    dst: $GAMEDIR/drive_c/Program Files/Vertical Drop Heroes\n    file: $file1\n"
}