{
  "name": "Day One: Garry's Incident",
  "slug": "day-one-garrys-incident",
  "year": null,
  "description": "",
  "banner_url": "https://lutris.net/games/banner/day-one-garrys-incident.jpg",
  "icon_url": "https://lutris.net/games/icon/day-one-garrys-incident.png",
  "is_public": false,
  "updated": "2019-01-23T08:29:05.780875Z",
  "provider_games": [],
  "steamid": 242800,
  "gogid": null,
  "gogslug": "",
  "humblestoreid": "",
  "id": 2248
}