{
  "name": "Hover - Workshop Tool",
  "slug": "hover-workshop-tool",
  "year": null,
  "description": "",
  "banner_url": "https://lutris.net/games/banner/hover-workshop-tool.jpg",
  "icon_url": "https://lutris.net/games/icon/hover-workshop-tool.png",
  "is_public": true,
  "updated": "2020-10-08T10:00:43.482980Z",
  "provider_games": [
    {
      "name": "Hover - Workshop Tool",
      "slug": "711030",
      "service": "steam"
    }
  ],
  "steamid": 711030,
  "gogid": null,
  "gogslug": "",
  "humblestoreid": "",
  "id": 14794
}