{
  "id": 22902,
  "game_id": 5277,
  "game_slug": "hacknet",
  "name": "Hacknet",
  "year": 2015,
  "user": "appoloin",
  "runner": "wine",
  "slug": "hacknet-gog-windows",
  "version": "GOG Windows",
  "description": null,
  "notes": "",
  "created_at": "2020-08-16T13:34:04.210171Z",
  "updated_at": "2020-08-16T13:34:04.210198Z",
  "draft": false,
  "published": false,
  "published_by": null,
  "rating": "",
  "steamid": 365450,
  "gogid": 1439474400,
  "gogslug": "hacknet",
  "humbleid": "hacknet",
  "humblestoreid": "hacknet",
  "humblestoreid_real": "hacknet",
  "script": {
    "files": [
      {
        "setup": "N/A:Select installer"
      }
    ],
    "game": {
      "arch": "win32",
      "exe": "$GAMEDIR/drive_c/GOG Games/Hacknet/Hacknet.exe",
      "prefix": "$GAMEDIR"
    },
    "installer": [
      {
        "task": {
          "arch": "win32",
          "install_gecko": false,
          "install_mono": false,
          "name": "create_prefix",
          "prefix": "$GAMEDIR"
        }
      },
      {
        "task": {
          "app": "d3dx9",
          "arch": "win32",
          "name": "winetricks",
          "prefix": "$GAMEDIR"
        }
      },
      {
        "task": {
          "app": "dotnet40",
          "name": "winetricks",
          "prefix": "$GAMEDIR"
        }
      },
      {
        "task": {
          "app": "xna40",
          "name": "winetricks",
          "prefix": "$GAMEDIR"
        }
      },
      {
        "task": {
          "executable": "$setup",
          "name": "wineexec",
          "prefix": "$GAMEDIR"
        }
      }
    ],
    "wine": {
      "Desktop": true
    }
  },
  "content": "files:\n- setup: N/A:Select installer\ngame:\n  arch: win32\n  exe: $GAMEDIR/drive_c/GOG Games/Hacknet/Hacknet.exe\n  prefix: $GAMEDIR\ninstaller:\n- task:\n    arch: win32\n    install_gecko: false\n    install_mono: false\n    name: create_prefix\n    prefix: $GAMEDIR\n- task:\n    app: d3dx9\n    arch: win32\n    name: winetricks\n    prefix: $GAMEDIR\n- task:\n    app: dotnet40\n    name: winetricks\n    prefix: $GAMEDIR\n- task:\n    app: xna40\n    name: winetricks\n    prefix: $GAMEDIR\n- task:\n    executable: $setup\n    name: wineexec\n    prefix: $GAMEDIR\nwine:\n  Desktop: true\n"
}