{
  "name": "Hot And Lovely 3",
  "slug": "hot-and-lovely-3",
  "year": null,
  "description": "",
  "banner_url": "https://lutris.net/games/banner/hot-and-lovely-3.jpg",
  "icon_url": "https://lutris.net/games/icon/hot-and-lovely-3.png",
  "is_public": true,
  "updated": "2020-10-08T09:55:17.128620Z",
  "provider_games": [
    {
      "name": "Hot And Lovely 3",
      "slug": "1290070",
      "service": "steam"
    }
  ],
  "steamid": 1290070,
  "gogid": null,
  "gogslug": "",
  "humblestoreid": "",
  "id": 37549
}