{
  "name": "Human, we have a problem",
  "slug": "human-we-have-a-problem",
  "year": null,
  "description": "",
  "banner_url": "https://lutris.net/games/banner/human-we-have-a-problem.jpg",
  "icon_url": "https://lutris.net/games/icon/human-we-have-a-problem.png",
  "is_public": true,
  "updated": "2020-10-08T10:07:41.138271Z",
  "provider_games": [
    {
      "name": "Human, we have a problem",
      "slug": "491100",
      "service": "steam"
    }
  ],
  "steamid": 491100,
  "gogid": null,
  "gogslug": "",
  "humblestoreid": "",
  "id": 10841
}