{
  "name": "Black Hole",
  "slug": "black-hole",
  "year": 1981,
  "description": "",
  "banner_url": "",
  "icon_url": "https://lutris.net/games/icon/black-hole.png",
  "is_public": true,
  "updated": "2020-05-26T03:32:16.416032Z",
  "provider_games": [
    {
      "name": "Black Hole",
      "slug": "blkhole",
      "service": "mame"
    }
  ],
  "steamid": null,
  "gogid": null,
  "gogslug": "",
  "humblestoreid": "",
  "id": 33464
}