{
  "name": "Glass",
  "slug": "glass",
  "year": 1994,
  "description": "",
  "banner_url": "",
  "icon_url": "https://lutris.net/games/icon/glass.png",
  "is_public": true,
  "updated": "2020-05-26T03:34:08.622484Z",
  "provider_games": [
    {
      "name": "Glass",
      "slug": "glass",
      "service": "mame"
    }
  ],
  "steamid": null,
  "gogid": null,
  "gogslug": "",
  "humblestoreid": "",
  "id": 34247
}