{
  "name": "AI War 2",
  "slug": "ai-war-2",
  "year": 2019,
  "description": "",
  "banner_url": "https://lutris.net/games/banner/ai-war-2.jpg",
  "icon_url": "https://lutris.net/games/icon/ai-war-2.png",
  "is_public": true,
  "updated": "2020-05-31T00:17:33.812254Z",
  "provider_games": [
    {
      "name": "AI War 2",
      "slug": "1895572517",
      "service": "gog"
    },
    {
      "name": "AI War 2",
      "slug": "573410",
      "service": "steam"
    }
  ],
  "steamid": 573410,
  "gogid": 1895572517,
  "gogslug": "ai_war_2",
  "humblestoreid": "",
  "id": 21807
}