{
  "id": 4597,
  "game_id": 212,
  "game_slug": "sam-max-301-the-penal-zone",
  "name": "Sam & Max 301: The Penal Zone",
  "year": null,
  "user": "FakeShemp",
  "runner": "wine",
  "slug": "sam-max-301-the-penal-zone-humble",
  "version": "Humble",
  "description": "",
  "notes": "",
  "created_at": "2017-06-25T11:28:46.256000Z",
  "updated_at": "2018-05-19T03:41:53.935131Z",
  "draft": false,
  "published": true,
  "published_by": null,
  "rating": "",
  "steamid": 31220,
  "gogid": null,
  "gogslug": "",
  "humbleid": "",
  "humblestoreid": "",
  "humblestoreid_real": "",
  "script": {
    "files": [
      {
        "file1": "N/A:Please select the Humble archive"
      }
    ],
    "game": {
      "arch": "win32",
      "exe": "drive_c/Program Files/Telltale Games/Sam and Max - The Devil's Playhouse/The Penal Zone/SamMax301.exe",
      "prefix": "$GAMEDIR"
    },
    "installer": [
      {
        "extract": {
          "dst": "$CACHE",
          "file": "$file1"
        }
      },
      {
        "task": {
          "executable": "$CACHE/SamMax301_201004141946_full.exe",
          "name": "wineexec",
          "prefix": "$GAMEDIR"
        }
      }
    ]
  },
  "content": "files:\n- file1: N/A:Please select the Humble archive\ngame:\n  arch: win32\n  exe: drive_c/Program Files/Telltale Games/Sam and Max - The Devil's Playhouse/The\n    Penal Zone/SamMax301.exe\n  prefix: $GAMEDIR\ninstaller:\n- extract:\n    dst: $CACHE\n    file: $file1\n- task:\n    executable: $CACHE/SamMax301_201004141946_full.exe\n    name: wineexec\n    prefix: $GAMEDIR\n"
}