{
  "id": 15404,
  "game_id": 212,
  "game_slug": "sam-max-301-the-penal-zone",
  "name": "Sam & Max 301: The Penal Zone",
  "year": null,
  "user": "appoloin",
  "runner": "wine",
  "slug": "sam-max-301-the-penal-zone-gog",
  "version": "GOG",
  "description": null,
  "notes": "",
  "created_at": "2019-09-08T18:01:47.688000Z",
  "updated_at": "2019-09-08T23:02:22.255460Z",
  "draft": false,
  "published": true,
  "published_by": 1,
  "rating": "",
  "steamid": 31220,
  "gogid": null,
  "gogslug": "",
  "humbleid": "",
  "humblestoreid": "",
  "humblestoreid_real": "",
  "script": {
    "files": [
      {
        "game": "N/A:Select GOG installer."
      },
      {
        "inno": "https://lutris.nyc3.digitaloceanspaces.com/tools/innoextract/innoextract-1.8-dev-2019-01-13-linux.tar.xz"
      }
    ],
    "game": {
      "arch": "win32",
      "exe": "$GAMEDIR/drive_c/GOG/Episode 301 - The Penal Zone/SamMax301.exe",
      "prefix": "$GAMEDIR"
    },
    "installer": [
      {
        "task": {
          "arch": "win32",
          "install_mono": false,
          "name": "create_prefix",
          "prefix": "$GAMEDIR"
        }
      },
      {
        "execute": {
          "args": "$GAMEDIR/drive_c/GOG  \"$GAMEDIR/drive_c/GOG/Episode 301 - The Penal Zone\"",
          "file": "mkdir"
        }
      },
      {
        "extract": {
          "dst": "$CACHE",
          "file": "$inno"
        }
      },
      {
        "execute": {
          "args": "-I app -d \"$CACHE\" \"$game\"",
          "file": "$CACHE/innoextract"
        }
      },
      {
        "merge": {
          "dst": "$GAMEDIR/drive_c/GOG/Episode 301 - The Penal Zone",
          "src": "$CACHE/app/Episode 301 - The Penal Zone"
        }
      }
    ],
    "wine": {
      "Desktop": true
    }
  },
  "content": "files:\n- game: N/A:Select GOG installer.\n- inno: https://lutris.nyc3.digitaloceanspaces.com/tools/innoextract/innoextract-1.8-dev-2019-01-13-linux.tar.xz\ngame:\n  arch: win32\n  exe: $GAMEDIR/drive_c/GOG/Episode 301 - The Penal Zone/SamMax301.exe\n  prefix: $GAMEDIR\ninstaller:\n- task:\n    arch: win32\n    install_mono: false\n    name: create_prefix\n    prefix: $GAMEDIR\n- execute:\n    args: $GAMEDIR/drive_c/GOG  \"$GAMEDIR/drive_c/GOG/Episode 301 - The Penal Zone\"\n    file: mkdir\n- extract:\n    dst: $CACHE\n    file: $inno\n- execute:\n    args: -I app -d \"$CACHE\" \"$game\"\n    file: $CACHE/innoextract\n- merge:\n    dst: $GAMEDIR/drive_c/GOG/Episode 301 - The Penal Zone\n    src: $CACHE/app/Episode 301 - The Penal Zone\nwine:\n  Desktop: true\n"
}