{
  "name": "Chariot",
  "slug": "chariot",
  "year": null,
  "description": "",
  "banner_url": "https://lutris.net/games/banner/chariot.jpg",
  "icon_url": "https://lutris.net/games/icon/chariot.png",
  "is_public": true,
  "updated": "2020-10-08T09:19:50.977988Z",
  "provider_games": [
    {
      "name": "Chariot",
      "slug": "319450",
      "service": "steam"
    }
  ],
  "steamid": 319450,
  "gogid": null,
  "gogslug": "",
  "humblestoreid": "",
  "id": 4264
}