{
  "name": "Killers and Thieves",
  "slug": "killers-and-thieves",
  "year": null,
  "description": "",
  "banner_url": "https://lutris.net/games/banner/killers-and-thieves.jpg",
  "icon_url": "https://lutris.net/games/icon/killers-and-thieves.png",
  "is_public": true,
  "updated": "2020-10-08T10:15:40.458708Z",
  "provider_games": [
    {
      "name": "Killers and Thieves",
      "slug": "382330",
      "service": "steam"
    }
  ],
  "steamid": 382330,
  "gogid": null,
  "gogslug": "",
  "humblestoreid": "",
  "id": 29012
}