{
  "name": "Gravitron 2",
  "slug": "gravitron-2",
  "year": null,
  "description": "",
  "banner_url": "https://lutris.net/games/banner/gravitron-2.jpg",
  "icon_url": "https://lutris.net/games/icon/gravitron-2.png",
  "is_public": true,
  "updated": "2020-10-08T10:02:30.301075Z",
  "provider_games": [
    {
      "name": "Gravitron 2",
      "slug": "21300",
      "service": "steam"
    }
  ],
  "steamid": 21300,
  "gogid": null,
  "gogslug": "",
  "humblestoreid": "",
  "id": 2707
}