{
  "name": "Go 2000",
  "slug": "go-2000",
  "year": 2000,
  "description": "",
  "banner_url": "",
  "icon_url": "https://lutris.net/games/icon/go-2000.png",
  "is_public": true,
  "updated": "2020-05-26T03:34:09.100234Z",
  "provider_games": [
    {
      "name": "Go 2000",
      "slug": "go2000",
      "service": "mame"
    }
  ],
  "steamid": null,
  "gogid": null,
  "gogslug": "",
  "humblestoreid": "",
  "id": 34259
}