{
  "name": "Chibi-Robo!: Plug into Adventure!",
  "slug": "chibi-robo-plug-into-adventure",
  "year": 2005,
  "description": "Say hello to Chibi-Robo!\r\n\r\nLike most families, the Sandersons bicker about money and cleaning. Unlike most families, thought, they also have robotic spiders, aliens, and talking toys to worry about. Enter Chibi-Robo, a tiny robot programmed to spread happiness. Join him on his quest to restore order to the Sanderson house and SAVE THE WORLD!",
  "banner_url": "https://lutris.net/games/banner/chibi-robo-plug-into-adventure.jpg",
  "icon_url": "",
  "is_public": true,
  "updated": "2019-01-23T08:28:50.961987Z",
  "provider_games": [],
  "steamid": null,
  "gogid": null,
  "gogslug": "",
  "humblestoreid": "",
  "id": 21154
}