{
  "name": "Ghost Master",
  "slug": "ghost-master",
  "year": null,
  "description": "",
  "banner_url": "https://lutris.net/games/banner/ghost-master.jpg",
  "icon_url": "https://lutris.net/games/icon/ghost-master.png",
  "is_public": true,
  "updated": "2020-05-31T00:17:43.458180Z",
  "provider_games": [
    {
      "name": "Ghost Master",
      "slug": "1207658687",
      "service": "gog"
    },
    {
      "name": "Ghost Master",
      "slug": "6200",
      "service": "steam"
    }
  ],
  "steamid": 6200,
  "gogid": 1207658687,
  "gogslug": "ghost_master",
  "humblestoreid": "",
  "id": 1240
}