{
  "name": "Interstate '76 Nitro Pack",
  "slug": "interstate-76-nitro-pack",
  "year": null,
  "description": "",
  "banner_url": "",
  "icon_url": "",
  "is_public": true,
  "updated": "2020-05-31T00:17:45.787091Z",
  "provider_games": [
    {
      "name": "Interstate '76 Nitro Pack",
      "slug": "1207661023",
      "service": "gog"
    }
  ],
  "steamid": null,
  "gogid": 1207661023,
  "gogslug": "interstate_76_nitro_pack",
  "humblestoreid": "",
  "id": 36935
}