{
  "name": "Changes",
  "slug": "changes",
  "year": 1982,
  "description": "",
  "banner_url": "https://lutris.net/games/banner/changes.jpg",
  "icon_url": "https://lutris.net/games/icon/changes.png",
  "is_public": true,
  "updated": "2020-05-26T03:32:43.851210Z",
  "provider_games": [
    {
      "name": "Changes",
      "slug": "changes",
      "service": "mame"
    }
  ],
  "steamid": null,
  "gogid": null,
  "gogslug": "",
  "humblestoreid": "",
  "id": 33653
}