{
  "name": "FusionFall Retro",
  "slug": "fusionfall-retro",
  "year": 2018,
  "description": "FusionFall Retro (abbreviated as Retro or FFR) is an unofficial revival of the Cartoon Network MMO FusionFall, crafted over the span of a year by a team of devoted fans. FusionFall Retro is under the FusionFall Universe banner, which also contains FusionFall Legacy.",
  "banner_url": "https://lutris.net/games/banner/fusionfall-retro.jpg",
  "icon_url": "",
  "is_public": true,
  "updated": "2019-03-04T18:49:11.641947Z",
  "provider_games": [],
  "steamid": null,
  "gogid": null,
  "gogslug": "",
  "humblestoreid": "",
  "id": 21845
}