{
  "name": "Blue Force",
  "slug": "blue-force",
  "year": 1993,
  "description": "You are Jake Ryan, rookie motorcycle cop. Ten years have passed since the unsolved murder of your parents, but threads of evidence still exist. Teamed with your father's partner, you begin to weave the all but forgotten strands together. As your past comes into focus, the line between justice and vengeance begins to blur. Will the truth force you over the line?\r\n\r\nBlue Force... the only way you'll know!",
  "banner_url": "https://lutris.net/games/banner/blue-force.jpg",
  "icon_url": "",
  "is_public": true,
  "updated": "2019-10-22T22:07:23.203281Z",
  "provider_games": [],
  "steamid": null,
  "gogid": null,
  "gogslug": "",
  "humblestoreid": "",
  "id": 29403
}