{
  "name": "Jak X: Combat Racing",
  "slug": "jak-x-combat-racing",
  "year": 2005,
  "description": "Following the Dark Maker's defeat in Jak 3, Jak has been summoned to Kras City, home of\r\nthe hot new sport - combat racing, to hear the reading of deceased adversary Krew's will.\r\nSadly, it's all part of a posthumous plot by the crime lord to exact revenge on his enemies,\r\nand Jak and Daxter find themselves competing for their lives in the Kras City Grand\r\nChampionship.\r\n\r\nJak X blends destructive racing action with arena-based vehicle combat, making for a\r\nunique entry in the popular Jak and Daxter series. Tackle 120 tasks across 20 twisting\r\ntracks and eight open arenas, using an assortment of offensive and defensive power-ups\r\nto ensure that our heroic twosome reign supreme in the Championship. You can also hook\r\nup Jax X with Daxter for PlayStation Portable to unlock numerous secret items and\r\ncharacters.\r\n\r\nRace and battle over 20 stunning tracks and eight huge open terrain arenas.\r\nCause chaos in over a dozen unique, fully customisable and destructible combat vehicles.\r\nFeatures online play for a host of combat racers.",
  "banner_url": "https://lutris.net/games/banner/jak-x-combat-racing.jpg",
  "icon_url": "",
  "is_public": true,
  "updated": "2019-01-23T08:29:59.789916Z",
  "provider_games": [],
  "steamid": null,
  "gogid": null,
  "gogslug": "",
  "humblestoreid": "",
  "id": 25076
}