{
  "id": 23600,
  "game_id": 538,
  "game_slug": "sid-meiers-civilization-iv",
  "name": "Civilization IV",
  "year": 2005,
  "user": "skinnyraf",
  "runner": "wine",
  "slug": "civilization-iv-change-me",
  "version": "Change Me",
  "description": null,
  "notes": "",
  "created_at": "2020-09-30T12:49:03.126019Z",
  "updated_at": "2020-09-30T12:49:03.126060Z",
  "draft": false,
  "published": false,
  "published_by": 19464,
  "rating": "",
  "steamid": 3900,
  "gogid": null,
  "gogslug": "",
  "humbleid": "",
  "humblestoreid": "",
  "humblestoreid_real": "",
  "script": {
    "game": {
      "exe": "drive_c/Program Files (x86)/2K Games/Firaxis Games/Sid Meier's Civilization 4 Complete/Civilization4.exe",
      "prefix": "$GAMEDIR"
    },
    "installer": [
      {
        "insert-disc": {
          "requires": "Autorun/Civ4Installer.ico"
        }
      },
      {
        "task": {
          "executable": "$DISC/setup.exe",
          "name": "wineexec",
          "prefix": "$GAMEDIR"
        }
      }
    ]
  },
  "content": "game:\n  exe: drive_c/Program Files (x86)/2K Games/Firaxis Games/Sid Meier's Civilization\n    4 Complete/Civilization4.exe\n  prefix: $GAMEDIR\ninstaller:\n- insert-disc:\n    requires: Autorun/Civ4Installer.ico\n- task:\n    executable: $DISC/setup.exe\n    name: wineexec\n    prefix: $GAMEDIR\n"
}