{
  "name": "Graveball",
  "slug": "graveball",
  "year": null,
  "description": "",
  "banner_url": "https://lutris.net/games/banner/graveball.jpg",
  "icon_url": "https://lutris.net/games/icon/graveball.png",
  "is_public": true,
  "updated": "2020-10-08T10:05:25.276657Z",
  "provider_games": [
    {
      "name": "Graveball",
      "slug": "563170",
      "service": "steam"
    }
  ],
  "steamid": 563170,
  "gogid": null,
  "gogslug": "",
  "humblestoreid": "",
  "id": 29497
}