{
  "name": "Five Nights at Freddy's 3",
  "slug": "five-nights-at-freddys-3",
  "year": null,
  "description": "",
  "banner_url": "https://lutris.net/games/banner/five-nights-at-freddys-3.jpg",
  "icon_url": "https://lutris.net/games/icon/five-nights-at-freddys-3.png",
  "is_public": true,
  "updated": "2019-01-23T08:29:31.793063Z",
  "provider_games": [
    {
      "name": "Five Nights at Freddy's 3",
      "slug": "354140",
      "service": "steam"
    }
  ],
  "steamid": 354140,
  "gogid": null,
  "gogslug": "",
  "humblestoreid": "",
  "id": 4133
}