{
  "name": "Duskers",
  "slug": "duskers",
  "year": 2016,
  "description": "In Duskers you pilot drones into derelict spaceships to find the means to survive and piece together how the universe became a giant graveyard. In film terms it's The Road meets the first Alien movie. In game terms: It's a rougelike with elements of dungeon crawling and real time strategy, but in a survival horror setting that focuses on subterfuge, and adapting to survive.",
  "banner_url": "https://lutris.net/games/banner/duskers.jpg",
  "icon_url": "",
  "is_public": true,
  "updated": "2020-05-31T00:17:40.991680Z",
  "provider_games": [
    {
      "name": "Duskers",
      "slug": "1847879387",
      "service": "gog"
    },
    {
      "name": "Duskers",
      "slug": "254320",
      "service": "steam"
    }
  ],
  "steamid": 254320,
  "gogid": 1847879387,
  "gogslug": "duskers",
  "humblestoreid": "",
  "id": 6767
}