{
  "name": "Batsugun",
  "slug": "batsugun",
  "year": 1993,
  "description": "Batsugun was the last release from the arcade game development studio Toaplan and one of the earliest if not the earliest manic or \"bullet hell\" shoot-'em-ups. A large part of the team later went on to work at CAVE Co., Ltd. where the genre would be refined.",
  "banner_url": "https://lutris.net/games/banner/batsugun.jpg",
  "icon_url": "https://lutris.net/games/icon/batsugun.png",
  "is_public": true,
  "updated": "2020-05-26T03:32:04.583625Z",
  "provider_games": [
    {
      "name": "Batsugun",
      "slug": "batsugun",
      "service": "mame"
    }
  ],
  "steamid": null,
  "gogid": null,
  "gogslug": "",
  "humblestoreid": "",
  "id": 7979
}