{
  "name": "Defendoooooor!!",
  "slug": "defendoooooor",
  "year": null,
  "description": "",
  "banner_url": "https://lutris.net/games/banner/defendoooooor.jpg",
  "icon_url": "https://lutris.net/games/icon/defendoooooor.png",
  "is_public": true,
  "updated": "2020-10-08T10:08:59.360636Z",
  "provider_games": [
    {
      "name": "Defendoooooor!!",
      "slug": "683230",
      "service": "steam"
    }
  ],
  "steamid": 683230,
  "gogid": null,
  "gogslug": "",
  "humblestoreid": "",
  "id": 20040
}