{
  "id": 6484,
  "game_id": 1453,
  "game_slug": "another-world",
  "name": "Another World",
  "year": 1991,
  "user": "Lucki",
  "runner": "dosbox",
  "slug": "another-world-dos",
  "version": "DOS",
  "description": null,
  "notes": "",
  "created_at": "2017-11-29T12:57:33.021000Z",
  "updated_at": "2017-12-21T15:41:54.277783Z",
  "draft": false,
  "published": true,
  "published_by": null,
  "rating": "",
  "steamid": 233550,
  "gogid": null,
  "gogslug": "",
  "humbleid": "anotherworld_android",
  "humblestoreid": "anotherworld_android",
  "humblestoreid_real": "anotherworld_android",
  "script": {
    "files": [
      {
        "picture": "https://www.myabandonware.com/media/screenshots/l/lemmings-16x/lemmings_1.gif"
      }
    ],
    "game": {
      "main_file": "another.exe"
    },
    "installer": [
      {
        "execute": {
          "args": "https://www.myabandonware.com/download/18e-out-of-this-world --referer=www.myabandonware.com --directory-prefix=$CACHE",
          "description": "Downloading game data…",
          "dst": "$CACHE",
          "file": "/usr/bin/wget"
        }
      },
      {
        "move": {
          "dst": "$CACHE/game.zip",
          "src": "$CACHE/18e-out-of-this-world"
        }
      },
      {
        "extract": {
          "description": "Extracting game…",
          "dst": "$GAMEDIR/",
          "file": "$CACHE/game.zip",
          "format": "zip"
        }
      }
    ]
  },
  "content": "files:\n- picture: https://www.myabandonware.com/media/screenshots/l/lemmings-16x/lemmings_1.gif\ngame:\n  main_file: another.exe\ninstaller:\n- execute:\n    args: https://www.myabandonware.com/download/18e-out-of-this-world --referer=www.myabandonware.com\n      --directory-prefix=$CACHE\n    description: \"Downloading game data\\u2026\"\n    dst: $CACHE\n    file: /usr/bin/wget\n- move:\n    dst: $CACHE/game.zip\n    src: $CACHE/18e-out-of-this-world\n- extract:\n    description: \"Extracting game\\u2026\"\n    dst: $GAMEDIR/\n    file: $CACHE/game.zip\n    format: zip\n"
}