{
  "name": "DEXED",
  "slug": "dexed",
  "year": null,
  "description": "",
  "banner_url": "https://lutris.net/games/banner/dexed.jpg",
  "icon_url": "https://lutris.net/games/icon/dexed.png",
  "is_public": true,
  "updated": "2020-10-08T10:07:07.032469Z",
  "provider_games": [
    {
      "name": "DEXED",
      "slug": "510290",
      "service": "steam"
    }
  ],
  "steamid": 510290,
  "gogid": null,
  "gogslug": "",
  "humblestoreid": "",
  "id": 20573
}