{
  "name": "Expeditions: Viking",
  "slug": "expeditions-viking",
  "year": 2017,
  "description": "Get ready for an adventure in history! Logic Artists, the makers of Expeditions: Conquistador, are pleased to bring you Expeditions: Viking.\r\n\r\nPrepare for a grand adventure\r\n\r\nAs the newly appointed chieftain of a modest Viking clan, you’ll have a village of your very own. But to carve your name into the runestones of history you’ll need great strength, and great wealth to grow your village’s prosperity and renown. There is little left to be gained from the Norse lands and so you must set your sights on the the seas to the West, where tales speak of a great island filled with treasure ready for the taking.\r\n\r\nSeek your fortune\r\n\r\nYour trusted huscarls will follow you to Valhalla if that be the order of the day, but you’ll need more than loyalty to leave a legacy that will be remembered for a thousand years. Now assemble a worthy band of warriors, build a ship, and seek your wealth and glory across the sea. Britannia awaits in Logic Artists’ Expeditions: Viking.",
  "banner_url": "https://lutris.net/games/banner/expeditions-viking.jpg",
  "icon_url": "https://lutris.net/games/icon/expeditions-viking.png",
  "is_public": true,
  "updated": "2020-10-08T10:17:33.452447Z",
  "provider_games": [
    {
      "name": "Expeditions: Viking",
      "slug": "1450363937",
      "service": "gog"
    },
    {
      "name": "Expeditions: Viking",
      "slug": "445190",
      "service": "steam"
    }
  ],
  "steamid": 445190,
  "gogid": 1450363937,
  "gogslug": "expeditions_viking",
  "humblestoreid": "",
  "id": 14920
}