{
  "name": "I'm Titanium",
  "slug": "im-titanium",
  "year": null,
  "description": "",
  "banner_url": "https://lutris.net/games/banner/im-titanium.jpg",
  "icon_url": "https://lutris.net/games/icon/im-titanium.png",
  "is_public": true,
  "updated": "2020-10-08T10:04:18.619011Z",
  "provider_games": [
    {
      "name": "I'm Titanium",
      "slug": "597990",
      "service": "steam"
    }
  ],
  "steamid": 597990,
  "gogid": null,
  "gogslug": "",
  "humblestoreid": "",
  "id": 16914
}