{
  "id": 21097,
  "game_id": 24191,
  "game_slug": "the-dame-was-loaded",
  "name": "The Dame Was Loaded",
  "year": 1996,
  "user": "appoloin",
  "runner": "dosbox",
  "slug": "the-dame-was-loaded-ms-dos",
  "version": "MS-DOS",
  "description": null,
  "notes": "",
  "created_at": "2020-05-31T12:31:49.876303Z",
  "updated_at": "2020-05-31T12:31:49.876327Z",
  "draft": true,
  "published": false,
  "published_by": null,
  "rating": "",
  "steamid": null,
  "gogid": 1760463998,
  "gogslug": "the_dame_was_loaded",
  "humbleid": "",
  "humblestoreid": "",
  "humblestoreid_real": "",
  "script": {
    "game": {
      "main_file": "$GAMEDIR/Dame.conf"
    },
    "installer": [
      {
        "write_file": {
          "content": "#!/bin/bash\nsrc=$1\ndst=$2\ncp -avr \"$src/.\"  \"$dst\"",
          "file": "$CACHE/bulkcopy-alt.sh"
        }
      },
      {
        "chmodx": "$CACHE/bulkcopy-alt.sh"
      },
      {
        "execute": {
          "args": "$GAMEDIR/HDD $GAMEDIR/CDD $GAMEDIR/CDD/DISC1",
          "file": "mkdir"
        }
      },
      {
        "insert-disc": {
          "description": "Please insert disc 1",
          "requires": "setup.exe"
        }
      },
      {
        "execute": {
          "args": "$DISC \"$GAMEDIR/CDD/DISC1\"",
          "file": "$CACHE/bulkcopy-alt.sh"
        }
      },
      {
        "execute": {
          "args": "-R 775  \"$GAMEDIR/CDD/DISC1\"",
          "file": "/bin/chmod"
        }
      },
      {
        "insert-disc": {
          "description": "Please insert disc 2",
          "requires": "cd2.gob"
        }
      },
      {
        "execute": {
          "args": "$DISC \"$GAMEDIR/CDD/DISC1\"",
          "file": "$CACHE/bulkcopy-alt.sh"
        }
      },
      {
        "execute": {
          "args": "-R 775  \"$GAMEDIR/CDD/DISC1\"",
          "file": "/bin/chmod"
        }
      },
      {
        "write_file": {
          "content": "[sdl]\nsensitivity=20\n[autoexec]\nmount C \"$GAMEDIR/HDD\" -t dir\nmount D \"$GAMEDIR/CDD/DISC1\" -label DAME_CD1 -t cdrom\nmount E \"$GAMEDIR/CDD/DISC2\" -label DAME_CD2 -t cdrom\nD:\ninstall\nexit",
          "file": "$GAMEDIR/Dame_setup.conf"
        }
      },
      {
        "task": {
          "config_file": "$GAMEDIR/Dame_setup.conf",
          "name": "dosexec",
          "working_dir": "$GAMEDIR/HDD/"
        }
      },
      {
        "write_file": {
          "content": "[sdl]\nsensitivity=20\nfullresolution=desktop\nwindowresolution=original\noutput=opengl\n[render]\naspect=true\nscaler=normal2x\n[autoexec]\nmount C \"$GAMEDIR/HDD\" -t dir\nmount D \"$GAMEDIR/CDD/DISC1\"  -label DAME_CD1 -t cdrom\nmount E \"$GAMEDIR/CDD/DISC2\"  -label DAME_CD2 -t cdrom\nC:\ncd DAME\nDAME.EXE\nexit",
          "file": "$GAMEDIR/Dame.conf"
        }
      }
    ]
  },
  "content": "game:\n  main_file: $GAMEDIR/Dame.conf\ninstaller:\n- write_file:\n    content: '#!/bin/bash\n\n      src=$1\n\n      dst=$2\n\n      cp -avr \"$src/.\"  \"$dst\"'\n    file: $CACHE/bulkcopy-alt.sh\n- chmodx: $CACHE/bulkcopy-alt.sh\n- execute:\n    args: $GAMEDIR/HDD $GAMEDIR/CDD $GAMEDIR/CDD/DISC1\n    file: mkdir\n- insert-disc:\n    description: Please insert disc 1\n    requires: setup.exe\n- execute:\n    args: $DISC \"$GAMEDIR/CDD/DISC1\"\n    file: $CACHE/bulkcopy-alt.sh\n- execute:\n    args: -R 775  \"$GAMEDIR/CDD/DISC1\"\n    file: /bin/chmod\n- insert-disc:\n    description: Please insert disc 2\n    requires: cd2.gob\n- execute:\n    args: $DISC \"$GAMEDIR/CDD/DISC1\"\n    file: $CACHE/bulkcopy-alt.sh\n- execute:\n    args: -R 775  \"$GAMEDIR/CDD/DISC1\"\n    file: /bin/chmod\n- write_file:\n    content: '[sdl]\n\n      sensitivity=20\n\n      [autoexec]\n\n      mount C \"$GAMEDIR/HDD\" -t dir\n\n      mount D \"$GAMEDIR/CDD/DISC1\" -label DAME_CD1 -t cdrom\n\n      mount E \"$GAMEDIR/CDD/DISC2\" -label DAME_CD2 -t cdrom\n\n      D:\n\n      install\n\n      exit'\n    file: $GAMEDIR/Dame_setup.conf\n- task:\n    config_file: $GAMEDIR/Dame_setup.conf\n    name: dosexec\n    working_dir: $GAMEDIR/HDD/\n- write_file:\n    content: '[sdl]\n\n      sensitivity=20\n\n      fullresolution=desktop\n\n      windowresolution=original\n\n      output=opengl\n\n      [render]\n\n      aspect=true\n\n      scaler=normal2x\n\n      [autoexec]\n\n      mount C \"$GAMEDIR/HDD\" -t dir\n\n      mount D \"$GAMEDIR/CDD/DISC1\"  -label DAME_CD1 -t cdrom\n\n      mount E \"$GAMEDIR/CDD/DISC2\"  -label DAME_CD2 -t cdrom\n\n      C:\n\n      cd DAME\n\n      DAME.EXE\n\n      exit'\n    file: $GAMEDIR/Dame.conf\n"
}