{
  "name": "Blockpocalypse",
  "slug": "blockpocalypse",
  "year": null,
  "description": "",
  "banner_url": "https://lutris.net/games/banner/blockpocalypse.jpg",
  "icon_url": "https://lutris.net/games/icon/blockpocalypse.png",
  "is_public": true,
  "updated": "2020-10-08T10:14:11.267030Z",
  "provider_games": [
    {
      "name": "Blockpocalypse",
      "slug": "433660",
      "service": "steam"
    }
  ],
  "steamid": 433660,
  "gogid": null,
  "gogslug": "",
  "humblestoreid": "",
  "id": 13842
}