{
  "name": "Hikaru's Cube",
  "slug": "hikarus-cube",
  "year": null,
  "description": "",
  "banner_url": "https://lutris.net/games/banner/hikarus-cube.jpg",
  "icon_url": "https://lutris.net/games/icon/hikarus-cube.png",
  "is_public": true,
  "updated": "2020-10-08T10:00:37.870318Z",
  "provider_games": [
    {
      "name": "Hikaru's Cube",
      "slug": "713550",
      "service": "steam"
    }
  ],
  "steamid": 713550,
  "gogid": null,
  "gogslug": "",
  "humblestoreid": "",
  "id": 17108
}