{
  "name": "Benjamin Johnson",
  "slug": "benjamin-johnson",
  "year": null,
  "description": "",
  "banner_url": "https://lutris.net/games/banner/benjamin-johnson.jpg",
  "icon_url": "https://lutris.net/games/icon/benjamin-johnson.png",
  "is_public": true,
  "updated": "2020-10-08T10:09:15.178237Z",
  "provider_games": [
    {
      "name": "Benjamin Johnson",
      "slug": "672960",
      "service": "steam"
    }
  ],
  "steamid": 672960,
  "gogid": null,
  "gogslug": "",
  "humblestoreid": "",
  "id": 18672
}