{
  "name": "Intrepid Adventure",
  "slug": "intrepid-adventure",
  "year": 2018,
  "description": "",
  "banner_url": "https://lutris.net/games/banner/intrepid-adventure.jpg",
  "icon_url": "",
  "is_public": false,
  "updated": "2020-10-11T21:20:55.762565Z",
  "provider_games": [],
  "steamid": null,
  "gogid": null,
  "gogslug": "",
  "humblestoreid": "",
  "id": 39787
}