{
  "id": 6870,
  "game_id": 15299,
  "game_slug": "klonoa-door-to-phantomile",
  "name": "Klonoa: Door to Phantomile",
  "year": 1997,
  "user": "FakeShemp",
  "runner": "libretro",
  "slug": "klonoa-door-to-phantomile-playstation",
  "version": "PlayStation",
  "description": null,
  "notes": "",
  "created_at": "2017-12-26T20:03:43.429331Z",
  "updated_at": "2017-12-26T20:17:54.100825Z",
  "draft": false,
  "published": true,
  "published_by": null,
  "rating": "",
  "steamid": null,
  "gogid": null,
  "gogslug": "",
  "humbleid": "",
  "humblestoreid": "",
  "humblestoreid_real": "",
  "script": {
    "files": [
      {
        "file1": "N/A:Please select the PlayStation image file"
      }
    ],
    "game": {
      "core": "mednafen_psx_hw",
      "main_file": "file1"
    },
    "installer": [
      {
        "merge": {
          "dst": "$GAMEDIR",
          "src": "file1"
        }
      }
    ]
  },
  "content": "files:\n- file1: N/A:Please select the PlayStation image file\ngame:\n  core: mednafen_psx_hw\n  main_file: file1\ninstaller:\n- merge:\n    dst: $GAMEDIR\n    src: file1\n"
}