{
  "name": "GoPlay Editor",
  "slug": "goplay-editor",
  "year": null,
  "description": "",
  "banner_url": "https://lutris.net/games/banner/goplay-editor.jpg",
  "icon_url": "https://lutris.net/games/icon/goplay-editor.png",
  "is_public": true,
  "updated": "2020-10-08T09:58:53.165850Z",
  "provider_games": [
    {
      "name": "GoPlay Editor",
      "slug": "751390",
      "service": "steam"
    }
  ],
  "steamid": 751390,
  "gogid": null,
  "gogslug": "",
  "humblestoreid": "",
  "id": 20170
}