{
  "name": "Kronos",
  "slug": "kronos",
  "year": null,
  "description": "",
  "banner_url": "https://lutris.net/games/banner/kronos.jpg",
  "icon_url": "https://lutris.net/games/icon/kronos.png",
  "is_public": true,
  "updated": "2020-10-08T10:05:26.390944Z",
  "provider_games": [
    {
      "name": "Kronos",
      "slug": "562090",
      "service": "steam"
    }
  ],
  "steamid": 562090,
  "gogid": null,
  "gogslug": "",
  "humblestoreid": "",
  "id": 10989
}