{
  "name": "F.E.X (Forced Evolution Experiment)",
  "slug": "fex-forced-evolution-experiment",
  "year": null,
  "description": "",
  "banner_url": "https://lutris.net/games/banner/fex-forced-evolution-experiment.jpg",
  "icon_url": "https://lutris.net/games/icon/fex-forced-evolution-experiment.png",
  "is_public": true,
  "updated": "2020-10-08T10:10:22.084364Z",
  "provider_games": [
    {
      "name": "F.E.X (Forced Evolution Experiment)",
      "slug": "655700",
      "service": "steam"
    }
  ],
  "steamid": 655700,
  "gogid": null,
  "gogslug": "",
  "humblestoreid": "",
  "id": 15661
}