{
  "name": "Ayakashigami",
  "slug": "ayakashigami",
  "year": 2016,
  "description": "About This Game\r\nA visual novel based on Japanese mythology. \r\nThis is a contemporary story where the mythical gods and youkai exist.\r\nThe oldest history book in Japan, Kojiki, is a world of the Japanese people’s forgotten roots.\r\n\r\nShinboku is an androgyne♂♀, having the reproductive organs of both sexes. Entrusted with the task of surveying a group of mysterious youkai, he ends up sharing a very eventful summer alongside the girls. This is a friendship-filled adventure with a dash of horror and a little something else.\r\n\r\nThis is a visual novel that can be casually read. There are no choices in this game.",
  "banner_url": "https://lutris.net/games/banner/ayakashigami.jpg",
  "icon_url": "https://lutris.net/games/icon/ayakashigami.png",
  "is_public": true,
  "updated": "2020-10-08T10:05:19.992322Z",
  "provider_games": [
    {
      "name": "Ayakashigami",
      "slug": "565690",
      "service": "steam"
    }
  ],
  "steamid": 565690,
  "gogid": null,
  "gogslug": "",
  "humblestoreid": "",
  "id": 16033
}