{
  "name": "Crookz - The Short Movie",
  "slug": "crookz-the-short-movie",
  "year": null,
  "description": "",
  "banner_url": "https://lutris.net/games/banner/crookz-the-short-movie.jpg",
  "icon_url": "https://lutris.net/games/icon/crookz-the-short-movie.png",
  "is_public": true,
  "updated": "2020-10-08T10:15:26.022747Z",
  "provider_games": [
    {
      "name": "Crookz - The Short Movie",
      "slug": "390160",
      "service": "steam"
    }
  ],
  "steamid": 390160,
  "gogid": null,
  "gogslug": "",
  "humblestoreid": "",
  "id": 5165
}