{
  "name": "King Arthur: Collection",
  "slug": "king-arthur-collection",
  "year": null,
  "description": "",
  "banner_url": "https://lutris.net/games/banner/king-arthur-collection.jpg",
  "icon_url": "https://lutris.net/games/icon/king-arthur-collection.png",
  "is_public": true,
  "updated": "2020-10-08T10:02:26.157434Z",
  "provider_games": [
    {
      "name": "King Arthur Collection",
      "slug": "1444731636",
      "service": "gog"
    },
    {
      "name": "King Arthur: Collection",
      "slug": "24470",
      "service": "steam"
    }
  ],
  "steamid": 24470,
  "gogid": 1423479583,
  "gogslug": "king_arthur_collection",
  "humblestoreid": "",
  "id": 1040
}