{
  "name": "Conduct DELUXE!",
  "slug": "conduct-deluxe",
  "year": null,
  "description": "",
  "banner_url": "https://lutris.net/games/banner/conduct-deluxe.jpg",
  "icon_url": "https://lutris.net/games/icon/conduct-deluxe.png",
  "is_public": true,
  "updated": "2020-10-08T09:59:12.266283Z",
  "provider_games": [
    {
      "name": "Conduct DELUXE!",
      "slug": "737870",
      "service": "steam"
    }
  ],
  "steamid": 737870,
  "gogid": null,
  "gogslug": "",
  "humblestoreid": "",
  "id": 24924
}