{
  "name": "Dance Magic",
  "slug": "dance-magic",
  "year": null,
  "description": "",
  "banner_url": "https://lutris.net/games/banner/dance-magic.jpg",
  "icon_url": "https://lutris.net/games/icon/dance-magic.png",
  "is_public": true,
  "updated": "2020-10-08T10:15:19.210823Z",
  "provider_games": [
    {
      "name": "Dance Magic",
      "slug": "394260",
      "service": "steam"
    }
  ],
  "steamid": 394260,
  "gogid": null,
  "gogslug": "",
  "humblestoreid": "",
  "id": 12490
}