{
  "name": "LOGistICAL: Russia",
  "slug": "logistical-russia",
  "year": null,
  "description": "",
  "banner_url": "https://lutris.net/games/banner/logistical-russia.jpg",
  "icon_url": "https://lutris.net/games/icon/logistical-russia.png",
  "is_public": true,
  "updated": "2020-10-08T10:00:07.433036Z",
  "provider_games": [
    {
      "name": "LOGistICAL: Russia",
      "slug": "733500",
      "service": "steam"
    }
  ],
  "steamid": 733500,
  "gogid": null,
  "gogslug": "",
  "humblestoreid": "",
  "id": 30572
}