{
  "name": ".EXE",
  "slug": "exe",
  "year": null,
  "description": "",
  "banner_url": "https://lutris.net/games/banner/exe.jpg",
  "icon_url": "https://lutris.net/games/icon/exe.png",
  "is_public": true,
  "updated": "2020-10-08T10:13:07.906570Z",
  "provider_games": [
    {
      "name": ".EXE",
      "slug": "471640",
      "service": "steam"
    }
  ],
  "steamid": 471640,
  "gogid": null,
  "gogslug": "",
  "humblestoreid": "",
  "id": 14883
}