{
  "name": "Karnage Chronicles",
  "slug": "karnage-chronicles",
  "year": null,
  "description": "",
  "banner_url": "https://lutris.net/games/banner/karnage-chronicles.jpg",
  "icon_url": "https://lutris.net/games/icon/karnage-chronicles.png",
  "is_public": true,
  "updated": "2019-01-23T08:30:02.475880Z",
  "provider_games": [
    {
      "name": "Karnage Chronicles",
      "slug": "611160",
      "service": "steam"
    }
  ],
  "steamid": 611160,
  "gogid": null,
  "gogslug": "",
  "humblestoreid": "",
  "id": 19285
}