{
  "name": "Magic Carpet 2: The Netherworlds",
  "slug": "magic-carpet-2-the-netherworlds",
  "year": 1995,
  "description": "Magic Carpet was one of the greatest action games of all time. Now, with Magic Carpet 2 - the stunning sequel to last year's PC Game of the Year - the action's faster, darker and a lot bloodier!\r\n\r\nThe flight experience is quicker and the graphics even more stunning. There's a host of new monsters and a vast array of devious spells. Night missions and cavern levels create even more atmosphere, and all-new mission based levels add another dimension to the gameplay but maintain the unique mix of frenzied action and strategy. All this and a mid-game save feature too!",
  "banner_url": "https://lutris.net/games/banner/magic-carpet-2-the-netherworlds.jpg",
  "icon_url": "",
  "is_public": true,
  "updated": "2020-05-31T00:17:48.158912Z",
  "provider_games": [
    {
      "name": "Magic Carpet™ 2: The Netherworlds",
      "slug": "1207659187",
      "service": "gog"
    }
  ],
  "steamid": null,
  "gogid": 1207659187,
  "gogslug": "magic_carpet_2_the_netherworlds",
  "humblestoreid": "",
  "id": 17723
}