{
  "id": 20900,
  "game_id": 28955,
  "game_slug": "plundered-hearts",
  "name": "Plundered Hearts",
  "year": 1987,
  "user": "appoloin",
  "runner": "frotz",
  "slug": "plundered-hearts-ms-dos",
  "version": "MS-DOS",
  "description": null,
  "notes": "",
  "created_at": "2020-05-28T18:21:06.328937Z",
  "updated_at": "2020-05-28T18:21:06.328990Z",
  "draft": false,
  "published": false,
  "published_by": null,
  "rating": "",
  "steamid": null,
  "gogid": null,
  "gogslug": "",
  "humbleid": "",
  "humblestoreid": "",
  "humblestoreid_real": "",
  "script": {
    "files": [
      {
        "game": "N/A:Select the story file"
      }
    ],
    "game": {
      "story": "$GAMEDIR/hearts.z5"
    },
    "installer": [
      {
        "execute": {
          "args": "$game $GAMEDIR/hearts.z5",
          "file": "/bin/cp"
        }
      }
    ]
  },
  "content": "files:\n- game: N/A:Select the story file\ngame:\n  story: $GAMEDIR/hearts.z5\ninstaller:\n- execute:\n    args: $game $GAMEDIR/hearts.z5\n    file: /bin/cp\n"
}