{
  "name": "Galmedes",
  "slug": "galmedes",
  "year": 1992,
  "description": "",
  "banner_url": "",
  "icon_url": "https://lutris.net/games/icon/galmedes.png",
  "is_public": true,
  "updated": "2020-05-26T03:34:01.078502Z",
  "provider_games": [
    {
      "name": "Galmedes",
      "slug": "galmedes",
      "service": "mame"
    }
  ],
  "steamid": null,
  "gogid": null,
  "gogslug": "",
  "humblestoreid": "",
  "id": 34193
}