{
  "id": 7885,
  "game_id": 17868,
  "game_slug": "zombs-royale",
  "name": "Zombs Royale",
  "year": 2018,
  "user": "scottviger",
  "runner": "browser",
  "slug": "zombs-royale-online",
  "version": "Online",
  "description": null,
  "notes": "",
  "created_at": "2018-04-11T23:22:37.105000Z",
  "updated_at": "2018-10-24T06:47:11.132551Z",
  "draft": false,
  "published": true,
  "published_by": null,
  "rating": "",
  "steamid": null,
  "gogid": null,
  "gogslug": "",
  "humbleid": "",
  "humblestoreid": "",
  "humblestoreid_real": "",
  "script": {
    "main_file": "https://zombsroyale.io/"
  },
  "content": "main_file: https://zombsroyale.io/\n"
}