{
  "name": "Beyond the Wall",
  "slug": "beyond-the-wall",
  "year": 2017,
  "description": "A great survival simulator set behind the wall! A game following the best traditions of roguelike games based on one of the most famous story of our time. Hold out in the frost as long as possible while avoiding the walking dead.",
  "banner_url": "https://lutris.net/games/banner/beyond-the-wall.jpg",
  "icon_url": "https://lutris.net/games/icon/beyond-the-wall.png",
  "is_public": true,
  "updated": "2020-10-08T10:00:18.617414Z",
  "provider_games": [
    {
      "name": "Beyond the Wall",
      "slug": "726120",
      "service": "steam"
    }
  ],
  "steamid": 726120,
  "gogid": null,
  "gogslug": "",
  "humblestoreid": "",
  "id": 14838
}