{
  "id": 6924,
  "game_id": 2418,
  "game_slug": "evolution-rts",
  "name": "Evolution RTS",
  "year": 2014,
  "user": "FakeShemp",
  "runner": "linux",
  "slug": "evolution-rts-itchio",
  "version": "itch.io",
  "description": null,
  "notes": "",
  "created_at": "2017-12-31T16:30:23.382000Z",
  "updated_at": "2017-12-31T16:39:26.451687Z",
  "draft": false,
  "published": true,
  "published_by": null,
  "rating": "",
  "steamid": 291150,
  "gogid": null,
  "gogslug": "",
  "humbleid": "",
  "humblestoreid": "",
  "humblestoreid_real": "",
  "script": {
    "exe": "!Launch_Evolution_RTS.sh",
    "files": [
      {
        "file1": "N/A:Please select the itch.io archive"
      }
    ],
    "installer": [
      {
        "extract": {
          "file": "$file1"
        }
      }
    ]
  },
  "content": "exe: '!Launch_Evolution_RTS.sh'\nfiles:\n- file1: N/A:Please select the itch.io archive\ninstaller:\n- extract:\n    file: $file1\n"
}