{
  "name": "Bang!",
  "slug": "bang",
  "year": 1998,
  "description": "",
  "banner_url": "",
  "icon_url": "https://lutris.net/games/icon/bang.png",
  "is_public": true,
  "updated": "2020-05-26T03:32:03.087469Z",
  "provider_games": [
    {
      "name": "Bang!",
      "slug": "bang",
      "service": "mame"
    }
  ],
  "steamid": null,
  "gogid": null,
  "gogslug": "",
  "humblestoreid": "",
  "id": 33380
}