{
  "name": "Lines Infinite by Nestor Yavorskyy",
  "slug": "lines-infinite-by-nestor-yavorskyy",
  "year": null,
  "description": "",
  "banner_url": "https://lutris.net/games/banner/lines-infinite-by-nestor-yavorskyy.jpg",
  "icon_url": "https://lutris.net/games/icon/lines-infinite-by-nestor-yavorskyy.png",
  "is_public": true,
  "updated": "2020-10-08T10:00:08.150621Z",
  "provider_games": [
    {
      "name": "Lines Infinite",
      "slug": "733050",
      "service": "steam"
    }
  ],
  "steamid": 733050,
  "gogid": null,
  "gogslug": "",
  "humblestoreid": "",
  "id": 18042
}