{
  "name": "Acolyte Fight!",
  "slug": "acolyte-fight",
  "year": 2018,
  "description": "AcolyteFight.io is a multiplayer.io game set in a magic arena. In the game, you become an acolyte fighting a war by casting various spells to take down opponents. You can change your set of spells to the ones you like most. Enter the arena, use your spells accurately, dodge incoming attacks, and be the master of magic!",
  "banner_url": "https://lutris.net/games/banner/acolyte-fight.jpg",
  "icon_url": "",
  "is_public": true,
  "updated": "2019-10-22T22:04:37.509430Z",
  "provider_games": [],
  "steamid": null,
  "gogid": null,
  "gogslug": "",
  "humblestoreid": "",
  "id": 29598
}