{
  "id": 17612,
  "game_id": 9806,
  "game_slug": "deus-ex-breachtm",
  "name": "Deus Ex: Breach™",
  "year": null,
  "user": "soredake",
  "runner": "steam",
  "slug": "deus-ex-breachtm-proton",
  "version": "Proton",
  "description": null,
  "notes": "",
  "created_at": "2019-12-28T15:29:37.405545Z",
  "updated_at": "2019-12-28T15:29:42.679776Z",
  "draft": false,
  "published": true,
  "published_by": null,
  "rating": "",
  "steamid": 555450,
  "gogid": null,
  "gogslug": "",
  "humbleid": "",
  "humblestoreid": "",
  "humblestoreid_real": "",
  "script": {
    "game": {
      "appid": 555450
    }
  },
  "content": "game:\n  appid: 555450\n"
}