{
  "name": "Crowns Golf in Hawaii",
  "slug": "crowns-golf-in-hawaii",
  "year": 1985,
  "description": "",
  "banner_url": "https://lutris.net/games/banner/crowns-golf-in-hawaii.jpg",
  "icon_url": "https://lutris.net/games/icon/crowns-golf-in-hawaii.png",
  "is_public": true,
  "updated": "2020-05-26T03:33:00.585834Z",
  "provider_games": [
    {
      "name": "Crowns Golf in Hawaii",
      "slug": "crgolfhi",
      "service": "mame"
    }
  ],
  "steamid": null,
  "gogid": null,
  "gogslug": "",
  "humblestoreid": "",
  "id": 33757
}