{
  "id": 18482,
  "game_id": 24578,
  "game_slug": "metro-exodus",
  "name": "Metro Exodus",
  "year": 2019,
  "user": "soredake",
  "runner": "steam",
  "slug": "metro-exodus-proton",
  "version": "Proton",
  "description": null,
  "notes": "",
  "created_at": "2020-02-21T14:39:52.687570Z",
  "updated_at": "2020-02-21T14:39:59.391253Z",
  "draft": false,
  "published": true,
  "published_by": null,
  "rating": "",
  "steamid": 412020,
  "gogid": 1407287452,
  "gogslug": "metro_exodus",
  "humbleid": "",
  "humblestoreid": "",
  "humblestoreid_real": "",
  "script": {
    "game": {
      "appid": 412020
    }
  },
  "content": "game:\n  appid: 412020\n"
}