{
  "id": 21062,
  "game_id": 24578,
  "game_slug": "metro-exodus",
  "name": "Metro Exodus",
  "year": 2019,
  "user": "strider",
  "runner": "wine",
  "slug": "metro-exodus-gog",
  "version": "GOG",
  "description": null,
  "notes": "",
  "created_at": "2020-05-30T23:10:49.071000Z",
  "updated_at": "2020-05-31T01:52:44.823556Z",
  "draft": false,
  "published": true,
  "published_by": 1,
  "rating": "",
  "steamid": 412020,
  "gogid": 1407287452,
  "gogslug": "metro_exodus",
  "humbleid": "",
  "humblestoreid": "",
  "humblestoreid_real": "",
  "script": {
    "files": [
      {
        "goginstaller": "N/A:Select the game's setup file"
      }
    ],
    "game": {
      "arch": "win64",
      "exe": "$GAMEDIR/drive_c/GOG Games/Metro Exodus/MetroExodus.exe",
      "prefix": "$GAMEDIR"
    },
    "installer": [
      {
        "task": {
          "name": "create_prefix",
          "prefix": "$GAMEDIR"
        }
      },
      {
        "task": {
          "executable": "goginstaller",
          "name": "wineexec",
          "prefix": "$GAMEDIR"
        }
      }
    ],
    "wine": {
      "esync": true,
      "vkd3d": true
    }
  },
  "content": "files:\n- goginstaller: N/A:Select the game's setup file\ngame:\n  arch: win64\n  exe: $GAMEDIR/drive_c/GOG Games/Metro Exodus/MetroExodus.exe\n  prefix: $GAMEDIR\ninstaller:\n- task:\n    name: create_prefix\n    prefix: $GAMEDIR\n- task:\n    executable: goginstaller\n    name: wineexec\n    prefix: $GAMEDIR\nwine:\n  esync: true\n  vkd3d: true\n"
}