{
  "id": 5675,
  "game_id": 2112,
  "game_slug": "major-mayhem",
  "name": "Major Mayhem",
  "year": null,
  "user": "FakeShemp",
  "runner": "wine",
  "slug": "major-mayhem-groupees",
  "version": "Groupees",
  "description": "",
  "notes": "",
  "created_at": "2017-09-10T18:34:50.644000Z",
  "updated_at": "2018-05-19T03:41:51.544915Z",
  "draft": false,
  "published": true,
  "published_by": null,
  "rating": "",
  "steamid": 264340,
  "gogid": null,
  "gogslug": "",
  "humbleid": "",
  "humblestoreid": "",
  "humblestoreid_real": "",
  "script": {
    "files": [
      {
        "file1": "N/A:Please select the Groupees installer"
      }
    ],
    "game": {
      "arch": "win32",
      "exe": "drive_c/Program Files/Rocket Jump/Major Mayhem/Major Mayhem.exe",
      "prefix": "$GAMEDIR"
    },
    "installer": [
      {
        "task": {
          "args": "/sp- /verysilent /norestart /suppressmsgboxes /nogui",
          "executable": "$file1",
          "name": "wineexec",
          "prefix": "$GAMEDIR"
        }
      }
    ]
  },
  "content": "files:\n- file1: N/A:Please select the Groupees installer\ngame:\n  arch: win32\n  exe: drive_c/Program Files/Rocket Jump/Major Mayhem/Major Mayhem.exe\n  prefix: $GAMEDIR\ninstaller:\n- task:\n    args: /sp- /verysilent /norestart /suppressmsgboxes /nogui\n    executable: $file1\n    name: wineexec\n    prefix: $GAMEDIR\n"
}