{
  "name": "Hayaoshi Quiz Ouza Ketteisen - The King Of Quiz",
  "slug": "hayaoshi-quiz-ouza-ketteisen-the-king-of-quiz",
  "year": 1993,
  "description": "",
  "banner_url": "",
  "icon_url": "https://lutris.net/games/icon/hayaoshi-quiz-ouza-ketteisen-the-king-of-quiz.png",
  "is_public": true,
  "updated": "2020-05-26T03:34:30.124973Z",
  "provider_games": [
    {
      "name": "Hayaoshi Quiz Ouza Ketteisen - The King Of Quiz",
      "slug": "hayaosi1",
      "service": "mame"
    }
  ],
  "steamid": null,
  "gogid": null,
  "gogslug": "",
  "humblestoreid": "",
  "id": 34373
}