{
  "id": 2384,
  "game_id": 3065,
  "game_slug": "aqua-kitty-milk-mine-defender",
  "name": "Aqua Kitty - Milk Mine Defender",
  "year": null,
  "user": "strider",
  "runner": "wine",
  "slug": "aqua-kitty-milk-mine-defender-humble-bundle",
  "version": "Humble Bundle",
  "description": null,
  "notes": "",
  "created_at": "2016-08-04T23:49:12.234000Z",
  "updated_at": "2018-06-17T00:30:30.340063Z",
  "draft": false,
  "published": true,
  "published_by": null,
  "rating": "",
  "steamid": 263880,
  "gogid": 1207660053,
  "gogslug": "aqua_kitty_milk_mine_defender",
  "humbleid": "aquakitty_milkminedefender",
  "humblestoreid": "aquakitty_milkminedefender",
  "humblestoreid_real": "aquakitty_milkminedefender",
  "script": {
    "files": [
      {
        "game": "N/A:Please select the Humble Bundle installer."
      }
    ],
    "game": {
      "arch": "win32",
      "exe": "drive_c/Program Files/Aqua Kitty/aqua_kitty.exe",
      "prefix": "$GAMEDIR"
    },
    "installer": [
      {
        "task": {
          "description": "Creating Wine prefix",
          "name": "create_prefix",
          "prefix": "$GAMEDIR"
        }
      },
      {
        "execute": {
          "args": "-c 'printf \"[Software\\\\Wine\\\\DllOverrides]\\n\"mscoree\"=\"\"\\n\"mshtml\"=\"\"\\n\" >> $GAMEDIR/user.reg'",
          "file": "/bin/sh"
        }
      },
      {
        "task": {
          "app": "dotnet40",
          "description": "Installing .net",
          "name": "winetricks",
          "prefix": "$GAMEDIR"
        }
      },
      {
        "task": {
          "app": "xna40",
          "description": "Installing xna",
          "name": "winetricks",
          "prefix": "$GAMEDIR"
        }
      },
      {
        "task": {
          "description": "Installing Aqua Kitty",
          "executable": "game",
          "name": "wineexec",
          "prefix": "$GAMEDIR"
        }
      }
    ]
  },
  "content": "files:\n- game: N/A:Please select the Humble Bundle installer.\ngame:\n  arch: win32\n  exe: drive_c/Program Files/Aqua Kitty/aqua_kitty.exe\n  prefix: $GAMEDIR\ninstaller:\n- task:\n    description: Creating Wine prefix\n    name: create_prefix\n    prefix: $GAMEDIR\n- execute:\n    args: -c 'printf \"[Software\\\\Wine\\\\DllOverrides]\\n\"mscoree\"=\"\"\\n\"mshtml\"=\"\"\\n\"\n      >> $GAMEDIR/user.reg'\n    file: /bin/sh\n- task:\n    app: dotnet40\n    description: Installing .net\n    name: winetricks\n    prefix: $GAMEDIR\n- task:\n    app: xna40\n    description: Installing xna\n    name: winetricks\n    prefix: $GAMEDIR\n- task:\n    description: Installing Aqua Kitty\n    executable: game\n    name: wineexec\n    prefix: $GAMEDIR\n"
}