{
  "name": "Astrox: Hostile Space Excavation",
  "slug": "astrox-hostile-space-excavation",
  "year": null,
  "description": "",
  "banner_url": "https://lutris.net/games/banner/astrox-hostile-space-excavation.jpg",
  "icon_url": "https://lutris.net/games/icon/astrox-hostile-space-excavation.png",
  "is_public": true,
  "updated": "2020-10-08T10:14:43.388536Z",
  "provider_games": [
    {
      "name": "Astrox: Hostile Space Excavation",
      "slug": "414720",
      "service": "steam"
    }
  ],
  "steamid": 414720,
  "gogid": null,
  "gogslug": "",
  "humblestoreid": "",
  "id": 13283
}