{
  "id": 13285,
  "game_id": 5300,
  "game_slug": "double-dragon-trilogy",
  "name": "Double Dragon Trilogy",
  "year": null,
  "user": "ShadowStrike",
  "runner": "wine",
  "slug": "double-dragon-trilogy-gog",
  "version": "GOG",
  "description": "Click OK on errors near end of installer and installer will complete correctly.",
  "notes": "Ignore Microsoft Visual C++ errors and game will launch correctly.",
  "created_at": "2019-05-02T11:20:27.196000Z",
  "updated_at": "2019-05-04T02:14:49.926179Z",
  "draft": false,
  "published": true,
  "published_by": 19464,
  "rating": "",
  "steamid": 314150,
  "gogid": 1420716694,
  "gogslug": "double_dragon_trilogy",
  "humbleid": "",
  "humblestoreid": "",
  "humblestoreid_real": "",
  "script": {
    "files": [
      {
        "goginstaller": "N/A:Please select the GOG.com Windows installer"
      }
    ],
    "game": {
      "arch": "win64",
      "exe": "drive_c/GOG Games/Double Dragon Trilogy/ddtrilogy.exe",
      "prefix": "$GAMEDIR"
    },
    "installer": [
      {
        "task": {
          "arch": "win64",
          "name": "create_prefix",
          "prefix": "$GAMEDIR"
        }
      },
      {
        "task": {
          "app": "vcrun2013",
          "name": "winetricks",
          "prefix": "$GAMEDIR"
        }
      },
      {
        "task": {
          "arch": "win64",
          "args": "/LANG=English /SP- /SUPPRESSMSGBOXES",
          "executable": "goginstaller",
          "name": "wineexec",
          "prefix": "$GAMEDIR"
        }
      }
    ]
  },
  "content": "files:\n- goginstaller: N/A:Please select the GOG.com Windows installer\ngame:\n  arch: win64\n  exe: drive_c/GOG Games/Double Dragon Trilogy/ddtrilogy.exe\n  prefix: $GAMEDIR\ninstaller:\n- task:\n    arch: win64\n    name: create_prefix\n    prefix: $GAMEDIR\n- task:\n    app: vcrun2013\n    name: winetricks\n    prefix: $GAMEDIR\n- task:\n    arch: win64\n    args: /LANG=English /SP- /SUPPRESSMSGBOXES\n    executable: goginstaller\n    name: wineexec\n    prefix: $GAMEDIR\n"
}