{
  "name": "Football Manager 2015",
  "slug": "football-manager-2015",
  "year": null,
  "description": "",
  "banner_url": "https://lutris.net/games/banner/football-manager-2015.jpg",
  "icon_url": "https://lutris.net/games/icon/football-manager-2015.png",
  "is_public": true,
  "updated": "2019-01-23T08:29:33.192270Z",
  "provider_games": [
    {
      "name": "Football Manager 2015",
      "slug": "295270",
      "service": "steam"
    }
  ],
  "steamid": 295270,
  "gogid": null,
  "gogslug": "",
  "humblestoreid": "",
  "id": 3426
}