{
  "name": "inSynch",
  "slug": "insynch",
  "year": null,
  "description": "",
  "banner_url": "https://lutris.net/games/banner/insynch.jpg",
  "icon_url": "https://lutris.net/games/icon/insynch.png",
  "is_public": true,
  "updated": "2020-10-08T10:16:48.590311Z",
  "provider_games": [
    {
      "name": "inSynch",
      "slug": "343410",
      "service": "steam"
    }
  ],
  "steamid": 343410,
  "gogid": null,
  "gogslug": "",
  "humblestoreid": "",
  "id": 5046
}