{
  "name": "His Chuunibyou Cannot Be Cured!",
  "slug": "his-chuunibyou-cannot-be-cured",
  "year": null,
  "description": "",
  "banner_url": "https://lutris.net/games/banner/his-chuunibyou-cannot-be-cured.jpg",
  "icon_url": "https://lutris.net/games/icon/his-chuunibyou-cannot-be-cured.png",
  "is_public": true,
  "updated": "2020-10-08T10:01:06.622535Z",
  "provider_games": [
    {
      "name": "His Chuunibyou Cannot Be Cured!",
      "slug": "694520",
      "service": "steam"
    }
  ],
  "steamid": 694520,
  "gogid": null,
  "gogslug": "",
  "humblestoreid": "",
  "id": 26076
}