{
  "id": 21084,
  "game_id": 37046,
  "game_slug": "jinxter",
  "name": "Jinxter",
  "year": 1987,
  "user": "appoloin",
  "runner": "frotz",
  "slug": "jinxter-ms-dos",
  "version": "MS-DOS",
  "description": null,
  "notes": "",
  "created_at": "2020-05-31T09:11:20.494027Z",
  "updated_at": "2020-05-31T09:11:20.494054Z",
  "draft": false,
  "published": false,
  "published_by": null,
  "rating": "",
  "steamid": null,
  "gogid": null,
  "gogslug": "",
  "humbleid": "",
  "humblestoreid": "",
  "humblestoreid_real": "",
  "script": {
    "files": [
      {
        "game": "N/A:Select the MAG file"
      },
      {
        "game1": "N/A:Select the GXF file"
      }
    ],
    "game": {
      "story": "$GAMEDIR/Jinxter.mag"
    },
    "installer": [
      {
        "execute": {
          "args": "$game $GAMEDIR/Jinxter.mag",
          "file": "/bin/cp"
        }
      },
      {
        "execute": {
          "args": "$game1 $GAMEDIR/Jinxter.gfx",
          "file": "/bin/cp"
        }
      }
    ]
  },
  "content": "files:\n- game: N/A:Select the MAG file\n- game1: N/A:Select the GXF file\ngame:\n  story: $GAMEDIR/Jinxter.mag\ninstaller:\n- execute:\n    args: $game $GAMEDIR/Jinxter.mag\n    file: /bin/cp\n- execute:\n    args: $game1 $GAMEDIR/Jinxter.gfx\n    file: /bin/cp\n"
}