{
  "name": "Dots eXtreme",
  "slug": "dots-extreme",
  "year": null,
  "description": "",
  "banner_url": "https://lutris.net/games/banner/dots-extreme.jpg",
  "icon_url": "https://lutris.net/games/icon/dots-extreme.png",
  "is_public": true,
  "updated": "2020-10-08T10:06:43.453072Z",
  "provider_games": [
    {
      "name": "Dots eXtreme",
      "slug": "521130",
      "service": "steam"
    }
  ],
  "steamid": 521130,
  "gogid": null,
  "gogslug": "",
  "humblestoreid": "",
  "id": 12711
}