{
  "name": "Grim Dragons",
  "slug": "grim-dragons",
  "year": null,
  "description": "",
  "banner_url": "https://lutris.net/games/banner/grim-dragons.jpg",
  "icon_url": "https://lutris.net/games/icon/grim-dragons.png",
  "is_public": true,
  "updated": "2020-10-08T10:07:39.967762Z",
  "provider_games": [
    {
      "name": "Grim Dragons",
      "slug": "491440",
      "service": "steam"
    }
  ],
  "steamid": 491440,
  "gogid": null,
  "gogslug": "",
  "humblestoreid": "",
  "id": 10842
}