{
  "name": "Halo Wars: Definitive Edition",
  "slug": "halo-wars-definitive-edition",
  "year": 2017,
  "description": "Halo Wars: Definitive Edition is an enhanced version of the real-time strategy classic, Halo Wars, updated to run natively on PC. Halo Wars: Definitive Edition includes improved graphics, new achievements and all of the DLC created for the landmark real-time strategy game.",
  "banner_url": "https://lutris.net/games/banner/halo-wars-definitive-edition.jpg",
  "icon_url": "https://lutris.net/games/icon/halo-wars-definitive-edition.png",
  "is_public": true,
  "updated": "2019-03-15T07:41:10.906386Z",
  "provider_games": [
    {
      "name": "Halo Wars: Definitive Edition",
      "slug": "459220",
      "service": "steam"
    }
  ],
  "steamid": 459220,
  "gogid": null,
  "gogslug": "",
  "humblestoreid": "",
  "id": 11304
}