{
  "name": "Learn (Japanese) Kana The Fun Way!",
  "slug": "learn-japanese-kana-the-fun-way",
  "year": null,
  "description": "",
  "banner_url": "https://lutris.net/games/banner/learn-japanese-kana-the-fun-way.jpg",
  "icon_url": "https://lutris.net/games/icon/learn-japanese-kana-the-fun-way.png",
  "is_public": true,
  "updated": "2020-10-08T10:00:43.332934Z",
  "provider_games": [
    {
      "name": "Learn (Japanese) Kana The Fun Way!",
      "slug": "710970",
      "service": "steam"
    }
  ],
  "steamid": 710970,
  "gogid": null,
  "gogslug": "",
  "humblestoreid": "",
  "id": 28236
}