{
  "name": "HIVESWAP: ACT 1",
  "slug": "hiveswap-act-1",
  "year": 2017,
  "description": "Monsters in the yard. Monsters in the house. Monsters in the hall, beating on your door. Your brother's trapped in his treehouse, so he’s not gonna be much help. You're going to have to get yourself out of this. But where did they come from? How are you supposed to deal with this? Well, certainly not by cowering in your room. That's for, uh, cowards.\r\n\r\nFirst things first. You need to open the door.\r\n\r\nA LOVE LETTER TO '90s ADVENTURE GAMES\r\n...without the accompanying frustration. As fun and well-paced as you generously remember them being. No dream-logic solutions, no hearing the same “those items don’t work together” message over and over. HIVESWAP has unique responses for everything you can try. Spend hours trying everything on everything, if you want to -- but not because you have to. Learn about the characters by exploring their homes! But like, in a good way! No audio logs split up and scattered around -- GUARANTEED.\r\n\r\nHAND-ANIMATED IN TWO DIMENSIONS\r\nStrange homes to explore, every room brimming with secrets. The world of HIVESWAP is beautiful and alive, from its hyper-detailed environments to its gorgeous fully-rendered animations. Come take a look!\r\n\r\nMUSIC TO MAKE YOU WEEP\r\nAn eclectic, ambitious, genre-spanning soundtrack, featuring contributions from Undertale’s Toby Fox and, regrettably, at least one third-wave ska song. Also featuring at least one pseudo-revolutionary garage rock duo, with regrets of their own.\r\n\r\nWORLDS TO SEE, TEENS TO BE\r\nPlay as JOEY CLAIRE, EXTRAORDINAIRE, a teen trapped in her room *and* in 1994. Play as JUDE HARLEY, BIZARRELY, her kid brother, trapped in his treehouse. Play as XEFROS TRITOH, ALIEN REBEL, wait. Aliens?\r\n\r\nJUST GETTING STARTED\r\nHIVESWAP: Act 1 is the first of a four-part series set in Andrew Hussie’s Homestuck universe, with a companion series, Hauntswitch, to follow. Continue your save from chapter to chapter, then from game to game, to carry your story, choices, friendships and frenemies across them all--then do it again! Once released, HIVESWAP and Hauntswitch will be playable in either order. Haven’t read Homestuck? That’s fine! This game is set in 1994! Homestuck hasn’t even been invented yet!",
  "banner_url": "https://lutris.net/games/banner/hiveswap-act-1.jpg",
  "icon_url": "https://lutris.net/games/icon/hiveswap-act-1.png",
  "is_public": true,
  "updated": "2020-05-31T00:17:44.986553Z",
  "provider_games": [
    {
      "name": "HIVESWAP: Act 1",
      "slug": "1980612837",
      "service": "gog"
    },
    {
      "name": "HIVESWAP: ACT 1",
      "slug": "623940",
      "service": "steam"
    }
  ],
  "steamid": 623940,
  "gogid": 1980612837,
  "gogslug": "hiveswap",
  "humblestoreid": "",
  "id": 14216
}