{
  "name": "a Museum of Dubious Splendors",
  "slug": "a-museum-of-dubious-splendors",
  "year": 2018,
  "description": "The Museum of Dubious Splendors is half a storybook and half an exploration game.\r\nIt is a collection of folklore and oral tales, punctuated by peculiar rooms, that you wander through.\r\n\r\nThese tales, have been recreated from a collection of stories by Mir UmarHassan, a Gujarati poet whose works have proven notoriously difficult to translate because of the mellifluous use of Urdu and Hindi in his compositions.\r\n\r\nThe collection, entitled \"in Dubious Splendor\", was written (in Gujarati) in nineteen sixty two for the Malwa Chronicle, but the stories therein were mangled and edited without the author's permission prior to their publication in serialized form.\r\nThis contested collection of stories, became momentarily infamous as the subject of the first court case to arbitrate authorial ownership in Independent India.\r\n\r\nEven today, despite countless restorative efforts by scholars, it cannot be said with with any certainty that the text that we used for this adaptation was the original as written by UmarHassan.",
  "banner_url": "https://lutris.net/games/banner/a-museum-of-dubious-splendors.jpg",
  "icon_url": "https://lutris.net/games/icon/a-museum-of-dubious-splendors.png",
  "is_public": true,
  "updated": "2019-01-23T08:28:21.301422Z",
  "provider_games": [
    {
      "name": "a Museum of Dubious Splendors",
      "slug": "772680",
      "service": "steam"
    }
  ],
  "steamid": 772680,
  "gogid": null,
  "gogslug": "",
  "humblestoreid": "",
  "id": 17664
}