{
  "id": 2026,
  "game_id": 472,
  "game_slug": "retro-city-rampagetm",
  "name": "Retro City Rampage DX",
  "year": 2012,
  "user": "Lucki",
  "runner": "dosbox",
  "slug": "retro-city-rampage-dx-ms-dos-10",
  "version": "MS-DOS 1.0",
  "description": "",
  "notes": "",
  "created_at": "2016-03-19T15:23:46.374631Z",
  "updated_at": "2016-03-24T14:22:01.893140Z",
  "draft": false,
  "published": true,
  "published_by": null,
  "rating": "",
  "steamid": 204630,
  "gogid": 1207659049,
  "gogslug": "retro_city_rampage_dx",
  "humbleid": "retrocityrampage",
  "humblestoreid": "retrocityrampage",
  "humblestoreid_real": "retro-city-rampage-dx",
  "script": {
    "files": [
      {
        "Game": "N/A:Please select RCR486_MS-DOS.zip"
      }
    ],
    "game": {
      "main_file": "$GAMEDIR/RCR.EXE"
    },
    "installer": [
      {
        "extract": {
          "file": "$Game",
          "format": "zip"
        }
      }
    ]
  },
  "content": "files:\n- Game: N/A:Please select RCR486_MS-DOS.zip\ngame:\n  main_file: $GAMEDIR/RCR.EXE\ninstaller:\n- extract:\n    file: $Game\n    format: zip\n"
}