{
  "name": "Crewsaders",
  "slug": "crewsaders",
  "year": null,
  "description": "",
  "banner_url": "https://lutris.net/games/banner/crewsaders.jpg",
  "icon_url": "https://lutris.net/games/icon/crewsaders.png",
  "is_public": true,
  "updated": "2020-10-08T10:06:05.966200Z",
  "provider_games": [
    {
      "name": "Crewsaders",
      "slug": "540870",
      "service": "steam"
    }
  ],
  "steamid": 540870,
  "gogid": null,
  "gogslug": "",
  "humblestoreid": "",
  "id": 12772
}