{
  "name": "Bosch's Damnation",
  "slug": "boschs-damnation",
  "year": null,
  "description": "",
  "banner_url": "https://lutris.net/games/banner/boschs-damnation.jpg",
  "icon_url": "https://lutris.net/games/icon/boschs-damnation.png",
  "is_public": true,
  "updated": "2020-10-08T09:19:23.445514Z",
  "provider_games": [
    {
      "name": "Bosch's Damnation",
      "slug": "337130",
      "service": "steam"
    }
  ],
  "steamid": 337130,
  "gogid": null,
  "gogslug": "",
  "humblestoreid": "",
  "id": 22228
}