{
  "name": "Dashy Square VR",
  "slug": "dashy-square-vr",
  "year": null,
  "description": "",
  "banner_url": "https://lutris.net/games/banner/dashy-square-vr.jpg",
  "icon_url": "https://lutris.net/games/icon/dashy-square-vr.png",
  "is_public": true,
  "updated": "2020-10-08T10:07:33.756253Z",
  "provider_games": [
    {
      "name": "Dashy Square VR",
      "slug": "495540",
      "service": "steam"
    }
  ],
  "steamid": 495540,
  "gogid": null,
  "gogslug": "",
  "humblestoreid": "",
  "id": 21749
}