{
  "name": "Area 51 / Maximum Force Duo",
  "slug": "area-51-maximum-force-duo",
  "year": 1998,
  "description": "Players can choose to play either of these previously released titles. In the first game, use a light gun to shoot infected human \"zombies\", aliens and their mothership. In the second game, players shoot terrorists.",
  "banner_url": "https://lutris.net/games/banner/area-51-maximum-force-duo.jpg",
  "icon_url": "",
  "is_public": true,
  "updated": "2019-01-23T08:28:24.503705Z",
  "provider_games": [],
  "steamid": null,
  "gogid": null,
  "gogslug": "",
  "humblestoreid": "",
  "id": 25094
}