{
  "name": "Infinos Gaiden",
  "slug": "infinos-gaiden",
  "year": null,
  "description": "",
  "banner_url": "https://lutris.net/games/banner/infinos-gaiden.jpg",
  "icon_url": "https://lutris.net/games/icon/infinos-gaiden.png",
  "is_public": true,
  "updated": "2019-05-19T13:13:41.058184Z",
  "provider_games": [
    {
      "name": "Infinos Gaiden",
      "slug": "771070",
      "service": "steam"
    }
  ],
  "steamid": 771070,
  "gogid": null,
  "gogslug": "",
  "humblestoreid": "",
  "id": 27297
}