{
  "name": "Love at First Sight",
  "slug": "love-at-first-sight",
  "year": 2015,
  "description": "After falling in love at first sight with the shy Sachi Usui, an injury-ridden, single-eyed high school girl, the protagonist tries to win over her lonely and isolated heart. A pure, heart-warming romance game where the apple of your eye only has one eye!",
  "banner_url": "https://lutris.net/games/banner/love-at-first-sight.jpg",
  "icon_url": "https://lutris.net/games/icon/love-at-first-sight.png",
  "is_public": true,
  "updated": "2019-01-23T08:30:13.543555Z",
  "provider_games": [
    {
      "name": "Love at First Sight",
      "slug": "353330",
      "service": "steam"
    }
  ],
  "steamid": 353330,
  "gogid": null,
  "gogslug": "",
  "humblestoreid": "",
  "id": 5427
}