{
  "name": "Home Behind",
  "slug": "home-behind",
  "year": null,
  "description": "",
  "banner_url": "https://lutris.net/games/banner/home-behind.jpg",
  "icon_url": "https://lutris.net/games/icon/home-behind.png",
  "is_public": true,
  "updated": "2020-10-08T10:13:12.713010Z",
  "provider_games": [
    {
      "name": "Home Behind",
      "slug": "467960",
      "service": "steam"
    }
  ],
  "steamid": 467960,
  "gogid": null,
  "gogslug": "",
  "humblestoreid": "",
  "id": 10593
}