{
  "name": "Classic Fun Collection 5 in 1",
  "slug": "classic-fun-collection-5-in-1",
  "year": null,
  "description": "",
  "banner_url": "https://lutris.net/games/banner/classic-fun-collection-5-in-1.jpg",
  "icon_url": "https://lutris.net/games/icon/classic-fun-collection-5-in-1.png",
  "is_public": true,
  "updated": "2020-10-08T10:14:15.388530Z",
  "provider_games": [
    {
      "name": "Classic Fun Collection 5 in 1",
      "slug": "431300",
      "service": "steam"
    }
  ],
  "steamid": 431300,
  "gogid": null,
  "gogslug": "",
  "humblestoreid": "",
  "id": 18499
}