{
  "name": "Mahjong Daimyojin [BET]",
  "slug": "mahjong-daimyojin-bet",
  "year": 2002,
  "description": "",
  "banner_url": "",
  "icon_url": "https://lutris.net/games/icon/mahjong-daimyojin-bet.png",
  "is_public": true,
  "updated": "2020-05-26T03:35:31.223731Z",
  "provider_games": [
    {
      "name": "Mahjong Daimyojin [BET]",
      "slug": "daimyojn",
      "service": "mame"
    }
  ],
  "steamid": null,
  "gogid": null,
  "gogslug": "",
  "humblestoreid": "",
  "id": 33804
}