{
  "name": "Circle The Wagen",
  "slug": "circle-the-wagen",
  "year": null,
  "description": "",
  "banner_url": "https://lutris.net/games/banner/circle-the-wagen.jpg",
  "icon_url": "https://lutris.net/games/icon/circle-the-wagen.png",
  "is_public": true,
  "updated": "2020-10-08T10:15:39.513026Z",
  "provider_games": [
    {
      "name": "Circle The Wagen",
      "slug": "382710",
      "service": "steam"
    }
  ],
  "steamid": 382710,
  "gogid": null,
  "gogslug": "",
  "humblestoreid": "",
  "id": 15322
}