{
  "name": "Kolibri",
  "slug": "kolibri",
  "year": 1995,
  "description": "Kolibri is a hummingbird hero in this side scrolling shooter. Deep inside the Earth's core, there is a crystal from another world. This crystal is the earth's life force, and essential to it's survival. One day, a dark crystal falls from the sky and damages the Earth's crystal. Desperate, the Earth's crystal rockets to the surface and empowers Kolibri with the abilities he needs to defeat the dark crystal.\r\n\r\nThis game features 19 levels set in a variety of natural settings. Your goal in some levels is to destroy enemy bugs, in others your goal is to merely survive.",
  "banner_url": "https://lutris.net/games/banner/kolibri.jpg",
  "icon_url": "",
  "is_public": true,
  "updated": "2019-01-23T08:30:06.489795Z",
  "provider_games": [],
  "steamid": null,
  "gogid": null,
  "gogslug": "",
  "humblestoreid": "",
  "id": 11044
}