{
  "id": 22169,
  "game_id": 37661,
  "game_slug": "timeout",
  "name": "TimeOut",
  "year": 2020,
  "user": "Feneric",
  "runner": "linux",
  "slug": "timeout-itchio",
  "version": "itch.io",
  "description": "This is for \"TimeOut\", available from itch.io (and part of the wildly popular \"Bundle for Racial Justice and Equality\" as well as other bundles and direct purchase).",
  "notes": "The downloaded installer will probably look something like 'TimeOut_Linux.zip'.",
  "created_at": "2020-07-06T03:40:29.525049Z",
  "updated_at": "2020-07-06T03:40:29.525077Z",
  "draft": false,
  "published": false,
  "published_by": null,
  "rating": "",
  "steamid": null,
  "gogid": null,
  "gogslug": "",
  "humbleid": "",
  "humblestoreid": "",
  "humblestoreid_real": "",
  "script": {
    "files": [
      {
        "itchio_archive": "N/A:Please select the installer downloaded from 'https://itch.io/'."
      }
    ],
    "game": {
      "exe": "TimeOut_Linux.x86_64",
      "working_dir": "$GAMEDIR"
    },
    "installer": [
      {
        "extract": {
          "dst": "$GAMEDIR",
          "file": "itchio_archive"
        }
      },
      {
        "chmodx": "$GAMEDIR/TimeOut_Linux.x86_64"
      }
    ]
  },
  "content": "files:\n- itchio_archive: N/A:Please select the installer downloaded from 'https://itch.io/'.\ngame:\n  exe: TimeOut_Linux.x86_64\n  working_dir: $GAMEDIR\ninstaller:\n- extract:\n    dst: $GAMEDIR\n    file: itchio_archive\n- chmodx: $GAMEDIR/TimeOut_Linux.x86_64\n"
}