{
  "name": "Army Men RTS",
  "slug": "army-men-rts",
  "year": 2002,
  "description": "Army Men RTS brings you back to the days of staging battles with tiny plastic soldiers in your backyard...except these green soldiers carry out your every command!",
  "banner_url": "https://lutris.net/games/banner/army-men-rts.jpg",
  "icon_url": "",
  "is_public": true,
  "updated": "2020-05-31T00:17:34.815742Z",
  "provider_games": [
    {
      "name": "Army Men RTS",
      "slug": "1932981761",
      "service": "gog"
    },
    {
      "name": "Army Men RTS",
      "slug": "694500",
      "service": "steam"
    }
  ],
  "steamid": 694500,
  "gogid": 1932981761,
  "gogslug": "army_men_rts",
  "humblestoreid": "",
  "id": 16604
}