{
  "name": "Knights and Merchants: The Peasants Rebellion",
  "slug": "knights-and-merchants-the-peasants-rebellion",
  "year": 2001,
  "description": "",
  "banner_url": "https://lutris.net/games/banner/knights-and-merchants-the-peasants-rebellion.jpg",
  "icon_url": "",
  "is_public": true,
  "updated": "2020-05-31T00:17:46.818212Z",
  "provider_games": [
    {
      "name": "Knights and Merchants: The Peasants Rebellion",
      "slug": "1207658772",
      "service": "gog"
    }
  ],
  "steamid": null,
  "gogid": 1207658772,
  "gogslug": "knights_and_merchants_the_peasants_rebellion",
  "humblestoreid": "",
  "id": 23864
}