{
  "name": "Bloodwood Reload",
  "slug": "bloodwood-reload",
  "year": null,
  "description": "",
  "banner_url": "https://lutris.net/games/banner/bloodwood-reload.jpg",
  "icon_url": "https://lutris.net/games/icon/bloodwood-reload.png",
  "is_public": true,
  "updated": "2020-10-08T10:16:35.259531Z",
  "provider_games": [
    {
      "name": "Bloodwood Reload",
      "slug": "350990",
      "service": "steam"
    }
  ],
  "steamid": 350990,
  "gogid": null,
  "gogslug": "",
  "humblestoreid": "",
  "id": 6021
}