{
  "name": "LiveSplit",
  "slug": "livesplit",
  "year": null,
  "description": "LiveSplit is a timer program for speedrunners that is both easy to use and full of features.",
  "banner_url": "https://lutris.net/games/banner/livesplit.jpg",
  "icon_url": "https://lutris.net/games/icon/livesplit.png",
  "is_public": true,
  "updated": "2019-05-05T05:50:14.309179Z",
  "provider_games": [],
  "steamid": null,
  "gogid": null,
  "gogslug": "",
  "humblestoreid": "",
  "id": 27181
}