{
  "name": "2D Neon Cube",
  "slug": "2d-neon-cube",
  "year": null,
  "description": "",
  "banner_url": "https://lutris.net/games/banner/2d-neon-cube.jpg",
  "icon_url": "https://lutris.net/games/icon/2d-neon-cube.png",
  "is_public": true,
  "updated": "2020-10-08T10:00:56.288480Z",
  "provider_games": [
    {
      "name": "2D Neon Cube",
      "slug": "701720",
      "service": "steam"
    }
  ],
  "steamid": 701720,
  "gogid": null,
  "gogslug": "",
  "humblestoreid": "",
  "id": 17083
}