{
  "id": 6124,
  "game_id": 360,
  "game_slug": "anomaly-korea",
  "name": "Anomaly Korea",
  "year": 2013,
  "user": "FakeShemp",
  "runner": "linux",
  "slug": "anomaly-korea-gamesrepublic",
  "version": "GamesRepublic",
  "description": "",
  "notes": "",
  "created_at": "2017-10-26T14:57:59.231531Z",
  "updated_at": "2017-10-26T15:03:15.136950Z",
  "draft": false,
  "published": true,
  "published_by": null,
  "rating": "",
  "steamid": 251530,
  "gogid": 1207667133,
  "gogslug": "anomaly_korea",
  "humbleid": "anomalykorea_boxart",
  "humblestoreid": "anomalykorea_boxart",
  "humblestoreid_real": "anomalykorea_boxart",
  "script": {
    "exe": "AnomalyKorea",
    "files": [
      {
        "file1": "N/A:Please select the GamesRepublic archive"
      }
    ],
    "installer": [
      {
        "extract": {
          "dst": "$CACHE",
          "file": "$file1"
        }
      },
      {
        "extract": {
          "dst": "$CACHE",
          "file": "$CACHE/AnomalyKorea-Installer",
          "format": "zip"
        }
      },
      {
        "merge": {
          "dst": "$GAMEDIR",
          "src": "$CACHE/data"
        }
      }
    ]
  },
  "content": "exe: AnomalyKorea\nfiles:\n- file1: N/A:Please select the GamesRepublic archive\ninstaller:\n- extract:\n    dst: $CACHE\n    file: $file1\n- extract:\n    dst: $CACHE\n    file: $CACHE/AnomalyKorea-Installer\n    format: zip\n- merge:\n    dst: $GAMEDIR\n    src: $CACHE/data\n"
}