{
  "name": "How About Spikes",
  "slug": "how-about-spikes",
  "year": 2018,
  "description": "Find yourself in a world, where you explore unknown areas, hazards and enemies.\r\nHelp marcus get back his magic abilities to defeat the evil pirate captain!\r\nFind lost people on your journey and help them out of their situation to get \r\nloot and other rewards. Upgrade your equipment and gather rings, \r\nwhich boost your abilities, to survive even the thoughest enemies.\r\n\r\nUse your scythe to attack enemies and to defend yourself. But a simple scythe has more usage than you think. Throw the scythe against a wall and jump on it to get an additional jump. Throw it in mid-air to get a temporal speed boost. Combine this with all of your other movement techniques to beat this ending world with style!",
  "banner_url": "https://lutris.net/games/banner/how-about-spikes.jpg",
  "icon_url": "",
  "is_public": false,
  "updated": "2020-10-03T12:34:24.345422Z",
  "provider_games": [],
  "steamid": null,
  "gogid": null,
  "gogslug": "",
  "humblestoreid": "",
  "id": 39630
}