{
  "name": "Golden Sun: The Lost Age",
  "slug": "golden-sun-the-lost-age",
  "year": 2003,
  "description": "",
  "banner_url": "https://lutris.net/games/banner/golden-sun-the-lost-age.jpg",
  "icon_url": "",
  "is_public": true,
  "updated": "2019-01-23T08:29:41.263801Z",
  "provider_games": [],
  "steamid": null,
  "gogid": null,
  "gogslug": "",
  "humblestoreid": "",
  "id": 22204
}