{
  "name": "9 Monkeys of Shaolin: Prologue",
  "slug": "9-monkeys-of-shaolin-prologue",
  "year": null,
  "description": "",
  "banner_url": "https://lutris.net/games/banner/9-monkeys-of-shaolin-prologue.jpg",
  "icon_url": "https://lutris.net/games/icon/9-monkeys-of-shaolin-prologue.png",
  "is_public": false,
  "updated": "2020-10-24T05:17:11.490913Z",
  "provider_games": [],
  "steamid": 1425880,
  "gogid": null,
  "gogslug": "",
  "humblestoreid": "",
  "id": 39971
}