{
  "name": "Demon King Domination: Deluxe Edition",
  "slug": "demon-king-domination-deluxe-edition",
  "year": 2018,
  "description": "Malos, the evil ruler of the demon realm, declares war on humanity, spreading death and destruction with his army.\r\n\r\nPrincess Dianne, the fiercest warrior of humankind, sets off on a quest to kill him.\r\n\r\nOne will be victorious, and the other will face humiliation and defeat...",
  "banner_url": "https://lutris.net/games/banner/demon-king-domination-deluxe-edition.jpg",
  "icon_url": "https://lutris.net/games/icon/demon-king-domination-deluxe-edition.png",
  "is_public": true,
  "updated": "2019-05-04T13:04:16.243925Z",
  "provider_games": [
    {
      "name": "Demon King Domination: Deluxe Edition",
      "slug": "921530",
      "service": "steam"
    }
  ],
  "steamid": 921530,
  "gogid": null,
  "gogslug": "",
  "humblestoreid": "",
  "id": 26315
}