{
  "name": "Block N Load PTR",
  "slug": "block-n-load-ptr",
  "year": null,
  "description": "",
  "banner_url": "https://lutris.net/games/banner/block-n-load-ptr.jpg",
  "icon_url": "https://lutris.net/games/icon/block-n-load-ptr.png",
  "is_public": true,
  "updated": "2020-10-08T10:14:30.942251Z",
  "provider_games": [
    {
      "name": "Block N Load PTR",
      "slug": "421730",
      "service": "steam"
    }
  ],
  "steamid": 421730,
  "gogid": null,
  "gogslug": "",
  "humblestoreid": "",
  "id": 8038
}