{
  "name": "Gamma Bros 1.5",
  "slug": "gamma-bros-15",
  "year": null,
  "description": "",
  "banner_url": "https://lutris.net/games/banner/gamma-bros-15.jpg",
  "icon_url": "https://lutris.net/games/icon/gamma-bros-15.png",
  "is_public": true,
  "updated": "2020-10-08T10:14:05.147739Z",
  "provider_games": [
    {
      "name": "Gamma Bros",
      "slug": "436470",
      "service": "steam"
    }
  ],
  "steamid": 436470,
  "gogid": null,
  "gogslug": "",
  "humblestoreid": "",
  "id": 13603
}