{
  "id": 15581,
  "game_id": 2037,
  "game_slug": "simon-the-sorcerer",
  "name": "Simon the Sorcerer",
  "year": 1994,
  "user": "appoloin",
  "runner": "scummvm",
  "slug": "simon-the-sorcerer-ms-dos",
  "version": "MS-DOS",
  "description": null,
  "notes": "",
  "created_at": "2019-09-15T16:28:21.621000Z",
  "updated_at": "2020-07-27T18:04:40.813923Z",
  "draft": false,
  "published": true,
  "published_by": 20548,
  "rating": "",
  "steamid": null,
  "gogid": 2134529414,
  "gogslug": "simon_the_sorcerer",
  "humbleid": "",
  "humblestoreid": "",
  "humblestoreid_real": "",
  "script": {
    "files": [
      {
        "game": "N/A:Select the file ICON.DAT"
      }
    ],
    "game": {
      "game_id": "simon1",
      "path": "$GAMEDIR"
    },
    "installer": [
      {
        "write_file": {
          "content": "#!/bin/bash\nsrc=$1\ndst=$2\nsrc_path=$(echo \"$1\" | sed -r \"s/(.+)\\/.+/\\1/\")\ncp -avr \"$src_path/.\"  \"$dst\"",
          "file": "$CACHE/bulkcopy.sh"
        }
      },
      {
        "chmodx": "$CACHE/bulkcopy.sh"
      },
      {
        "execute": {
          "args": "$game $GAMEDIR",
          "file": "$CACHE/bulkcopy.sh"
        }
      }
    ],
    "scummvm": {
      "fullscreen": true
    }
  },
  "content": "files:\n- game: N/A:Select the file ICON.DAT\ngame:\n  game_id: simon1\n  path: $GAMEDIR\ninstaller:\n- write_file:\n    content: '#!/bin/bash\n\n      src=$1\n\n      dst=$2\n\n      src_path=$(echo \"$1\" | sed -r \"s/(.+)\\/.+/\\1/\")\n\n      cp -avr \"$src_path/.\"  \"$dst\"'\n    file: $CACHE/bulkcopy.sh\n- chmodx: $CACHE/bulkcopy.sh\n- execute:\n    args: $game $GAMEDIR\n    file: $CACHE/bulkcopy.sh\nscummvm:\n  fullscreen: true\n"
}