{
  "name": "Cars",
  "slug": "cars",
  "year": null,
  "description": "",
  "banner_url": "https://lutris.net/games/banner/cars.jpg",
  "icon_url": "https://lutris.net/games/icon/cars.png",
  "is_public": true,
  "updated": "2020-10-08T09:19:34.028634Z",
  "provider_games": [
    {
      "name": "Cars",
      "slug": "331160",
      "service": "steam"
    }
  ],
  "steamid": 331160,
  "gogid": null,
  "gogslug": "",
  "humblestoreid": "",
  "id": 18483
}