{
  "name": "Iron Armada",
  "slug": "iron-armada",
  "year": null,
  "description": "",
  "banner_url": "https://lutris.net/games/banner/iron-armada.jpg",
  "icon_url": "https://lutris.net/games/icon/iron-armada.png",
  "is_public": true,
  "updated": "2020-10-08T10:04:51.958611Z",
  "provider_games": [
    {
      "name": "Iron Armada",
      "slug": "581910",
      "service": "steam"
    }
  ],
  "steamid": 581910,
  "gogid": null,
  "gogslug": "",
  "humblestoreid": "",
  "id": 24506
}