{
  "name": "Base Defense",
  "slug": "base-defense",
  "year": null,
  "description": "",
  "banner_url": "https://lutris.net/games/banner/base-defense.jpg",
  "icon_url": "https://lutris.net/games/icon/base-defense.png",
  "is_public": true,
  "updated": "2020-10-08T10:03:12.435508Z",
  "provider_games": [
    {
      "name": "Base Defense",
      "slug": "632730",
      "service": "steam"
    }
  ],
  "steamid": 632730,
  "gogid": null,
  "gogslug": "",
  "humblestoreid": "",
  "id": 15404
}