{
  "name": "Kkot Bi Nyo Special",
  "slug": "kkot-bi-nyo-special",
  "year": 1997,
  "description": "",
  "banner_url": "",
  "icon_url": "https://lutris.net/games/icon/kkot-bi-nyo-special.png",
  "is_public": true,
  "updated": "2020-05-26T03:35:03.513867Z",
  "provider_games": [
    {
      "name": "Kkot Bi Nyo Special",
      "slug": "kotbinsp",
      "service": "mame"
    }
  ],
  "steamid": null,
  "gogid": null,
  "gogslug": "",
  "humblestoreid": "",
  "id": 34661
}