{
  "name": "Island Saver",
  "slug": "island-saver",
  "year": null,
  "description": "",
  "banner_url": "https://lutris.net/games/banner/island-saver.jpg",
  "icon_url": "https://lutris.net/games/icon/island-saver.png",
  "is_public": true,
  "updated": "2020-10-08T09:18:18.428329Z",
  "provider_games": [
    {
      "name": "Island Saver",
      "slug": "1210250",
      "service": "steam"
    }
  ],
  "steamid": 1210250,
  "gogid": null,
  "gogslug": "",
  "humblestoreid": "",
  "id": 38562
}