{
  "name": "ES Games",
  "slug": "es-games",
  "year": null,
  "description": "",
  "banner_url": "https://lutris.net/games/banner/es-games.jpg",
  "icon_url": "https://lutris.net/games/icon/es-games.png",
  "is_public": false,
  "updated": "2019-01-23T08:29:25.311702Z",
  "provider_games": [],
  "steamid": 802560,
  "gogid": null,
  "gogslug": "",
  "humblestoreid": "",
  "id": 19651
}