{
  "name": "Jones On Fire",
  "slug": "jones-on-fire",
  "year": null,
  "description": "",
  "banner_url": "https://lutris.net/games/banner/jones-on-fire.jpg",
  "icon_url": "https://lutris.net/games/icon/jones-on-fire.png",
  "is_public": true,
  "updated": "2019-01-23T08:30:01.066168Z",
  "provider_games": [
    {
      "name": "Jones On Fire",
      "slug": "270810",
      "service": "steam"
    }
  ],
  "steamid": 270810,
  "gogid": null,
  "gogslug": "",
  "humblestoreid": "",
  "id": 4134
}