{
  "name": "Alien Invaders - Plus!",
  "slug": "alien-invaders-plus",
  "year": 1980,
  "description": "Starring the Merciless Monstroths! These tentacled terrors from the stars command ruthless robot invasion forces as they come relentlessly closer to Earth. You’re almost hopelessly outnumbered and outgunned. It will take strategy, dexterity and the most exquisite timing to even come close to winning this battle against overwhelming odds. This is— without question—one of the most challenging, exciting and demanding electronic games ever invented!",
  "banner_url": "https://lutris.net/games/banner/alien-invaders-plus.jpg",
  "icon_url": "",
  "is_public": true,
  "updated": "2020-05-17T08:56:11.030477Z",
  "provider_games": [],
  "steamid": null,
  "gogid": null,
  "gogslug": "",
  "humblestoreid": "",
  "id": 33151
}