{
  "name": "Florence",
  "slug": "florence",
  "year": null,
  "description": "",
  "banner_url": "https://lutris.net/games/banner/florence.jpg",
  "icon_url": "https://lutris.net/games/icon/florence.png",
  "is_public": true,
  "updated": "2020-10-08T10:11:31.359783Z",
  "provider_games": [
    {
      "name": "Florence",
      "slug": "2136916695",
      "service": "gog"
    },
    {
      "name": "Florence",
      "slug": "1102130",
      "service": "steam"
    }
  ],
  "steamid": 1102130,
  "gogid": 2136916695,
  "gogslug": "florence",
  "humblestoreid": "",
  "id": 31840
}