{
  "name": "Bagman",
  "slug": "bagman",
  "year": 1982,
  "description": "Bagman is an Action game, developed by Valadon Automation and published by Stern, which was released in 1982.",
  "banner_url": "https://lutris.net/games/banner/bagman.jpg",
  "icon_url": "https://lutris.net/games/icon/bagman.png",
  "is_public": true,
  "updated": "2020-05-26T03:32:01.933878Z",
  "provider_games": [
    {
      "name": "Bagman",
      "slug": "bagman",
      "service": "mame"
    }
  ],
  "steamid": null,
  "gogid": null,
  "gogslug": "",
  "humblestoreid": "",
  "id": 29388
}