{
  "name": "Free Kick",
  "slug": "free-kick",
  "year": 1987,
  "description": "",
  "banner_url": "https://lutris.net/games/banner/free-kick.jpg",
  "icon_url": "https://lutris.net/games/icon/free-kick.png",
  "is_public": true,
  "updated": "2020-05-26T03:33:52.997162Z",
  "provider_games": [
    {
      "name": "Free Kick",
      "slug": "freekick",
      "service": "mame"
    }
  ],
  "steamid": null,
  "gogid": null,
  "gogslug": "",
  "humblestoreid": "",
  "id": 34137
}