{
  "name": "Landlord Simulator",
  "slug": "landlord-simulator",
  "year": null,
  "description": "",
  "banner_url": "https://lutris.net/games/banner/landlord-simulator.jpg",
  "icon_url": "https://lutris.net/games/icon/landlord-simulator.png",
  "is_public": true,
  "updated": "2020-10-08T09:57:44.424078Z",
  "provider_games": [
    {
      "name": "Landlord Simulator",
      "slug": "803310",
      "service": "steam"
    }
  ],
  "steamid": 803310,
  "gogid": null,
  "gogslug": "",
  "humblestoreid": "",
  "id": 31630
}