{
  "name": "Gravitar",
  "slug": "gravitar",
  "year": 1982,
  "description": "",
  "banner_url": "https://lutris.net/games/banner/gravitar.jpg",
  "icon_url": "https://lutris.net/games/icon/gravitar.png",
  "is_public": true,
  "updated": "2020-05-26T03:34:16.208841Z",
  "provider_games": [
    {
      "name": "Gravitar",
      "slug": "gravitar",
      "service": "mame"
    }
  ],
  "steamid": null,
  "gogid": null,
  "gogslug": "",
  "humblestoreid": "",
  "id": 34284
}