{
  "name": "As Far As The Eye",
  "slug": "as-far-as-the-eye",
  "year": 2020,
  "description": "Build a mobile village and travel with your tribe toward the center of the world, called The Eye. This roguelike turn-based resource-management game is made of procedural situations, natural events, skill-trees and hard choices. Ready to move?",
  "banner_url": "https://lutris.net/games/banner/as-far-as-the-eye.jpg",
  "icon_url": "",
  "is_public": false,
  "updated": "2020-10-20T09:17:01.900993Z",
  "provider_games": [],
  "steamid": 1119700,
  "gogid": null,
  "gogslug": "",
  "humblestoreid": "",
  "id": 39844
}