{
  "name": "Europa Universalis: Rome - Vae Victis",
  "slug": "europa-universalis-rome-vae-victis",
  "year": null,
  "description": "",
  "banner_url": "https://lutris.net/games/banner/europa-universalis-rome-vae-victis.jpg",
  "icon_url": "https://lutris.net/games/icon/europa-universalis-rome-vae-victis.png",
  "is_public": true,
  "updated": "2019-01-23T08:29:25.821705Z",
  "provider_games": [
    {
      "name": "Europa Universalis: Rome - Vae Victis",
      "slug": "23440",
      "service": "steam"
    }
  ],
  "steamid": 23440,
  "gogid": null,
  "gogslug": "",
  "humblestoreid": "",
  "id": 1926
}