{
  "name": "Illyriad - 4X Grand Strategy MMO",
  "slug": "illyriad-4x-grand-strategy-mmo",
  "year": null,
  "description": "",
  "banner_url": "https://lutris.net/games/banner/illyriad-4x-grand-strategy-mmo.jpg",
  "icon_url": "https://lutris.net/games/icon/illyriad-4x-grand-strategy-mmo.png",
  "is_public": true,
  "updated": "2020-10-08T10:05:31.842432Z",
  "provider_games": [
    {
      "name": "Illyriad - Grand Strategy MMO",
      "slug": "559310",
      "service": "steam"
    }
  ],
  "steamid": 559310,
  "gogid": null,
  "gogslug": "",
  "humblestoreid": "",
  "id": 16362
}