{
  "name": "Evan's Remains",
  "slug": "evans-remains",
  "year": null,
  "description": "",
  "banner_url": "https://lutris.net/games/banner/evans-remains.jpg",
  "icon_url": "https://lutris.net/games/icon/evans-remains.png",
  "is_public": true,
  "updated": "2020-10-08T10:11:23.898009Z",
  "provider_games": [
    {
      "name": "Evan's Remains",
      "slug": "1110050",
      "service": "steam"
    }
  ],
  "steamid": 1110050,
  "gogid": null,
  "gogslug": "",
  "humblestoreid": "",
  "id": 38002
}