{
  "name": "FlatOut 2",
  "slug": "flatout-2",
  "year": 2006,
  "description": "DRIVING THIS RECKLESS IS NO ACCIDENT!\r\n\r\nBut you might want to cause a few. In these high-speed races, the more damage you inflict, the better. The ultimate in turbo-charged cars and the craziest competitor drivers are waiting to test your best destructive streak. Responsible drivers need not apply.\r\n\r\n* Thousands and thousands of objects to annihilate.\r\n* Mini games gone wild - hurl the driver in these 12 crazy challenges.\r\n* Wreck your way across parched deserts, massive storm drains and narrow city streets.\r\n* Ram your opponents' car and watch them fly through the air - you're here to win!",
  "banner_url": "https://lutris.net/games/banner/flatout-2.jpg",
  "icon_url": "https://lutris.net/games/icon/flatout-2.png",
  "is_public": true,
  "updated": "2020-05-31T00:17:42.651961Z",
  "provider_games": [
    {
      "name": "FlatOut 2",
      "slug": "1207660523",
      "service": "gog"
    },
    {
      "name": "FlatOut 2",
      "slug": "2990",
      "service": "steam"
    }
  ],
  "steamid": 2990,
  "gogid": 1207660523,
  "gogslug": "flatout_2",
  "humblestoreid": "",
  "id": 2052
}