{
  "name": "Dethroned!",
  "slug": "dethroned",
  "year": null,
  "description": "",
  "banner_url": "https://lutris.net/games/banner/dethroned.jpg",
  "icon_url": "https://lutris.net/games/icon/dethroned.png",
  "is_public": true,
  "updated": "2020-10-08T09:20:55.852715Z",
  "provider_games": [
    {
      "name": "Dethroned!",
      "slug": "269390",
      "service": "steam"
    }
  ],
  "steamid": 269390,
  "gogid": null,
  "gogslug": "",
  "humblestoreid": "",
  "id": 2341
}