{
  "name": "Kung Fu Kid",
  "slug": "kung-fu-kid",
  "year": 1987,
  "description": "",
  "banner_url": "https://lutris.net/games/banner/kung-fu-kid.jpg",
  "icon_url": "",
  "is_public": true,
  "updated": "2019-01-23T08:30:06.915566Z",
  "provider_games": [],
  "steamid": null,
  "gogid": null,
  "gogslug": "",
  "humblestoreid": "",
  "id": 13740
}