{
  "name": "Entanglement",
  "slug": "entanglement",
  "year": null,
  "description": "",
  "banner_url": "https://lutris.net/games/banner/entanglement.jpg",
  "icon_url": "https://lutris.net/games/icon/entanglement.png",
  "is_public": true,
  "updated": "2020-10-08T10:00:30.440031Z",
  "provider_games": [
    {
      "name": "Entanglement",
      "slug": "719140",
      "service": "steam"
    }
  ],
  "steamid": 719140,
  "gogid": null,
  "gogslug": "",
  "humblestoreid": "",
  "id": 17177
}