{
  "name": "In Search of the Most Dangerous Town on the Internet",
  "slug": "in-search-of-the-most-dangerous-town-on-the-intern",
  "year": null,
  "description": "",
  "banner_url": "https://lutris.net/games/banner/in-search-of-the-most-dangerous-town-on-the-intern.jpg",
  "icon_url": "https://lutris.net/games/icon/in-search-of-the-most-dangerous-town-on-the-intern.png",
  "is_public": true,
  "updated": "2020-10-08T10:15:42.934831Z",
  "provider_games": [
    {
      "name": "In Search of the Most Dangerous Town on the Internet",
      "slug": "380890",
      "service": "steam"
    }
  ],
  "steamid": 380890,
  "gogid": null,
  "gogslug": "",
  "humblestoreid": "",
  "id": 5158
}