{
  "name": "Helheim",
  "slug": "helheim",
  "year": null,
  "description": "",
  "banner_url": "https://lutris.net/games/banner/helheim.jpg",
  "icon_url": "https://lutris.net/games/icon/helheim.png",
  "is_public": false,
  "updated": "2020-10-30T08:09:48.954776Z",
  "provider_games": [],
  "steamid": 924100,
  "gogid": null,
  "gogslug": "",
  "humblestoreid": "",
  "id": 40070
}