{
  "name": "Blockscape",
  "slug": "blockscape",
  "year": null,
  "description": "",
  "banner_url": "https://lutris.net/games/banner/blockscape.jpg",
  "icon_url": "https://lutris.net/games/icon/blockscape.png",
  "is_public": true,
  "updated": "2020-10-08T09:54:23.901433Z",
  "provider_games": [
    {
      "name": "Blockscape",
      "slug": "223490",
      "service": "steam"
    }
  ],
  "steamid": 223490,
  "gogid": null,
  "gogslug": "",
  "humblestoreid": "",
  "id": 4874
}