{
  "name": "A Sirius Game",
  "slug": "a-sirius-game",
  "year": null,
  "description": "",
  "banner_url": "https://lutris.net/games/banner/a-sirius-game.jpg",
  "icon_url": "https://lutris.net/games/icon/a-sirius-game.png",
  "is_public": true,
  "updated": "2020-10-08T10:15:21.172334Z",
  "provider_games": [
    {
      "name": "A Sirius Game",
      "slug": "392930",
      "service": "steam"
    }
  ],
  "steamid": 392930,
  "gogid": null,
  "gogslug": "",
  "humblestoreid": "",
  "id": 7472
}