{
  "name": "Hentai Neighbors",
  "slug": "hentai-neighbors",
  "year": null,
  "description": "",
  "banner_url": "https://lutris.net/games/banner/hentai-neighbors.jpg",
  "icon_url": "https://lutris.net/games/icon/hentai-neighbors.png",
  "is_public": true,
  "updated": "2020-10-08T09:17:15.594510Z",
  "provider_games": [
    {
      "name": "Hentai Neighbors",
      "slug": "946090",
      "service": "steam"
    }
  ],
  "steamid": 946090,
  "gogid": null,
  "gogslug": "",
  "humblestoreid": "",
  "id": 26225
}