{
  "name": "Captain Forever Trilogy",
  "slug": "captain-forever-trilogy",
  "year": null,
  "description": "",
  "banner_url": "https://lutris.net/games/banner/captain-forever-trilogy.jpg",
  "icon_url": "https://lutris.net/games/icon/captain-forever-trilogy.png",
  "is_public": true,
  "updated": "2019-10-11T01:57:02.937783Z",
  "provider_games": [
    {
      "name": "Captain Forever Trilogy",
      "slug": "758930",
      "service": "steam"
    }
  ],
  "steamid": 758930,
  "gogid": null,
  "gogslug": "",
  "humblestoreid": "",
  "id": 19688
}