{
  "id": 4772,
  "game_id": 910,
  "game_slug": "geneforge-4",
  "name": "Geneforge 4: Rebellion",
  "year": null,
  "user": "FakeShemp",
  "runner": "wine",
  "slug": "geneforge-4-rebellion-humble",
  "version": "Humble",
  "description": "From \"The Geneforge Saga\"",
  "notes": "",
  "created_at": "2017-07-03T14:59:40.404000Z",
  "updated_at": "2018-05-19T03:41:54.896541Z",
  "draft": false,
  "published": true,
  "published_by": null,
  "rating": "",
  "steamid": 201000,
  "gogid": 1207662963,
  "gogslug": "geneforge_4",
  "humbleid": "",
  "humblestoreid": "",
  "humblestoreid_real": "",
  "script": {
    "files": [
      {
        "file1": "N/A:Please select the Humble archive"
      }
    ],
    "game": {
      "arch": "win32",
      "exe": "drive_c/Program Files/Spiderweb Software/Geneforge 4/Geneforge 4 - Rebellion.exe",
      "prefix": "$GAMEDIR"
    },
    "installer": [
      {
        "extract": {
          "dst": "$CACHE",
          "file": "$file1"
        }
      },
      {
        "task": {
          "executable": "$CACHE/Geneforge4Fullv10.exe",
          "name": "wineexec",
          "prefix": "$GAMEDIR"
        }
      }
    ]
  },
  "content": "files:\n- file1: N/A:Please select the Humble archive\ngame:\n  arch: win32\n  exe: drive_c/Program Files/Spiderweb Software/Geneforge 4/Geneforge 4 - Rebellion.exe\n  prefix: $GAMEDIR\ninstaller:\n- extract:\n    dst: $CACHE\n    file: $file1\n- task:\n    executable: $CACHE/Geneforge4Fullv10.exe\n    name: wineexec\n    prefix: $GAMEDIR\n"
}