{
  "name": "Fast Beat Loop Racer GT",
  "slug": "fast-beat-loop-racer-gt",
  "year": null,
  "description": "",
  "banner_url": "https://lutris.net/games/banner/fast-beat-loop-racer-gt.jpg",
  "icon_url": "https://lutris.net/games/icon/fast-beat-loop-racer-gt.png",
  "is_public": true,
  "updated": "2020-10-08T10:03:12.883095Z",
  "provider_games": [
    {
      "name": "Fast Beat Loop Racer GT",
      "slug": "633110",
      "service": "steam"
    }
  ],
  "steamid": 633110,
  "gogid": null,
  "gogslug": "",
  "humblestoreid": "",
  "id": 20682
}