{
  "name": "Battle Realms: Zen Edition",
  "slug": "battle-realms-zen-edition",
  "year": null,
  "description": "",
  "banner_url": "https://lutris.net/games/banner/battle-realms-zen-edition.jpg",
  "icon_url": "https://lutris.net/games/icon/battle-realms-zen-edition.png",
  "is_public": true,
  "updated": "2020-10-08T10:12:54.152859Z",
  "provider_games": [
    {
      "name": "Battle Realms: Zen Edition",
      "slug": "1025600",
      "service": "steam"
    }
  ],
  "steamid": 1025600,
  "gogid": null,
  "gogslug": "",
  "humblestoreid": "",
  "id": 32047
}