{
  "name": "JQ: dogs & cats",
  "slug": "jq-dogs-cats",
  "year": null,
  "description": "",
  "banner_url": "https://lutris.net/games/banner/jq-dogs-cats.jpg",
  "icon_url": "https://lutris.net/games/icon/jq-dogs-cats.png",
  "is_public": true,
  "updated": "2020-10-08T10:08:48.597400Z",
  "provider_games": [
    {
      "name": "JQ: dogs & cats",
      "slug": "816250",
      "service": "steam"
    }
  ],
  "steamid": 816250,
  "gogid": null,
  "gogslug": "",
  "humblestoreid": "",
  "id": 22051
}