{
  "name": "Eddy Violet",
  "slug": "eddy-violet",
  "year": null,
  "description": "",
  "banner_url": "https://lutris.net/games/banner/eddy-violet.jpg",
  "icon_url": "https://lutris.net/games/icon/eddy-violet.png",
  "is_public": true,
  "updated": "2020-10-08T10:09:29.288233Z",
  "provider_games": [
    {
      "name": "Eddy Violet",
      "slug": "662990",
      "service": "steam"
    }
  ],
  "steamid": 662990,
  "gogid": null,
  "gogslug": "",
  "humblestoreid": "",
  "id": 24637
}