{
  "id": 21159,
  "game_id": 911,
  "game_slug": "geneforge-5",
  "name": "Geneforge 5: Overthrow",
  "year": null,
  "user": "appoloin",
  "runner": "wine",
  "slug": "geneforge-5-overthrow-gog",
  "version": "GOG",
  "description": null,
  "notes": "",
  "created_at": "2020-06-02T17:11:56.335000Z",
  "updated_at": "2020-06-10T07:17:43.009078Z",
  "draft": false,
  "published": true,
  "published_by": 20548,
  "rating": "",
  "steamid": 201010,
  "gogid": 1207662973,
  "gogslug": "geneforge_5",
  "humbleid": "",
  "humblestoreid": "",
  "humblestoreid_real": "",
  "script": {
    "files": [
      {
        "setup": "N/A:Select installer"
      }
    ],
    "game": {
      "arch": "win32",
      "exe": "$GAMEDIR/drive_c/GOG Games/Geneforge 5 - Overthrow/Geneforge 5.exe",
      "prefix": "$GAMEDIR"
    },
    "installer": [
      {
        "task": {
          "arch": "win32",
          "install_gecko": false,
          "install_mono": false,
          "name": "create_prefix",
          "prefix": "$GAMEDIR"
        }
      },
      {
        "task": {
          "executable": "$setup",
          "name": "wineexec",
          "prefix": "$GAMEDIR"
        }
      }
    ],
    "wine": {
      "Desktop": true
    }
  },
  "content": "files:\n- setup: N/A:Select installer\ngame:\n  arch: win32\n  exe: $GAMEDIR/drive_c/GOG Games/Geneforge 5 - Overthrow/Geneforge 5.exe\n  prefix: $GAMEDIR\ninstaller:\n- task:\n    arch: win32\n    install_gecko: false\n    install_mono: false\n    name: create_prefix\n    prefix: $GAMEDIR\n- task:\n    executable: $setup\n    name: wineexec\n    prefix: $GAMEDIR\nwine:\n  Desktop: true\n"
}