{
  "id": 9899,
  "game_id": 18021,
  "game_slug": "heroes-of-might-and-magic-ii",
  "name": "Heroes of Might and Magic II",
  "year": 1996,
  "user": "BadThwomp",
  "runner": "dosbox",
  "slug": "heroes-of-might-and-magic-ii-gog-1",
  "version": "GOG",
  "description": null,
  "notes": "",
  "created_at": "2018-08-26T12:51:42.582965Z",
  "updated_at": "2020-06-28T23:52:38.791867Z",
  "draft": false,
  "published": true,
  "published_by": null,
  "rating": "",
  "steamid": null,
  "gogid": 1207658785,
  "gogslug": "heroes_of_might_and_magic_2_gold_edition",
  "humbleid": "",
  "humblestoreid": "",
  "humblestoreid_real": "",
  "script": {
    "files": [
      {
        "file1": "N/A:Please select the GOG installer"
      },
      {
        "file2": "https://lutris.nyc3.digitaloceanspaces.com/tools/innoextract/innoextract-1.8-dev-2019-01-13-linux.tar.xz"
      }
    ],
    "game": {
      "config_file": "$GAMEDIR/dosboxhomm2.conf"
    },
    "installer": [
      {
        "extract": {
          "dst": "$CACHE",
          "file": "$file2"
        }
      },
      {
        "execute": {
          "args": "-d \"$CACHE\" \"$file1\"",
          "file": "$CACHE/innoextract"
        }
      },
      {
        "merge": {
          "dst": "$GAMEDIR",
          "src": "$CACHE/app"
        }
      }
    ],
    "main_file": "DOSBOX/dosboxhomm2_single.conf"
  },
  "content": "files:\n- file1: N/A:Please select the GOG installer\n- file2: https://lutris.nyc3.digitaloceanspaces.com/tools/innoextract/innoextract-1.8-dev-2019-01-13-linux.tar.xz\ngame:\n  config_file: $GAMEDIR/dosboxhomm2.conf\ninstaller:\n- extract:\n    dst: $CACHE\n    file: $file2\n- execute:\n    args: -d \"$CACHE\" \"$file1\"\n    file: $CACHE/innoextract\n- merge:\n    dst: $GAMEDIR\n    src: $CACHE/app\nmain_file: DOSBOX/dosboxhomm2_single.conf\n"
}