{
  "name": "KnightShift",
  "slug": "knightshift",
  "year": 2003,
  "description": "",
  "banner_url": "https://lutris.net/games/banner/knightshift.jpg",
  "icon_url": "https://lutris.net/games/icon/knightshift.png",
  "is_public": true,
  "updated": "2019-10-11T00:40:32.509752Z",
  "provider_games": [
    {
      "name": "KnightShift",
      "slug": "254060",
      "service": "steam"
    }
  ],
  "steamid": 254060,
  "gogid": null,
  "gogslug": "",
  "humblestoreid": "",
  "id": 1212
}