{
  "name": "Contradiction - the all-video murder mystery adventure",
  "slug": "contradiction-the-all-video-murder-mystery-adventu",
  "year": null,
  "description": "",
  "banner_url": "https://lutris.net/games/banner/contradiction-the-all-video-murder-mystery-adventu.jpg",
  "icon_url": "https://lutris.net/games/icon/contradiction-the-all-video-murder-mystery-adventu.png",
  "is_public": true,
  "updated": "2020-10-08T10:15:55.520942Z",
  "provider_games": [
    {
      "name": "Contradiction - the all-video murder mystery adventure",
      "slug": "373390",
      "service": "steam"
    }
  ],
  "steamid": 373390,
  "gogid": null,
  "gogslug": "",
  "humblestoreid": "",
  "id": 5715
}