{
  "name": "Blind",
  "slug": "blind",
  "year": null,
  "description": "",
  "banner_url": "https://lutris.net/games/banner/blind.jpg",
  "icon_url": "https://lutris.net/games/icon/blind.png",
  "is_public": true,
  "updated": "2020-10-08T10:14:55.935842Z",
  "provider_games": [
    {
      "name": "Blind",
      "slug": "406860",
      "service": "steam"
    }
  ],
  "steamid": 406860,
  "gogid": null,
  "gogslug": "",
  "humblestoreid": "",
  "id": 38641
}