{
  "name": "Garshasp: The Monster Slayer",
  "slug": "garshasp-the-monster-slayer",
  "year": null,
  "description": "",
  "banner_url": "https://lutris.net/games/banner/garshasp-the-monster-slayer.jpg",
  "icon_url": "https://lutris.net/games/icon/garshasp-the-monster-slayer.png",
  "is_public": true,
  "updated": "2020-10-08T10:01:23.355878Z",
  "provider_games": [
    {
      "name": "Garshasp: The Monster Slayer",
      "slug": "99400",
      "service": "steam"
    }
  ],
  "steamid": 99400,
  "gogid": null,
  "gogslug": "",
  "humblestoreid": "",
  "id": 783
}