{
  "name": "Christmastry 2",
  "slug": "christmastry-2",
  "year": null,
  "description": "",
  "banner_url": "https://lutris.net/games/banner/christmastry-2.jpg",
  "icon_url": "https://lutris.net/games/icon/christmastry-2.png",
  "is_public": false,
  "updated": "2019-01-23T08:28:52.285691Z",
  "provider_games": [],
  "steamid": 697790,
  "gogid": null,
  "gogslug": "",
  "humblestoreid": "",
  "id": 21261
}