{
  "name": "Doodle God",
  "slug": "doodle-god",
  "year": null,
  "description": "",
  "banner_url": "https://lutris.net/games/banner/doodle-god.jpg",
  "icon_url": "https://lutris.net/games/icon/doodle-god.png",
  "is_public": true,
  "updated": "2020-08-15T23:50:34.547096Z",
  "provider_games": [
    {
      "name": "Doodle God",
      "slug": "doodlegod",
      "service": "humblebundle"
    },
    {
      "name": "Doodle God",
      "slug": "348360",
      "service": "steam"
    }
  ],
  "steamid": 348360,
  "gogid": null,
  "gogslug": "",
  "humblestoreid": "doodlegod",
  "id": 5318
}