{
  "id": 4267,
  "game_id": 11683,
  "game_slug": "i-am-level",
  "name": "I Am Level",
  "year": 2015,
  "user": "FakeShemp",
  "runner": "linux",
  "slug": "i-am-level-itchio",
  "version": "itch.io",
  "description": "",
  "notes": "",
  "created_at": "2017-06-10T15:32:40.443000Z",
  "updated_at": "2017-06-11T00:24:35.352419Z",
  "draft": false,
  "published": true,
  "published_by": null,
  "rating": "",
  "steamid": null,
  "gogid": null,
  "gogslug": "",
  "humbleid": "",
  "humblestoreid": "",
  "humblestoreid_real": "",
  "script": {
    "exe": "IAmLevel.x86",
    "files": [
      {
        "file1": "N/A:Please select the itch.io archive"
      }
    ],
    "installer": [
      {
        "extract": {
          "dst": "$CACHE",
          "file": "$file1"
        }
      },
      {
        "merge": {
          "dst": "$GAMEDIR",
          "src": "$CACHE/Linux"
        }
      }
    ]
  },
  "content": "exe: IAmLevel.x86\nfiles:\n- file1: N/A:Please select the itch.io archive\ninstaller:\n- extract:\n    dst: $CACHE\n    file: $file1\n- merge:\n    dst: $GAMEDIR\n    src: $CACHE/Linux\n"
}