{
  "name": "Last Survivor",
  "slug": "last-survivor-1",
  "year": 1989,
  "description": "",
  "banner_url": "",
  "icon_url": "https://lutris.net/games/icon/last-survivor-1.png",
  "is_public": true,
  "updated": "2020-05-26T03:35:12.856778Z",
  "provider_games": [
    {
      "name": "Last Survivor",
      "slug": "lastsurv",
      "service": "mame"
    }
  ],
  "steamid": null,
  "gogid": null,
  "gogslug": "",
  "humblestoreid": "",
  "id": 34701
}