{
  "name": "Bubble Bobble also featuring Rainbow Islands",
  "slug": "bubble-bobble-also-featuring-rainbow-islands",
  "year": 1996,
  "description": "THE LOST GENERATION OF GAMING.\r\n\r\nFor the next generation.\r\n\r\n *   TERRIFYING MONSTERS! SEMI-REALISTIC GRAPHICS!\r\n *   100 TOTALLY LINEAR LEVELS.\r\n *  100% RENDERED BLACK VOID.\r\n *   3-D'ISH BALLOONS WITH SINGLE LIGHT SOURCING!\r\n *   STUFFED WITH PURE ADDICTIVE GAMING NECTAR.\r\n *   YOU ARE 6 PIXELS OF BUBBLE-BLASTING DINOSAUR WITH AN ATTITUDE! \r\n\r\n2 classic arcade games in 1\r\n\r\nBubble Bobble\r\nalso featuring Rainbow Islands",
  "banner_url": "https://lutris.net/games/banner/bubble-bobble-also-featuring-rainbow-islands.jpg",
  "icon_url": "",
  "is_public": true,
  "updated": "2019-01-23T08:28:42.765165Z",
  "provider_games": [],
  "steamid": null,
  "gogid": null,
  "gogslug": "",
  "humblestoreid": "",
  "id": 19149
}