{
  "name": "Cosmic Avenger",
  "slug": "cosmic-avenger",
  "year": 1981,
  "description": "",
  "banner_url": "https://lutris.net/games/banner/cosmic-avenger.jpg",
  "icon_url": "https://lutris.net/games/icon/cosmic-avenger.png",
  "is_public": true,
  "updated": "2020-05-26T03:32:55.657052Z",
  "provider_games": [
    {
      "name": "Cosmic Avenger",
      "slug": "cavenger",
      "service": "mame"
    }
  ],
  "steamid": null,
  "gogid": null,
  "gogslug": "",
  "humblestoreid": "",
  "id": 33612
}