{
  "name": "Good Game",
  "slug": "good-game",
  "year": null,
  "description": "",
  "banner_url": "https://lutris.net/games/banner/good-game.jpg",
  "icon_url": "https://lutris.net/games/icon/good-game.png",
  "is_public": true,
  "updated": "2020-10-08T10:15:39.211992Z",
  "provider_games": [
    {
      "name": "Good Game",
      "slug": "1207665421",
      "service": "gog"
    },
    {
      "name": "Good Game",
      "slug": "382620",
      "service": "steam"
    }
  ],
  "steamid": 382620,
  "gogid": 1207665421,
  "gogslug": "good_game",
  "humblestoreid": "",
  "id": 6977
}