{
  "name": "Defense the Farm",
  "slug": "defense-the-farm",
  "year": null,
  "description": "",
  "banner_url": "https://lutris.net/games/banner/defense-the-farm.jpg",
  "icon_url": "https://lutris.net/games/icon/defense-the-farm.png",
  "is_public": true,
  "updated": "2020-10-08T09:56:50.481221Z",
  "provider_games": [
    {
      "name": "Defense the Farm",
      "slug": "866520",
      "service": "steam"
    }
  ],
  "steamid": 866520,
  "gogid": null,
  "gogslug": "",
  "humblestoreid": "",
  "id": 24792
}