{
  "name": "Anodyne 2: Return to Dust",
  "slug": "anodyne-2-return-to-dust",
  "year": null,
  "description": "",
  "banner_url": "https://lutris.net/games/banner/anodyne-2-return-to-dust.jpg",
  "icon_url": "https://lutris.net/games/icon/anodyne-2-return-to-dust.png",
  "is_public": true,
  "updated": "2020-10-08T09:56:38.782338Z",
  "provider_games": [
    {
      "name": "Anodyne 2: Return to Dust",
      "slug": "1092487258",
      "service": "gog"
    },
    {
      "name": "Anodyne 2: Return to Dust",
      "slug": "877810",
      "service": "steam"
    }
  ],
  "steamid": 877810,
  "gogid": 1092487258,
  "gogslug": "anodyne_2_return_to_dust",
  "humblestoreid": "",
  "id": 29464
}