{
  "name": "Great Hunt: North America",
  "slug": "great-hunt-north-america",
  "year": null,
  "description": "",
  "banner_url": "https://lutris.net/games/banner/great-hunt-north-america.jpg",
  "icon_url": "https://lutris.net/games/icon/great-hunt-north-america.png",
  "is_public": true,
  "updated": "2020-10-08T09:58:06.360987Z",
  "provider_games": [
    {
      "name": "Great Hunt: North America",
      "slug": "785670",
      "service": "steam"
    }
  ],
  "steamid": 785670,
  "gogid": null,
  "gogslug": "",
  "humblestoreid": "",
  "id": 22103
}