{
  "name": "Dungeon Hunter Champions",
  "slug": "dungeon-hunter-champions",
  "year": null,
  "description": "",
  "banner_url": "https://lutris.net/games/banner/dungeon-hunter-champions.jpg",
  "icon_url": "https://lutris.net/games/icon/dungeon-hunter-champions.png",
  "is_public": true,
  "updated": "2020-10-08T09:17:49.387895Z",
  "provider_games": [
    {
      "name": "Dungeon Hunter Champions",
      "slug": "915580",
      "service": "steam"
    }
  ],
  "steamid": 915580,
  "gogid": null,
  "gogslug": "",
  "humblestoreid": "",
  "id": 24820
}