{
  "name": "Escape Rosecliff Island",
  "slug": "escape-rosecliff-island",
  "year": null,
  "description": "",
  "banner_url": "https://lutris.net/games/banner/escape-rosecliff-island.jpg",
  "icon_url": "https://lutris.net/games/icon/escape-rosecliff-island.png",
  "is_public": true,
  "updated": "2020-10-08T10:03:00.141125Z",
  "provider_games": [
    {
      "name": "Escape Rosecliff Island",
      "slug": "3600",
      "service": "steam"
    }
  ],
  "steamid": 3600,
  "gogid": null,
  "gogslug": "",
  "humblestoreid": "",
  "id": 1869
}