{
  "name": "Gungrave: Overdose",
  "slug": "gungrave-overdose",
  "year": 2004,
  "description": "Three years after the events that took place in the original Gungrave, the Corsione family has unleashed the deadly drug SEED upon the populace. Now it's up to Grave, Spike and Mika to follow the trail of SEED back to its source and eradicate it once and for all.\r\n\r\nMuch like its predecessor, Gungrave: Overdose offers up several action-packed levels that simply don't allow the player to let up on the fire button. This sequel ups the ante with even larger hordes of enemies to blast through along with a slew of destructible environments to wreak havoc in. Along the way, Grave will team up with newcomers Juji and Billy. Juji fights using a unique combination of close-range guns and swordplay, while Billy defeats his enemies with the sheer power of his electric guitar.\r\n\r\nGungrave: Overdose features character designs by Yasuhiro Nightow (creator of the anime/manga Trigun) and Kosuke Fujishima (known for his work on Sakura Wars, Ah My Goddess, and the Tales series), and soundtrack composition by Tsuneo Imahori (composer for Trigun, Hajime no Ippo and the Gungrave anime series). This game was released by Mastiff as a budget-priced title.",
  "banner_url": "https://lutris.net/games/banner/gungrave-overdose.jpg",
  "icon_url": "",
  "is_public": true,
  "updated": "2019-01-23T08:29:44.715242Z",
  "provider_games": [],
  "steamid": null,
  "gogid": null,
  "gogslug": "",
  "humblestoreid": "",
  "id": 24449
}