{
  "name": "Evospace",
  "slug": "evospace",
  "year": null,
  "description": "",
  "banner_url": "https://lutris.net/games/banner/evospace.jpg",
  "icon_url": "https://lutris.net/games/icon/evospace.png",
  "is_public": true,
  "updated": "2020-10-08T10:16:53.602622Z",
  "provider_games": [
    {
      "name": "Evospace",
      "slug": "1013540",
      "service": "steam"
    }
  ],
  "steamid": 1013540,
  "gogid": null,
  "gogslug": "",
  "humblestoreid": "",
  "id": 26861
}