{
  "name": "Lava Rolling Kid",
  "slug": "lava-rolling-kid",
  "year": null,
  "description": "",
  "banner_url": "https://lutris.net/games/banner/lava-rolling-kid.jpg",
  "icon_url": "https://lutris.net/games/icon/lava-rolling-kid.png",
  "is_public": true,
  "updated": "2020-10-08T10:00:47.146314Z",
  "provider_games": [
    {
      "name": "Lava Rolling Kid",
      "slug": "708250",
      "service": "steam"
    }
  ],
  "steamid": 708250,
  "gogid": null,
  "gogslug": "",
  "humblestoreid": "",
  "id": 24650
}