{
  "name": "Catyph: The Kunci Experiment",
  "slug": "catyph-the-kunci-experiment",
  "year": null,
  "description": "",
  "banner_url": "https://lutris.net/games/banner/catyph-the-kunci-experiment.jpg",
  "icon_url": "https://lutris.net/games/icon/catyph-the-kunci-experiment.png",
  "is_public": true,
  "updated": "2020-10-08T10:15:15.238075Z",
  "provider_games": [
    {
      "name": "Catyph: The Kunci Experiment",
      "slug": "396870",
      "service": "steam"
    }
  ],
  "steamid": 396870,
  "gogid": null,
  "gogslug": "",
  "humblestoreid": "",
  "id": 31422
}