{
  "name": "Alicia Online",
  "slug": "alicia-online",
  "year": 2008,
  "description": "Alicia Online or my horse story alicia is an online horse racing/breeding mmorpg puplished by gamtree and developed by NTREEV, it was just avilable for korean people who had a KSSN (korean social security number) but some foreign people could register and enjoy this game.\r\nAfter some time they made the game fully free to play (even without ingame cash anymore)\r\nbut they also closed the registration. You now could just register with a korean mobile number.\r\nAt the beginning of 2014 we got the message that Alicia Online is going to close at the 13th February 2014.\r\nA small team called MLocale that were also playing alicia had programming skills and gained information before the server of alicia was shut down.\r\nNow they are bringing it back to us and they are doing a great job!",
  "banner_url": "https://lutris.net/games/banner/alicia-online.jpg",
  "icon_url": "",
  "is_public": true,
  "updated": "2020-08-29T22:39:30.978028Z",
  "provider_games": [],
  "steamid": null,
  "gogid": null,
  "gogslug": "",
  "humblestoreid": "",
  "id": 37679
}