{
  "name": "Jockey Club II",
  "slug": "jockey-club-ii",
  "year": 1996,
  "description": "",
  "banner_url": "",
  "icon_url": "https://lutris.net/games/icon/jockey-club-ii.png",
  "is_public": true,
  "updated": "2020-05-26T03:34:50.350729Z",
  "provider_games": [
    {
      "name": "Jockey Club II",
      "slug": "jclub2v112",
      "service": "mame"
    }
  ],
  "steamid": null,
  "gogid": null,
  "gogslug": "",
  "humblestoreid": "",
  "id": 34538
}