{
  "name": "D/Generation HD",
  "slug": "dgeneration-hd",
  "year": null,
  "description": "",
  "banner_url": "https://lutris.net/games/banner/dgeneration-hd.jpg",
  "icon_url": "https://lutris.net/games/icon/dgeneration-hd.png",
  "is_public": true,
  "updated": "2020-10-08T10:15:26.642538Z",
  "provider_games": [
    {
      "name": "D/Generation HD",
      "slug": "389740",
      "service": "steam"
    }
  ],
  "steamid": 389740,
  "gogid": null,
  "gogslug": "",
  "humblestoreid": "",
  "id": 6984
}