{
  "name": "Escape: Sierra Leone",
  "slug": "escape-sierra-leone",
  "year": null,
  "description": "",
  "banner_url": "https://lutris.net/games/banner/escape-sierra-leone.jpg",
  "icon_url": "https://lutris.net/games/icon/escape-sierra-leone.png",
  "is_public": true,
  "updated": "2020-10-08T10:13:58.049770Z",
  "provider_games": [
    {
      "name": "Escape: Sierra Leone",
      "slug": "440450",
      "service": "steam"
    }
  ],
  "steamid": 440450,
  "gogid": null,
  "gogslug": "",
  "humblestoreid": "",
  "id": 24505
}