{
  "name": "Crayola Scoot",
  "slug": "crayola-scoot",
  "year": null,
  "description": "",
  "banner_url": "https://lutris.net/games/banner/crayola-scoot.jpg",
  "icon_url": "https://lutris.net/games/icon/crayola-scoot.png",
  "is_public": false,
  "updated": "2020-11-14T23:22:11.766386Z",
  "provider_games": [],
  "steamid": 772530,
  "gogid": null,
  "gogslug": "",
  "humblestoreid": "",
  "id": 40261
}