{
  "name": "Chambered",
  "slug": "chambered",
  "year": null,
  "description": "",
  "banner_url": "https://lutris.net/games/banner/chambered.jpg",
  "icon_url": "https://lutris.net/games/icon/chambered.png",
  "is_public": true,
  "updated": "2020-10-08T10:10:16.228188Z",
  "provider_games": [
    {
      "name": "Chambered",
      "slug": "658230",
      "service": "steam"
    }
  ],
  "steamid": 658230,
  "gogid": null,
  "gogslug": "",
  "humblestoreid": "",
  "id": 23746
}