{
  "name": "Dink Smallwood",
  "slug": "dink-smallwood",
  "year": 1998,
  "description": "",
  "banner_url": "https://lutris.net/games/banner/dink-smallwood.jpg",
  "icon_url": "",
  "is_public": true,
  "updated": "2019-01-23T08:29:11.900853Z",
  "provider_games": [],
  "steamid": null,
  "gogid": null,
  "gogslug": "",
  "humblestoreid": "",
  "id": 8226
}