{
  "name": "ALIX: A MONITOR Story",
  "slug": "alix-a-monitor-story",
  "year": null,
  "description": "",
  "banner_url": "https://lutris.net/games/banner/alix-a-monitor-story.jpg",
  "icon_url": "https://lutris.net/games/icon/alix-a-monitor-story.png",
  "is_public": true,
  "updated": "2020-10-08T10:00:33.813927Z",
  "provider_games": [
    {
      "name": "ALIX: A MONITOR Story",
      "slug": "716691",
      "service": "steam"
    }
  ],
  "steamid": 716691,
  "gogid": null,
  "gogslug": "",
  "humblestoreid": "",
  "id": 18831
}