{
  "name": "Idle Heist",
  "slug": "idle-heist",
  "year": null,
  "description": "",
  "banner_url": "https://lutris.net/games/banner/idle-heist.jpg",
  "icon_url": "https://lutris.net/games/icon/idle-heist.png",
  "is_public": true,
  "updated": "2020-10-08T09:57:00.675582Z",
  "provider_games": [
    {
      "name": "Idle Heist",
      "slug": "858060",
      "service": "steam"
    }
  ],
  "steamid": 858060,
  "gogid": null,
  "gogslug": "",
  "humblestoreid": "",
  "id": 19662
}