{
  "name": "Cube 2: Sauerbraten",
  "slug": "sauerbraten-cube-2",
  "year": 2004,
  "description": "Cube 2: Sauerbraten is a free multiplayer & singleplayer first person shooter, the successor of the Cube FPS.\r\n\r\nMuch like the original Cube, the aim of this game is fun, old school deathmatch gameplay and also to allow map/geometry editing to be done cooperatively in-game.",
  "banner_url": "https://lutris.net/games/banner/sauerbraten-cube-2.jpg",
  "icon_url": "",
  "is_public": true,
  "updated": "2019-01-23T08:29:01.842760Z",
  "provider_games": [],
  "steamid": null,
  "gogid": null,
  "gogslug": "",
  "humblestoreid": "",
  "id": 4046
}