{
  "name": "M-79 Ambush",
  "slug": "m-79-ambush",
  "year": 1977,
  "description": "",
  "banner_url": "https://lutris.net/games/banner/m-79-ambush.jpg",
  "icon_url": "https://lutris.net/games/icon/m-79-ambush.png",
  "is_public": true,
  "updated": "2020-05-26T03:35:23.190330Z",
  "provider_games": [
    {
      "name": "M-79 Ambush",
      "slug": "m79amb",
      "service": "mame"
    }
  ],
  "steamid": null,
  "gogid": null,
  "gogslug": "",
  "humblestoreid": "",
  "id": 34772
}