{
  "name": "Final Quest",
  "slug": "final-quest",
  "year": null,
  "description": "",
  "banner_url": "https://lutris.net/games/banner/final-quest.jpg",
  "icon_url": "https://lutris.net/games/icon/final-quest.png",
  "is_public": true,
  "updated": "2020-10-08T10:07:03.600582Z",
  "provider_games": [
    {
      "name": "Final Quest",
      "slug": "512640",
      "service": "steam"
    }
  ],
  "steamid": 512640,
  "gogid": null,
  "gogslug": "",
  "humblestoreid": "",
  "id": 9298
}