{
  "name": "Low Magic Age",
  "slug": "low-magic-age",
  "year": null,
  "description": "",
  "banner_url": "https://lutris.net/games/banner/low-magic-age.jpg",
  "icon_url": "https://lutris.net/games/icon/low-magic-age.png",
  "is_public": true,
  "updated": "2020-10-08T10:05:00.409671Z",
  "provider_games": [
    {
      "name": "Low Magic Age",
      "slug": "2047524778",
      "service": "gog"
    },
    {
      "name": "Low Magic Age",
      "slug": "576770",
      "service": "steam"
    }
  ],
  "steamid": 576770,
  "gogid": 2047524778,
  "gogslug": "low_magic_age",
  "humblestoreid": "",
  "id": 12384
}