{
  "name": "Ghost in the Machine",
  "slug": "ghost-in-the-machine",
  "year": null,
  "description": "",
  "banner_url": "https://lutris.net/games/banner/ghost-in-the-machine.jpg",
  "icon_url": "https://lutris.net/games/icon/ghost-in-the-machine.png",
  "is_public": true,
  "updated": "2020-10-08T10:16:13.912238Z",
  "provider_games": [
    {
      "name": "Ghost in the Machine",
      "slug": "363220",
      "service": "steam"
    }
  ],
  "steamid": 363220,
  "gogid": null,
  "gogslug": "",
  "humblestoreid": "",
  "id": 10678
}