{
  "name": "Depraved",
  "slug": "depraved",
  "year": null,
  "description": "",
  "banner_url": "https://lutris.net/games/banner/depraved.jpg",
  "icon_url": "https://lutris.net/games/icon/depraved.png",
  "is_public": true,
  "updated": "2020-10-08T09:58:35.023561Z",
  "provider_games": [
    {
      "name": "Depraved",
      "slug": "762650",
      "service": "steam"
    }
  ],
  "steamid": 762650,
  "gogid": null,
  "gogslug": "",
  "humblestoreid": "",
  "id": 26828
}