{
  "name": "Aquadelic GT",
  "slug": "aquadelic-gt",
  "year": null,
  "description": "",
  "banner_url": "https://lutris.net/games/banner/aquadelic-gt.jpg",
  "icon_url": "https://lutris.net/games/icon/aquadelic-gt.png",
  "is_public": true,
  "updated": "2019-01-23T08:28:23.561197Z",
  "provider_games": [
    {
      "name": "Aquadelic GT",
      "slug": "321450",
      "service": "steam"
    }
  ],
  "steamid": 321450,
  "gogid": null,
  "gogslug": "",
  "humblestoreid": "",
  "id": 4139
}