{
  "name": "Hard Yardage",
  "slug": "hard-yardage",
  "year": 1993,
  "description": "",
  "banner_url": "https://lutris.net/games/banner/hard-yardage.jpg",
  "icon_url": "https://lutris.net/games/icon/hard-yardage.png",
  "is_public": true,
  "updated": "2020-05-26T03:34:28.793903Z",
  "provider_games": [
    {
      "name": "Hard Yardage",
      "slug": "hardyard",
      "service": "mame"
    }
  ],
  "steamid": null,
  "gogid": null,
  "gogslug": "",
  "humblestoreid": "",
  "id": 34367
}