{
  "id": 17706,
  "game_id": 22919,
  "game_slug": "lord-of-the-rings-battle-for-middle-earth-ii",
  "name": "Lord of the Rings - Battle for Middle Earth II",
  "year": 2006,
  "user": "CyFreeze",
  "runner": "wine",
  "slug": "lord-of-the-rings-battle-for-rotwk-dvd-fan-patch",
  "version": "RotWK DVD + Fan Patch",
  "description": "Expansion to the base game. Does require the base game to be installed in the same prefix.",
  "notes": "The base game needs to be set to patch 1.06 using the Patch Switcher for the Expansion to function.",
  "created_at": "2020-01-02T15:36:37.912485Z",
  "updated_at": "2020-04-18T06:59:52.629860Z",
  "draft": false,
  "published": true,
  "published_by": null,
  "rating": "",
  "steamid": null,
  "gogid": null,
  "gogslug": "",
  "humbleid": "",
  "humblestoreid": "",
  "humblestoreid_real": "",
  "script": {
    "files": [
      {
        "patch202": "https://gitlab.com/rotwk202/2.02-installer/raw/binaries/202_v8_full.exe"
      },
      {
        "patch2021": "https://gitlab.com/rotwk202/2.02-installer/raw/binaries/202_v801_updater.exe"
      }
    ],
    "game": {
      "arch": "win32",
      "args": "-mod \"$GAMEDIR/drive_c/Program Files/AOTR4.0/aotr\"",
      "exe": "$GAMEDIR/drive_c/Program Files/Electronic Arts/The Lord of the Rings, The Rise of the Witch-king/lotrbfme2ep1.exe",
      "prefix": "$GAMEDIR"
    },
    "installer": [
      {
        "insert-disc": {
          "requires": "autorun.exe"
        }
      },
      {
        "task": {
          "arch": "win32",
          "description": "Run Installer",
          "executable": "$DISC/autorun.exe",
          "name": "wineexec",
          "prefix": "$GAMEDIR",
          "working_dir": "$DISC"
        }
      },
      {
        "task": {
          "arch": "win32",
          "description": "Installing unoffical patch 2.02 v8.0.0",
          "executable": "patch202",
          "name": "wineexec",
          "prefix": "$GAMEDIR"
        }
      },
      {
        "task": {
          "arch": "win32",
          "description": "Installing unoffical patch 2.02 v8.0.1",
          "executable": "patch2021",
          "name": "wineexec",
          "prefix": "$GAMEDIR"
        }
      },
      {
        "write_file": {
          "content": "AudioLOD = Low\nHasSeenLogoMovies = yes\nIdealStaticGameLOD = VeryLow\nResolution = 1920 1080\nStaticGameLOD = VeryLow\nTimesInGame = 2",
          "file": "$GAMEDIR/drive_c/users/$USER/Application Data/My The Lord of the Rings, The Rise of the Witch-king Files/Options.ini"
        }
      }
    ],
    "requires": "lord-of-the-rings-battle-for-middle-earth-ii"
  },
  "content": "files:\r\n- patch202: https://gitlab.com/rotwk202/2.02-installer/raw/binaries/202_v8_full.exe\r\n- patch2021: https://gitlab.com/rotwk202/2.02-installer/raw/binaries/202_v801_updater.exe\r\ngame:\r\n  arch: win32\r\n  args: -mod \"$GAMEDIR/drive_c/Program Files/AOTR4.0/aotr\"\r\n  exe: $GAMEDIR/drive_c/Program Files/Electronic Arts/The Lord of the Rings, The Rise\r\n    of the Witch-king/lotrbfme2ep1.exe\r\n  prefix: $GAMEDIR\r\ninstaller:\r\n- insert-disc:\r\n    requires: autorun.exe\r\n- task:\r\n    arch: win32\r\n    description: Run Installer\r\n    executable: $DISC/autorun.exe\r\n    name: wineexec\r\n    prefix: $GAMEDIR\r\n    working_dir: $DISC\r\n- task:\r\n    arch: win32\r\n    description: Installing unoffical patch 2.02 v8.0.0\r\n    executable: patch202\r\n    name: wineexec\r\n    prefix: $GAMEDIR\r\n- task:\r\n    arch: win32\r\n    description: Installing unoffical patch 2.02 v8.0.1\r\n    executable: patch2021\r\n    name: wineexec\r\n    prefix: $GAMEDIR\r\n- write_file:\r\n    content: 'AudioLOD = Low\r\n\r\n      HasSeenLogoMovies = yes\r\n\r\n      IdealStaticGameLOD = VeryLow\r\n\r\n      Resolution = 1920 1080\r\n\r\n      StaticGameLOD = VeryLow\r\n\r\n      TimesInGame = 2'\r\n    file: $GAMEDIR/drive_c/users/$USER/Application Data/My The Lord of the Rings,\r\n      The Rise of the Witch-king Files/Options.ini\r\nrequires: lord-of-the-rings-battle-for-middle-earth-ii"
}