{
  "name": "City Life",
  "slug": "city-life",
  "year": null,
  "description": "",
  "banner_url": "https://lutris.net/games/banner/city-life.jpg",
  "icon_url": "https://lutris.net/games/icon/city-life.png",
  "is_public": true,
  "updated": "2020-10-08T10:02:59.432027Z",
  "provider_games": [
    {
      "name": "City Life",
      "slug": "4400",
      "service": "steam"
    }
  ],
  "steamid": 4400,
  "gogid": null,
  "gogslug": "",
  "humblestoreid": "",
  "id": 27826
}