{
  "name": "King of Boxer",
  "slug": "king-of-boxer",
  "year": 1985,
  "description": "",
  "banner_url": "https://lutris.net/games/banner/king-of-boxer.jpg",
  "icon_url": "https://lutris.net/games/icon/king-of-boxer.png",
  "is_public": true,
  "updated": "2020-05-26T03:35:02.791263Z",
  "provider_games": [
    {
      "name": "King of Boxer",
      "slug": "kingofb",
      "service": "mame"
    }
  ],
  "steamid": null,
  "gogid": null,
  "gogslug": "",
  "humblestoreid": "",
  "id": 34633
}