{
  "name": "Halo: Combat Evolved",
  "slug": "halo-combat-evolved",
  "year": 2001,
  "description": "Halo: Combat Evolved is a sci-fi shooter that takes place on a mysterious alien ring-world. As the Chief, your objective is to uncover Halo’s terrible secrets and destroy mankind's sworn enemy, the Covenant.\r\n\r\nBattles rage on foot, in vehicles, inside and outdoors with a vast array of Human and Covenant weaponry—an experience positively packed with combat. Experience incredible mission variety solo or cooperatively with a friend, and engage in intense shootouts in split screen multiplayer combat with up to 16 players via System Link.",
  "banner_url": "https://lutris.net/games/banner/halo-combat-evolved.jpg",
  "icon_url": "https://lutris.net/games/icon/halo-combat-evolved.png",
  "is_public": true,
  "updated": "2019-01-23T08:29:46.566379Z",
  "provider_games": [],
  "steamid": null,
  "gogid": null,
  "gogslug": "",
  "humblestoreid": "",
  "id": 1820
}