{
  "name": "Dying Light: Bad Blood",
  "slug": "dying-light-bad-blood",
  "year": null,
  "description": "",
  "banner_url": "https://lutris.net/games/banner/dying-light-bad-blood.jpg",
  "icon_url": "https://lutris.net/games/icon/dying-light-bad-blood.png",
  "is_public": true,
  "updated": "2020-10-08T10:17:10.896273Z",
  "provider_games": [
    {
      "name": "Dying Light: Bad Blood",
      "slug": "766370",
      "service": "steam"
    }
  ],
  "steamid": 766370,
  "gogid": null,
  "gogslug": "",
  "humblestoreid": "",
  "id": 23029
}