{
  "id": 4142,
  "game_id": 2513,
  "game_slug": "stick-it-to-the-man",
  "name": "Stick It To The Man!",
  "year": null,
  "user": "FakeShemp",
  "runner": "wine",
  "slug": "stick-it-to-the-man-humble",
  "version": "Humble",
  "description": "",
  "notes": "",
  "created_at": "2017-06-05T18:49:16.052226Z",
  "updated_at": "2018-05-19T03:41:52.583123Z",
  "draft": false,
  "published": true,
  "published_by": null,
  "rating": "",
  "steamid": 251830,
  "gogid": 1207660713,
  "gogslug": "stick_it_to_the_man",
  "humbleid": "",
  "humblestoreid": "",
  "humblestoreid_real": "",
  "script": {
    "files": [
      {
        "file1": "N/A:Please select the Humble archive"
      }
    ],
    "game": {
      "arch": "win32",
      "exe": "drive_c/Program Files/Stick It to the Man/StickIt.exe",
      "prefix": "$GAMEDIR"
    },
    "installer": [
      {
        "extract": {
          "dst": "$GAMEDIR/drive_c/Program Files/Stick It to the Man",
          "file": "$file1"
        }
      }
    ]
  },
  "content": "files:\n- file1: N/A:Please select the Humble archive\ngame:\n  arch: win32\n  exe: drive_c/Program Files/Stick It to the Man/StickIt.exe\n  prefix: $GAMEDIR\ninstaller:\n- extract:\n    dst: $GAMEDIR/drive_c/Program Files/Stick It to the Man\n    file: $file1\n"
}