{
  "name": "Heretic Operative",
  "slug": "heretic-operative",
  "year": null,
  "description": "",
  "banner_url": "https://lutris.net/games/banner/heretic-operative.jpg",
  "icon_url": "https://lutris.net/games/icon/heretic-operative.png",
  "is_public": true,
  "updated": "2020-10-08T09:17:00.185502Z",
  "provider_games": [
    {
      "name": "Heretic Operative",
      "slug": "958740",
      "service": "steam"
    }
  ],
  "steamid": 958740,
  "gogid": null,
  "gogslug": "",
  "humblestoreid": "",
  "id": 30726
}