{
  "name": "Gun Master",
  "slug": "gun-master",
  "year": 1994,
  "description": "",
  "banner_url": "",
  "icon_url": "https://lutris.net/games/icon/gun-master.png",
  "is_public": true,
  "updated": "2020-05-26T03:34:21.766112Z",
  "provider_games": [
    {
      "name": "Gun Master",
      "slug": "gunmast",
      "service": "mame"
    }
  ],
  "steamid": null,
  "gogid": null,
  "gogslug": "",
  "humblestoreid": "",
  "id": 34332
}