{
  "id": 1118,
  "game_id": 2100,
  "game_slug": "metal-slug-3",
  "name": "Metal Slug 3",
  "year": null,
  "user": "RobLoach",
  "runner": "linux",
  "slug": "metal-slug-3-humble-bundle-64bit",
  "version": "Humble Bundle (64bit)",
  "description": "",
  "notes": "",
  "created_at": "2014-11-17T22:35:03.385000Z",
  "updated_at": "2016-08-22T21:24:01.162543Z",
  "draft": false,
  "published": true,
  "published_by": null,
  "rating": "",
  "steamid": 250180,
  "gogid": 1370911530,
  "gogslug": "metal_slug_3",
  "humbleid": "metalslug3",
  "humblestoreid": "metalslug3",
  "humblestoreid_real": "metalslug3",
  "script": {
    "exe": "MetalSlug3.bin.x86_64",
    "files": [
      {
        "game": "N/A:Select the game's archive downloaded from http://humblebundle.com/home"
      }
    ],
    "installer": [
      {
        "move": {
          "dst": "$GAMEDIR/installer",
          "src": "game"
        }
      },
      {
        "chmodx": "$GAMEDIR/installer"
      },
      {
        "execute": {
          "file": "$GAMEDIR/installer"
        }
      }
    ]
  },
  "content": "exe: MetalSlug3.bin.x86_64\r\nfiles:\r\n- game: N/A:Select the game's archive downloaded from http://humblebundle.com/home\r\ninstaller:\r\n- move:\r\n    dst: $GAMEDIR/installer\r\n    src: game\r\n- chmodx: $GAMEDIR/installer\r\n- execute:\r\n    file: $GAMEDIR/installer\r\n"
}