{
  "name": "Access Denied",
  "slug": "access-denied",
  "year": null,
  "description": "",
  "banner_url": "https://lutris.net/games/banner/access-denied.jpg",
  "icon_url": "https://lutris.net/games/icon/access-denied.png",
  "is_public": true,
  "updated": "2020-10-08T10:05:26.076065Z",
  "provider_games": [
    {
      "name": "Access Denied",
      "slug": "562570",
      "service": "steam"
    }
  ],
  "steamid": 562570,
  "gogid": null,
  "gogslug": "",
  "humblestoreid": "",
  "id": 11336
}