{
  "name": "Azuran Tales: Trials",
  "slug": "azuran-tales-trials",
  "year": null,
  "description": "",
  "banner_url": "https://lutris.net/games/banner/azuran-tales-trials.jpg",
  "icon_url": "https://lutris.net/games/icon/azuran-tales-trials.png",
  "is_public": true,
  "updated": "2020-10-08T09:57:13.554524Z",
  "provider_games": [
    {
      "name": "Azuran Tales: Trials",
      "slug": "848200",
      "service": "steam"
    }
  ],
  "steamid": 848200,
  "gogid": null,
  "gogslug": "",
  "humblestoreid": "",
  "id": 25864
}