{
  "name": "[HTC Vive] VR Drum Studio",
  "slug": "htc-vive-vr-drum-studio",
  "year": 2017,
  "description": "",
  "banner_url": "https://lutris.net/games/banner/htc-vive-vr-drum-studio.jpg",
  "icon_url": "",
  "is_public": false,
  "updated": "2020-09-25T16:20:27.537102Z",
  "provider_games": [],
  "steamid": null,
  "gogid": null,
  "gogslug": "",
  "humblestoreid": "",
  "id": 39260
}