{
  "name": "Lucky Shot",
  "slug": "lucky-shot",
  "year": null,
  "description": "",
  "banner_url": "https://lutris.net/games/banner/lucky-shot.jpg",
  "icon_url": "https://lutris.net/games/icon/lucky-shot.png",
  "is_public": false,
  "updated": "2019-01-23T08:30:13.984786Z",
  "provider_games": [],
  "steamid": 869180,
  "gogid": null,
  "gogslug": "",
  "humblestoreid": "",
  "id": 24469
}