{
  "name": "Jade's Journey",
  "slug": "jades-journey",
  "year": null,
  "description": "",
  "banner_url": "https://lutris.net/games/banner/jades-journey.jpg",
  "icon_url": "https://lutris.net/games/icon/jades-journey.png",
  "is_public": true,
  "updated": "2020-10-08T10:05:44.471363Z",
  "provider_games": [
    {
      "name": "Jade's Journey",
      "slug": "552580",
      "service": "steam"
    }
  ],
  "steamid": 552580,
  "gogid": null,
  "gogslug": "",
  "humblestoreid": "",
  "id": 12838
}