{
  "name": "Gurugedara",
  "slug": "gurugedara",
  "year": null,
  "description": "",
  "banner_url": "https://lutris.net/games/banner/gurugedara.jpg",
  "icon_url": "https://lutris.net/games/icon/gurugedara.png",
  "is_public": true,
  "updated": "2020-10-08T10:00:56.708988Z",
  "provider_games": [
    {
      "name": "Gurugedara",
      "slug": "701010",
      "service": "steam"
    }
  ],
  "steamid": 701010,
  "gogid": null,
  "gogslug": "",
  "humblestoreid": "",
  "id": 15482
}