{
  "name": "Humble Bundle New DLC Pack",
  "slug": "humble-bundle-new-dlc-pack",
  "year": null,
  "description": "",
  "banner_url": "",
  "icon_url": "",
  "is_public": true,
  "updated": "2020-06-03T05:17:39.114209Z",
  "provider_games": [
    {
      "name": "Humble Bundle New DLC Pack",
      "slug": "exclusivedlcpack_degica_bundle",
      "service": "humblebundle"
    }
  ],
  "steamid": null,
  "gogid": null,
  "gogslug": "",
  "humblestoreid": "exclusivedlcpack_degica_bundle",
  "id": 37113
}