{
  "name": "Guitar Hero III: Legends of Rock",
  "slug": "guitar-hero-iii-legends-of-rock",
  "year": 2007,
  "description": "Fire up the fretboard, crank up the amp and get ready to rock like never before as Guitar Hero III drops you into the spotlight of the largest and most legendary rock concert ever.\r\n\r\nThe star-studded soundtrack includes master tracks by such legendary artists as The Rolling Stones, Beastie Boys, Muse and Pearl Jam, with added songs made famous by Kiss, Alice Cooper and Heart. Now drop that air guitar, tune your exclusive new wireless Les Paul Guitar Controller and shred the night away with Guitar Hero III.\r\n\r\nFeaturing an incredible number of newly added features and explosive content including a new multiplayer action-inspired battle mode, gruelling boss battles, a host of exclusive unlockable content and authentic rock venues, Guitar Hero III also includes expanded online multiplayer game modes that allow axe-shredders worldwide to compete head-to-head for true legendary rock status. \r\n\r\nOver 45 of the most legendary rock anthems of all time\r\nChallenge legends of rock and roll like Slash, Tom Morello and Bret Michaels in boss battles\r\nExpand upon your Guitar Hero experience with downloadable songs, themes and picture packs",
  "banner_url": "https://lutris.net/games/banner/guitar-hero-iii-legends-of-rock.jpg",
  "icon_url": "https://lutris.net/games/icon/guitar-hero-iii-legends-of-rock.png",
  "is_public": true,
  "updated": "2019-01-23T08:29:44.506612Z",
  "provider_games": [],
  "steamid": null,
  "gogid": null,
  "gogslug": "",
  "humblestoreid": "",
  "id": 20564
}