{
  "name": "Age of Mythology",
  "slug": "age-of-mythology",
  "year": 2002,
  "description": "From Ensemble Studios, the creators of Age of Empires and Age of Kings, comes Age of Mythology, a game that transports players to a time when heroes did battle with monsters of legend and the gods intervened in the affairs of mortal men.\r\n\r\nTaking on the role of one of nine ancient civilizations, players guide their people to greatness by commanding all aspects of their empire: gathering resources, raising massive armies, waging war against enemies, establishing profitable trade routes, building new settlements, enhancing production or military might with improvements, exploring new frontiers, and advancing through four distinct ages.\r\n\r\nIn their struggle for supremacy, players can use mythological creatures like Minotaurs and Cyclopses to bolster their armies' strength. Players may also call upon the gods for assistance in flattening enemy towns with meteors or scattering opposing troops with lightning storms.",
  "banner_url": "https://lutris.net/games/banner/age-of-mythology.jpg",
  "icon_url": "https://lutris.net/games/icon/age-of-mythology.png",
  "is_public": true,
  "updated": "2019-01-23T08:28:15.630096Z",
  "provider_games": [],
  "steamid": null,
  "gogid": null,
  "gogslug": "",
  "humblestoreid": "",
  "id": 3253
}