{
  "id": 23876,
  "game_id": 24599,
  "game_slug": "aliens-versus-predator-2",
  "name": "Aliens versus Predator 2",
  "year": 2001,
  "user": "WeeLonelySoul",
  "runner": "wine",
  "slug": "aliens-versus-predator-2-best-seller",
  "version": "Best seller",
  "description": "Early version",
  "notes": "",
  "created_at": "2020-10-12T07:03:44.352451Z",
  "updated_at": "2020-10-12T07:03:44.352478Z",
  "draft": true,
  "published": false,
  "published_by": null,
  "rating": "",
  "steamid": null,
  "gogid": null,
  "gogslug": "",
  "humbleid": "",
  "humblestoreid": "",
  "humblestoreid_real": "",
  "script": {
    "exe": "Setup.exe",
    "files": [
      {
        "avpinstaller": "N/A:Select the game's setup file"
      }
    ],
    "game": {
      "prefix": "$GAMEDIR"
    },
    "installer": [
      {
        "task": {
          "args": "/silent /nogui /suppressmsgboxes",
          "executable": "avpinstaller",
          "name": "wine.wineexec",
          "prefix": "$GAMEDIR"
        }
      },
      {
        "task": {
          "app": "d3dx9_43",
          "description": "Installing DirectX library",
          "name": "winetricks",
          "prefix": "$GAMEDIR",
          "silent": true
        }
      }
    ]
  },
  "content": "exe: Setup.exe\nfiles:\n- avpinstaller: N/A:Select the game's setup file\ngame:\n  prefix: $GAMEDIR\ninstaller:\n- task:\n    args: /silent /nogui /suppressmsgboxes\n    executable: avpinstaller\n    name: wine.wineexec\n    prefix: $GAMEDIR\n- task:\n    app: d3dx9_43\n    description: Installing DirectX library\n    name: winetricks\n    prefix: $GAMEDIR\n    silent: true\n"
}