{
  "name": "Armorines: Project S.W.A.R.M.",
  "slug": "armorines-project-swarm",
  "year": 1999,
  "description": "Human Domination or Bug Infestation?\r\nThe Choice is Yours.\r\n\r\nYou're an Armorine.\r\n\r\nYou're wearing the latest in futuristic battle-armor.\r\n\r\nArmed with a devestating arsenal, you've got 120 to stop an all-out bug invasion of the Earth.\r\n\r\nOr die trying.",
  "banner_url": "https://lutris.net/games/banner/armorines-project-swarm.jpg",
  "icon_url": "",
  "is_public": true,
  "updated": "2019-01-23T08:28:26.104299Z",
  "provider_games": [],
  "steamid": null,
  "gogid": null,
  "gogslug": "",
  "humblestoreid": "",
  "id": 17316
}