{
  "name": "Final Lap 3",
  "slug": "final-lap-3",
  "year": 1992,
  "description": "",
  "banner_url": "https://lutris.net/games/banner/final-lap-3.jpg",
  "icon_url": "https://lutris.net/games/icon/final-lap-3.png",
  "is_public": true,
  "updated": "2020-05-26T03:33:46.483561Z",
  "provider_games": [
    {
      "name": "Final Lap 3",
      "slug": "finalap3",
      "service": "mame"
    }
  ],
  "steamid": null,
  "gogid": null,
  "gogslug": "",
  "humblestoreid": "",
  "id": 34094
}