{
  "name": "Kona",
  "slug": "kona",
  "year": 2017,
  "description": "Northern Canada, 1970. A strange blizzard ravages Atamipek Lake. Step into the shoes of a detective to explore the eerie village, investigate surreal events, and battle the elements to survive. Kona is a chilly, narrative-driven interactive tale you won't soon forget.\r\n\r\nSetting\r\n\r\nOctober 1970. W. Hamilton, a rich industrialist who owns a hunting manor in Northern Canada, reports several cases of vandalism perpetrated against his property. Unable to find out who dared to commit these acts, Hamilton calls Carl Faubert, a renowned private detective to handle the affair.\r\nIn Kona, Carl becomes trapped up in the deep north, engulfed in an unexpected snowstorm, and is unable to find his client —or any other living inhabitant for that matter. The player incarnated detective Faubert, who must shed light on the mysterious events befalling the area.",
  "banner_url": "https://lutris.net/games/banner/kona.jpg",
  "icon_url": "https://lutris.net/games/icon/kona.png",
  "is_public": true,
  "updated": "2020-05-31T00:17:46.859920Z",
  "provider_games": [
    {
      "name": "Kona",
      "slug": "1454319762",
      "service": "gog"
    },
    {
      "name": "Kona",
      "slug": "365160",
      "service": "steam"
    }
  ],
  "steamid": 365160,
  "gogid": 1454319762,
  "gogslug": "kona_day_one",
  "humblestoreid": "",
  "id": 8118
}