{
  "name": "FL337",
  "slug": "fl337",
  "year": null,
  "description": "Sharpen your swords and prepare yourself for an epic journey. In a world where pirate ships run the seas embark on a journey to defeat the one fleet who undeniably rules them all. Grab a friend or dare to give it a go solo in this arcade style beat ‘em up. With each level more challenging than the last, every level brings you to a different ship of the fleet. Upon boarding each ship you must know that no ship is without a Captain. Every boss battle brings you and your comrades one step closer to the task at hand. Do you think you have what it takes to defeat the Fleet?",
  "banner_url": "https://lutris.net/games/banner/fl337.jpg",
  "icon_url": "https://lutris.net/games/icon/fl337.png",
  "is_public": true,
  "updated": "2020-10-08T10:14:55.757284Z",
  "provider_games": [
    {
      "name": "FL337",
      "slug": "406760",
      "service": "steam"
    }
  ],
  "steamid": 406760,
  "gogid": null,
  "gogslug": "",
  "humblestoreid": "",
  "id": 8104
}