{
  "name": "Cool Pool",
  "slug": "cool-pool",
  "year": 1992,
  "description": "",
  "banner_url": "https://lutris.net/games/banner/cool-pool.jpg",
  "icon_url": "https://lutris.net/games/icon/cool-pool.png",
  "is_public": true,
  "updated": "2020-05-26T03:32:54.400001Z",
  "provider_games": [
    {
      "name": "Cool Pool",
      "slug": "coolpool",
      "service": "mame"
    }
  ],
  "steamid": null,
  "gogid": null,
  "gogslug": "",
  "humblestoreid": "",
  "id": 33733
}