{
  "name": "Diep.io",
  "slug": "diepio",
  "year": 2016,
  "description": "An agar.io-like game called diep.io, where you control a \"tank\" and go around and destroy other tanks for reasons unknown.",
  "banner_url": "https://lutris.net/games/banner/diepio.jpg",
  "icon_url": "",
  "is_public": true,
  "updated": "2019-01-23T08:29:11.518301Z",
  "provider_games": [],
  "steamid": null,
  "gogid": null,
  "gogslug": "",
  "humblestoreid": "",
  "id": 6289
}