{
  "name": "Erotictac/Tactic",
  "slug": "erotictactactic",
  "year": 1990,
  "description": "",
  "banner_url": "",
  "icon_url": "https://lutris.net/games/icon/erotictactactic.png",
  "is_public": true,
  "updated": "2020-05-26T03:33:35.886025Z",
  "provider_games": [
    {
      "name": "Erotictac/Tactic",
      "slug": "ertictac",
      "service": "mame"
    }
  ],
  "steamid": null,
  "gogid": null,
  "gogslug": "",
  "humblestoreid": "",
  "id": 34017
}