{
  "name": "Guns of Infinity",
  "slug": "guns-of-infinity",
  "year": null,
  "description": "",
  "banner_url": "https://lutris.net/games/banner/guns-of-infinity.jpg",
  "icon_url": "https://lutris.net/games/icon/guns-of-infinity.png",
  "is_public": true,
  "updated": "2020-10-08T10:13:48.770100Z",
  "provider_games": [
    {
      "name": "Guns of Infinity",
      "slug": "446330",
      "service": "steam"
    }
  ],
  "steamid": 446330,
  "gogid": null,
  "gogslug": "",
  "humblestoreid": "",
  "id": 16204
}