{
  "name": "Idle Bouncer",
  "slug": "idle-bouncer",
  "year": null,
  "description": "",
  "banner_url": "https://lutris.net/games/banner/idle-bouncer.jpg",
  "icon_url": "https://lutris.net/games/icon/idle-bouncer.png",
  "is_public": true,
  "updated": "2020-10-08T10:01:03.227161Z",
  "provider_games": [
    {
      "name": "Idle Bouncer",
      "slug": "697610",
      "service": "steam"
    }
  ],
  "steamid": 697610,
  "gogid": null,
  "gogslug": "",
  "humblestoreid": "",
  "id": 14395
}