{
  "name": "House of Snark 6-in-1 Bundle",
  "slug": "house-of-snark-6-in-1-bundle",
  "year": null,
  "description": "",
  "banner_url": "https://lutris.net/games/banner/house-of-snark-6-in-1-bundle.jpg",
  "icon_url": "https://lutris.net/games/icon/house-of-snark-6-in-1-bundle.png",
  "is_public": true,
  "updated": "2020-10-08T10:07:48.369863Z",
  "provider_games": [
    {
      "name": "House of Snark 6-in-1 Bundle",
      "slug": "486810",
      "service": "steam"
    }
  ],
  "steamid": 486810,
  "gogid": null,
  "gogslug": "",
  "humblestoreid": "",
  "id": 13518
}