{
  "name": "Civilization IV: Colonization",
  "slug": "sid-meiers-civilization-iv-colonization",
  "year": 2008,
  "description": "Sid Meier's Civilization IV: Colonization is the third offering in the award winning Civilization IV series. A re-imagining of the classic Colonization game Sid Meier created in 1994, Sid Meier's Civilization IV: Colonization is a total conversion of the Civilization IV engine into a game experience in which players will lead a European nation on their quest to colonize and thrive in the New World. Players will be challenged to guide their people from the oppressive motherland, discover a New World, negotiate, trade and fight as they acquire great power and battle for their freedom and independence.",
  "banner_url": "https://lutris.net/games/banner/sid-meiers-civilization-iv-colonization.jpg",
  "icon_url": "https://lutris.net/games/icon/sid-meiers-civilization-iv-colonization.png",
  "is_public": true,
  "updated": "2019-01-23T08:28:53.619161Z",
  "provider_games": [
    {
      "name": "Sid Meier's Civilization IV: Colonization",
      "slug": "34470",
      "service": "steam"
    }
  ],
  "steamid": 34470,
  "gogid": null,
  "gogslug": "",
  "humblestoreid": "",
  "id": 541
}