{
  "name": "Agatha Knife",
  "slug": "agatha-knife",
  "year": null,
  "description": "",
  "banner_url": "https://lutris.net/games/banner/agatha-knife.jpg",
  "icon_url": "https://lutris.net/games/icon/agatha-knife.png",
  "is_public": true,
  "updated": "2020-10-08T10:03:38.916901Z",
  "provider_games": [
    {
      "name": "Agatha Knife",
      "slug": "618950",
      "service": "steam"
    }
  ],
  "steamid": 618950,
  "gogid": null,
  "gogslug": "",
  "humblestoreid": "",
  "id": 18204
}