{
  "id": 4653,
  "game_id": 2804,
  "game_slug": "putt-putt-saves-the-zoo",
  "name": "Putt-Putt Saves the Zoo",
  "year": null,
  "user": "FakeShemp",
  "runner": "scummvm",
  "slug": "putt-putt-saves-the-zoo-humble",
  "version": "Humble",
  "description": "Uses the files from the Windows installer from Humble.",
  "notes": "",
  "created_at": "2017-06-26T21:08:59.142000Z",
  "updated_at": "2017-07-04T18:04:44.043193Z",
  "draft": false,
  "published": true,
  "published_by": null,
  "rating": "",
  "steamid": 294660,
  "gogid": null,
  "gogslug": "",
  "humbleid": "",
  "humblestoreid": "",
  "humblestoreid_real": "",
  "script": {
    "files": [
      {
        "file1": "N/A:Please select the Humble installer"
      }
    ],
    "game": {
      "game_id": "puttzoo",
      "path": "$GAMEDIR",
      "subtitles": true
    },
    "installer": [
      {
        "task": {
          "args": "/S",
          "executable": "$file1",
          "name": "wine.wineexec",
          "prefix": "$CACHE"
        }
      },
      {
        "merge": {
          "dst": "$GAMEDIR",
          "src": "$CACHE/drive_c/Games/Humongous Entertainment/Putt-Putt 3"
        }
      }
    ],
    "scummvm": {
      "gfx-mode": "2x"
    }
  },
  "content": "files:\n- file1: N/A:Please select the Humble installer\ngame:\n  game_id: puttzoo\n  path: $GAMEDIR\n  subtitles: true\ninstaller:\n- task:\n    args: /S\n    executable: $file1\n    name: wine.wineexec\n    prefix: $CACHE\n- merge:\n    dst: $GAMEDIR\n    src: $CACHE/drive_c/Games/Humongous Entertainment/Putt-Putt 3\nscummvm:\n  gfx-mode: 2x\n"
}