{
  "id": 4608,
  "game_id": 11869,
  "game_slug": "conquering-the-queen",
  "name": "Conquering the Queen",
  "year": 2004,
  "user": "FakeShemp",
  "runner": "wine",
  "slug": "conquering-the-queen-mangagamer",
  "version": "MangaGamer",
  "description": "",
  "notes": "",
  "created_at": "2017-06-25T21:15:00.401000Z",
  "updated_at": "2017-06-27T04:15:53.859126Z",
  "draft": false,
  "published": true,
  "published_by": null,
  "rating": "",
  "steamid": null,
  "gogid": null,
  "gogslug": "",
  "humbleid": "",
  "humblestoreid": "",
  "humblestoreid_real": "",
  "script": {
    "files": [
      {
        "file1": "N/A:Please select the MangaGamer archive"
      }
    ],
    "game": {
      "exe": "drive_c/Liquid/Conquering the Queen/lcsebody.exe",
      "prefix": "$GAMEDIR"
    },
    "installer": [
      {
        "extract": {
          "dst": "$CACHE",
          "file": "$file1"
        }
      },
      {
        "task": {
          "executable": "$CACHE/setup.exe",
          "name": "wineexec",
          "prefix": "$GAMEDIR"
        }
      },
      {
        "task": {
          "app": "dsound",
          "name": "winetricks",
          "prefix": "$GAMEDIR"
        }
      }
    ]
  },
  "content": "files:\n- file1: N/A:Please select the MangaGamer archive\ngame:\n  exe: drive_c/Liquid/Conquering the Queen/lcsebody.exe\n  prefix: $GAMEDIR\ninstaller:\n- extract:\n    dst: $CACHE\n    file: $file1\n- task:\n    executable: $CACHE/setup.exe\n    name: wineexec\n    prefix: $GAMEDIR\n- task:\n    app: dsound\n    name: winetricks\n    prefix: $GAMEDIR\n"
}