{
  "name": "Little hidden city",
  "slug": "little-hidden-city",
  "year": null,
  "description": "",
  "banner_url": "https://lutris.net/games/banner/little-hidden-city.jpg",
  "icon_url": "https://lutris.net/games/icon/little-hidden-city.png",
  "is_public": true,
  "updated": "2020-10-08T10:00:48.984435Z",
  "provider_games": [
    {
      "name": "Little hidden city",
      "slug": "706490",
      "service": "steam"
    }
  ],
  "steamid": 706490,
  "gogid": null,
  "gogslug": "",
  "humblestoreid": "",
  "id": 22552
}