{
  "name": "CS:GO Player Profiles",
  "slug": "csgo-player-profiles",
  "year": null,
  "description": "",
  "banner_url": "https://lutris.net/games/banner/csgo-player-profiles.jpg",
  "icon_url": "https://lutris.net/games/icon/csgo-player-profiles.png",
  "is_public": true,
  "updated": "2020-10-08T10:14:44.323249Z",
  "provider_games": [
    {
      "name": "CS:GO Player Profiles",
      "slug": "413850",
      "service": "steam"
    }
  ],
  "steamid": 413850,
  "gogid": null,
  "gogslug": "",
  "humblestoreid": "",
  "id": 5034
}