{
  "name": "Defragmented",
  "slug": "defragmented",
  "year": null,
  "description": "",
  "banner_url": "https://lutris.net/games/banner/defragmented.jpg",
  "icon_url": "https://lutris.net/games/icon/defragmented.png",
  "is_public": true,
  "updated": "2020-10-08T10:14:22.528534Z",
  "provider_games": [
    {
      "name": "Defragmented",
      "slug": "426170",
      "service": "steam"
    }
  ],
  "steamid": 426170,
  "gogid": null,
  "gogslug": "",
  "humblestoreid": "",
  "id": 10737
}