{
  "name": "Dead Alliance™",
  "slug": "dead-alliancetm",
  "year": null,
  "description": "",
  "banner_url": "https://lutris.net/games/banner/dead-alliancetm.jpg",
  "icon_url": "https://lutris.net/games/icon/dead-alliancetm.png",
  "is_public": true,
  "updated": "2020-10-08T10:03:26.530373Z",
  "provider_games": [
    {
      "name": "Dead Alliance™",
      "slug": "626200",
      "service": "steam"
    }
  ],
  "steamid": 626200,
  "gogid": null,
  "gogslug": "",
  "humblestoreid": "",
  "id": 13296
}