{
  "name": "Darkness Within 2: The Dark Lineage Director's Cut Edition",
  "slug": "darkness-within-2-the-dark-lineage-directors-cut-e",
  "year": null,
  "description": "",
  "banner_url": "https://lutris.net/games/banner/darkness-within-2-the-dark-lineage-directors-cut-e.jpg",
  "icon_url": "https://lutris.net/games/icon/darkness-within-2-the-dark-lineage-directors-cut-e.png",
  "is_public": true,
  "updated": "2020-10-08T09:20:19.236430Z",
  "provider_games": [
    {
      "name": "Darkness Within 2: The Dark Lineage Director's Cut Edition",
      "slug": "298950",
      "service": "steam"
    }
  ],
  "steamid": 298950,
  "gogid": null,
  "gogslug": "",
  "humblestoreid": "",
  "id": 5298
}