{
  "name": "Atavism 2 On Premises",
  "slug": "atavism-2-on-premises",
  "year": null,
  "description": "",
  "banner_url": "https://lutris.net/games/banner/atavism-2-on-premises.jpg",
  "icon_url": "https://lutris.net/games/icon/atavism-2-on-premises.png",
  "is_public": true,
  "updated": "2020-10-08T09:19:25.818565Z",
  "provider_games": [
    {
      "name": "Atavism 2 On Premises",
      "slug": "335930",
      "service": "steam"
    }
  ],
  "steamid": 335930,
  "gogid": null,
  "gogslug": "",
  "humblestoreid": "",
  "id": 19864
}