{
  "name": "Blackguards",
  "slug": "blackguards",
  "year": null,
  "description": "",
  "banner_url": "https://lutris.net/games/banner/blackguards.jpg",
  "icon_url": "https://lutris.net/games/icon/blackguards.png",
  "is_public": true,
  "updated": "2020-08-15T23:50:34.146228Z",
  "provider_games": [
    {
      "name": "Blackguards",
      "slug": "blackguards",
      "service": "humblebundle"
    },
    {
      "name": "Blackguards",
      "slug": "249650",
      "service": "steam"
    }
  ],
  "steamid": 249650,
  "gogid": null,
  "gogslug": "",
  "humblestoreid": "blackguards",
  "id": 2987
}