{
  "id": 12694,
  "game_id": 689,
  "game_slug": "hitman-codename-47",
  "name": "Hitman: Codename 47",
  "year": 2000,
  "user": "Logeater",
  "runner": "wine",
  "slug": "hitman-codename-47-gog",
  "version": "GOG",
  "description": null,
  "notes": "",
  "created_at": "2019-04-08T23:48:55.167000Z",
  "updated_at": "2019-04-09T05:50:15.332452Z",
  "draft": false,
  "published": true,
  "published_by": 19464,
  "rating": "",
  "steamid": 6900,
  "gogid": 1207658996,
  "gogslug": "hitman",
  "humbleid": "",
  "humblestoreid": "",
  "humblestoreid_real": "",
  "script": {
    "files": [
      {
        "game": "N/A:Please select the GOG.com Windows installer."
      }
    ],
    "game": {
      "arch": "win32",
      "exe": "drive_c/GOG Games/Hitman Codename 47/hitman.exe",
      "prefix": "$GAMEDIR"
    },
    "installer": [
      {
        "task": {
          "arch": "win32",
          "description": "Creating Wine prefix",
          "name": "create_prefix",
          "prefix": "$GAMEDIR"
        }
      },
      {
        "task": {
          "arch": "win32",
          "args": "/SP- /SUPPRESSMSGBOXES",
          "executable": "game",
          "name": "wineexec",
          "prefix": "$GAMEDIR"
        }
      }
    ]
  },
  "content": "files:\n- game: N/A:Please select the GOG.com Windows installer.\ngame:\n  arch: win32\n  exe: drive_c/GOG Games/Hitman Codename 47/hitman.exe\n  prefix: $GAMEDIR\ninstaller:\n- task:\n    arch: win32\n    description: Creating Wine prefix\n    name: create_prefix\n    prefix: $GAMEDIR\n- task:\n    arch: win32\n    args: /SP- /SUPPRESSMSGBOXES\n    executable: game\n    name: wineexec\n    prefix: $GAMEDIR\n"
}