{
  "name": "Lucy Got Problems",
  "slug": "lucy-got-problems",
  "year": null,
  "description": "",
  "banner_url": "https://lutris.net/games/banner/lucy-got-problems.jpg",
  "icon_url": "https://lutris.net/games/icon/lucy-got-problems.png",
  "is_public": true,
  "updated": "2020-10-08T10:16:57.335581Z",
  "provider_games": [
    {
      "name": "Lucy Got Problems",
      "slug": "879510",
      "service": "steam"
    }
  ],
  "steamid": 879510,
  "gogid": null,
  "gogslug": "",
  "humblestoreid": "",
  "id": 26332
}