{
  "name": "Construction Simulator 2 US - Pocket Edition",
  "slug": "construction-simulator-2-us-pocket-edition",
  "year": null,
  "description": "",
  "banner_url": "https://lutris.net/games/banner/construction-simulator-2-us-pocket-edition.jpg",
  "icon_url": "https://lutris.net/games/icon/construction-simulator-2-us-pocket-edition.png",
  "is_public": true,
  "updated": "2020-10-08T09:58:03.294172Z",
  "provider_games": [
    {
      "name": "Construction Simulator 2 US - Pocket Edition",
      "slug": "787740",
      "service": "steam"
    }
  ],
  "steamid": 787740,
  "gogid": null,
  "gogslug": "",
  "humblestoreid": "",
  "id": 25100
}