{
  "id": 18298,
  "game_id": 2384,
  "game_slug": "railroad-tycoon-2-platinum",
  "name": "Railroad Tycoon 2: Platinum",
  "year": 1998,
  "user": "Dumdideldei",
  "runner": "wine",
  "slug": "railroad-tycoon-2-platinum-railroad-tycoon-2-pl",
  "version": "Railroad Tycoon 2 Platinum GOG",
  "description": "Works only for the platinum edition.",
  "notes": "Before starting the installation, download the offline installer from GOG.com to your computer.\r\n1. When the Railroad Tycoon II Platinum Setup installer opens, read and accept the EULA and hit the Install button.\r\n2. Ignore \"Runtime Error (at 69:1358)\" and click the OK button.\r\n3. Ignore \"Runtime Error (at 198:800): Invalid Opcode\" and click the OK button.\r\n4. Ignore \"Runtime Error (at 198:807): Out of Global Vars range.\" and click the OK button.\r\n5. Ignore the \"Out of Global Vars range.\" message box and click the OK button.\r\n6. As soon as the installation succeeds, click the Launch button to start the game.",
  "created_at": "2020-02-09T18:08:26.224000Z",
  "updated_at": "2020-03-07T09:56:35.062706Z",
  "draft": false,
  "published": true,
  "published_by": 20548,
  "rating": "",
  "steamid": 7620,
  "gogid": 1445250876,
  "gogslug": "railroad_tycoon_2",
  "humbleid": "",
  "humblestoreid": "",
  "humblestoreid_real": "",
  "script": {
    "files": [
      {
        "game": "N/A:Please select the Railroad Tycoon 2 Platinum GOG.com Windows installer."
      }
    ],
    "game": {
      "arch": "win32",
      "exe": "drive_c/GOG Games/Railroad Tycoon II/RT2_PLAT.EXE",
      "prefix": "$GAMEDIR"
    },
    "installer": [
      {
        "task": {
          "description": "Creating Wine prefix",
          "name": "create_prefix",
          "prefix": "$GAMEDIR"
        }
      },
      {
        "task": {
          "description": "Installing...",
          "executable": "game",
          "name": "wineexec",
          "prefix": "$GAMEDIR"
        }
      },
      {
        "task": {
          "app": "windowmanagermanaged=n",
          "name": "winetricks",
          "prefix": "$GAMEDIR",
          "silent": true
        }
      }
    ],
    "system": {
      "single_cpu": true
    }
  },
  "content": "files:\n- game: N/A:Please select the Railroad Tycoon 2 Platinum GOG.com Windows installer.\ngame:\n  arch: win32\n  exe: drive_c/GOG Games/Railroad Tycoon II/RT2_PLAT.EXE\n  prefix: $GAMEDIR\ninstaller:\n- task:\n    description: Creating Wine prefix\n    name: create_prefix\n    prefix: $GAMEDIR\n- task:\n    description: Installing...\n    executable: game\n    name: wineexec\n    prefix: $GAMEDIR\n- task:\n    app: windowmanagermanaged=n\n    name: winetricks\n    prefix: $GAMEDIR\n    silent: true\nsystem:\n  single_cpu: true\n"
}