{
  "id": 5122,
  "game_id": 5440,
  "game_slug": "f1-chequered-flag",
  "name": "F1 Chequered Flag",
  "year": null,
  "user": "FakeShemp",
  "runner": "wine",
  "slug": "f1-chequered-flag-groupees",
  "version": "Groupees",
  "description": "",
  "notes": "",
  "created_at": "2017-07-20T18:22:30.691000Z",
  "updated_at": "2018-05-19T03:41:56.910875Z",
  "draft": false,
  "published": true,
  "published_by": null,
  "rating": "",
  "steamid": 371600,
  "gogid": null,
  "gogslug": "",
  "humbleid": "",
  "humblestoreid": "",
  "humblestoreid_real": "",
  "script": {
    "files": [
      {
        "file1": "N/A:Please select the Groupees installer"
      }
    ],
    "game": {
      "arch": "win32",
      "exe": "drive_c/Program Files/Team6 game studios/F1 Chequered Flag/F-1.exe",
      "prefix": "$GAMEDIR"
    },
    "installer": [
      {
        "task": {
          "args": "/q2",
          "executable": "$file1",
          "name": "wineexec",
          "prefix": "$GAMEDIR"
        }
      }
    ]
  },
  "content": "files:\n- file1: N/A:Please select the Groupees installer\ngame:\n  arch: win32\n  exe: drive_c/Program Files/Team6 game studios/F1 Chequered Flag/F-1.exe\n  prefix: $GAMEDIR\ninstaller:\n- task:\n    args: /q2\n    executable: $file1\n    name: wineexec\n    prefix: $GAMEDIR\n"
}