{
  "name": "Find this!",
  "slug": "find-this",
  "year": null,
  "description": "",
  "banner_url": "https://lutris.net/games/banner/find-this.jpg",
  "icon_url": "https://lutris.net/games/icon/find-this.png",
  "is_public": true,
  "updated": "2020-10-08T10:01:02.057208Z",
  "provider_games": [
    {
      "name": "Find this!",
      "slug": "698300",
      "service": "steam"
    }
  ],
  "steamid": 698300,
  "gogid": null,
  "gogslug": "",
  "humblestoreid": "",
  "id": 18749
}