{
  "id": 2642,
  "game_id": 638,
  "game_slug": "deponia",
  "name": "Deponia",
  "year": 2012,
  "user": "ssf",
  "runner": "linux",
  "slug": "deponia-gog",
  "version": "GOG",
  "description": null,
  "notes": "",
  "created_at": "2016-08-31T18:21:32.231000Z",
  "updated_at": "2019-07-20T06:17:28.154423Z",
  "draft": false,
  "published": true,
  "published_by": 1,
  "rating": "",
  "steamid": 214340,
  "gogid": 1207659103,
  "gogslug": "deponia",
  "humbleid": "deponia",
  "humblestoreid": "deponia",
  "humblestoreid_real": "deponia",
  "script": {
    "files": [
      {
        "goginstaller": "N/A:Please select the GOG.com Linux installer"
      }
    ],
    "game": {
      "exe": "start.sh"
    },
    "installer": [
      {
        "extract": {
          "dst": "$CACHE/GOG",
          "file": "goginstaller",
          "format": "zip"
        }
      },
      {
        "merge": {
          "dst": "$GAMEDIR",
          "src": "$CACHE/GOG/data/noarch/"
        }
      }
    ]
  },
  "content": "files:\n- goginstaller: N/A:Please select the GOG.com Linux installer\ngame:\n  exe: start.sh\ninstaller:\n- extract:\n    dst: $CACHE/GOG\n    file: goginstaller\n    format: zip\n- merge:\n    dst: $GAMEDIR\n    src: $CACHE/GOG/data/noarch/\n"
}