{
  "name": "Drone Fighters",
  "slug": "drone-fighters",
  "year": null,
  "description": "",
  "banner_url": "https://lutris.net/games/banner/drone-fighters.jpg",
  "icon_url": "https://lutris.net/games/icon/drone-fighters.png",
  "is_public": true,
  "updated": "2020-10-08T10:03:48.885263Z",
  "provider_games": [
    {
      "name": "Drone Fighters",
      "slug": "612600",
      "service": "steam"
    }
  ],
  "steamid": 612600,
  "gogid": null,
  "gogslug": "",
  "humblestoreid": "",
  "id": 18575
}