{
  "name": "Joe's Diner",
  "slug": "joes-diner",
  "year": null,
  "description": "",
  "banner_url": "https://lutris.net/games/banner/joes-diner.jpg",
  "icon_url": "https://lutris.net/games/icon/joes-diner.png",
  "is_public": true,
  "updated": "2019-01-23T08:30:00.849056Z",
  "provider_games": [
    {
      "name": "Joe's Diner",
      "slug": "346040",
      "service": "steam"
    }
  ],
  "steamid": 346040,
  "gogid": null,
  "gogslug": "",
  "humblestoreid": "",
  "id": 4761
}