{
  "name": "King's Quest III: To Heir is Human (2011)",
  "slug": "kings-quest-iii-to-heir-is-human-2011",
  "year": 2011,
  "description": "Following in the tradition of the updated King's Quest I and King's Quest II enhanced remakes, we are proud to present the next installment in the popular King's Quest series, King's Quest III: To Heir is Human Redux, resumes from where our previous remake, King's Quest II: Romancing the Stones, ended. Featuring stunning new background artwork, and innovative digital musical score, high-quality voice acting, and a number of other refinements and additions, this is AGD Interactive's finest remake ever - a must play.",
  "banner_url": "https://lutris.net/games/banner/kings-quest-iii-to-heir-is-human-2011.jpg",
  "icon_url": "",
  "is_public": true,
  "updated": "2019-01-23T08:30:04.679768Z",
  "provider_games": [],
  "steamid": null,
  "gogid": null,
  "gogslug": "",
  "humblestoreid": "",
  "id": 13931
}