{
  "name": "Alliance of the Sacred Suns",
  "slug": "alliance-of-the-sacred-suns",
  "year": null,
  "description": "",
  "banner_url": "https://lutris.net/games/banner/alliance-of-the-sacred-suns.jpg",
  "icon_url": "https://lutris.net/games/icon/alliance-of-the-sacred-suns.png",
  "is_public": true,
  "updated": "2020-10-08T10:11:20.731962Z",
  "provider_games": [
    {
      "name": "Alliance of the Sacred Suns",
      "slug": "1113400",
      "service": "steam"
    }
  ],
  "steamid": 1113400,
  "gogid": null,
  "gogslug": "",
  "humblestoreid": "",
  "id": 29184
}