{
  "id": 2241,
  "game_id": 6490,
  "game_slug": "raiden-iii-digital-edition",
  "name": "Raiden III Digital Edition",
  "year": 2014,
  "user": "ssf",
  "runner": "wine",
  "slug": "raiden-iii-digital-edition-gog",
  "version": "GOG",
  "description": "",
  "notes": "",
  "created_at": "2016-07-03T16:07:22.718555Z",
  "updated_at": "2016-09-30T16:14:10.048104Z",
  "draft": false,
  "published": true,
  "published_by": null,
  "rating": "",
  "steamid": 315670,
  "gogid": 1207666023,
  "gogslug": "raiden_3_digital_edition",
  "humbleid": "",
  "humblestoreid": "",
  "humblestoreid_real": "",
  "script": {
    "files": [
      {
        "game": "N/A:Please select the Windows installer provided by GOG"
      }
    ],
    "game": {
      "arch": "win32",
      "exe": "drive_c/GOG Games/Raiden III/Raiden3.exe",
      "prefix": "$GAMEDIR"
    },
    "gogid": "raiden_3_digital_edition",
    "installer": [
      {
        "task": {
          "description": "Creating Wine prefix",
          "name": "create_prefix",
          "prefix": "$GAMEDIR"
        }
      },
      {
        "task": {
          "key": "winemenubuilder.exe",
          "name": "set_regedit",
          "path": "HKEY_CURRENT_USER\\Software\\Wine\\DllOverrides",
          "prefix": "$GAMEDIR",
          "type": "REG_SZ",
          "value": ""
        }
      },
      {
        "task": {
          "app": "d3dx9_36",
          "description": "Installing d3dx9_36 dll",
          "name": "winetricks",
          "prefix": "$GAMEDIR",
          "silent": false
        }
      },
      {
        "task": {
          "args": "/VERYSILENT /SP- /NOCANCEL /SUPPRESSMSGBOXES",
          "description": "Installing Raiden III",
          "executable": "game",
          "name": "wineexec",
          "prefix": "$GAMEDIR"
        }
      },
      {
        "task": {
          "app": "sandbox",
          "description": "Disabling unused WINE features",
          "name": "winetricks",
          "prefix": "$GAMEDIR",
          "silent": true
        }
      }
    ]
  },
  "content": "files:\n- game: N/A:Please select the Windows installer provided by GOG\ngame:\n  arch: win32\n  exe: drive_c/GOG Games/Raiden III/Raiden3.exe\n  prefix: $GAMEDIR\ngogid: raiden_3_digital_edition\ninstaller:\n- task:\n    description: Creating Wine prefix\n    name: create_prefix\n    prefix: $GAMEDIR\n- task:\n    key: winemenubuilder.exe\n    name: set_regedit\n    path: HKEY_CURRENT_USER\\Software\\Wine\\DllOverrides\n    prefix: $GAMEDIR\n    type: REG_SZ\n    value: ''\n- task:\n    app: d3dx9_36\n    description: Installing d3dx9_36 dll\n    name: winetricks\n    prefix: $GAMEDIR\n    silent: false\n- task:\n    args: /VERYSILENT /SP- /NOCANCEL /SUPPRESSMSGBOXES\n    description: Installing Raiden III\n    executable: game\n    name: wineexec\n    prefix: $GAMEDIR\n- task:\n    app: sandbox\n    description: Disabling unused WINE features\n    name: winetricks\n    prefix: $GAMEDIR\n    silent: true\n"
}