{
  "name": "Imekura Mahjong",
  "slug": "imekura-mahjong",
  "year": 1994,
  "description": "",
  "banner_url": "",
  "icon_url": "https://lutris.net/games/icon/imekura-mahjong.png",
  "is_public": true,
  "updated": "2020-05-26T03:34:41.817988Z",
  "provider_games": [
    {
      "name": "Imekura Mahjong",
      "slug": "imekura",
      "service": "mame"
    }
  ],
  "steamid": null,
  "gogid": null,
  "gogslug": "",
  "humblestoreid": "",
  "id": 34480
}