{
  "id": 19266,
  "game_id": 2049,
  "game_slug": "duke-nukem-3d",
  "name": "Duke Nukem 3D",
  "year": 1996,
  "user": "legluondunet",
  "runner": "linux",
  "slug": "duke-nukem-3d-hrp-for-eduke32",
  "version": "HRP for EDuke32",
  "description": "This script will install \"Hi Resolution Pack\" for EDuke32: HD graphism, HD music, light effects and other enhancements.\r\nCredits:\r\nBig thanks to the guys at Duke4.net:\r\nhttp://hrp.duke4.net/\r\nand his community:\r\nhttps://forums.duke4.net/",
  "notes": "- This script will not install \"Duke Nukem 3D\" nor EDuke32, it will only install Hi Resolution Packs provided by http://hrp.duke4.net/ and the \"Duke Nukem 3D\" community. So you have to install one of this scripts \"Steam + EDuke32\", \"All versions + EDuke32\" or \"GOG + EDuke32\" before this one.\r\n- Please report issue concerning this script on my Github page:\r\nhttps://github.com/legluondunet/MyLittleLutrisScripts/",
  "created_at": "2020-03-29T16:10:43.827000Z",
  "updated_at": "2020-04-04T23:51:15.085119Z",
  "draft": false,
  "published": true,
  "published_by": 494,
  "rating": "",
  "steamid": 225140,
  "gogid": 1207658730,
  "gogslug": "duke_nukem_3d_atomic_edition",
  "humbleid": "",
  "humblestoreid": "",
  "humblestoreid_real": "",
  "script": {
    "extends": "duke-nukem-3d",
    "files": [
      {
        "hrp1": "http://www.duke4.org/files/nightfright/hrp/duke3d_hrp.zip"
      },
      {
        "hrp2": {
          "filename": "hrpmusic.zip",
          "url": "https://www.dropbox.com/s/i7gsyz81x1xtvqh/duke3d_music-sc55.zip?dl=0"
        }
      }
    ],
    "installer": [
      {
        "merge": {
          "dst": "$GAMEDIR/hrp",
          "src": "hrp1"
        }
      },
      {
        "merge": {
          "dst": "$GAMEDIR/hrp",
          "src": "hrp2"
        }
      },
      {
        "write_config": {
          "file": "$GAMEDIR/config.cfg",
          "key": "Polymer",
          "section": "Screen Setup",
          "value": "1"
        }
      }
    ]
  },
  "content": "extends: duke-nukem-3d\nfiles:\n- hrp1: http://www.duke4.org/files/nightfright/hrp/duke3d_hrp.zip\n- hrp2:\n    filename: hrpmusic.zip\n    url: https://www.dropbox.com/s/i7gsyz81x1xtvqh/duke3d_music-sc55.zip?dl=0\ninstaller:\n- merge:\n    dst: $GAMEDIR/hrp\n    src: hrp1\n- merge:\n    dst: $GAMEDIR/hrp\n    src: hrp2\n- write_config:\n    file: $GAMEDIR/config.cfg\n    key: Polymer\n    section: Screen Setup\n    value: '1'\n"
}