{
  "name": "Logos",
  "slug": "logos",
  "year": null,
  "description": "",
  "banner_url": "https://lutris.net/games/banner/logos.jpg",
  "icon_url": "https://lutris.net/games/icon/logos.png",
  "is_public": true,
  "updated": "2020-10-08T10:08:58.105215Z",
  "provider_games": [
    {
      "name": "Logos",
      "slug": "684040",
      "service": "steam"
    }
  ],
  "steamid": 684040,
  "gogid": null,
  "gogslug": "",
  "humblestoreid": "",
  "id": 38775
}