{
  "name": "5 Minutes Rage",
  "slug": "5-minutes-rage",
  "year": null,
  "description": "",
  "banner_url": "https://lutris.net/games/banner/5-minutes-rage.jpg",
  "icon_url": "https://lutris.net/games/icon/5-minutes-rage.png",
  "is_public": true,
  "updated": "2020-10-08T10:14:39.027125Z",
  "provider_games": [
    {
      "name": "5 Minutes Rage",
      "slug": "416700",
      "service": "steam"
    }
  ],
  "steamid": 416700,
  "gogid": null,
  "gogslug": "",
  "humblestoreid": "",
  "id": 11359
}