{
  "name": "Amoreon NightClub",
  "slug": "amoreon-nightclub",
  "year": null,
  "description": "",
  "banner_url": "https://lutris.net/games/banner/amoreon-nightclub.jpg",
  "icon_url": "https://lutris.net/games/icon/amoreon-nightclub.png",
  "is_public": true,
  "updated": "2020-10-08T10:00:56.843725Z",
  "provider_games": [
    {
      "name": "Amoreon NightClub",
      "slug": "701100",
      "service": "steam"
    }
  ],
  "steamid": 701100,
  "gogid": null,
  "gogslug": "",
  "humblestoreid": "",
  "id": 15483
}