{
  "id": 2895,
  "game_id": 672,
  "game_slug": "age-of-empires-ii-hd",
  "name": "Age of Empires II HD",
  "year": 2013,
  "user": "strider",
  "runner": "wine",
  "slug": "age-of-empires-ii-hd-dvd",
  "version": "DVD",
  "description": "",
  "notes": "",
  "created_at": "2016-10-14T21:49:05.716173Z",
  "updated_at": "2018-05-19T03:41:49.090122Z",
  "draft": false,
  "published": true,
  "published_by": null,
  "rating": "",
  "steamid": 221380,
  "gogid": null,
  "gogslug": "",
  "humbleid": "",
  "humblestoreid": "",
  "humblestoreid_real": "",
  "script": {
    "files": [
      {
        "setup": "N/A:Select the setup file on the DVD"
      }
    ],
    "game": {
      "arch": "win32",
      "exe": "$GAMEDIR/drive_c/Program Files/Age2HD/Launcher_ AoE2HD.exe",
      "prefix": "$GAMEDIR"
    },
    "installer": [
      {
        "task": {
          "name": "create_prefix",
          "prefix": "$GAMEDIR"
        }
      },
      {
        "task": {
          "executable": "setup",
          "name": "wineexec",
          "prefix": "$GAMEDIR"
        }
      }
    ]
  },
  "content": "files:\n- setup: N/A:Select the setup file on the DVD\ngame:\n  arch: win32\n  exe: $GAMEDIR/drive_c/Program Files/Age2HD/Launcher_ AoE2HD.exe\n  prefix: $GAMEDIR\ninstaller:\n- task:\n    name: create_prefix\n    prefix: $GAMEDIR\n- task:\n    executable: setup\n    name: wineexec\n    prefix: $GAMEDIR\n"
}