{
  "name": "Closure",
  "slug": "closure",
  "year": null,
  "description": "",
  "banner_url": "https://lutris.net/games/banner/closure.jpg",
  "icon_url": "https://lutris.net/games/icon/closure.png",
  "is_public": true,
  "updated": "2020-08-15T23:50:34.294451Z",
  "provider_games": [
    {
      "name": "Closure",
      "slug": "closure",
      "service": "humblebundle"
    },
    {
      "name": "Closure",
      "slug": "72000",
      "service": "steam"
    }
  ],
  "steamid": 72000,
  "gogid": null,
  "gogslug": "",
  "humblestoreid": "closure",
  "id": 291
}