{
  "name": "Gump Runner",
  "slug": "gump-runner",
  "year": null,
  "description": "",
  "banner_url": "https://lutris.net/games/banner/gump-runner.jpg",
  "icon_url": "https://lutris.net/games/icon/gump-runner.png",
  "is_public": false,
  "updated": "2019-01-23T08:29:44.596803Z",
  "provider_games": [],
  "steamid": 606050,
  "gogid": null,
  "gogslug": "",
  "humblestoreid": "",
  "id": 13101
}