{
  "name": "Hack RUN",
  "slug": "hack-run",
  "year": null,
  "description": "",
  "banner_url": "https://lutris.net/games/banner/hack-run.jpg",
  "icon_url": "https://lutris.net/games/icon/hack-run.png",
  "is_public": true,
  "updated": "2020-10-08T10:15:47.060652Z",
  "provider_games": [
    {
      "name": "Hack RUN",
      "slug": "378110",
      "service": "steam"
    }
  ],
  "steamid": 378110,
  "gogid": null,
  "gogslug": "",
  "humblestoreid": "",
  "id": 4779
}