{
  "name": "Hypno-training My Mother and Sister",
  "slug": "hypno-training-my-mother-and-sister",
  "year": 2011,
  "description": "Minoru sat on his couch at home, his mother and sister at his feet, licking his dick... His mother Chikako sucked the tip while his sister Saki clumsily licked the shaft as if completely inexperienced...\r\n\r\nThere they were, Minoru's mother and sister, servicing him, against their will.\r\n\r\nEven Saki, who loathed her older brother, who resisted with all her heart, couldn't stop her body from obeying her brother's orders after he had cast his hypnosis on her.\r\n\r\nMinoru couldn't hide his surprise and excitement at the effect of his hypnotism, as he hadn't really thought his orders would be carried out so faithfully.\r\n\r\nHis mother and sister even started playing with their own pussies, obeying Minoru's order to masturbate. And Minoru's orders bound them tighter, their hearts swaying with pleasure...",
  "banner_url": "https://lutris.net/games/banner/hypno-training-my-mother-and-sister.jpg",
  "icon_url": "",
  "is_public": true,
  "updated": "2019-06-13T21:21:18.950067Z",
  "provider_games": [],
  "steamid": null,
  "gogid": null,
  "gogslug": "",
  "humblestoreid": "",
  "id": 11945
}