{
  "id": 23485,
  "game_id": 25303,
  "game_slug": "the-lord-of-the-rings-the-battle-for-middle-earth-",
  "name": "The Lord of The Rings The Battle For Middle-Earth II",
  "year": 2006,
  "user": "CeeJay333",
  "runner": "wine",
  "slug": "the-lord-of-the-rings-the-bat-change-me",
  "version": "Change Me",
  "description": null,
  "notes": "",
  "created_at": "2020-09-22T22:04:37.755555Z",
  "updated_at": "2020-09-22T22:04:37.755586Z",
  "draft": false,
  "published": false,
  "published_by": 20548,
  "rating": "",
  "steamid": null,
  "gogid": null,
  "gogslug": "",
  "humbleid": "",
  "humblestoreid": "",
  "humblestoreid_real": "",
  "script": {
    "files": [
      {
        "bfme2_patch1_06": "N/A:Please select the installer for patch 1.06 of \"The Battle for Middle-earth II\"."
      }
    ],
    "game": {
      "arch": "win32",
      "exe": "drive_c/Program Files/Electronic Arts/The Battle for Middle-earth (tm) II/lotrbfme2.exe",
      "prefix": "$GAMEDIR"
    },
    "installer": [
      {
        "task": {
          "arch": "win32",
          "description": "Creating 32-bit Wine Prefix",
          "name": "create_prefix",
          "prefix": "$GAMEDIR"
        }
      },
      {
        "insert-disc": {
          "requires": "AutoRun.exe"
        }
      },
      {
        "task": {
          "arch": "win32",
          "description": "Running game installer (Select \"Quit\" after the installation has finished)",
          "executable": "$DISC/AutoRun.exe",
          "name": "wineexec",
          "prefix": "$GAMEDIR"
        }
      },
      {
        "task": {
          "arch": "win32",
          "description": "Installing official patch 1.06",
          "executable": "bfme2_patch1_06",
          "name": "wineexec",
          "prefix": "$GAMEDIR"
        }
      }
    ]
  },
  "content": "files:\n- bfme2_patch1_06: N/A:Please select the installer for patch 1.06 of \"The Battle for\n    Middle-earth II\".\ngame:\n  arch: win32\n  exe: drive_c/Program Files/Electronic Arts/The Battle for Middle-earth (tm) II/lotrbfme2.exe\n  prefix: $GAMEDIR\ninstaller:\n- task:\n    arch: win32\n    description: Creating 32-bit Wine Prefix\n    name: create_prefix\n    prefix: $GAMEDIR\n- insert-disc:\n    requires: AutoRun.exe\n- task:\n    arch: win32\n    description: Running game installer (Select \"Quit\" after the installation has\n      finished)\n    executable: $DISC/AutoRun.exe\n    name: wineexec\n    prefix: $GAMEDIR\n- task:\n    arch: win32\n    description: Installing official patch 1.06\n    executable: bfme2_patch1_06\n    name: wineexec\n    prefix: $GAMEDIR\n"
}