{
  "name": "Chrono Ark",
  "slug": "chrono-ark",
  "year": null,
  "description": "",
  "banner_url": "https://lutris.net/games/banner/chrono-ark.jpg",
  "icon_url": "https://lutris.net/games/icon/chrono-ark.png",
  "is_public": true,
  "updated": "2020-10-08T09:18:40.260817Z",
  "provider_games": [
    {
      "name": "Chrono Ark",
      "slug": "1188930",
      "service": "steam"
    }
  ],
  "steamid": 1188930,
  "gogid": null,
  "gogslug": "",
  "humblestoreid": "",
  "id": 38299
}