{
  "name": "Crystals Colours",
  "slug": "crystals-colours",
  "year": 1998,
  "description": "",
  "banner_url": "",
  "icon_url": "https://lutris.net/games/icon/crystals-colours.png",
  "is_public": true,
  "updated": "2020-05-26T03:33:02.004497Z",
  "provider_games": [
    {
      "name": "Crystals Colours",
      "slug": "crystalc",
      "service": "mame"
    }
  ],
  "steamid": null,
  "gogid": null,
  "gogslug": "",
  "humblestoreid": "",
  "id": 33769
}