{
  "name": "Brawlerz Nitro",
  "slug": "brawlerz-nitro",
  "year": null,
  "description": "",
  "banner_url": "https://lutris.net/games/banner/brawlerz-nitro.jpg",
  "icon_url": "https://lutris.net/games/icon/brawlerz-nitro.png",
  "is_public": true,
  "updated": "2020-10-08T10:16:52.050446Z",
  "provider_games": [
    {
      "name": "Brawlerz Arena",
      "slug": "342660",
      "service": "steam"
    }
  ],
  "steamid": 342660,
  "gogid": null,
  "gogslug": "",
  "humblestoreid": "",
  "id": 11922
}