{
  "name": "Echoes of the Past: The Revenge of the Witch Collector's Edition",
  "slug": "echoes-of-the-past-the-revenge-of-the-witch-collec",
  "year": null,
  "description": "",
  "banner_url": "https://lutris.net/games/banner/echoes-of-the-past-the-revenge-of-the-witch-collec.jpg",
  "icon_url": "https://lutris.net/games/icon/echoes-of-the-past-the-revenge-of-the-witch-collec.png",
  "is_public": true,
  "updated": "2020-10-08T10:13:15.304706Z",
  "provider_games": [
    {
      "name": "Echoes of the Past: The Revenge of the Witch Collector's Edition",
      "slug": "465920",
      "service": "steam"
    }
  ],
  "steamid": 465920,
  "gogid": null,
  "gogslug": "",
  "humblestoreid": "",
  "id": 15959
}