{
  "name": "Lego Island 2: The Brickster's Revenge",
  "slug": "lego-island-2-the-bricksters-revenge",
  "year": 2001,
  "description": "",
  "banner_url": "https://lutris.net/games/banner/lego-island-2-the-bricksters-revenge.jpg",
  "icon_url": "",
  "is_public": true,
  "updated": "2019-06-07T05:26:16.969264Z",
  "provider_games": [],
  "steamid": null,
  "gogid": null,
  "gogslug": "",
  "humblestoreid": "",
  "id": 27680
}