{
  "name": "Gimper Simulator 3",
  "slug": "gimper-simulator-3",
  "year": 2019,
  "description": "",
  "banner_url": "https://lutris.net/games/banner/gimper-simulator-3.jpg",
  "icon_url": "",
  "is_public": true,
  "updated": "2020-06-16T20:41:04.815939Z",
  "provider_games": [],
  "steamid": null,
  "gogid": null,
  "gogslug": "",
  "humblestoreid": "",
  "id": 33211
}