{
  "name": "69 Ways to Kill a Zombie",
  "slug": "69-ways-to-kill-a-zombie",
  "year": null,
  "description": "",
  "banner_url": "https://lutris.net/games/banner/69-ways-to-kill-a-zombie.jpg",
  "icon_url": "https://lutris.net/games/icon/69-ways-to-kill-a-zombie.png",
  "is_public": true,
  "updated": "2020-10-08T10:07:04.780765Z",
  "provider_games": [
    {
      "name": "69 Ways to Kill a Zombie",
      "slug": "512410",
      "service": "steam"
    }
  ],
  "steamid": 512410,
  "gogid": null,
  "gogslug": "",
  "humblestoreid": "",
  "id": 10885
}