{
  "name": "Final Fantasy IV Advance",
  "slug": "final-fantasy-iv-advance",
  "year": 2005,
  "description": "The military country of Baron is one of the strongest in the land, with a proud army and a majestic air force known as the Red Wings. However, the recent actions of the king make even the most loyal of his subordinates doubt his judgment. The captain of the Red Wings, Cecil, is ordered to attack the city of Mysidia and take the Water Crystal from innocent magicians who protect it. When Cecil questions the king's orders, he is immediately thrown out of the country and sent off to deliver a package to the village of Mist, accompanied by his best friend Kain, the captain of the dragoons. Little does he realize that the king's inexplicable behavior is but a part of a much larger picture, which he is yet to reveal.\r\n\r\nThe fourth entry in the Final Fantasy series was released as Final Fantasy II in the West, because the second and the third games were not released there at the time. The game is a Japanese-style RPG with top-down world map navigation, automatic leveling up, and random enemy encounters.\r\n\r\nThe game introduces a system called ATB (active-time battle). While combat is turn-based in its core, the game does not pause when the player accesses the battle menu. Enemies continue to act in real time regardless of the actions of the player-controlled party. The turns of the participants are calculated depending on their agility rating. Each player-controlled character has a special bar that gradually refills itself; said character may act when the bar is full.\r\n\r\nUnlike all the previous Final Fantasy games, the fourth installment does not allow the player to customize the characters' abilities and classes. Each character belongs to a specific, clearly defined class: dragoon, white mage, black mage, summoner, ninja, etc. Each of these classes has distinct special abilities or magic spells. New abilities are learned automatically when a character reaches a pre-determined level. Characters join and leave the party as dictated by the game's plot events. The active party includes up to five combatants.",
  "banner_url": "https://lutris.net/games/banner/final-fantasy-iv-advance.jpg",
  "icon_url": "",
  "is_public": true,
  "updated": "2019-12-28T20:52:12.565771Z",
  "provider_games": [],
  "steamid": null,
  "gogid": null,
  "gogslug": "",
  "humblestoreid": "",
  "id": 30902
}