{
  "name": "Feral Blue",
  "slug": "feral-blue",
  "year": null,
  "description": "",
  "banner_url": "https://lutris.net/games/banner/feral-blue.jpg",
  "icon_url": "https://lutris.net/games/icon/feral-blue.png",
  "is_public": false,
  "updated": "2020-10-27T09:36:19.423495Z",
  "provider_games": [],
  "steamid": 618100,
  "gogid": null,
  "gogslug": "",
  "humblestoreid": "",
  "id": 40035
}