{
  "name": "Coloring Pixels",
  "slug": "coloring-pixels",
  "year": null,
  "description": "",
  "banner_url": "https://lutris.net/games/banner/coloring-pixels.jpg",
  "icon_url": "https://lutris.net/games/icon/coloring-pixels.png",
  "is_public": true,
  "updated": "2020-10-08T09:56:18.343604Z",
  "provider_games": [
    {
      "name": "Coloring Pixels",
      "slug": "897330",
      "service": "steam"
    }
  ],
  "steamid": 897330,
  "gogid": null,
  "gogslug": "",
  "humblestoreid": "",
  "id": 23481
}