{
  "name": "a nifty game",
  "slug": "a-nifty-game",
  "year": null,
  "description": "",
  "banner_url": "https://lutris.net/games/banner/a-nifty-game.jpg",
  "icon_url": "https://lutris.net/games/icon/a-nifty-game.png",
  "is_public": true,
  "updated": "2020-10-08T10:04:31.617325Z",
  "provider_games": [
    {
      "name": "a nifty game",
      "slug": "591390",
      "service": "steam"
    }
  ],
  "steamid": 591390,
  "gogid": null,
  "gogslug": "",
  "humblestoreid": "",
  "id": 25811
}