{
  "name": "CT Special Forces: Fire for Effect",
  "slug": "ct-special-forces-fire-for-effect",
  "year": null,
  "description": "",
  "banner_url": "https://lutris.net/games/banner/ct-special-forces-fire-for-effect.jpg",
  "icon_url": "https://lutris.net/games/icon/ct-special-forces-fire-for-effect.png",
  "is_public": true,
  "updated": "2020-10-08T09:20:40.642689Z",
  "provider_games": [
    {
      "name": "CT Special Forces: Fire for Effect",
      "slug": "283410",
      "service": "steam"
    }
  ],
  "steamid": 283410,
  "gogid": null,
  "gogslug": "",
  "humblestoreid": "",
  "id": 2302
}