{
  "id": 23982,
  "game_id": 27543,
  "game_slug": "gzdoom-builder-bugfix",
  "name": "Ultimate Doom Builder",
  "year": 2019,
  "user": "Tixij",
  "runner": "wine",
  "slug": "ultimate-doom-builder-change-me-1",
  "version": "Change Me",
  "description": "Installs the git build from DRD Team",
  "notes": "This may take a while; the dotnet472 installer is buggy and stalls a lot.\r\n\r\nIf you are having video issues, try setting the environmental variable `__GL_MaxFramesAllowed` to 0 instead of 1. (Configure->System options->Show Advanced->Environment variables)",
  "created_at": "2020-10-19T02:04:34.655656Z",
  "updated_at": "2020-10-19T02:04:34.655688Z",
  "draft": false,
  "published": false,
  "published_by": 20548,
  "rating": "",
  "steamid": null,
  "gogid": null,
  "gogslug": "",
  "humbleid": "",
  "humblestoreid": "",
  "humblestoreid_real": "",
  "script": {
    "files": [
      {
        "udb_installer": "https://devbuilds.drdteam.org/ultimatedoombuilder/UltimateDoomBuilder-r3379-x86.7z"
      }
    ],
    "game": {
      "arch": "win32",
      "exe": "$GAMEDIR/drive_c/ultimate_doom_builder/Builder.exe",
      "prefix": "$GAMEDIR"
    },
    "installer": [
      {
        "task": {
          "arch": "win32",
          "description": "Creating Wine prefix",
          "name": "create_prefix",
          "prefix": "$GAMEDIR"
        }
      },
      {
        "extract": {
          "dst": "$GAMEDIR/drive_c/ultimate_doom_builder",
          "src": "udb_installer"
        }
      },
      {
        "task": {
          "app": "corefonts",
          "description": "Installing Core Fonts",
          "name": "winetricks",
          "prefix": "$GAMEDIR",
          "silent": true
        }
      },
      {
        "task": {
          "app": "dotnet472",
          "description": "Installing .NET framework 4.7.2",
          "name": "winetricks",
          "prefix": "$GAMEDIR",
          "silent": true
        }
      },
      {
        "task": {
          "app": "winxp",
          "description": "Setting WINE version to WinXP",
          "name": "winetricks",
          "prefix": "$GAMEDIR",
          "silent": true
        }
      }
    ],
    "system": {
      "env": {
        "__GL_MaxFramesAllowed": 1
      }
    },
    "wine": {
      "dxvk": false,
      "esync": false
    }
  },
  "content": "files:\n- udb_installer: https://devbuilds.drdteam.org/ultimatedoombuilder/UltimateDoomBuilder-r3379-x86.7z\ngame:\n  arch: win32\n  exe: $GAMEDIR/drive_c/ultimate_doom_builder/Builder.exe\n  prefix: $GAMEDIR\ninstaller:\n- task:\n    arch: win32\n    description: Creating Wine prefix\n    name: create_prefix\n    prefix: $GAMEDIR\n- extract:\n    dst: $GAMEDIR/drive_c/ultimate_doom_builder\n    src: udb_installer\n- task:\n    app: corefonts\n    description: Installing Core Fonts\n    name: winetricks\n    prefix: $GAMEDIR\n    silent: true\n- task:\n    app: dotnet472\n    description: Installing .NET framework 4.7.2\n    name: winetricks\n    prefix: $GAMEDIR\n    silent: true\n- task:\n    app: winxp\n    description: Setting WINE version to WinXP\n    name: winetricks\n    prefix: $GAMEDIR\n    silent: true\nsystem:\n  env:\n    __GL_MaxFramesAllowed: 1\nwine:\n  dxvk: false\n  esync: false\n"
}