{
  "name": "EONIA",
  "slug": "eonia",
  "year": null,
  "description": "",
  "banner_url": "https://lutris.net/games/banner/eonia.jpg",
  "icon_url": "https://lutris.net/games/icon/eonia.png",
  "is_public": true,
  "updated": "2020-10-08T10:08:35.364033Z",
  "provider_games": [
    {
      "name": "EONIA",
      "slug": "826180",
      "service": "steam"
    }
  ],
  "steamid": 826180,
  "gogid": null,
  "gogslug": "",
  "humblestoreid": "",
  "id": 39251
}