{
  "id": 23685,
  "game_id": 1316,
  "game_slug": "command-and-conquer-3-tiberium-wars",
  "name": "Command & Conquer 3: Tiberium Wars",
  "year": 2007,
  "user": "erdo_king",
  "runner": "winesteam",
  "slug": "command-conquer-3-tiberium-wa-change-me-1",
  "version": "Change Me",
  "description": null,
  "notes": "",
  "created_at": "2020-10-03T21:14:42.129456Z",
  "updated_at": "2020-10-03T21:14:42.129487Z",
  "draft": false,
  "published": false,
  "published_by": 19464,
  "rating": "",
  "steamid": 24790,
  "gogid": null,
  "gogslug": "",
  "humbleid": "",
  "humblestoreid": "",
  "humblestoreid_real": "",
  "script": {
    "game": {
      "appid": 24790
    }
  },
  "content": "game:\n  appid: 24790\n"
}