{
  "name": "Grab the Bottle",
  "slug": "grab-the-bottle",
  "year": null,
  "description": "",
  "banner_url": "https://lutris.net/games/banner/grab-the-bottle.jpg",
  "icon_url": "https://lutris.net/games/icon/grab-the-bottle.png",
  "is_public": true,
  "updated": "2020-10-08T10:05:56.168501Z",
  "provider_games": [
    {
      "name": "Grab the Bottle",
      "slug": "546410",
      "service": "steam"
    }
  ],
  "steamid": 546410,
  "gogid": null,
  "gogslug": "",
  "humblestoreid": "",
  "id": 10237
}