{
  "name": "Far Space Halloween edition",
  "slug": "far-space-halloween-edition",
  "year": null,
  "description": "",
  "banner_url": "https://lutris.net/games/banner/far-space-halloween-edition.jpg",
  "icon_url": "https://lutris.net/games/icon/far-space-halloween-edition.png",
  "is_public": false,
  "updated": "2019-01-23T08:29:29.064099Z",
  "provider_games": [],
  "steamid": 671760,
  "gogid": null,
  "gogslug": "",
  "humblestoreid": "",
  "id": 16660
}