{
  "name": "Armello",
  "slug": "armello",
  "year": 2015,
  "description": "Armello is a grand swashbuckling adventure that combines three styles of play; The deep tactics of card games with the rich strategy of table top board games, combined with a character role-playing system.\r\n\r\nAs a hero from one of the clans of Armello, you'll quest, scheme, hire agents, explore, vanquish monsters, cast spells and face off against other players, with one ultimate end goal in mind — storming the palace and becoming King or Queen of Armello. The Kingdom of Armello is as dangerous as it is beautiful, perils, banes and bandits hide around every corner and a spreading corruption known as the rot is leaving no creature untouched.\r\n\r\nArmello is League of Geeks’ attempt to revolutionise digital board and card games, whilst providing players a rich world within which they can craft their own stories of epic adventure. The aim was to create a rich game full of backstabbing, close shaves, shattered alliances, ruses and empty promises - a perfect game to play online with your friends.",
  "banner_url": "https://lutris.net/games/banner/armello.jpg",
  "icon_url": "https://lutris.net/games/icon/armello.png",
  "is_public": true,
  "updated": "2020-05-31T00:17:34.756855Z",
  "provider_games": [
    {
      "name": "Armello DRM Free Edition",
      "slug": "1427129887",
      "service": "gog"
    },
    {
      "name": "Armello",
      "slug": "290340",
      "service": "steam"
    }
  ],
  "steamid": 290340,
  "gogid": 1427129887,
  "gogslug": "armello",
  "humblestoreid": "",
  "id": 4349
}