{
  "name": "Kot-Rybolov",
  "slug": "kot-rybolov",
  "year": 1988,
  "description": "",
  "banner_url": "",
  "icon_url": "https://lutris.net/games/icon/kot-rybolov.png",
  "is_public": true,
  "updated": "2020-05-26T03:35:07.314528Z",
  "provider_games": [
    {
      "name": "Kot-Rybolov",
      "slug": "kot",
      "service": "mame"
    }
  ],
  "steamid": null,
  "gogid": null,
  "gogslug": "",
  "humblestoreid": "",
  "id": 34660
}