{
  "name": "Freddi Fish and Luther's Maze Madness",
  "slug": "freddi-fish-and-luthers-maze-madness",
  "year": 1996,
  "description": "Dive in to help Freddi Fish and Luther navigate a labyrinth of underwater caves and collect the scattered kelp seeds! \r\n\r\nOver 50 maze-crazed caverns to explore. Junior Arcade games are jam-packed with fast-and-furious gameplay that satisfies kids' hunger for action and surprises! Starring lovable characters and the high-quality, hand-drawn animation that families have come to expect from Humongous Entertainment, this series will provide hours of action and fun for your children.",
  "banner_url": "https://lutris.net/games/banner/freddi-fish-and-luthers-maze-madness.jpg",
  "icon_url": "https://lutris.net/games/icon/freddi-fish-and-luthers-maze-madness.png",
  "is_public": true,
  "updated": "2019-01-23T08:29:34.969074Z",
  "provider_games": [
    {
      "name": "Freddi Fish and Luther's Maze Madness",
      "slug": "284020",
      "service": "steam"
    }
  ],
  "steamid": 284020,
  "gogid": null,
  "gogslug": "",
  "humblestoreid": "",
  "id": 2788
}