{
  "name": "Ghostory",
  "slug": "ghostory",
  "year": null,
  "description": "",
  "banner_url": "https://lutris.net/games/banner/ghostory.jpg",
  "icon_url": "https://lutris.net/games/icon/ghostory.png",
  "is_public": true,
  "updated": "2020-10-08T10:05:15.406041Z",
  "provider_games": [
    {
      "name": "Ghostory",
      "slug": "568460",
      "service": "steam"
    }
  ],
  "steamid": 568460,
  "gogid": null,
  "gogslug": "",
  "humblestoreid": "",
  "id": 14858
}