{
  "id": 20913,
  "game_id": 10570,
  "game_slug": "codename-iceman",
  "name": "Codename: ICEMAN",
  "year": 1984,
  "user": "appoloin",
  "runner": "scummvm",
  "slug": "codename-iceman-ms-dos",
  "version": "MS-DOS",
  "description": null,
  "notes": "",
  "created_at": "2020-05-28T20:29:54.681000Z",
  "updated_at": "2020-05-29T08:27:22.625663Z",
  "draft": false,
  "published": true,
  "published_by": 20548,
  "rating": "",
  "steamid": null,
  "gogid": 1405883093,
  "gogslug": "codename_iceman",
  "humbleid": "",
  "humblestoreid": "",
  "humblestoreid_real": "",
  "script": {
    "files": [
      {
        "game": "N/A:Select the file SIERRA.COM"
      }
    ],
    "game": {
      "game_id": "sci",
      "path": "$GAMEDIR"
    },
    "installer": [
      {
        "write_file": {
          "content": "#!/bin/bash\nsrc=$1\ndst=$2\nsrc_path=$(echo \"$1\" | sed -r \"s/(.+)\\/.+/\\1/\")\ncp -avr \"$src_path/.\"  \"$dst\"",
          "file": "$CACHE/bulkcopy.sh"
        }
      },
      {
        "chmodx": "$CACHE/bulkcopy.sh"
      },
      {
        "execute": {
          "args": "$game $GAMEDIR",
          "file": "$CACHE/bulkcopy.sh"
        }
      }
    ],
    "scummvm": {
      "fullscreen": true
    }
  },
  "content": "files:\n- game: N/A:Select the file SIERRA.COM\ngame:\n  game_id: sci\n  path: $GAMEDIR\ninstaller:\n- write_file:\n    content: '#!/bin/bash\n\n      src=$1\n\n      dst=$2\n\n      src_path=$(echo \"$1\" | sed -r \"s/(.+)\\/.+/\\1/\")\n\n      cp -avr \"$src_path/.\"  \"$dst\"'\n    file: $CACHE/bulkcopy.sh\n- chmodx: $CACHE/bulkcopy.sh\n- execute:\n    args: $game $GAMEDIR\n    file: $CACHE/bulkcopy.sh\nscummvm:\n  fullscreen: true\n"
}