{
  "name": "Dragon Saber",
  "slug": "dragon-saber",
  "year": 1990,
  "description": "",
  "banner_url": "",
  "icon_url": "https://lutris.net/games/icon/dragon-saber.png",
  "is_public": true,
  "updated": "2020-05-26T03:33:25.596869Z",
  "provider_games": [
    {
      "name": "Dragon Saber",
      "slug": "dsaber",
      "service": "mame"
    }
  ],
  "steamid": null,
  "gogid": null,
  "gogslug": "",
  "humblestoreid": "",
  "id": 33966
}