{
  "name": "Driftwood The Visual Novel",
  "slug": "driftwood-the-visual-novel",
  "year": 2016,
  "description": "Driftwood is a fictional bishoujo visual novel—in short, a text-based dating simulation game (dating sim)—that follows the life of adolescent protagonist Marcus Feick from Boston, Massachusetts.\r\n\r\nIn Marcus’s junior year in high school, after asking the girl of his dreams out on a date, he finds himself caught in a catastrophic event that leaves him physically and emotionally wounded.\r\n\r\nBecause of the incident, as well as complications with his newly formed relationship, his overprotective parents decide to transfer him to a boarding school south of Boston and nearly a hundred miles away on the island of Martha’s Vineyard. This act relegates his old life to nothing but sour memories and broken promises.\r\n\r\nAt the new boarding school on Martha’s Vineyard, Marcus is introduced to a variety of cultures and personalities. The story and game focus primarily on five main female characters that can affect Marcus’s life positively or negatively based on the player’s choices.\r\n\r\nEach character is designed to teach Marcus a profound life lesson, helping him better understand the world and the difficult process of becoming an adult",
  "banner_url": "https://lutris.net/games/banner/driftwood-the-visual-novel.jpg",
  "icon_url": "https://lutris.net/games/icon/driftwood-the-visual-novel.png",
  "is_public": true,
  "updated": "2019-01-23T08:29:17.771360Z",
  "provider_games": [
    {
      "name": "Driftwood The Visual Novel",
      "slug": "510750",
      "service": "steam"
    }
  ],
  "steamid": 510750,
  "gogid": null,
  "gogslug": "",
  "humblestoreid": "",
  "id": 9553
}