{
  "name": "Bad birthday",
  "slug": "bad-birthday",
  "year": null,
  "description": "",
  "banner_url": "https://lutris.net/games/banner/bad-birthday.jpg",
  "icon_url": "https://lutris.net/games/icon/bad-birthday.png",
  "is_public": true,
  "updated": "2020-10-08T10:05:46.019145Z",
  "provider_games": [
    {
      "name": "Bad birthday",
      "slug": "551680",
      "service": "steam"
    }
  ],
  "steamid": 551680,
  "gogid": null,
  "gogslug": "",
  "humblestoreid": "",
  "id": 12833
}