{
  "name": "Eggs Playing Chicken",
  "slug": "eggs-playing-chicken",
  "year": 2002,
  "description": "",
  "banner_url": "",
  "icon_url": "https://lutris.net/games/icon/eggs-playing-chicken.png",
  "is_public": true,
  "updated": "2020-05-26T03:33:32.384229Z",
  "provider_games": [
    {
      "name": "Eggs Playing Chicken",
      "slug": "eggsplc",
      "service": "mame"
    }
  ],
  "steamid": null,
  "gogid": null,
  "gogslug": "",
  "humblestoreid": "",
  "id": 33997
}