{
  "name": "Looterkings",
  "slug": "looterkings",
  "year": null,
  "description": "",
  "banner_url": "https://lutris.net/games/banner/looterkings.jpg",
  "icon_url": "https://lutris.net/games/icon/looterkings.png",
  "is_public": true,
  "updated": "2020-10-08T10:15:13.080939Z",
  "provider_games": [
    {
      "name": "Looterkings",
      "slug": "397310",
      "service": "steam"
    }
  ],
  "steamid": 397310,
  "gogid": null,
  "gogslug": "",
  "humblestoreid": "",
  "id": 20941
}