{
  "name": "Citalis",
  "slug": "citalis",
  "year": null,
  "description": "",
  "banner_url": "https://lutris.net/games/banner/citalis.jpg",
  "icon_url": "https://lutris.net/games/icon/citalis.png",
  "is_public": true,
  "updated": "2020-10-08T10:06:07.324015Z",
  "provider_games": [
    {
      "name": "Citalis",
      "slug": "539440",
      "service": "steam"
    }
  ],
  "steamid": 539440,
  "gogid": null,
  "gogslug": "",
  "humblestoreid": "",
  "id": 10946
}