{
  "id": 23226,
  "game_id": 15239,
  "game_slug": "getting-over-it-with-bennett-foddy",
  "name": "Getting Over It with Bennett Foddy",
  "year": 2017,
  "user": "JoStro",
  "runner": "linux",
  "slug": "getting-over-it-with-bennett-humble-bundle",
  "version": "Humble Bundle",
  "description": null,
  "notes": "",
  "created_at": "2020-09-06T12:18:36.172177Z",
  "updated_at": "2020-09-06T12:18:36.172206Z",
  "draft": true,
  "published": false,
  "published_by": null,
  "rating": "",
  "steamid": 240720,
  "gogid": null,
  "gogslug": "",
  "humbleid": "gettingoveritwithbennettfoddy",
  "humblestoreid": "gettingoveritwithbennettfoddy",
  "humblestoreid_real": "gettingoveritwithbennettfoddy",
  "script": {
    "files": [
      {
        "game": "N/A:Please select the *.zip downloaded from https://www.humblebundle.com"
      }
    ],
    "game": {
      "appid": 240720,
      "exe": "GettingOverIt.x86_64"
    },
    "installer": [
      {
        "extract": {
          "file": "game"
        }
      },
      {
        "chmodx": "$GAMEDIR/GettingOverIt.x86_64"
      }
    ]
  },
  "content": "files:\n- game: N/A:Please select the *.zip downloaded from https://www.humblebundle.com\ngame:\n  appid: 240720\n  exe: GettingOverIt.x86_64\ninstaller:\n- extract:\n    file: game\n- chmodx: $GAMEDIR/GettingOverIt.x86_64\n"
}