{
  "name": "8 Ball",
  "slug": "8-ball",
  "year": null,
  "description": "",
  "banner_url": "https://lutris.net/games/banner/8-ball.jpg",
  "icon_url": "https://lutris.net/games/icon/8-ball.png",
  "is_public": true,
  "updated": "2019-01-23T08:28:09.741388Z",
  "provider_games": [
    {
      "name": "8 Ball",
      "slug": "818530",
      "service": "steam"
    }
  ],
  "steamid": 818530,
  "gogid": null,
  "gogslug": "",
  "humblestoreid": "",
  "id": 19318
}