{
  "name": "Just Get Through",
  "slug": "just-get-through",
  "year": null,
  "description": "",
  "banner_url": "https://lutris.net/games/banner/just-get-through.jpg",
  "icon_url": "",
  "is_public": true,
  "updated": "2019-01-23T08:30:01.907813Z",
  "provider_games": [
    {
      "name": "Just Get Through",
      "slug": "338190",
      "service": "steam"
    }
  ],
  "steamid": 338190,
  "gogid": null,
  "gogslug": "",
  "humblestoreid": "",
  "id": 3803
}