{
  "id": 22967,
  "game_id": 3709,
  "game_slug": "star-wars-the-old-republic",
  "name": "Star Wars: The Old Republic",
  "year": 2011,
  "user": "soredake",
  "runner": "steam",
  "slug": "star-wars-the-old-republic-proton",
  "version": "Proton",
  "description": null,
  "notes": "",
  "created_at": "2020-08-21T13:22:02.301797Z",
  "updated_at": "2020-08-21T13:22:02.301826Z",
  "draft": false,
  "published": false,
  "published_by": null,
  "rating": "",
  "steamid": 1286830,
  "gogid": null,
  "gogslug": "",
  "humbleid": "",
  "humblestoreid": "",
  "humblestoreid_real": "",
  "script": {
    "game": {
      "appid": 1286830
    }
  },
  "content": "game:\n  appid: 1286830\n"
}