{
  "name": "$1 Ride",
  "slug": "1-ride",
  "year": null,
  "description": "",
  "banner_url": "https://lutris.net/games/banner/1-ride.jpg",
  "icon_url": "https://lutris.net/games/icon/1-ride.png",
  "is_public": true,
  "updated": "2019-01-23T08:28:08.399672Z",
  "provider_games": [
    {
      "name": "$1 Ride",
      "slug": "508290",
      "service": "steam"
    }
  ],
  "steamid": 508290,
  "gogid": null,
  "gogslug": "",
  "humblestoreid": "",
  "id": 9290
}