{
  "name": "aMAZEing adventures",
  "slug": "amazeing-adventures",
  "year": null,
  "description": "",
  "banner_url": "https://lutris.net/games/banner/amazeing-adventures.jpg",
  "icon_url": "https://lutris.net/games/icon/amazeing-adventures.png",
  "is_public": true,
  "updated": "2020-10-08T10:05:43.148231Z",
  "provider_games": [
    {
      "name": "aMAZEing adventures",
      "slug": "552870",
      "service": "steam"
    }
  ],
  "steamid": 552870,
  "gogid": null,
  "gogslug": "",
  "humblestoreid": "",
  "id": 10518
}