{
  "name": "Legend Knight",
  "slug": "legend-knight",
  "year": null,
  "description": "",
  "banner_url": "https://lutris.net/games/banner/legend-knight.jpg",
  "icon_url": "https://lutris.net/games/icon/legend-knight.png",
  "is_public": true,
  "updated": "2020-10-08T09:57:51.465495Z",
  "provider_games": [
    {
      "name": "Legend Knight",
      "slug": "797660",
      "service": "steam"
    }
  ],
  "steamid": 797660,
  "gogid": null,
  "gogslug": "",
  "humblestoreid": "",
  "id": 23111
}