{
  "name": "Grim Reaper Who Reaped My Heart",
  "slug": "grim-reaper-who-reaped-my-heart",
  "year": null,
  "description": "",
  "banner_url": "https://lutris.net/games/banner/grim-reaper-who-reaped-my-heart.jpg",
  "icon_url": "",
  "is_public": true,
  "updated": "2019-10-22T22:02:01.211454Z",
  "provider_games": [],
  "steamid": null,
  "gogid": null,
  "gogslug": "",
  "humblestoreid": "",
  "id": 29705
}