{
  "name": "Commandos: Beyond the Call of Duty",
  "slug": "commandos-beyond-the-call-of-duty",
  "year": 1999,
  "description": "You have been selected for active service in the Commandos Corps, and must now mobilize in a series of 8 new dangerous missions. You may come with experience of action 'Behind Enemy Lines' or perhaps you are just a rookie - whatever you are, you will be given the opportunity to push your daring and tactical ability to the limit. As the leader of a small elite unit operating deep within enemy territory, you will experience new challenges and goals with these new missions. Plus new vehicles, buildings, weapons and 2 levels of difficulty will satisfy both Commandos veterans and new recruits.\r\n\r\n*    Distract and confuse the enemy soldiers by throwing stones and cigarette boxes.\r\n*    Kidnap German soldiers, destroy train-mounted artillery and sabotage prototype aircraft.\r\n*    Eliminate opponents from considerable distance with the Enfield long-range weapon.\r\n*    Two new characters; a female member of the Dutch resistance, and a Major from the Yugoslav Partisan forces.\r\n*    Use ether, handcuffs, a club or your own fists to subdue the enemy.",
  "banner_url": "https://lutris.net/games/banner/commandos-beyond-the-call-of-duty.jpg",
  "icon_url": "https://lutris.net/games/icon/commandos-beyond-the-call-of-duty.png",
  "is_public": true,
  "updated": "2020-05-31T00:17:37.980302Z",
  "provider_games": [
    {
      "name": "Commandos - Beyond The Call Of Duty",
      "slug": "1207662203",
      "service": "gog"
    },
    {
      "name": "Commandos: Beyond the Call of Duty",
      "slug": "6810",
      "service": "steam"
    }
  ],
  "steamid": 6810,
  "gogid": 1207662203,
  "gogslug": "commandos_beyond_the_call_of_duty",
  "humblestoreid": "",
  "id": 794
}