{
  "name": "Chronicles of Mystery - The Legend of the Sacred Treasure",
  "slug": "chronicles-of-mystery-the-legend-of-the-sacred-tre",
  "year": null,
  "description": "",
  "banner_url": "https://lutris.net/games/banner/chronicles-of-mystery-the-legend-of-the-sacred-tre.jpg",
  "icon_url": "https://lutris.net/games/icon/chronicles-of-mystery-the-legend-of-the-sacred-tre.png",
  "is_public": true,
  "updated": "2020-10-08T09:57:28.370033Z",
  "provider_games": [
    {
      "name": "Chronicles of Mystery - The Legend of the Sacred Treasure",
      "slug": "837100",
      "service": "steam"
    }
  ],
  "steamid": 837100,
  "gogid": null,
  "gogslug": "",
  "humblestoreid": "",
  "id": 22036
}