{
  "name": "Kindred Spirits on the Roof Drama CD Vol.4",
  "slug": "kindred-spirits-on-the-roof-drama-cd-vol4",
  "year": null,
  "description": "",
  "banner_url": "https://lutris.net/games/banner/kindred-spirits-on-the-roof-drama-cd-vol4.jpg",
  "icon_url": "https://lutris.net/games/icon/kindred-spirits-on-the-roof-drama-cd-vol4.png",
  "is_public": true,
  "updated": "2020-10-08T10:07:12.768862Z",
  "provider_games": [
    {
      "name": "Kindred Spirits on the Roof Drama CD Vol.4",
      "slug": "508280",
      "service": "steam"
    }
  ],
  "steamid": 508280,
  "gogid": 1768124665,
  "gogslug": "kindred_spirits_on_the_roof_drama_cd_vol4",
  "humblestoreid": "",
  "id": 15990
}