{
  "name": "Arctic alive",
  "slug": "arctic-alive",
  "year": null,
  "description": "",
  "banner_url": "https://lutris.net/games/banner/arctic-alive.jpg",
  "icon_url": "https://lutris.net/games/icon/arctic-alive.png",
  "is_public": true,
  "updated": "2020-10-08T10:14:04.090616Z",
  "provider_games": [
    {
      "name": "Arctic alive",
      "slug": "436860",
      "service": "steam"
    }
  ],
  "steamid": 436860,
  "gogid": null,
  "gogslug": "",
  "humblestoreid": "",
  "id": 14224
}