{
  "name": "Inferno",
  "slug": "inferno",
  "year": 1984,
  "description": "",
  "banner_url": "https://lutris.net/games/banner/inferno.jpg",
  "icon_url": "https://lutris.net/games/icon/inferno.png",
  "is_public": true,
  "updated": "2020-05-26T03:34:42.965875Z",
  "provider_games": [
    {
      "name": "Inferno",
      "slug": "inferno",
      "service": "mame"
    }
  ],
  "steamid": null,
  "gogid": null,
  "gogslug": "",
  "humblestoreid": "",
  "id": 34485
}