{
  "name": "Big Bang Empire",
  "slug": "big-bang-empire",
  "year": null,
  "description": "Big Bang Empire takes you into the world of glitter, plush and red lights. Let yourself be seduced by the sexy comic look and a good portion of irony at places like Santo Rocco or Los Vengeles in this unique adventure!",
  "banner_url": "https://lutris.net/games/banner/big-bang-empire.jpg",
  "icon_url": "https://lutris.net/games/icon/big-bang-empire.png",
  "is_public": true,
  "updated": "2019-01-23T08:28:35.635852Z",
  "provider_games": [
    {
      "name": "Big Bang Empire",
      "slug": "510660",
      "service": "steam"
    }
  ],
  "steamid": 510660,
  "gogid": null,
  "gogslug": "",
  "humblestoreid": "",
  "id": 7974
}