{
  "id": 23856,
  "game_id": 7678,
  "game_slug": "duke-nukem-3d-megaton-edition",
  "name": "Duke Nukem 3D: Megaton Edition",
  "year": 2013,
  "user": "legluondunet",
  "runner": "linux",
  "slug": "duke-nukem-3d-megaton-edition-bonus-levels-for-edu",
  "version": "Bonus levels for EDuke32",
  "description": "This script will install more than hundred \"Duke Nukem 3D\" bonus levels for EDuke32.\r\nCredits:\r\nBig thanks to NightFright: \r\nhttps://forums.duke4.net/topic/7640-release-eduke32-addon-compilation/\r\nand to the guys at Duke4.net:\r\nhttp://hrp.duke4.net/",
  "notes": "- This script will not install \"Duke Nukem 3D\" nor EDuke32, it will only install bonus levels provided by FrightNight. So you have to install one of this scripts \"Steam + EDuke32\", \"All versions + EDuke32\" or \"GOG + EDuke32\" before this one.\r\n- Please report issue concerning this script on my Github page:\r\nhttps://github.com/legluondunet/MyLittleLutrisScripts/",
  "created_at": "2020-10-11T20:08:28.358000Z",
  "updated_at": "2020-10-11T20:08:49.448045Z",
  "draft": false,
  "published": true,
  "published_by": 494,
  "rating": "",
  "steamid": null,
  "gogid": null,
  "gogslug": "",
  "humbleid": "",
  "humblestoreid": "",
  "humblestoreid_real": "",
  "script": {
    "extends": "duke-nukem-3d",
    "files": [
      {
        "fngt": {
          "filename": "addons.7z",
          "url": "https://www.dropbox.com/s/7n0uqk2gd1i6rxh/eduke32_addons314.exe?dl=1"
        }
      },
      {
        "dznii": {
          "filename": "dukezoneii.zip",
          "url": "https://www.dropbox.com/s/kwntvzyvpmsbj1b/dukezone2.zip?dl=1"
        }
      }
    ],
    "installer": [
      {
        "execute": {
          "command": "chmod -R +rw $GAMEDIR/dn3d/addons/"
        }
      },
      {
        "extract": {
          "dst": "$GAMEDIR/dn3d/addons/frightnight",
          "format": "7z",
          "src": "fngt"
        }
      },
      {
        "extract": {
          "dst": "$GAMEDIR/dn3d/addons/frightnight/",
          "src": "dznii"
        }
      }
    ]
  },
  "content": "extends: duke-nukem-3d\nfiles:\n- fngt:\n    filename: addons.7z\n    url: https://www.dropbox.com/s/7n0uqk2gd1i6rxh/eduke32_addons314.exe?dl=1\n- dznii:\n    filename: dukezoneii.zip\n    url: https://www.dropbox.com/s/kwntvzyvpmsbj1b/dukezone2.zip?dl=1\ninstaller:\n- execute:\n    command: chmod -R +rw $GAMEDIR/dn3d/addons/\n- extract:\n    dst: $GAMEDIR/dn3d/addons/frightnight\n    format: 7z\n    src: fngt\n- extract:\n    dst: $GAMEDIR/dn3d/addons/frightnight/\n    src: dznii\n"
}