{
  "name": "Apex Legends",
  "slug": "apex-legends",
  "year": 2019,
  "description": "The Next Evolution of Battle Royale\r\n\r\nShow ‘em what you’re made of in Apex Legends, a free-to-play Battle Royale game where contenders from across the Frontier team up to battle for glory, fame, and fortune.\r\n\r\nExplore a growing roster of powerful Legends, each with their own unique personality, strengths, and abilities. Choose your Legend, team up with two other players, and combine your unique skills to be the last squad standing. Master your Legend’s abilities, make strategic calls on the fly, and use your team’s strengths to your advantage.",
  "banner_url": "https://lutris.net/games/banner/apex-legends.jpg",
  "icon_url": "https://lutris.net/games/icon/apex-legends.png",
  "is_public": true,
  "updated": "2020-11-07T02:57:30.888486Z",
  "provider_games": [],
  "steamid": 1172470,
  "gogid": null,
  "gogslug": "",
  "humblestoreid": "",
  "id": 25594
}