{
  "id": 5579,
  "game_id": 1121,
  "game_slug": "ufo-afterlight",
  "name": "UFO: Afterlight",
  "year": 2007,
  "user": "FakeShemp",
  "runner": "wine",
  "slug": "ufo-afterlight-groupees",
  "version": "Groupees",
  "description": "",
  "notes": "",
  "created_at": "2017-09-04T15:49:22.059000Z",
  "updated_at": "2018-05-19T03:41:57.730549Z",
  "draft": false,
  "published": true,
  "published_by": null,
  "rating": "",
  "steamid": 237950,
  "gogid": 1207658869,
  "gogslug": "ufo_afterlight",
  "humbleid": "",
  "humblestoreid": "",
  "humblestoreid_real": "",
  "script": {
    "files": [
      {
        "file1": "N/A:Please select the Groupees archive"
      }
    ],
    "game": {
      "arch": "win32",
      "exe": "drive_c/Program Files/CENEGA/UFO Afterlight/UFO.exe",
      "prefix": "$GAMEDIR"
    },
    "installer": [
      {
        "extract": {
          "dst": "$CACHE",
          "file": "$file1"
        }
      },
      {
        "task": {
          "executable": "$CACHE/setup.exe",
          "name": "wineexec",
          "prefix": "$GAMEDIR"
        }
      }
    ]
  },
  "content": "files:\n- file1: N/A:Please select the Groupees archive\ngame:\n  arch: win32\n  exe: drive_c/Program Files/CENEGA/UFO Afterlight/UFO.exe\n  prefix: $GAMEDIR\ninstaller:\n- extract:\n    dst: $CACHE\n    file: $file1\n- task:\n    executable: $CACHE/setup.exe\n    name: wineexec\n    prefix: $GAMEDIR\n"
}