{
  "name": "Birdie King 2",
  "slug": "birdie-king-2",
  "year": 1983,
  "description": "",
  "banner_url": "https://lutris.net/games/banner/birdie-king-2.jpg",
  "icon_url": "https://lutris.net/games/icon/birdie-king-2.png",
  "is_public": true,
  "updated": "2020-05-26T03:32:15.096175Z",
  "provider_games": [
    {
      "name": "Birdie King 2",
      "slug": "bking2",
      "service": "mame"
    }
  ],
  "steamid": null,
  "gogid": null,
  "gogslug": "",
  "humblestoreid": "",
  "id": 33449
}