{
  "name": "Hyper Universe",
  "slug": "hyper-universe",
  "year": null,
  "description": "",
  "banner_url": "https://lutris.net/games/banner/hyper-universe.jpg",
  "icon_url": "https://lutris.net/games/icon/hyper-universe.png",
  "is_public": true,
  "updated": "2020-10-08T10:04:32.082383Z",
  "provider_games": [
    {
      "name": "Hyper Universe",
      "slug": "591530",
      "service": "steam"
    }
  ],
  "steamid": 591530,
  "gogid": null,
  "gogslug": "",
  "humblestoreid": "",
  "id": 14989
}