{
  "id": 23006,
  "game_id": 21961,
  "game_slug": "harry-potter-and-the-prisoner-of-azkaban",
  "name": "Harry Potter and the Prisoner of Azkaban",
  "year": 2004,
  "user": "zzethra",
  "runner": "wine",
  "slug": "harry-potter-and-the-prisoner-pc-retail-cd",
  "version": "PC Retail CD",
  "description": null,
  "notes": "",
  "created_at": "2020-08-23T09:03:00.671954Z",
  "updated_at": "2020-08-23T09:03:00.671982Z",
  "draft": true,
  "published": false,
  "published_by": null,
  "rating": "",
  "steamid": null,
  "gogid": null,
  "gogslug": "",
  "humbleid": "",
  "humblestoreid": "",
  "humblestoreid_real": "",
  "script": {
    "files": [
      {
        "noCDPatch": {
          "filename": "nocd.7z",
          "url": "https://files.lonebullet.com/harry-potter-and-the-prisoner-of-azkaban/cracks/harry-potter-and-the-prisoner-of-azkaban-v10-english-fixed-exe.rar?"
        }
      }
    ],
    "game": {
      "arch": "win32",
      "exe": "$GAMEDIR/drive_c/Program Files(x86)/EA Games/Harry Potter and the Prisoner of Azkaban(TM)/system/hppoa.exe",
      "prefix": "$GAMEDIR"
    },
    "installer": [
      {
        "install-disc": [
          {
            "requires": "AutoRun.exe"
          }
        ]
      },
      {
        "task": {
          "arch": "win32",
          "description": "Creating Wine prefix",
          "install_gecko": false,
          "install_mono": false,
          "name": "create_prefix",
          "prefix": "$GAMEDIR"
        }
      },
      {
        "task": {
          "arch": "win32",
          "description": "Click the 'no' button on the 'launch the game after install ?' window",
          "executable": "$DISC/AutoRun.exe",
          "name": "wineexec",
          "working_dir": "$DISC"
        }
      },
      {
        "execute": {
          "command": "mkdir $GAMEDIR/Temp"
        }
      },
      {
        "execute": {
          "command": "7z x -plonebullet $GAMEDIR/Temp/nocd.7z -o$GAMEDIR/Temp -aoa;7z x $GAMEDIR/Temp/harry-potter-and-the-prisoner-of-azkaban-v10-english-fixed-exe.rar -o$GAMEDIR/\"drive_c/Program Files/EA Games/Harry Potter and the Prisoner of Azkaban(TM)/system\" -aoa;rm -rf $GAMEDIR/Temp"
        }
      }
    ],
    "require-binaries": "7z",
    "system": {
      "reset_desktop": true
    },
    "wine": {
      "Desktop": false,
      "version": "tkg-protonified-4.6-x86_64",
      "vkd3d": false
    }
  },
  "content": "files:\n- noCDPatch:\n    filename: nocd.7z\n    url: https://files.lonebullet.com/harry-potter-and-the-prisoner-of-azkaban/cracks/harry-potter-and-the-prisoner-of-azkaban-v10-english-fixed-exe.rar?\ngame:\n  arch: win32\n  exe: $GAMEDIR/drive_c/Program Files(x86)/EA Games/Harry Potter and the Prisoner\n    of Azkaban(TM)/system/hppoa.exe\n  prefix: $GAMEDIR\ninstaller:\n- install-disc:\n  - requires: AutoRun.exe\n- task:\n    arch: win32\n    description: Creating Wine prefix\n    install_gecko: false\n    install_mono: false\n    name: create_prefix\n    prefix: $GAMEDIR\n- task:\n    arch: win32\n    description: Click the 'no' button on the 'launch the game after install ?' window\n    executable: $DISC/AutoRun.exe\n    name: wineexec\n    working_dir: $DISC\n- execute:\n    command: mkdir $GAMEDIR/Temp\n- execute:\n    command: 7z x -plonebullet $GAMEDIR/Temp/nocd.7z -o$GAMEDIR/Temp -aoa;7z x $GAMEDIR/Temp/harry-potter-and-the-prisoner-of-azkaban-v10-english-fixed-exe.rar\n      -o$GAMEDIR/\"drive_c/Program Files/EA Games/Harry Potter and the Prisoner of\n      Azkaban(TM)/system\" -aoa;rm -rf $GAMEDIR/Temp\nrequire-binaries: 7z\nsystem:\n  reset_desktop: true\nwine:\n  Desktop: false\n  version: tkg-protonified-4.6-x86_64\n  vkd3d: false\n"
}