{
  "name": "Frog Climbers",
  "slug": "frog-climbers",
  "year": null,
  "description": "",
  "banner_url": "https://lutris.net/games/banner/frog-climbers.jpg",
  "icon_url": "https://lutris.net/games/icon/frog-climbers.png",
  "is_public": true,
  "updated": "2020-10-08T10:07:50.616197Z",
  "provider_games": [
    {
      "name": "Frog Climbers",
      "slug": "485120",
      "service": "steam"
    }
  ],
  "steamid": 485120,
  "gogid": null,
  "gogslug": "",
  "humblestoreid": "",
  "id": 9181
}