{
  "name": "Gladius",
  "slug": "gladius",
  "year": null,
  "description": "",
  "banner_url": "https://lutris.net/games/banner/gladius.jpg",
  "icon_url": "https://lutris.net/games/icon/gladius.png",
  "is_public": true,
  "updated": "2019-05-19T13:14:46.930770Z",
  "provider_games": [
    {
      "name": "Gladius",
      "slug": "556640",
      "service": "steam"
    }
  ],
  "steamid": 556640,
  "gogid": null,
  "gogslug": "",
  "humblestoreid": "",
  "id": 27185
}