{
  "name": "BattleCry: World At War",
  "slug": "battlecry-world-at-war",
  "year": 2018,
  "description": "",
  "banner_url": "https://lutris.net/games/banner/battlecry-world-at-war.jpg",
  "icon_url": "",
  "is_public": false,
  "updated": "2020-11-20T19:37:37.417572Z",
  "provider_games": [],
  "steamid": null,
  "gogid": null,
  "gogslug": "",
  "humblestoreid": "",
  "id": 40328
}