{
  "name": "China: Mao's legacy",
  "slug": "china-maos-legacy",
  "year": null,
  "description": "",
  "banner_url": "https://lutris.net/games/banner/china-maos-legacy.jpg",
  "icon_url": "https://lutris.net/games/icon/china-maos-legacy.png",
  "is_public": true,
  "updated": "2020-10-08T09:17:10.177191Z",
  "provider_games": [
    {
      "name": "China: Mao's legacy",
      "slug": "950740",
      "service": "steam"
    }
  ],
  "steamid": 950740,
  "gogid": null,
  "gogslug": "",
  "humblestoreid": "",
  "id": 29332
}