{
  "name": "Kirby's Dream Land 3",
  "slug": "kirbys-dream-land-3",
  "year": 1997,
  "description": "That mean old King Dedede is at it again! He's causing his mischief and Dreamland's in trouble! Kirby, the resident hero of Dreamland, sets out to teach Dedede a lesson, this time with the help of many of his good friends!\r\n\r\nBut wait! Something's wrong! Dedede doesn't seem to be himself...\r\n\r\nLooks like Kirby has to stop Dedede and find out what is wrong with him! It almost seems like something's controlling him...",
  "banner_url": "https://lutris.net/games/banner/kirbys-dream-land-3.jpg",
  "icon_url": "",
  "is_public": true,
  "updated": "2019-01-23T08:30:05.242072Z",
  "provider_games": [],
  "steamid": null,
  "gogid": null,
  "gogslug": "",
  "humblestoreid": "",
  "id": 6263
}