{
  "name": "Costume Quest",
  "slug": "costume-quest",
  "year": 2010,
  "description": "Costume Quest is a Halloween adventure from Tim Schafer's Double Fine Productions. In this charming role-playing game, choose your hero and trick-or-treat through three beautiful environments full of Double Fine humor and story. Complete quests, build your party, and collect costumes along the way that allow you to transform into powerful champions and take down the evil Repugians. This heroic holiday tale will capture the imaginations of kids and kids-at-heart. \r\nContinue the Costume Quest adventure with the Grubbins on Ice DLC pack, included free in the PC version! Face new enemies while collecting additional quests, costumes, battle stamps and creepy treat cards. Help the monsters overthrow Araxia to bring peace back to Repugia!",
  "banner_url": "https://lutris.net/games/banner/costume-quest.jpg",
  "icon_url": "https://lutris.net/games/icon/costume-quest.png",
  "is_public": true,
  "updated": "2020-05-31T00:17:38.293914Z",
  "provider_games": [
    {
      "name": "Costume Quest",
      "slug": "1207659132",
      "service": "gog"
    },
    {
      "name": "Costume Quest",
      "slug": "costumequest",
      "service": "humblebundle"
    },
    {
      "name": "Costume Quest",
      "slug": "costumequest_android",
      "service": "humblebundle"
    },
    {
      "name": "Costume Quest",
      "slug": "115100",
      "service": "steam"
    }
  ],
  "steamid": 115100,
  "gogid": 1207659132,
  "gogslug": "costume_quest",
  "humblestoreid": "costume-quest",
  "id": 337
}