{
  "name": "DISSIDIA FINAL FANTASY NT Free Edition",
  "slug": "dissidia-final-fantasy-nt-free-edition",
  "year": null,
  "description": "",
  "banner_url": "https://lutris.net/games/banner/dissidia-final-fantasy-nt-free-edition.jpg",
  "icon_url": "https://lutris.net/games/icon/dissidia-final-fantasy-nt-free-edition.png",
  "is_public": true,
  "updated": "2020-10-08T09:17:41.279221Z",
  "provider_games": [
    {
      "name": "DISSIDIA FINAL FANTASY NT Free Edition",
      "slug": "921590",
      "service": "steam"
    }
  ],
  "steamid": 921590,
  "gogid": null,
  "gogslug": "",
  "humblestoreid": "",
  "id": 26281
}