{
  "name": "Hallowed Encounter",
  "slug": "hallowed-encounter",
  "year": null,
  "description": "",
  "banner_url": "https://lutris.net/games/banner/hallowed-encounter.jpg",
  "icon_url": "https://lutris.net/games/icon/hallowed-encounter.png",
  "is_public": true,
  "updated": "2020-10-08T10:00:20.621970Z",
  "provider_games": [
    {
      "name": "Hallowed Encounter",
      "slug": "724900",
      "service": "steam"
    }
  ],
  "steamid": 724900,
  "gogid": null,
  "gogslug": "",
  "humblestoreid": "",
  "id": 18865
}