{
  "name": "Candy Thieves - Tale of Gnomes",
  "slug": "candy-thieves-tale-of-gnomes",
  "year": null,
  "description": "",
  "banner_url": "https://lutris.net/games/banner/candy-thieves-tale-of-gnomes.jpg",
  "icon_url": "https://lutris.net/games/icon/candy-thieves-tale-of-gnomes.png",
  "is_public": true,
  "updated": "2020-10-08T10:06:55.891301Z",
  "provider_games": [
    {
      "name": "Candy Thieves - Tale of Gnomes",
      "slug": "516000",
      "service": "steam"
    }
  ],
  "steamid": 516000,
  "gogid": null,
  "gogslug": "",
  "humblestoreid": "",
  "id": 12697
}