{
  "name": "Desastre Colectivo",
  "slug": "desastre-colectivo",
  "year": 2020,
  "description": "Este es un viejo proyecto de una jam con temática de educación, el juego termino siendo menos educativo de lo que esperábamos, pero también mas divertido así que termino bien, se trata de la horrible tarea de ser una profesora y tratar de mantener a un grupo de niños en orden durante una excursión.",
  "banner_url": "https://lutris.net/games/banner/desastre-colectivo.jpg",
  "icon_url": "",
  "is_public": false,
  "updated": "2020-10-03T04:57:57.467824Z",
  "provider_games": [],
  "steamid": null,
  "gogid": null,
  "gogslug": "",
  "humblestoreid": "",
  "id": 39602
}