{
  "name": "Hot Wheels: Extreme Racing",
  "slug": "hot-wheels-extreme-racing",
  "year": 2001,
  "description": "Tweak your car for optimal performance, then hit the track and watch it transform over land, air and sea. Pick-up awesome power-ups along the way to wreak serious havoc on your opponents! RACE with what's under the hood, but WIN with wjat's strapped on top!",
  "banner_url": "https://lutris.net/games/banner/hot-wheels-extreme-racing.jpg",
  "icon_url": "",
  "is_public": true,
  "updated": "2019-01-23T08:29:52.594277Z",
  "provider_games": [],
  "steamid": null,
  "gogid": null,
  "gogslug": "",
  "humblestoreid": "",
  "id": 17523
}