{
  "name": "Indie Pogo",
  "slug": "indie-pogo",
  "year": null,
  "description": "",
  "banner_url": "https://lutris.net/games/banner/indie-pogo.jpg",
  "icon_url": "https://lutris.net/games/icon/indie-pogo.png",
  "is_public": true,
  "updated": "2020-10-08T10:08:45.988360Z",
  "provider_games": [
    {
      "name": "Indie Pogo",
      "slug": "818210",
      "service": "steam"
    }
  ],
  "steamid": 818210,
  "gogid": null,
  "gogslug": "",
  "humblestoreid": "",
  "id": 26106
}