{
  "name": "Gachi Gang",
  "slug": "gachi-gang",
  "year": null,
  "description": "",
  "banner_url": "https://lutris.net/games/banner/gachi-gang.jpg",
  "icon_url": "https://lutris.net/games/icon/gachi-gang.png",
  "is_public": true,
  "updated": "2020-10-08T09:57:02.680929Z",
  "provider_games": [
    {
      "name": "Gachi Gang",
      "slug": "856760",
      "service": "steam"
    }
  ],
  "steamid": 856760,
  "gogid": null,
  "gogslug": "",
  "humblestoreid": "",
  "id": 25867
}