{
  "name": "Lincity",
  "slug": "lincity",
  "year": 1995,
  "description": "Lincity is a city simulation game. You are required to build and maintain a city. You must feed, house, provide jobs and goods for your residents. You can build a sustainable economy with the help of renewable energy and recycling, or you can go for broke and build rockets to escape from a pollution ridden and resource starved planet, it's up to you.",
  "banner_url": "https://lutris.net/games/banner/lincity.jpg",
  "icon_url": "",
  "is_public": true,
  "updated": "2019-01-23T08:30:11.227258Z",
  "provider_games": [],
  "steamid": null,
  "gogid": null,
  "gogslug": "",
  "humblestoreid": "",
  "id": 14747
}