{
  "name": "Cyberline Racing",
  "slug": "cyberline-racing",
  "year": null,
  "description": "",
  "banner_url": "https://lutris.net/games/banner/cyberline-racing.jpg",
  "icon_url": "https://lutris.net/games/icon/cyberline-racing.png",
  "is_public": true,
  "updated": "2020-10-08T10:06:59.153101Z",
  "provider_games": [
    {
      "name": "Cyberline Racing",
      "slug": "514460",
      "service": "steam"
    }
  ],
  "steamid": 514460,
  "gogid": null,
  "gogslug": "",
  "humblestoreid": "",
  "id": 12415
}