{
  "name": "GUN GODZ",
  "slug": "gun-godz",
  "year": null,
  "description": "",
  "banner_url": "https://lutris.net/games/banner/gun-godz.jpg",
  "icon_url": "https://lutris.net/games/icon/gun-godz.png",
  "is_public": true,
  "updated": "2020-10-08T10:06:39.787892Z",
  "provider_games": [
    {
      "name": "GUN GODZ",
      "slug": "522940",
      "service": "steam"
    }
  ],
  "steamid": 522940,
  "gogid": null,
  "gogslug": "",
  "humblestoreid": "",
  "id": 30824
}