{
  "name": "Gauntlet (2014)",
  "slug": "gauntlet-2014",
  "year": 2014,
  "description": "",
  "banner_url": "https://lutris.net/games/banner/gauntlet-2014.jpg",
  "icon_url": "",
  "is_public": true,
  "updated": "2019-01-23T08:29:38.428832Z",
  "provider_games": [],
  "steamid": null,
  "gogid": null,
  "gogslug": "",
  "humblestoreid": "",
  "id": 18142
}