{
  "name": "Cluck Yegger in Escape From The Planet of the Poultroid",
  "slug": "cluck-yegger-in-escape-from-the-planet-of-the-poul",
  "year": null,
  "description": "",
  "banner_url": "https://lutris.net/games/banner/cluck-yegger-in-escape-from-the-planet-of-the-poul.jpg",
  "icon_url": "https://lutris.net/games/icon/cluck-yegger-in-escape-from-the-planet-of-the-poul.png",
  "is_public": true,
  "updated": "2019-01-23T08:28:54.955894Z",
  "provider_games": [
    {
      "name": "Cluck Yegger in Escape From The Planet of the Poultroid",
      "slug": "416800",
      "service": "steam"
    }
  ],
  "steamid": 416800,
  "gogid": null,
  "gogslug": "",
  "humblestoreid": "",
  "id": 6881
}