{
  "id": 5804,
  "game_id": 11614,
  "game_slug": "journey-to-the-center-of-the-earth-2003",
  "name": "Journey to the Center of the Earth (2003)",
  "year": 2003,
  "user": "FakeShemp",
  "runner": "wine",
  "slug": "journey-to-the-center-of-the-groupees",
  "version": "Groupees",
  "description": "",
  "notes": "",
  "created_at": "2017-09-18T20:52:11.623000Z",
  "updated_at": "2018-05-19T03:41:57.546026Z",
  "draft": false,
  "published": true,
  "published_by": null,
  "rating": "",
  "steamid": 474240,
  "gogid": 1207658863,
  "gogslug": "journey_to_the_center_of_the_earth",
  "humbleid": "",
  "humblestoreid": "",
  "humblestoreid_real": "",
  "script": {
    "files": [
      {
        "file1": "N/A:Please select the Groupees archive"
      }
    ],
    "game": {
      "arch": "win32",
      "exe": "drive_c/Program Files/Frogwares/Journey to the Center of the Earth/JourneyToTheCenterOfTheEarth.exe",
      "prefix": "$GAMEDIR"
    },
    "installer": [
      {
        "extract": {
          "dst": "$CACHE",
          "file": "$file1"
        }
      },
      {
        "task": {
          "args": "/sp- /verysilent /norestart /suppressmsgboxes /nogui",
          "executable": "$CACHE/JTCE-EN_setup.exe",
          "name": "wineexec",
          "prefix": "$GAMEDIR"
        }
      }
    ]
  },
  "content": "files:\n- file1: N/A:Please select the Groupees archive\ngame:\n  arch: win32\n  exe: drive_c/Program Files/Frogwares/Journey to the Center of the Earth/JourneyToTheCenterOfTheEarth.exe\n  prefix: $GAMEDIR\ninstaller:\n- extract:\n    dst: $CACHE\n    file: $file1\n- task:\n    args: /sp- /verysilent /norestart /suppressmsgboxes /nogui\n    executable: $CACHE/JTCE-EN_setup.exe\n    name: wineexec\n    prefix: $GAMEDIR\n"
}