{
  "name": "Alan Wake",
  "slug": "alan-wake",
  "year": 2010,
  "description": "Part action game, part psychological thriller, Alan Wake is a pulse-pounding thrill ride. When the wife of the best-selling writer Alan Wake disappears on their vacation, his search turns up pages from a thriller he doesn’t even remember writing. A dark presence stalks the small town of Bright Falls, pushing Wake to the brink of sanity in his fight to unravel the mystery and save his love.",
  "banner_url": "https://lutris.net/games/banner/alan-wake.jpg",
  "icon_url": "https://lutris.net/games/icon/alan-wake.png",
  "is_public": true,
  "updated": "2020-05-31T00:17:33.865627Z",
  "provider_games": [
    {
      "name": "Alan Wake",
      "slug": "1207659037",
      "service": "gog"
    },
    {
      "name": "Alan Wake",
      "slug": "108710",
      "service": "steam"
    }
  ],
  "steamid": 108710,
  "gogid": 1207659037,
  "gogslug": "alan_wake",
  "humblestoreid": "",
  "id": 418
}