{
  "name": "Croissants",
  "slug": "croissants",
  "year": 2020,
  "description": "Croissants is a story about a malfunctioning robot forced to work in a failing croissant-manufacturing factory.",
  "banner_url": "https://lutris.net/games/banner/croissants.jpg",
  "icon_url": "",
  "is_public": true,
  "updated": "2020-09-30T05:34:29.737458Z",
  "provider_games": [],
  "steamid": null,
  "gogid": null,
  "gogslug": "",
  "humblestoreid": "",
  "id": 39431
}