{
  "name": "Break Thru",
  "slug": "break-thru",
  "year": 1986,
  "description": "",
  "banner_url": "https://lutris.net/games/banner/break-thru.jpg",
  "icon_url": "https://lutris.net/games/icon/break-thru.png",
  "is_public": true,
  "updated": "2020-05-26T03:32:27.272674Z",
  "provider_games": [
    {
      "name": "Break Thru",
      "slug": "brkthru",
      "service": "mame"
    }
  ],
  "steamid": null,
  "gogid": null,
  "gogslug": "",
  "humblestoreid": "",
  "id": 33545
}