{
  "name": "How to Fool a Liar King",
  "slug": "how-to-fool-a-liar-king",
  "year": 2017,
  "description": "Regina, our heroine, magically appears in Eroolia.\r\nShe has no idea how she ended up in Eroolia, and here, she meets Juli and his companions, whom she ends up joining on their journey to Laarz, a country of cat people.\r\nWill she be able to return home? \r\nIs Regina's presence in Eroolia an accident or is there a purpose behind it?\r\nCan she trust Juli who seems to be full of secrets?",
  "banner_url": "https://lutris.net/games/banner/how-to-fool-a-liar-king.jpg",
  "icon_url": "https://lutris.net/games/icon/how-to-fool-a-liar-king.png",
  "is_public": true,
  "updated": "2019-01-23T08:29:52.869530Z",
  "provider_games": [
    {
      "name": "How to Fool a Liar King",
      "slug": "635790",
      "service": "steam"
    }
  ],
  "steamid": 635790,
  "gogid": null,
  "gogslug": "",
  "humblestoreid": "",
  "id": 22195
}