{
  "name": "Big Action Mega Fight!",
  "slug": "big-action-mega-fight",
  "year": null,
  "description": "",
  "banner_url": "https://lutris.net/games/banner/big-action-mega-fight.jpg",
  "icon_url": "https://lutris.net/games/icon/big-action-mega-fight.png",
  "is_public": true,
  "updated": "2020-10-08T10:16:24.126875Z",
  "provider_games": [
    {
      "name": "Big Action Mega Fight!",
      "slug": "357120",
      "service": "steam"
    }
  ],
  "steamid": 357120,
  "gogid": null,
  "gogslug": "",
  "humblestoreid": "",
  "id": 8681
}