{
  "name": "Heroes Of The Offworld Arena",
  "slug": "heroes-of-the-offworld-arena",
  "year": null,
  "description": "",
  "banner_url": "https://lutris.net/games/banner/heroes-of-the-offworld-arena.jpg",
  "icon_url": "https://lutris.net/games/icon/heroes-of-the-offworld-arena.png",
  "is_public": true,
  "updated": "2020-10-08T09:56:54.675839Z",
  "provider_games": [
    {
      "name": "Heroes Of The Offworld Arena",
      "slug": "862640",
      "service": "steam"
    }
  ],
  "steamid": 862640,
  "gogid": null,
  "gogslug": "",
  "humblestoreid": "",
  "id": 24968
}