{
  "name": "Heretic Kingdoms: The Inquisition",
  "slug": "heretic-kingdoms-the-inquisition",
  "year": 2004,
  "description": "",
  "banner_url": "https://lutris.net/games/banner/heretic-kingdoms-the-inquisition.jpg",
  "icon_url": "",
  "is_public": true,
  "updated": "2020-05-31T00:17:44.531293Z",
  "provider_games": [
    {
      "name": "Heretic Kingdoms: The Inquisition",
      "slug": "1207660283",
      "service": "gog"
    }
  ],
  "steamid": null,
  "gogid": 1207660283,
  "gogslug": "heretic_kingdoms_the_inquisition",
  "humblestoreid": "",
  "id": 24002
}