{
  "name": "Go! Go! Nippon! 2016",
  "slug": "go-go-nippon-2016",
  "year": 2016,
  "description": "The latest version of the game includes 50% more content, including new sightseeing locations and love interest events.\r\n\r\nNew shitamachi locations and historical Japanese gardens have also been added for those who want a greater taste of traditional Japan, as well as new types of scenes such as Japanese culture workshops. An improved \"wallet\" system has been added to help you keep track of things you've bought, adding a new layer of realism to the sightseeing experience!\r\n\r\n- 2016 also support steam achievements!",
  "banner_url": "https://lutris.net/games/banner/go-go-nippon-2016.jpg",
  "icon_url": "",
  "is_public": true,
  "updated": "2019-01-23T08:29:41.071473Z",
  "provider_games": [],
  "steamid": null,
  "gogid": null,
  "gogslug": "",
  "humblestoreid": "",
  "id": 14333
}