{
  "name": "Joe & Mac Returns",
  "slug": "joe-mac-returns",
  "year": 1994,
  "description": "",
  "banner_url": "https://lutris.net/games/banner/joe-mac-returns.jpg",
  "icon_url": "https://lutris.net/games/icon/joe-mac-returns.png",
  "is_public": true,
  "updated": "2020-05-26T03:34:50.510678Z",
  "provider_games": [
    {
      "name": "Joe & Mac Returns",
      "slug": "joemacr",
      "service": "mame"
    }
  ],
  "steamid": null,
  "gogid": null,
  "gogslug": "",
  "humblestoreid": "",
  "id": 30387
}