{
  "name": "Chocolate makes you happy",
  "slug": "chocolate-makes-you-happy",
  "year": null,
  "description": "",
  "banner_url": "https://lutris.net/games/banner/chocolate-makes-you-happy.jpg",
  "icon_url": "https://lutris.net/games/icon/chocolate-makes-you-happy.png",
  "is_public": true,
  "updated": "2020-10-08T09:58:55.922248Z",
  "provider_games": [
    {
      "name": "Chocolate makes you happy",
      "slug": "749340",
      "service": "steam"
    }
  ],
  "steamid": 749340,
  "gogid": null,
  "gogslug": "",
  "humblestoreid": "",
  "id": 19449
}