{
  "name": "Loot Box Quest",
  "slug": "loot-box-quest",
  "year": null,
  "description": "",
  "banner_url": "https://lutris.net/games/banner/loot-box-quest.jpg",
  "icon_url": "https://lutris.net/games/icon/loot-box-quest.png",
  "is_public": true,
  "updated": "2019-01-23T08:30:12.618698Z",
  "provider_games": [
    {
      "name": "Loot Box Quest",
      "slug": "758500",
      "service": "steam"
    }
  ],
  "steamid": 758500,
  "gogid": null,
  "gogslug": "",
  "humblestoreid": "",
  "id": 19273
}