{
  "name": "Curve Ball",
  "slug": "curve-ball",
  "year": 1984,
  "description": "",
  "banner_url": "https://lutris.net/games/banner/curve-ball.jpg",
  "icon_url": "https://lutris.net/games/icon/curve-ball.png",
  "is_public": true,
  "updated": "2020-05-26T03:33:02.740502Z",
  "provider_games": [
    {
      "name": "Curve Ball",
      "slug": "curvebal",
      "service": "mame"
    }
  ],
  "steamid": null,
  "gogid": null,
  "gogslug": "",
  "humblestoreid": "",
  "id": 33784
}