{
  "name": "Andromedas Erbe Teil I: Das UFO",
  "slug": "andromedas-erbe-teil-i-das-ufo",
  "year": 1994,
  "description": "",
  "banner_url": "https://lutris.net/games/banner/andromedas-erbe-teil-i-das-ufo.jpg",
  "icon_url": "",
  "is_public": true,
  "updated": "2019-01-23T08:28:21.667863Z",
  "provider_games": [],
  "steamid": null,
  "gogid": null,
  "gogslug": "",
  "humblestoreid": "",
  "id": 12246
}