{
  "name": "Fire & Ice: the Daring Adventures of Cool Coyote",
  "slug": "fire-ice-the-daring-adventures-of-cool-coyote",
  "year": 1995,
  "description": "It's not just cute, I'ts not simply classic, It's the finest platform game ever!\r\n\r\n\r\n\"The best platformer since Rainbow Islands.\"\r\nTHE ONE 92%\r\n\r\n\"A must buy.\"\r\nCU AMIGA SCREENSTAR 90%\r\n\r\n\"Beautiful and evocative... stands up proud amongst the best platform games.\"\r\nAMIGA POWER\r\n\r\nWith all the levels, power-ups, bonuses, features, hidden secrets and multiples that you'd expect from award winning Graftgold.",
  "banner_url": "https://lutris.net/games/banner/fire-ice-the-daring-adventures-of-cool-coyote.jpg",
  "icon_url": "",
  "is_public": true,
  "updated": "2019-07-11T06:04:24.065272Z",
  "provider_games": [],
  "steamid": null,
  "gogid": null,
  "gogslug": "",
  "humblestoreid": "",
  "id": 28404
}