{
  "name": "GRID (2019)",
  "slug": "grid-2019",
  "year": null,
  "description": "",
  "banner_url": "https://lutris.net/games/banner/grid-2019.jpg",
  "icon_url": "https://lutris.net/games/icon/grid-2019.png",
  "is_public": true,
  "updated": "2020-10-08T10:17:58.111952Z",
  "provider_games": [
    {
      "name": "GRID (2019)",
      "slug": "703860",
      "service": "steam"
    }
  ],
  "steamid": 703860,
  "gogid": null,
  "gogslug": "",
  "humblestoreid": "",
  "id": 30108
}