{
  "id": 6851,
  "game_id": 460,
  "game_slug": "avadon-the-black-fortress",
  "name": "Avadon: The Black Fortress",
  "year": null,
  "user": "FakeShemp",
  "runner": "linux",
  "slug": "avadon-the-black-fortress-desura",
  "version": "Desura",
  "description": null,
  "notes": "",
  "created_at": "2017-12-24T19:15:38.426140Z",
  "updated_at": "2017-12-24T19:18:23.221651Z",
  "draft": false,
  "published": true,
  "published_by": null,
  "rating": "",
  "steamid": 112100,
  "gogid": 1207659166,
  "gogslug": "avadon_the_black_fortress",
  "humbleid": "avadon_android_and_pc",
  "humblestoreid": "avadon_android_and_pc",
  "humblestoreid_real": "avadon_android_and_pc",
  "script": {
    "exe": "Avadon",
    "files": [
      {
        "file1": "N/A:Please select the Desura installer"
      }
    ],
    "installer": [
      {
        "extract": {
          "dst": "$CACHE",
          "file": "$file1",
          "format": "zip"
        }
      },
      {
        "merge": {
          "dst": "$GAMEDIR",
          "src": "$CACHE/data"
        }
      }
    ]
  },
  "content": "exe: Avadon\nfiles:\n- file1: N/A:Please select the Desura installer\ninstaller:\n- extract:\n    dst: $CACHE\n    file: $file1\n    format: zip\n- merge:\n    dst: $GAMEDIR\n    src: $CACHE/data\n"
}