{
  "name": "InnerSpace",
  "slug": "innerspace",
  "year": null,
  "description": "",
  "banner_url": "https://lutris.net/games/banner/innerspace.jpg",
  "icon_url": "https://lutris.net/games/icon/innerspace.png",
  "is_public": true,
  "updated": "2020-10-08T10:16:41.894754Z",
  "provider_games": [
    {
      "name": "InnerSpace",
      "slug": "347000",
      "service": "steam"
    }
  ],
  "steamid": 347000,
  "gogid": null,
  "gogslug": "",
  "humblestoreid": "",
  "id": 17471
}