{
  "name": "Detention",
  "slug": "detention",
  "year": null,
  "description": "",
  "banner_url": "https://lutris.net/games/banner/detention.jpg",
  "icon_url": "https://lutris.net/games/icon/detention.png",
  "is_public": true,
  "updated": "2019-01-31T04:39:31.040861Z",
  "provider_games": [
    {
      "name": "Detention",
      "slug": "555220",
      "service": "steam"
    }
  ],
  "steamid": 555220,
  "gogid": null,
  "gogslug": "",
  "humblestoreid": "",
  "id": 12084
}