{
  "id": 13366,
  "game_id": 27186,
  "game_slug": "star-wars-battlefront-classic-2004",
  "name": "STAR WARS Battlefront (Classic, 2004)",
  "year": 2004,
  "user": "skyace65",
  "runner": "wine",
  "slug": "star-warstm-battlefront-class-gog",
  "version": "GOG",
  "description": null,
  "notes": "",
  "created_at": "2019-05-07T14:11:33.832000Z",
  "updated_at": "2019-10-27T09:05:30.071260Z",
  "draft": false,
  "published": true,
  "published_by": 19464,
  "rating": "",
  "steamid": 1058020,
  "gogid": 1668107107,
  "gogslug": "star_wars_battlefront",
  "humbleid": "",
  "humblestoreid": "",
  "humblestoreid_real": "",
  "script": {
    "files": [
      {
        "installer": "N/A:Select the game's setup file"
      }
    ],
    "game": {
      "arch": "win32",
      "exe": "drive_c/GOG Games/Star Wars - Battlefront/LaunchBF.exe",
      "prefix": "$GAMEDIR"
    },
    "installer": [
      {
        "task": {
          "arch": "win32",
          "name": "create_prefix",
          "prefix": "$GAMEDIR"
        }
      },
      {
        "task": {
          "app": "faudio d3dx9 win7",
          "name": "winetricks",
          "prefix": "$GAMEDIR"
        }
      },
      {
        "task": {
          "args": "/SP- /SUPPRESSMSGBOXES /NOCANCEL",
          "executable": "installer",
          "name": "wineexec",
          "prefix": "$GAMEDIR"
        }
      }
    ],
    "wine": {
      "Desktop": true
    }
  },
  "content": "files:\n- installer: N/A:Select the game's setup file\ngame:\n  arch: win32\n  exe: drive_c/GOG Games/Star Wars - Battlefront/LaunchBF.exe\n  prefix: $GAMEDIR\ninstaller:\n- task:\n    arch: win32\n    name: create_prefix\n    prefix: $GAMEDIR\n- task:\n    app: faudio d3dx9 win7\n    name: winetricks\n    prefix: $GAMEDIR\n- task:\n    args: /SP- /SUPPRESSMSGBOXES /NOCANCEL\n    executable: installer\n    name: wineexec\n    prefix: $GAMEDIR\nwine:\n  Desktop: true\n"
}