{
  "name": "L U N E",
  "slug": "l-u-n-e",
  "year": null,
  "description": "",
  "banner_url": "https://lutris.net/games/banner/l-u-n-e.jpg",
  "icon_url": "https://lutris.net/games/icon/l-u-n-e.png",
  "is_public": true,
  "updated": "2019-01-23T08:30:14.377984Z",
  "provider_games": [
    {
      "name": "L U N E",
      "slug": "485880",
      "service": "steam"
    }
  ],
  "steamid": 485880,
  "gogid": null,
  "gogslug": "",
  "humblestoreid": "",
  "id": 19325
}