{
  "id": 2583,
  "game_id": 5012,
  "game_slug": "badland-bandits",
  "name": "Badland Bandits",
  "year": null,
  "user": "RobLoach",
  "runner": "steam",
  "slug": "badland-bandits-steam",
  "version": "Steam",
  "description": "",
  "notes": "",
  "created_at": "2016-08-24T00:20:41.137813Z",
  "updated_at": "2016-09-09T22:18:07.759507Z",
  "draft": false,
  "published": true,
  "published_by": null,
  "rating": "2",
  "steamid": 378480,
  "gogid": null,
  "gogslug": "",
  "humbleid": "",
  "humblestoreid": "",
  "humblestoreid_real": "",
  "script": {
    "game": {
      "appid": 378480
    }
  },
  "content": "game:\r\n  appid: 378480"
}