{
  "name": "Halloween Pumpkin Story",
  "slug": "halloween-pumpkin-story",
  "year": null,
  "description": "",
  "banner_url": "https://lutris.net/games/banner/halloween-pumpkin-story.jpg",
  "icon_url": "https://lutris.net/games/icon/halloween-pumpkin-story.png",
  "is_public": true,
  "updated": "2020-10-08T10:00:32.146932Z",
  "provider_games": [
    {
      "name": "Halloween Pumpkin Story",
      "slug": "717330",
      "service": "steam"
    }
  ],
  "steamid": 717330,
  "gogid": null,
  "gogslug": "",
  "humblestoreid": "",
  "id": 30813
}