{
  "name": "Basketball Pro Management 2014",
  "slug": "basketball-pro-management-2014",
  "year": null,
  "description": "",
  "banner_url": "https://lutris.net/games/banner/basketball-pro-management-2014.jpg",
  "icon_url": "https://lutris.net/games/icon/basketball-pro-management-2014.png",
  "is_public": true,
  "updated": "2020-10-08T09:21:04.611029Z",
  "provider_games": [
    {
      "name": "Basketball Pro Management 2014",
      "slug": "261600",
      "service": "steam"
    }
  ],
  "steamid": 261600,
  "gogid": null,
  "gogslug": "",
  "humblestoreid": "",
  "id": 5381
}