{
  "name": "Happy Empire",
  "slug": "happy-empire",
  "year": null,
  "description": "",
  "banner_url": "https://lutris.net/games/banner/happy-empire.jpg",
  "icon_url": "https://lutris.net/games/icon/happy-empire.png",
  "is_public": true,
  "updated": "2020-10-08T10:07:00.672068Z",
  "provider_games": [
    {
      "name": "Happy Empire",
      "slug": "513990",
      "service": "steam"
    }
  ],
  "steamid": 513990,
  "gogid": null,
  "gogslug": "",
  "humblestoreid": "",
  "id": 12685
}