{
  "name": "Conquest: Frontier Wars",
  "slug": "conquest-frontier-wars",
  "year": null,
  "description": "",
  "banner_url": "https://lutris.net/games/banner/conquest-frontier-wars.jpg",
  "icon_url": "https://lutris.net/games/icon/conquest-frontier-wars.png",
  "is_public": true,
  "updated": "2020-10-08T10:04:56.740929Z",
  "provider_games": [
    {
      "name": "Conquest: Frontier Wars",
      "slug": "1207659159",
      "service": "gog"
    },
    {
      "name": "Conquest: Frontier Wars",
      "slug": "578670",
      "service": "steam"
    }
  ],
  "steamid": 578670,
  "gogid": 1207659159,
  "gogslug": "conquest_frontier_wars",
  "humblestoreid": "",
  "id": 13838
}