{
  "name": "God of Word",
  "slug": "god-of-word",
  "year": null,
  "description": "",
  "banner_url": "https://lutris.net/games/banner/god-of-word.jpg",
  "icon_url": "https://lutris.net/games/icon/god-of-word.png",
  "is_public": true,
  "updated": "2020-10-08T10:13:13.239526Z",
  "provider_games": [
    {
      "name": "God of Word",
      "slug": "467320",
      "service": "steam"
    }
  ],
  "steamid": 467320,
  "gogid": null,
  "gogslug": "",
  "humblestoreid": "",
  "id": 10812
}