{
  "name": "Eve of Souls: Static Pod",
  "slug": "eve-of-souls-static-pod",
  "year": null,
  "description": "",
  "banner_url": "https://lutris.net/games/banner/eve-of-souls-static-pod.jpg",
  "icon_url": "https://lutris.net/games/icon/eve-of-souls-static-pod.png",
  "is_public": true,
  "updated": "2020-10-08T09:17:38.302509Z",
  "provider_games": [
    {
      "name": "Eve of Souls: Static Pod",
      "slug": "923910",
      "service": "steam"
    }
  ],
  "steamid": 923910,
  "gogid": null,
  "gogslug": "",
  "humblestoreid": "",
  "id": 32544
}