{
  "name": "Devil May Cry 4",
  "slug": "devil-may-cry-4",
  "year": null,
  "description": "",
  "banner_url": "https://lutris.net/games/banner/devil-may-cry-4.jpg",
  "icon_url": "https://lutris.net/games/icon/devil-may-cry-4.png",
  "is_public": true,
  "updated": "2019-01-23T08:29:11.010710Z",
  "provider_games": [
    {
      "name": "Devil May Cry 4",
      "slug": "45700",
      "service": "steam"
    }
  ],
  "steamid": 45700,
  "gogid": null,
  "gogslug": "",
  "humblestoreid": "",
  "id": 1516
}