{
  "name": "Alien Rampage",
  "slug": "alien-rampage",
  "year": null,
  "description": "",
  "banner_url": "https://lutris.net/games/banner/alien-rampage.jpg",
  "icon_url": "https://lutris.net/games/icon/alien-rampage.png",
  "is_public": true,
  "updated": "2020-10-08T10:06:55.185765Z",
  "provider_games": [
    {
      "name": "Alien Rampage",
      "slug": "1991056046",
      "service": "gog"
    },
    {
      "name": "Alien Rampage",
      "slug": "516440",
      "service": "steam"
    }
  ],
  "steamid": 516440,
  "gogid": 1991056046,
  "gogslug": "alien_rampage",
  "humblestoreid": "",
  "id": 19568
}