{
  "name": "Koules",
  "slug": "koules",
  "year": 1995,
  "description": "Somewhere in the galaxy. Once upon a time the evil KOULES exhausted all the resources of their home planet.\r\nTheir emperor DARK APPLEPOLISHER deployed his brutal hyperspace commandos to wipe out human civilization and claim Earth's\r\nresources for his realms. The nations of Earth chose their best warriors to defend the planet.\r\nThese champions were biologically mutated into special creatures. Their entities were reduced to mere chests and eyes.\r\nThese qualities allow them operate in enemies' domain Your battle for a new world begins.\r\n\r\nYour mission is to bounce all KOULES fighters from your sector.\r\nSome of them are deserters.\r\nThe green ones give you acceleration, the blue ones give you more weight.\r\nLook out for mighty super-spherical megaheavy ultra green B_BALL.",
  "banner_url": "https://lutris.net/games/banner/koules.jpg",
  "icon_url": "https://lutris.net/games/icon/koules.png",
  "is_public": true,
  "updated": "2019-01-23T08:30:06.566233Z",
  "provider_games": [],
  "steamid": null,
  "gogid": null,
  "gogslug": "",
  "humblestoreid": "",
  "id": 14746
}