{
  "name": "Extermination",
  "slug": "extermination-1",
  "year": 1987,
  "description": "",
  "banner_url": "",
  "icon_url": "https://lutris.net/games/icon/extermination-1.png",
  "is_public": true,
  "updated": "2020-05-26T03:33:39.172518Z",
  "provider_games": [
    {
      "name": "Extermination",
      "slug": "extrmatn",
      "service": "mame"
    }
  ],
  "steamid": null,
  "gogid": null,
  "gogslug": "",
  "humblestoreid": "",
  "id": 34042
}