{
  "name": "Airbo",
  "slug": "airbo",
  "year": null,
  "description": "",
  "banner_url": "https://lutris.net/games/banner/airbo.jpg",
  "icon_url": "https://lutris.net/games/icon/airbo.png",
  "is_public": false,
  "updated": "2019-01-23T08:28:16.587094Z",
  "provider_games": [],
  "steamid": 852810,
  "gogid": null,
  "gogslug": "",
  "humblestoreid": "",
  "id": 23344
}