{
  "name": "Day of Defeat: Source",
  "slug": "day-of-defeat-source",
  "year": 2010,
  "description": "Day of Defeat offers intense online action gameplay set in Europe during WWII. Assume the role of infantry, sniper or machine-gunner classes, and more. DoD:S features enhanced graphics and sounds design to leverage the power of Source, Valve's new engine technology. ",
  "banner_url": "https://lutris.net/games/banner/day-of-defeat-source.jpg",
  "icon_url": "https://lutris.net/games/icon/day-of-defeat-source.png",
  "is_public": true,
  "updated": "2019-01-23T08:29:05.664234Z",
  "provider_games": [
    {
      "name": "Day of Defeat: Source",
      "slug": "300",
      "service": "steam"
    }
  ],
  "steamid": 300,
  "gogid": null,
  "gogslug": "",
  "humblestoreid": "",
  "id": 319
}