{
  "id": 5670,
  "game_id": 6791,
  "game_slug": "the-grave-digger",
  "name": "The Grave Digger",
  "year": null,
  "user": "FakeShemp",
  "runner": "linux",
  "slug": "the-grave-digger-groupees",
  "version": "Groupees",
  "description": "",
  "notes": "",
  "created_at": "2017-09-10T16:54:00.306326Z",
  "updated_at": "2017-09-10T16:55:33.204980Z",
  "draft": false,
  "published": true,
  "published_by": null,
  "rating": "",
  "steamid": 345340,
  "gogid": null,
  "gogslug": "",
  "humbleid": "",
  "humblestoreid": "",
  "humblestoreid_real": "",
  "script": {
    "exe": "GraveDigger.x86",
    "exe64": "GraveDigger.x86_64",
    "files": [
      {
        "file1": "N/A:Please select the Groupees archive"
      }
    ],
    "installer": [
      {
        "extract": {
          "file": "$file1",
          "format": "tgz"
        }
      }
    ]
  },
  "content": "exe: GraveDigger.x86\nexe64: GraveDigger.x86_64\nfiles:\n- file1: N/A:Please select the Groupees archive\ninstaller:\n- extract:\n    file: $file1\n    format: tgz\n"
}