{
  "name": "Gladiator Trainer",
  "slug": "gladiator-trainer",
  "year": null,
  "description": "",
  "banner_url": "https://lutris.net/games/banner/gladiator-trainer.jpg",
  "icon_url": "https://lutris.net/games/icon/gladiator-trainer.png",
  "is_public": true,
  "updated": "2019-01-23T08:29:40.079635Z",
  "provider_games": [
    {
      "name": "Gladiator Trainer",
      "slug": "527990",
      "service": "steam"
    }
  ],
  "steamid": 527990,
  "gogid": null,
  "gogslug": "",
  "humblestoreid": "",
  "id": 8526
}