{
  "name": "Dream 9 Final",
  "slug": "dream-9-final",
  "year": 1992,
  "description": "",
  "banner_url": "",
  "icon_url": "https://lutris.net/games/icon/dream-9-final.png",
  "is_public": true,
  "updated": "2020-05-26T03:33:27.110160Z",
  "provider_games": [
    {
      "name": "Dream 9 Final",
      "slug": "d9final",
      "service": "mame"
    }
  ],
  "steamid": null,
  "gogid": null,
  "gogslug": "",
  "humblestoreid": "",
  "id": 33799
}