{
  "name": "Embargo",
  "slug": "embargo",
  "year": 1977,
  "description": "",
  "banner_url": "",
  "icon_url": "https://lutris.net/games/icon/embargo.png",
  "is_public": true,
  "updated": "2020-05-26T03:33:34.407482Z",
  "provider_games": [
    {
      "name": "Embargo",
      "slug": "embargo",
      "service": "mame"
    }
  ],
  "steamid": null,
  "gogid": null,
  "gogslug": "",
  "humblestoreid": "",
  "id": 34008
}