{
  "name": "Mahjong Friday",
  "slug": "mahjong-friday",
  "year": 1989,
  "description": "",
  "banner_url": "",
  "icon_url": "https://lutris.net/games/icon/mahjong-friday.png",
  "is_public": true,
  "updated": "2020-05-26T03:35:33.359111Z",
  "provider_games": [
    {
      "name": "Mahjong Friday",
      "slug": "mjfriday",
      "service": "mame"
    }
  ],
  "steamid": null,
  "gogid": null,
  "gogslug": "",
  "humblestoreid": "",
  "id": 34941
}