{
  "name": "Agent X",
  "slug": "agent-x",
  "year": 1986,
  "description": "A multi-load mega action adventure, in which you set out to stop some lunatic scientist turning the President into a warmongering maniac. You are the only one who can help. If you're superb at espionage, karate, driving, flying helicopters and bomb aiming you MIGHT have a chance. Just.",
  "banner_url": "https://lutris.net/games/banner/agent-x.jpg",
  "icon_url": "",
  "is_public": true,
  "updated": "2019-06-25T06:44:09.401652Z",
  "provider_games": [],
  "steamid": null,
  "gogid": null,
  "gogslug": "",
  "humblestoreid": "",
  "id": 28257
}