{
  "name": "Chime Sharp",
  "slug": "chime-sharp",
  "year": null,
  "description": "",
  "banner_url": "https://lutris.net/games/banner/chime-sharp.jpg",
  "icon_url": "https://lutris.net/games/icon/chime-sharp.png",
  "is_public": true,
  "updated": "2020-10-08T09:19:40.973373Z",
  "provider_games": [
    {
      "name": "Chime Sharp",
      "slug": "326520",
      "service": "steam"
    }
  ],
  "steamid": 326520,
  "gogid": null,
  "gogslug": "",
  "humblestoreid": "",
  "id": 11993
}