{
  "id": 23274,
  "game_id": 11894,
  "game_slug": "invisigun-heroes",
  "name": "Invisigun Heroes",
  "year": null,
  "user": "Adam_Stambaugh",
  "runner": "linux",
  "slug": "invisigun-heroes-itchio",
  "version": "Itch.io",
  "description": null,
  "notes": "",
  "created_at": "2020-09-08T22:32:51.711544Z",
  "updated_at": "2020-09-08T22:32:51.711573Z",
  "draft": false,
  "published": false,
  "published_by": null,
  "rating": "",
  "steamid": 375750,
  "gogid": null,
  "gogslug": "",
  "humbleid": "",
  "humblestoreid": "",
  "humblestoreid_real": "",
  "script": {
    "files": [
      {
        "itch_archive": "N/A: Select the .zip archive downloaded from Itch.io"
      }
    ],
    "game": {
      "exe64": "Invisigun.x86_64"
    },
    "installer": [
      {
        "extract": {
          "dst": "$GAMEDIR",
          "file": "itch_archive"
        }
      }
    ]
  },
  "content": "files:\n- itch_archive: 'N/A: Select the .zip archive downloaded from Itch.io'\ngame:\n  exe64: Invisigun.x86_64\ninstaller:\n- extract:\n    dst: $GAMEDIR\n    file: itch_archive\n"
}