{
  "id": 5444,
  "game_id": 11894,
  "game_slug": "invisigun-heroes",
  "name": "Invisigun Heroes",
  "year": null,
  "user": "Lulu",
  "runner": "linux",
  "slug": "invisigun-heroes-guest-edition-demo",
  "version": "Guest Edition (Demo)",
  "description": "The demo can be downloaded from: https://sombr.itch.io/invisigun-heroes",
  "notes": "",
  "created_at": "2017-08-21T07:58:55.798000Z",
  "updated_at": "2017-08-24T03:44:43.053912Z",
  "draft": false,
  "published": true,
  "published_by": null,
  "rating": "",
  "steamid": 375750,
  "gogid": null,
  "gogslug": "",
  "humbleid": "",
  "humblestoreid": "",
  "humblestoreid_real": "",
  "script": {
    "exe64": "Invisigun Heroes.x86_64",
    "files": [
      {
        "game": "N/A:Please select the .zip install file downloaded from itch.io"
      }
    ],
    "installer": [
      {
        "extract": {
          "file": "game"
        }
      },
      {
        "chmodx": "$GAMEDIR/Invisigun Heroes.x86_64"
      }
    ]
  },
  "content": "exe64: Invisigun Heroes.x86_64\nfiles:\n- game: N/A:Please select the .zip install file downloaded from itch.io\ninstaller:\n- extract:\n    file: game\n- chmodx: $GAMEDIR/Invisigun Heroes.x86_64\n"
}