{
  "name": "Galactic Civilizations II: Ultimate Edition",
  "slug": "galactic-civilizations-ii-ultimate-edition",
  "year": 2006,
  "description": "",
  "banner_url": "https://lutris.net/games/banner/galactic-civilizations-ii-ultimate-edition.jpg",
  "icon_url": "https://lutris.net/games/icon/galactic-civilizations-ii-ultimate-edition.png",
  "is_public": true,
  "updated": "2020-05-31T00:17:43.170657Z",
  "provider_games": [
    {
      "name": "Galactic Civilizations II: Ultimate Edition",
      "slug": "1444400746",
      "service": "gog"
    },
    {
      "name": "Galactic Civilizations II: Ultimate Edition",
      "slug": "202200",
      "service": "steam"
    }
  ],
  "steamid": 202200,
  "gogid": 1444400746,
  "gogslug": "galactic_civilizations_ii_ultimate_edition",
  "humblestoreid": "",
  "id": 1921
}