{
  "name": "Alien Robot Monsters",
  "slug": "alien-robot-monsters",
  "year": null,
  "description": "",
  "banner_url": "https://lutris.net/games/banner/alien-robot-monsters.jpg",
  "icon_url": "https://lutris.net/games/icon/alien-robot-monsters.png",
  "is_public": true,
  "updated": "2019-01-23T08:28:18.724319Z",
  "provider_games": [
    {
      "name": "Alien Robot Monsters",
      "slug": "391250",
      "service": "steam"
    }
  ],
  "steamid": 391250,
  "gogid": null,
  "gogslug": "",
  "humblestoreid": "",
  "id": 10411
}