{
  "name": "Ablepsia",
  "slug": "ablepsia",
  "year": null,
  "description": "",
  "banner_url": "https://lutris.net/games/banner/ablepsia.jpg",
  "icon_url": "https://lutris.net/games/icon/ablepsia.png",
  "is_public": true,
  "updated": "2020-10-08T10:00:38.124823Z",
  "provider_games": [
    {
      "name": "Ablepsia",
      "slug": "713680",
      "service": "steam"
    }
  ],
  "steamid": 713680,
  "gogid": null,
  "gogslug": "",
  "humblestoreid": "",
  "id": 14690
}