{
  "name": "Eden Star :: Destroy - Build - Protect",
  "slug": "eden-star-destroy-build-protect",
  "year": null,
  "description": "",
  "banner_url": "https://lutris.net/games/banner/eden-star-destroy-build-protect.jpg",
  "icon_url": "https://lutris.net/games/icon/eden-star-destroy-build-protect.png",
  "is_public": true,
  "updated": "2020-10-08T09:21:07.101590Z",
  "provider_games": [
    {
      "name": "Eden Star",
      "slug": "259570",
      "service": "steam"
    }
  ],
  "steamid": 259570,
  "gogid": null,
  "gogslug": "",
  "humblestoreid": "",
  "id": 4869
}