{
  "name": "Into Blue Valley",
  "slug": "into-blue-valley",
  "year": null,
  "description": "",
  "banner_url": "https://lutris.net/games/banner/into-blue-valley.jpg",
  "icon_url": "https://lutris.net/games/icon/into-blue-valley.png",
  "is_public": true,
  "updated": "2020-10-08T09:19:27.150474Z",
  "provider_games": [
    {
      "name": "Into Blue Valley",
      "slug": "334980",
      "service": "steam"
    }
  ],
  "steamid": 334980,
  "gogid": null,
  "gogslug": "",
  "humblestoreid": "",
  "id": 5980
}