{
  "name": "Hasbro's BATTLESHIP",
  "slug": "hasbros-battleship",
  "year": null,
  "description": "",
  "banner_url": "https://lutris.net/games/banner/hasbros-battleship.jpg",
  "icon_url": "https://lutris.net/games/icon/hasbros-battleship.png",
  "is_public": true,
  "updated": "2020-10-08T09:56:22.752873Z",
  "provider_games": [
    {
      "name": "Hasbro's BATTLESHIP",
      "slug": "893050",
      "service": "steam"
    }
  ],
  "steamid": 893050,
  "gogid": null,
  "gogslug": "",
  "humblestoreid": "",
  "id": 32401
}