{
  "name": "24 Hours 'til Rescue",
  "slug": "24-hours-til-rescue",
  "year": null,
  "description": "",
  "banner_url": "https://lutris.net/games/banner/24-hours-til-rescue.jpg",
  "icon_url": "https://lutris.net/games/icon/24-hours-til-rescue.png",
  "is_public": true,
  "updated": "2020-10-08T10:13:52.316731Z",
  "provider_games": [
    {
      "name": "24 Hours 'til Rescue",
      "slug": "444420",
      "service": "steam"
    }
  ],
  "steamid": 444420,
  "gogid": null,
  "gogslug": "",
  "humblestoreid": "",
  "id": 6190
}