{
  "name": "Abuse",
  "slug": "abuse",
  "year": 1995,
  "description": "Abuse is a dark 2D side-scrolling platform game developed by Crack dot Com in 1995. It features beautiful lighting, realistic animation and nasty alien-like creatures to destroy. It is now maintained by Sam Hocevar in an attempt to prevent it from vanishing from the Internet.",
  "banner_url": "https://lutris.net/games/banner/abuse.jpg",
  "icon_url": "https://lutris.net/games/icon/abuse.png",
  "is_public": true,
  "updated": "2019-01-23T08:28:10.598670Z",
  "provider_games": [],
  "steamid": null,
  "gogid": null,
  "gogslug": "",
  "humblestoreid": "",
  "id": 4809
}