{
  "name": "Chibi Kocchi",
  "slug": "chibi-kocchi",
  "year": 2013,
  "description": "The Pharmacy Staff from OTChi Kocchi takes a day off to go to the beach! Who will you hang out with? Or maybe some alone-time is best? Choices, choices! But, you'd better make the right ones! \r\n\r\nA short parody of our main work, OTChi Kocchi, featuring the same protagonist, Shirou, and his four lovely co-workers. 2600 words and enough cuteness to put you into insulin shock.",
  "banner_url": "https://lutris.net/games/banner/chibi-kocchi.jpg",
  "icon_url": "",
  "is_public": true,
  "updated": "2019-01-23T08:28:50.953506Z",
  "provider_games": [],
  "steamid": null,
  "gogid": null,
  "gogslug": "",
  "humblestoreid": "",
  "id": 20604
}