{
  "name": "Grizzly Valley",
  "slug": "grizzly-valley",
  "year": null,
  "description": "",
  "banner_url": "https://lutris.net/games/banner/grizzly-valley.jpg",
  "icon_url": "https://lutris.net/games/icon/grizzly-valley.png",
  "is_public": true,
  "updated": "2020-10-08T10:13:23.030796Z",
  "provider_games": [
    {
      "name": "Grizzly Valley",
      "slug": "461520",
      "service": "steam"
    }
  ],
  "steamid": 461520,
  "gogid": null,
  "gogslug": "",
  "humblestoreid": "",
  "id": 12562
}