{
  "name": "Kynseed",
  "slug": "kynseed",
  "year": null,
  "description": "",
  "banner_url": "https://lutris.net/games/banner/kynseed.jpg",
  "icon_url": "https://lutris.net/games/icon/kynseed.png",
  "is_public": true,
  "updated": "2020-10-08T09:58:39.700156Z",
  "provider_games": [
    {
      "name": "Kynseed",
      "slug": "1899284966",
      "service": "gog"
    },
    {
      "name": "Kynseed",
      "slug": "758870",
      "service": "steam"
    }
  ],
  "steamid": 758870,
  "gogid": 1899284966,
  "gogslug": "kynseed",
  "humblestoreid": "",
  "id": 18437
}