{
  "id": 23532,
  "game_id": 39289,
  "game_slug": "battlemetal",
  "name": "battleMETAL",
  "year": 2020,
  "user": "2vc0b",
  "runner": "linux",
  "slug": "battlemetal-itchio-beta-2-v103",
  "version": "Itch.io (Beta 2 v1.0.3)",
  "description": null,
  "notes": "Requires \"Beta 2 v1.0.3\" zip file from Itch.io: https://aldiansolkai.itch.io/dolphin-island-2",
  "created_at": "2020-09-26T06:48:04.397259Z",
  "updated_at": "2020-09-26T06:48:04.397299Z",
  "draft": true,
  "published": false,
  "published_by": null,
  "rating": "",
  "steamid": null,
  "gogid": null,
  "gogslug": "",
  "humbleid": "",
  "humblestoreid": "",
  "humblestoreid_real": "",
  "script": {
    "exe": "$GAMEDIR/linux/battle_metal_linux",
    "files": [
      {
        "battle-metal": "N/A: Please select the .zip install file downloaded from itch.io"
      }
    ],
    "installer": [
      {
        "extract": {
          "file": "battle-metal"
        }
      }
    ]
  },
  "content": "exe: $GAMEDIR/linux/battle_metal_linux\nfiles:\n- battle-metal: 'N/A: Please select the .zip install file downloaded from itch.io'\ninstaller:\n- extract:\n    file: battle-metal\n"
}