{
  "name": "Albedo: Eyes from Outer Space",
  "slug": "albedo-eyes-from-outer-space",
  "year": null,
  "description": "",
  "banner_url": "https://lutris.net/games/banner/albedo-eyes-from-outer-space.jpg",
  "icon_url": "https://lutris.net/games/icon/albedo-eyes-from-outer-space.png",
  "is_public": true,
  "updated": "2020-05-31T00:17:33.890736Z",
  "provider_games": [
    {
      "name": "Albedo: Eyes from Outer Space",
      "slug": "1428071176",
      "service": "gog"
    },
    {
      "name": "Albedo: Eyes from Outer Space",
      "slug": "277520",
      "service": "steam"
    }
  ],
  "steamid": 277520,
  "gogid": 1428071176,
  "gogslug": "albedo_eyes_from_outer_space",
  "humblestoreid": "",
  "id": 3571
}