{
  "name": "Bombjack Twin",
  "slug": "bombjack-twin",
  "year": 1993,
  "description": "",
  "banner_url": "",
  "icon_url": "https://lutris.net/games/icon/bombjack-twin.png",
  "is_public": true,
  "updated": "2020-05-26T03:32:22.701294Z",
  "provider_games": [
    {
      "name": "Bombjack Twin",
      "slug": "bjtwin",
      "service": "mame"
    }
  ],
  "steamid": null,
  "gogid": null,
  "gogslug": "",
  "humblestoreid": "",
  "id": 33447
}