{
  "name": "Golden Tee Golf II",
  "slug": "golden-tee-golf-ii",
  "year": 1992,
  "description": "",
  "banner_url": "https://lutris.net/games/banner/golden-tee-golf-ii.jpg",
  "icon_url": "https://lutris.net/games/icon/golden-tee-golf-ii.png",
  "is_public": true,
  "updated": "2020-05-26T03:34:12.600432Z",
  "provider_games": [
    {
      "name": "Golden Tee Golf II",
      "slug": "gtg2",
      "service": "mame"
    }
  ],
  "steamid": null,
  "gogid": null,
  "gogslug": "",
  "humblestoreid": "",
  "id": 34310
}