{
  "name": "GUILTY GEAR XX ACCENT CORE PLUS R",
  "slug": "guilty-gear-xx-accent-core-plus-r",
  "year": null,
  "description": "",
  "banner_url": "https://lutris.net/games/banner/guilty-gear-xx-accent-core-plus-r.jpg",
  "icon_url": "https://lutris.net/games/icon/guilty-gear-xx-accent-core-plus-r.png",
  "is_public": true,
  "updated": "2019-01-23T08:29:44.466348Z",
  "provider_games": [
    {
      "name": "GUILTY GEAR XX ACCENT CORE PLUS R",
      "slug": "348550",
      "service": "steam"
    }
  ],
  "steamid": 348550,
  "gogid": null,
  "gogslug": "",
  "humblestoreid": "",
  "id": 4909
}