{
  "id": 10263,
  "game_id": 21532,
  "game_slug": "saga-frontier-2",
  "name": "Saga Frontier 2",
  "year": 2000,
  "user": "serialjoepsycho",
  "runner": "libretro",
  "slug": "saga-frontier-2-saga-frontier-2",
  "version": "Saga Frontier 2",
  "description": "Playstation one installer",
  "notes": "The other installer for playstation 2 is incorrect. Sorry for my earlier mistake.",
  "created_at": "2018-09-21T03:20:01.494560Z",
  "updated_at": "2018-09-22T01:21:25.432225Z",
  "draft": false,
  "published": true,
  "published_by": null,
  "rating": "",
  "steamid": null,
  "gogid": null,
  "gogslug": "",
  "humbleid": "",
  "humblestoreid": "",
  "humblestoreid_real": "",
  "script": {
    "files": [
      {
        "iso_file": "N/A:Please select the PlayStation ISO file."
      }
    ],
    "game": {
      "core": "pcsx_rearmed",
      "main_file": "iso_file"
    },
    "installer": [
      {
        "merge": {
          "dst": "$GAMEDIR",
          "src": "iso_file"
        }
      }
    ]
  },
  "content": "files:\n- iso_file: N/A:Please select the PlayStation ISO file.\ngame:\n  core: pcsx_rearmed\n  main_file: iso_file\ninstaller:\n- merge:\n    dst: $GAMEDIR\n    src: iso_file\n"
}