{
  "name": "Heroes Must Die",
  "slug": "heroes-must-die",
  "year": null,
  "description": "",
  "banner_url": "https://lutris.net/games/banner/heroes-must-die.jpg",
  "icon_url": "https://lutris.net/games/icon/heroes-must-die.png",
  "is_public": true,
  "updated": "2020-10-08T10:13:19.936716Z",
  "provider_games": [
    {
      "name": "Heroes Must Die",
      "slug": "464050",
      "service": "steam"
    }
  ],
  "steamid": 464050,
  "gogid": null,
  "gogslug": "",
  "humblestoreid": "",
  "id": 9512
}