{
  "name": "Little Robin",
  "slug": "little-robin",
  "year": 1994,
  "description": "",
  "banner_url": "",
  "icon_url": "https://lutris.net/games/icon/little-robin.png",
  "is_public": true,
  "updated": "2020-05-26T03:35:17.349849Z",
  "provider_games": [
    {
      "name": "Little Robin",
      "slug": "littlerb",
      "service": "mame"
    }
  ],
  "steamid": null,
  "gogid": null,
  "gogslug": "",
  "humblestoreid": "",
  "id": 34728
}