{
  "name": "Duke Nukem",
  "slug": "duke-nukem",
  "year": null,
  "description": "Duke Nukem is a video game series named for its protagonist Duke Nukem. Created originally by the company Apogee Software Ltd. (now 3D Realms) as a series of video games for IBM-compatible personal computers, the series expanded to games released for various consoles by third-party developers. During 2010 the rights of the series were acquired by the company Gearbox Software,[1] who completed the development of Duke Nukem Forever and released it on 10 June 2011 in Europe and Australia and on 14 June 2011 in North America.",
  "banner_url": "https://lutris.net/games/banner/duke-nukem.jpg",
  "icon_url": "https://lutris.net/games/icon/duke-nukem.png",
  "is_public": true,
  "updated": "2020-05-31T00:17:40.860956Z",
  "provider_games": [
    {
      "name": "Duke Nukem",
      "slug": "1207664963",
      "service": "gog"
    },
    {
      "name": "Duke Nukem",
      "slug": "240160",
      "service": "steam"
    }
  ],
  "steamid": 240160,
  "gogid": 1207664963,
  "gogslug": "duke_nukem",
  "humblestoreid": "",
  "id": 1644
}