{
  "name": "Awaken",
  "slug": "awaken",
  "year": null,
  "description": "",
  "banner_url": "https://lutris.net/games/banner/awaken.jpg",
  "icon_url": "https://lutris.net/games/icon/awaken.png",
  "is_public": true,
  "updated": "2020-10-08T10:05:36.682451Z",
  "provider_games": [
    {
      "name": "Awaken",
      "slug": "555970",
      "service": "steam"
    }
  ],
  "steamid": 555970,
  "gogid": null,
  "gogslug": "",
  "humblestoreid": "",
  "id": 29156
}