{
  "name": "Endzone - A World Apart",
  "slug": "endzone-a-world-apart",
  "year": 2020,
  "description": "In 2021, a group of terrorists blew up nuclear power plants around the world and plunged the world into chaos. Only few were able to escape into underground facilities called \"Endzones\". 150 years later, mankind returns to the surface - under your command! In an extremely hostile environment full of radioactivity, contaminated rain and extreme climate change, you'll have to prove your worth as a leader.",
  "banner_url": "https://lutris.net/games/banner/endzone-a-world-apart.jpg",
  "icon_url": "",
  "is_public": true,
  "updated": "2020-06-17T16:54:17.234764Z",
  "provider_games": [
    {
      "name": "Endzone - A World Apart",
      "slug": "1464526060",
      "service": "gog"
    },
    {
      "name": "Endzone - A World Apart",
      "slug": "933820",
      "service": "steam"
    }
  ],
  "steamid": 933820,
  "gogid": 1464526060,
  "gogslug": "endzone_a_world_apart",
  "humblestoreid": "",
  "id": 32320
}