{
  "name": "Candy Blast",
  "slug": "candy-blast",
  "year": null,
  "description": "",
  "banner_url": "https://lutris.net/games/banner/candy-blast.jpg",
  "icon_url": "https://lutris.net/games/icon/candy-blast.png",
  "is_public": true,
  "updated": "2020-10-08T10:13:05.833923Z",
  "provider_games": [
    {
      "name": "Candy Blast",
      "slug": "474050",
      "service": "steam"
    }
  ],
  "steamid": 474050,
  "gogid": null,
  "gogslug": "",
  "humblestoreid": "",
  "id": 7582
}