{
  "name": "Labyrinth: The War on Terror",
  "slug": "labyrinth-the-war-on-terror",
  "year": null,
  "description": "",
  "banner_url": "https://lutris.net/games/banner/labyrinth-the-war-on-terror.jpg",
  "icon_url": "https://lutris.net/games/icon/labyrinth-the-war-on-terror.png",
  "is_public": true,
  "updated": "2020-10-08T09:17:30.415589Z",
  "provider_games": [
    {
      "name": "Labyrinth: The War on Terror",
      "slug": "931950",
      "service": "steam"
    }
  ],
  "steamid": 931950,
  "gogid": null,
  "gogslug": "",
  "humblestoreid": "",
  "id": 36570
}