{
  "name": "CRIMSON METAL",
  "slug": "crimson-metal",
  "year": null,
  "description": "",
  "banner_url": "https://lutris.net/games/banner/crimson-metal.jpg",
  "icon_url": "https://lutris.net/games/icon/crimson-metal.png",
  "is_public": true,
  "updated": "2020-10-08T10:04:01.807074Z",
  "provider_games": [
    {
      "name": "CRIMSON METAL",
      "slug": "606960",
      "service": "steam"
    }
  ],
  "steamid": 606960,
  "gogid": null,
  "gogslug": "",
  "humblestoreid": "",
  "id": 26251
}