{
  "name": "Mahjong Focus",
  "slug": "mahjong-focus",
  "year": 1989,
  "description": "",
  "banner_url": "",
  "icon_url": "https://lutris.net/games/icon/mahjong-focus.png",
  "is_public": true,
  "updated": "2020-05-26T03:35:33.203895Z",
  "provider_games": [
    {
      "name": "Mahjong Focus",
      "slug": "mjfocus",
      "service": "mame"
    }
  ],
  "steamid": null,
  "gogid": null,
  "gogslug": "",
  "humblestoreid": "",
  "id": 34940
}