{
  "name": "Colin McRae Rally (1998)",
  "slug": "colin-mcrae-rally-1998",
  "year": 1998,
  "description": "Every second counts. Every bend, every power slide, every handbrake turn can save you valuable time. Stop for repairs, let the mud, the snow, the rain slow you down and you’ve lost it. It’s you, your co-driver shouting in your ear and your car driving 52 stages, across 8 countries. Against everyone else. Against the clock.",
  "banner_url": "https://lutris.net/games/banner/colin-mcrae-rally-1998.jpg",
  "icon_url": "",
  "is_public": true,
  "updated": "2019-01-23T08:28:55.647985Z",
  "provider_games": [],
  "steamid": null,
  "gogid": null,
  "gogslug": "",
  "humblestoreid": "",
  "id": 15068
}