{
  "id": 14507,
  "game_id": 28411,
  "game_slug": "adobe-creativecloud",
  "name": "Adobe Creative Cloud",
  "year": null,
  "user": "FireBlackHat",
  "runner": "wine",
  "slug": "adobe-creative-cloud-latest-32bit",
  "version": "Latest 32bit",
  "description": "Make sure you have OpenCL(Packages vary by GPU Manufacturer) and OpenGL installed.\r\n(Photoshop 2018 Tested.)\r\nFeel free to try others products.",
  "notes": "After Internet Explorer 7 installed, Click on Restart Now.\r\nYou may experience crash for the first product install.",
  "created_at": "2019-07-10T10:20:38.467000Z",
  "updated_at": "2020-01-23T02:57:15.889956Z",
  "draft": false,
  "published": true,
  "published_by": 51687,
  "rating": "",
  "steamid": null,
  "gogid": null,
  "gogslug": "",
  "humbleid": "",
  "humblestoreid": "",
  "humblestoreid_real": "",
  "script": {
    "files": [
      {
        "installer": "https://ccmdls.adobe.com/AdobeProducts/KCCC/1/win32/CreativeCloudSet-Up.exe"
      },
      {
        "offline_files": "http://ccmdl.adobe.com/AdobeProducts/KCCC/1/win32/ACCCx4_8_2_478.zip"
      }
    ],
    "game": {
      "arch": "win32",
      "exe": "$GAMEDIR/drive_c/Program Files/Adobe/Adobe Creative Cloud/ACC/Creative Cloud.exe",
      "prefix": "$GAMEDIR"
    },
    "installer": [
      {
        "task": {
          "app": "fontsmooth=rgb gdiplus vcrun2008 vcrun2010 vcrun2012 vcrun2013 vcrun2015 vcrun2017 atmlib msxml3 msxml6 corefonts msls31 riched20 tahoma ie7 win81",
          "arch": "win32",
          "name": "winetricks",
          "prefix": "$GAMEDIR",
          "silent": true
        }
      },
      {
        "extract": {
          "dst": "$CACHE/CreativeCloud-Setup",
          "file": "offline_files",
          "format": "zip"
        }
      },
      {
        "move": {
          "dst": "$CACHE/CreativeCloud-Setup",
          "src": "installer"
        }
      },
      {
        "task": {
          "arch": "win32",
          "description": "Installing Creative Cloud... - WARNING Please Quit CC From Menu and signin after Installation finished.",
          "exclude_processes": "AGSService.exe AdobeIPCBroker.exe AdobeUpdateService.exe \"Adobe Desktop Service.exe\"",
          "executable": "$CACHE/CreativeCloud-Setup/CreativeCloudSet-Up.exe",
          "name": "wineexec",
          "prefix": "$GAMEDIR"
        }
      }
    ],
    "system": {
      "env": {
        "PBA_DISABLE": 0,
        "__GL_SHADER_DISK_CACHE": 1,
        "__GL_SHADER_DISK_CACHE_PATH": "$GAMEDIR",
        "__GL_THREADED_OPTIMIZATIONS": 1,
        "mesa_glthread": "true"
      },
      "pulse_latency": true
    },
    "wine": {
      "dxvk": true,
      "esync": true
    }
  },
  "content": "files:\n- installer: https://ccmdls.adobe.com/AdobeProducts/KCCC/1/win32/CreativeCloudSet-Up.exe\n- offline_files: http://ccmdl.adobe.com/AdobeProducts/KCCC/1/win32/ACCCx4_8_2_478.zip\ngame:\n  arch: win32\n  exe: $GAMEDIR/drive_c/Program Files/Adobe/Adobe Creative Cloud/ACC/Creative Cloud.exe\n  prefix: $GAMEDIR\ninstaller:\n- task:\n    app: fontsmooth=rgb gdiplus vcrun2008 vcrun2010 vcrun2012 vcrun2013 vcrun2015\n      vcrun2017 atmlib msxml3 msxml6 corefonts msls31 riched20 tahoma ie7 win81\n    arch: win32\n    name: winetricks\n    prefix: $GAMEDIR\n    silent: true\n- extract:\n    dst: $CACHE/CreativeCloud-Setup\n    file: offline_files\n    format: zip\n- move:\n    dst: $CACHE/CreativeCloud-Setup\n    src: installer\n- task:\n    arch: win32\n    description: Installing Creative Cloud... - WARNING Please Quit CC From Menu and\n      signin after Installation finished.\n    exclude_processes: AGSService.exe AdobeIPCBroker.exe AdobeUpdateService.exe \"Adobe\n      Desktop Service.exe\"\n    executable: $CACHE/CreativeCloud-Setup/CreativeCloudSet-Up.exe\n    name: wineexec\n    prefix: $GAMEDIR\nsystem:\n  env:\n    PBA_DISABLE: 0\n    __GL_SHADER_DISK_CACHE: 1\n    __GL_SHADER_DISK_CACHE_PATH: $GAMEDIR\n    __GL_THREADED_OPTIMIZATIONS: 1\n    mesa_glthread: 'true'\n  pulse_latency: true\nwine:\n  dxvk: true\n  esync: true\n"
}