{
  "name": "6 Nights",
  "slug": "6-nights",
  "year": null,
  "description": "",
  "banner_url": "https://lutris.net/games/banner/6-nights.jpg",
  "icon_url": "https://lutris.net/games/icon/6-nights.png",
  "is_public": true,
  "updated": "2020-10-08T10:15:43.138908Z",
  "provider_games": [
    {
      "name": "6 Nights",
      "slug": "381000",
      "service": "steam"
    }
  ],
  "steamid": 381000,
  "gogid": null,
  "gogslug": "",
  "humblestoreid": "",
  "id": 14609
}