{
  "name": "Liberated",
  "slug": "liberated",
  "year": null,
  "description": "",
  "banner_url": "",
  "icon_url": "",
  "is_public": true,
  "updated": "2020-05-31T00:17:47.504715Z",
  "provider_games": [
    {
      "name": "Liberated",
      "slug": "1780442795",
      "service": "gog"
    }
  ],
  "steamid": null,
  "gogid": 1780442795,
  "gogslug": "liberated",
  "humblestoreid": "",
  "id": 36942
}