{
  "name": "FIM Speedway Grand Prix 15",
  "slug": "fim-speedway-grand-prix-15",
  "year": null,
  "description": "",
  "banner_url": "https://lutris.net/games/banner/fim-speedway-grand-prix-15.jpg",
  "icon_url": "https://lutris.net/games/icon/fim-speedway-grand-prix-15.png",
  "is_public": true,
  "updated": "2020-10-08T10:16:38.653621Z",
  "provider_games": [
    {
      "name": "FIM Speedway Grand Prix 15",
      "slug": "348820",
      "service": "steam"
    }
  ],
  "steamid": 348820,
  "gogid": null,
  "gogslug": "",
  "humblestoreid": "",
  "id": 20670
}