{
  "name": "Big Run",
  "slug": "big-run",
  "year": 1989,
  "description": "",
  "banner_url": "",
  "icon_url": "https://lutris.net/games/icon/big-run.png",
  "is_public": true,
  "updated": "2020-05-26T03:32:12.496079Z",
  "provider_games": [
    {
      "name": "Big Run",
      "slug": "bigrun",
      "service": "mame"
    }
  ],
  "steamid": null,
  "gogid": null,
  "gogslug": "",
  "humblestoreid": "",
  "id": 33426
}