{
  "name": "Fighting Hawk",
  "slug": "fighting-hawk",
  "year": 1988,
  "description": "",
  "banner_url": "",
  "icon_url": "https://lutris.net/games/icon/fighting-hawk.png",
  "is_public": true,
  "updated": "2020-05-26T03:33:45.019075Z",
  "provider_games": [
    {
      "name": "Fighting Hawk",
      "slug": "fhawk",
      "service": "mame"
    }
  ],
  "steamid": null,
  "gogid": null,
  "gogslug": "",
  "humblestoreid": "",
  "id": 34088
}