{
  "name": "Beijing 2008",
  "slug": "beijing-2008",
  "year": null,
  "description": "",
  "banner_url": "https://lutris.net/games/banner/beijing-2008.jpg",
  "icon_url": "https://lutris.net/games/icon/beijing-2008.png",
  "is_public": true,
  "updated": "2020-10-08T10:02:40.065371Z",
  "provider_games": [
    {
      "name": "Beijing 2008",
      "slug": "10520",
      "service": "steam"
    }
  ],
  "steamid": 10520,
  "gogid": null,
  "gogslug": "",
  "humblestoreid": "",
  "id": 25271
}