{
  "id": 4073,
  "game_id": 3087,
  "game_slug": "a-wizards-lizard",
  "name": "A Wizard's Lizard",
  "year": null,
  "user": "FakeShemp",
  "runner": "linux",
  "slug": "a-wizards-lizard-humble-64bit",
  "version": "Humble (64bit)",
  "description": "",
  "notes": "",
  "created_at": "2017-06-02T20:52:03.029853Z",
  "updated_at": "2017-06-04T22:12:05.049595Z",
  "draft": false,
  "published": true,
  "published_by": null,
  "rating": "",
  "steamid": 280040,
  "gogid": null,
  "gogslug": "",
  "humbleid": "",
  "humblestoreid": "",
  "humblestoreid_real": "",
  "script": {
    "exe": "nw",
    "files": [
      {
        "file1": "N/A:Please select the Humble archive"
      }
    ],
    "installer": [
      {
        "extract": {
          "file": "$file1"
        }
      },
      {
        "chmodx": "$GAMEDIR/nw"
      }
    ]
  },
  "content": "exe: nw\nfiles:\n- file1: N/A:Please select the Humble archive\ninstaller:\n- extract:\n    file: $file1\n- chmodx: $GAMEDIR/nw\n"
}