{
  "name": "Color Circle",
  "slug": "color-circle",
  "year": null,
  "description": "",
  "banner_url": "https://lutris.net/games/banner/color-circle.jpg",
  "icon_url": "https://lutris.net/games/icon/color-circle.png",
  "is_public": true,
  "updated": "2020-10-08T09:57:48.352370Z",
  "provider_games": [
    {
      "name": "Color Circle",
      "slug": "800330",
      "service": "steam"
    }
  ],
  "steamid": 800330,
  "gogid": null,
  "gogslug": "",
  "humblestoreid": "",
  "id": 24462
}