{
  "name": "Hex-a-Hop",
  "slug": "hex-a-hop",
  "year": 2009,
  "description": "Hex-a-Hop is a hexagonal tile-based puzzle game with one simple goal: destroy all green tiles! There are infinite undos and no time limits -- you just have to find a way to destroy all the green tiles and step on a safe tile at the end.",
  "banner_url": "https://lutris.net/games/banner/hex-a-hop.jpg",
  "icon_url": "",
  "is_public": true,
  "updated": "2019-01-23T08:29:50.001330Z",
  "provider_games": [],
  "steamid": null,
  "gogid": null,
  "gogslug": "",
  "humblestoreid": "",
  "id": 15889
}