{
  "name": "Holy Potatoes! What the Hell?!",
  "slug": "holy-potatoes-what-the-hell",
  "year": null,
  "description": "",
  "banner_url": "https://lutris.net/games/banner/holy-potatoes-what-the-hell.jpg",
  "icon_url": "https://lutris.net/games/icon/holy-potatoes-what-the-hell.png",
  "is_public": true,
  "updated": "2020-10-08T10:09:27.168913Z",
  "provider_games": [
    {
      "name": "Holy Potatoes! What the Hell?!",
      "slug": "664320",
      "service": "steam"
    }
  ],
  "steamid": 664320,
  "gogid": null,
  "gogslug": "",
  "humblestoreid": "",
  "id": 16563
}