{
  "name": "BEATris",
  "slug": "beatris",
  "year": null,
  "description": "",
  "banner_url": "https://lutris.net/games/banner/beatris.jpg",
  "icon_url": "https://lutris.net/games/icon/beatris.png",
  "is_public": true,
  "updated": "2020-10-08T10:00:45.613710Z",
  "provider_games": [
    {
      "name": "BEATris",
      "slug": "708890",
      "service": "steam"
    }
  ],
  "steamid": 708890,
  "gogid": null,
  "gogslug": "",
  "humblestoreid": "",
  "id": 29114
}