{
  "id": 13985,
  "game_id": 573,
  "game_slug": "freedom-force",
  "name": "Freedom Force",
  "year": null,
  "user": "PokemonTotalWar",
  "runner": "wine",
  "slug": "freedom-force-gog",
  "version": "GOG",
  "description": null,
  "notes": "",
  "created_at": "2019-06-08T04:04:12.852000Z",
  "updated_at": "2020-04-26T09:24:28.156196Z",
  "draft": false,
  "published": true,
  "published_by": 20548,
  "rating": "",
  "steamid": 8880,
  "gogid": 1445250806,
  "gogslug": "freedom_force",
  "humbleid": "",
  "humblestoreid": "",
  "humblestoreid_real": "",
  "script": {
    "exe": "drive_c/GOG Games/Freedom Force/fforce.exe",
    "files": [
      {
        "installer": "N/A:Select the Windows installer provided by GOG"
      }
    ],
    "game": {
      "prefix": "$GAMEDIR"
    },
    "installer": [
      {
        "task": {
          "arch": "win32",
          "install_gecko": false,
          "install_mono": false,
          "name": "create_prefix",
          "prefix": "$GAMEDIR"
        }
      },
      {
        "task": {
          "arch": "win32",
          "executable": "installer",
          "name": "wineexec",
          "prefix": "$GAMEDIR"
        }
      }
    ]
  },
  "content": "exe: drive_c/GOG Games/Freedom Force/fforce.exe\nfiles:\n- installer: N/A:Select the Windows installer provided by GOG\ngame:\n  prefix: $GAMEDIR\ninstaller:\n- task:\n    arch: win32\n    install_gecko: false\n    install_mono: false\n    name: create_prefix\n    prefix: $GAMEDIR\n- task:\n    arch: win32\n    executable: installer\n    name: wineexec\n    prefix: $GAMEDIR\n"
}