{
  "name": "Dragon Spear",
  "slug": "dragon-spear",
  "year": null,
  "description": "",
  "banner_url": "https://lutris.net/games/banner/dragon-spear.jpg",
  "icon_url": "https://lutris.net/games/icon/dragon-spear.png",
  "is_public": true,
  "updated": "2020-10-08T09:56:29.941888Z",
  "provider_games": [
    {
      "name": "Dragon Spear",
      "slug": "886960",
      "service": "steam"
    }
  ],
  "steamid": 886960,
  "gogid": null,
  "gogslug": "",
  "humblestoreid": "",
  "id": 27039
}