{
  "id": 4443,
  "game_id": 11785,
  "game_slug": "dont-move",
  "name": "Don't Move",
  "year": 2013,
  "user": "FakeShemp",
  "runner": "linux",
  "slug": "dont-move-humble-64bit",
  "version": "Humble (64bit)",
  "description": "",
  "notes": "",
  "created_at": "2017-06-17T20:45:42.589000Z",
  "updated_at": "2017-06-18T23:08:07.674690Z",
  "draft": false,
  "published": true,
  "published_by": null,
  "rating": "",
  "steamid": 334350,
  "gogid": null,
  "gogslug": "",
  "humbleid": "dontmove",
  "humblestoreid": "dontmove",
  "humblestoreid_real": "dontmove",
  "script": {
    "exe": "DontMove",
    "files": [
      {
        "file1": "N/A:Please select the Humble archive"
      }
    ],
    "installer": [
      {
        "extract": {
          "file": "$file1",
          "format": "tgz"
        }
      }
    ]
  },
  "content": "exe: DontMove\nfiles:\n- file1: N/A:Please select the Humble archive\ninstaller:\n- extract:\n    file: $file1\n    format: tgz\n"
}