{
  "name": "Black Hat Cooperative",
  "slug": "black-hat-cooperative",
  "year": null,
  "description": "",
  "banner_url": "https://lutris.net/games/banner/black-hat-cooperative.jpg",
  "icon_url": "https://lutris.net/games/icon/black-hat-cooperative.png",
  "is_public": true,
  "updated": "2020-10-08T10:07:20.622603Z",
  "provider_games": [
    {
      "name": "Black Hat Cooperative",
      "slug": "503100",
      "service": "steam"
    }
  ],
  "steamid": 503100,
  "gogid": null,
  "gogslug": "",
  "humblestoreid": "",
  "id": 17510
}