{
  "name": "Mad Max",
  "slug": "mad-max",
  "year": 2015,
  "description": "Become Mad Max, the lone warrior in a savage post-apocalyptic world where cars are the key to survival. In this action-packed, open world, third person action game, you must fight to stay alive in The Wasteland, using brutal on-ground and vehicular against vicious gangs of bandits. A reluctant hero with an instinct for survival, Max wants nothing more than to leave the madness behind and find solace in the storied “Plains of Silence.” Players are challenged with treacherous missions as they scavenge the dangerous landscape for supplies to build the ultimate combat vehicle.",
  "banner_url": "https://lutris.net/games/banner/mad-max.jpg",
  "icon_url": "https://lutris.net/games/icon/mad-max.png",
  "is_public": true,
  "updated": "2019-01-23T08:30:15.100218Z",
  "provider_games": [
    {
      "name": "Mad Max",
      "slug": "234140",
      "service": "steam"
    }
  ],
  "steamid": 234140,
  "gogid": null,
  "gogslug": "",
  "humblestoreid": "mad-max",
  "id": 4881
}