{
  "name": "Dysfunctional Systems: Orientation",
  "slug": "dysfunctional-systems-orientation",
  "year": 2017,
  "description": "Dysfunctional Systems is a series about Winter Harrison: a student mediator from a utopian Earth. A mediator is someone who travels between worlds, attempting to resolve the conflicts plaguing them. Dysfunctional Systems: Orientation follows Winter’s first week at school, as she learns more about her future profession and the baffling nature of otherworlders.",
  "banner_url": "https://lutris.net/games/banner/dysfunctional-systems-orientation.jpg",
  "icon_url": "https://lutris.net/games/icon/dysfunctional-systems-orientation.png",
  "is_public": true,
  "updated": "2019-10-11T00:01:37.321080Z",
  "provider_games": [
    {
      "name": "Dysfunctional Systems: Orientation",
      "slug": "337890",
      "service": "steam"
    }
  ],
  "steamid": 337890,
  "gogid": null,
  "gogslug": "",
  "humblestoreid": "",
  "id": 15901
}