{
  "name": "Magical Fable: The Princess of Light",
  "slug": "magical-fable-the-princess-of-light",
  "year": null,
  "description": "",
  "banner_url": "https://lutris.net/games/banner/magical-fable-the-princess-of-light.jpg",
  "icon_url": "https://lutris.net/games/icon/magical-fable-the-princess-of-light.png",
  "is_public": true,
  "updated": "2020-10-08T09:57:03.754859Z",
  "provider_games": [
    {
      "name": "Magical Fable: The Princess of Light",
      "slug": "855940",
      "service": "steam"
    }
  ],
  "steamid": 855940,
  "gogid": null,
  "gogslug": "",
  "humblestoreid": "",
  "id": 25504
}