{
  "name": "Arma 2: DayZ Mod",
  "slug": "arma-2-dayz-mod",
  "year": null,
  "description": "",
  "banner_url": "https://lutris.net/games/banner/arma-2-dayz-mod.jpg",
  "icon_url": "https://lutris.net/games/icon/arma-2-dayz-mod.png",
  "is_public": true,
  "updated": "2020-10-08T09:54:22.637470Z",
  "provider_games": [
    {
      "name": "Arma 2: DayZ Mod",
      "slug": "224580",
      "service": "steam"
    }
  ],
  "steamid": 224580,
  "gogid": null,
  "gogslug": "",
  "humblestoreid": "",
  "id": 1419
}