{
  "id": 11327,
  "game_id": 12086,
  "game_slug": "the-simpsons-hit-run",
  "name": "The Simpsons: Hit & Run",
  "year": 2003,
  "user": "CodingKoopa",
  "runner": "wine",
  "slug": "the-simpsons-hit-run-pc-multiplayer-launc",
  "version": "PC Multiplayer Launcher v16",
  "description": "Includes Lucas' Simpsons Hit & Run Multiplayer Launcher v16, for:\r\n\r\n- Improved game compatibility on modern computers.\r\n\r\n- Tweaks to change how the game runs.\r\n\r\n- The ability to play mods for the game, with other players.\r\n\r\nFor more info on the multiplayer launcher, see https://donut.team/q/mp.",
  "notes": "",
  "created_at": "2018-12-24T18:33:52.936000Z",
  "updated_at": "2018-12-27T01:27:15.407657Z",
  "draft": false,
  "published": true,
  "published_by": 19464,
  "rating": "",
  "steamid": null,
  "gogid": null,
  "gogslug": "",
  "humbleid": "",
  "humblestoreid": "",
  "humblestoreid_real": "",
  "script": {
    "files": [
      {
        "multiplayer-launcher-archive": "http://multiplayer.donutteam.com/game/sharmp/downloads/sharmp16.zip"
      }
    ],
    "game": {
      "custom-name": "Lucas Simpsons Hit & Run Multiplayer",
      "exe": "drive_c/Program Files/Lucas Stuff/Lucas' Simpsons Hit & Run Tools/Lucas' Simpsons Hit & Run Multiplayer Launcher/Launch.exe"
    },
    "installer": [
      {
        "task": {
          "app": "dotnet35sp1",
          "description": "Installing .NET 3.5 Service Pack 1 runtime",
          "name": "winetricks",
          "prefix": "$GAMEDIR"
        }
      },
      {
        "extract": {
          "description": "Extracting mod launcher archive",
          "dst": "drive_c/Program Files/Lucas Stuff/Lucas' Simpsons Hit & Run Tools/Lucas' Simpsons Hit & Run Multiplayer Launcher/",
          "file": "multiplayer-launcher-archive"
        }
      },
      {
        "task": {
          "description": "Setting mod launcher game EXE path registry key",
          "key": "Game EXE Path",
          "name": "set_regedit",
          "path": "HKEY_CURRENT_USER\\Software\\Lucas Stuff\\Lucas' Simpsons Hit & Run Tools\\",
          "prefix": "$GAMEDIR",
          "value": "$GAMEDIR/Simpsons.exe"
        }
      },
      {
        "task": {
          "description": "Setting mod launcher game directory path registry key",
          "key": "Game Path",
          "name": "set_regedit",
          "path": "HKEY_CURRENT_USER\\Software\\Lucas Stuff\\Lucas' Simpsons Hit & Run Tools\\",
          "prefix": "$GAMEDIR",
          "value": "$GAMEDIR"
        }
      }
    ]
  },
  "content": "files:\n- multiplayer-launcher-archive: http://multiplayer.donutteam.com/game/sharmp/downloads/sharmp16.zip\ngame:\n  custom-name: Lucas Simpsons Hit & Run Multiplayer\n  exe: drive_c/Program Files/Lucas Stuff/Lucas' Simpsons Hit & Run Tools/Lucas' Simpsons\n    Hit & Run Multiplayer Launcher/Launch.exe\ninstaller:\n- task:\n    app: dotnet35sp1\n    description: Installing .NET 3.5 Service Pack 1 runtime\n    name: winetricks\n    prefix: $GAMEDIR\n- extract:\n    description: Extracting mod launcher archive\n    dst: drive_c/Program Files/Lucas Stuff/Lucas' Simpsons Hit & Run Tools/Lucas'\n      Simpsons Hit & Run Multiplayer Launcher/\n    file: multiplayer-launcher-archive\n- task:\n    description: Setting mod launcher game EXE path registry key\n    key: Game EXE Path\n    name: set_regedit\n    path: HKEY_CURRENT_USER\\Software\\Lucas Stuff\\Lucas' Simpsons Hit & Run Tools\\\n    prefix: $GAMEDIR\n    value: $GAMEDIR/Simpsons.exe\n- task:\n    description: Setting mod launcher game directory path registry key\n    key: Game Path\n    name: set_regedit\n    path: HKEY_CURRENT_USER\\Software\\Lucas Stuff\\Lucas' Simpsons Hit & Run Tools\\\n    prefix: $GAMEDIR\n    value: $GAMEDIR\n"
}