{
  "name": "DreamTank",
  "slug": "dreamtank",
  "year": null,
  "description": "",
  "banner_url": "https://lutris.net/games/banner/dreamtank.jpg",
  "icon_url": "https://lutris.net/games/icon/dreamtank.png",
  "is_public": true,
  "updated": "2020-10-08T10:09:27.497856Z",
  "provider_games": [
    {
      "name": "DreamTank",
      "slug": "664560",
      "service": "steam"
    }
  ],
  "steamid": 664560,
  "gogid": null,
  "gogslug": "",
  "humblestoreid": "",
  "id": 25340
}