{
  "name": "BlackShield: Upora Story",
  "slug": "blackshield-upora-story",
  "year": null,
  "description": "",
  "banner_url": "https://lutris.net/games/banner/blackshield-upora-story.jpg",
  "icon_url": "https://lutris.net/games/icon/blackshield-upora-story.png",
  "is_public": true,
  "updated": "2020-10-08T10:00:49.035232Z",
  "provider_games": [
    {
      "name": "BlackShield: Upora Story",
      "slug": "706520",
      "service": "steam"
    }
  ],
  "steamid": 706520,
  "gogid": null,
  "gogslug": "",
  "humblestoreid": "",
  "id": 26303
}