{
  "id": 2309,
  "game_id": 5230,
  "game_slug": "ronin",
  "name": "RONIN",
  "year": null,
  "user": "Lulu",
  "runner": "linux",
  "slug": "ronin-gog",
  "version": "GOG",
  "description": null,
  "notes": "",
  "created_at": "2016-07-18T19:45:21.571000Z",
  "updated_at": "2018-11-06T06:51:18.719031Z",
  "draft": false,
  "published": true,
  "published_by": null,
  "rating": "",
  "steamid": 274230,
  "gogid": 1435570424,
  "gogslug": "ronin",
  "humbleid": "ronin",
  "humblestoreid": "ronin",
  "humblestoreid_real": "ronin",
  "script": {
    "files": [
      {
        "game": "N/A:Select the Linux installer downloaded from GOG"
      },
      {
        "unzip": "http://lutris.net/files/tools/unzip.tar.gz"
      }
    ],
    "game": {
      "exe": "Game/start.sh"
    },
    "installer": [
      {
        "extract": {
          "dst": "$CACHE",
          "file": "$unzip"
        }
      },
      {
        "execute": {
          "args": "$game -d \"$GAMEDIR\" \"data/noarch/*\"",
          "description": "Extracting game data...",
          "file": "$CACHE/unzip"
        }
      },
      {
        "rename": {
          "dst": "$GAMEDIR/Game",
          "src": "$GAMEDIR/data/noarch"
        }
      }
    ]
  },
  "content": "files:\n- game: N/A:Select the Linux installer downloaded from GOG\n- unzip: http://lutris.net/files/tools/unzip.tar.gz\ngame:\n  exe: Game/start.sh\ninstaller:\n- extract:\n    dst: $CACHE\n    file: $unzip\n- execute:\n    args: $game -d \"$GAMEDIR\" \"data/noarch/*\"\n    description: Extracting game data...\n    file: $CACHE/unzip\n- rename:\n    dst: $GAMEDIR/Game\n    src: $GAMEDIR/data/noarch\n"
}