{
  "name": "Halloweenistry 2",
  "slug": "halloweenistry-2",
  "year": null,
  "description": "",
  "banner_url": "https://lutris.net/games/banner/halloweenistry-2.jpg",
  "icon_url": "https://lutris.net/games/icon/halloweenistry-2.png",
  "is_public": false,
  "updated": "2019-01-23T08:29:46.513959Z",
  "provider_games": [],
  "steamid": 697820,
  "gogid": null,
  "gogslug": "",
  "humblestoreid": "",
  "id": 21262
}