{
  "name": "Lineage 2 Oficial",
  "slug": "lineage-2-oficial",
  "year": 2020,
  "description": "l2",
  "banner_url": "https://lutris.net/games/banner/lineage-2-oficial.jpg",
  "icon_url": "",
  "is_public": true,
  "updated": "2020-04-21T13:58:07.548515Z",
  "provider_games": [],
  "steamid": null,
  "gogid": null,
  "gogslug": "",
  "humblestoreid": "",
  "id": 32551
}