{
  "name": "Ephemeral Tale",
  "slug": "ephemeral-tale",
  "year": 2020,
  "description": "Ephemeral Tale is a classically inspired RPG for the modern age, featuring hand-crafted dungeons, classic JRPG-style combat, and a loot-driven progression system.\r\n\r\n    EXPLORE - Traverse through hand-crafted environments in search of those who hold the power to rewrite fate. As you tackle the game's diverse dungeons, you'll discover clues that will reveal the secrets of this forgotten land.\r\n    LOOT - Collect powerful, randomized gear and build your own style of play! With over 50 pieces of unique loot, there's always something new to try.\r\n    COMBAT - Engage in challenging combat that can be approached in many different ways. Find and personalize the build that works for you while you fight exciting enemies and challenging bosses alike!\r\n    ...AND MORE - Fight an undead T-Rex. Befriend a dog. Pet a grackle?\r\n\r\nEphemeral Tale includes a range of accessibility options, from control schemes (including keyboard, controller, and touch input) as well as colorblind settings and difficulty options. Ephemeral Tale empowers you to play however you decide (or need) to.",
  "banner_url": "https://lutris.net/games/banner/ephemeral-tale.jpg",
  "icon_url": "",
  "is_public": false,
  "updated": "2020-09-14T01:16:20.576403Z",
  "provider_games": [],
  "steamid": null,
  "gogid": null,
  "gogslug": "",
  "humblestoreid": "",
  "id": 38939
}