{
  "name": "Bethesda Launcher",
  "slug": "bethesda-launcher",
  "year": 2015,
  "description": "Game installer and launcher from Bethesda.",
  "banner_url": "https://lutris.net/games/banner/bethesda-launcher.jpg",
  "icon_url": "https://lutris.net/games/icon/bethesda-launcher.png",
  "is_public": true,
  "updated": "2019-01-23T08:28:35.044029Z",
  "provider_games": [],
  "steamid": null,
  "gogid": null,
  "gogslug": "",
  "humblestoreid": "",
  "id": 8483
}