{
  "name": "Burger Shop",
  "slug": "burger-shop",
  "year": null,
  "description": "",
  "banner_url": "https://lutris.net/games/banner/burger-shop.jpg",
  "icon_url": "https://lutris.net/games/icon/burger-shop.png",
  "is_public": true,
  "updated": "2020-10-08T10:00:11.218296Z",
  "provider_games": [
    {
      "name": "Burger Shop",
      "slug": "730840",
      "service": "steam"
    }
  ],
  "steamid": 730840,
  "gogid": null,
  "gogslug": "",
  "humblestoreid": "",
  "id": 38072
}