{
  "name": "Daemonsgate",
  "slug": "daemonsgate",
  "year": null,
  "description": "",
  "banner_url": "https://lutris.net/games/banner/daemonsgate.jpg",
  "icon_url": "https://lutris.net/games/icon/daemonsgate.png",
  "is_public": true,
  "updated": "2020-10-08T10:00:29.281318Z",
  "provider_games": [
    {
      "name": "Daemonsgate",
      "slug": "719300",
      "service": "steam"
    }
  ],
  "steamid": 719300,
  "gogid": null,
  "gogslug": "",
  "humblestoreid": "",
  "id": 19570
}