{
  "name": "Cuco",
  "slug": "cuco",
  "year": null,
  "description": "",
  "banner_url": "https://lutris.net/games/banner/cuco.jpg",
  "icon_url": "https://lutris.net/games/icon/cuco.png",
  "is_public": false,
  "updated": "2019-01-23T08:29:02.566822Z",
  "provider_games": [],
  "steamid": 715720,
  "gogid": null,
  "gogslug": "",
  "humblestoreid": "",
  "id": 18828
}