{
  "name": "AuroraRL",
  "slug": "aurorarl",
  "year": null,
  "description": "",
  "banner_url": "https://lutris.net/games/banner/aurorarl.jpg",
  "icon_url": "https://lutris.net/games/icon/aurorarl.png",
  "is_public": false,
  "updated": "2019-01-23T08:28:28.963324Z",
  "provider_games": [],
  "steamid": 437890,
  "gogid": null,
  "gogslug": "",
  "humblestoreid": "",
  "id": 8186
}