{
  "id": 3155,
  "game_id": 69,
  "game_slug": "doom-3",
  "name": "Doom 3",
  "year": 2004,
  "user": "RobLoach",
  "runner": "linux",
  "slug": "doom-3-dhewm-steam",
  "version": "dhewm + Steam",
  "description": "Downloads the Dhewm3 engine with Steam data on top.",
  "notes": "",
  "created_at": "2017-01-02T12:33:07.093000Z",
  "updated_at": "2020-11-08T08:46:12.400877Z",
  "draft": false,
  "published": true,
  "published_by": null,
  "rating": "",
  "steamid": 9050,
  "gogid": null,
  "gogslug": "",
  "humbleid": "",
  "humblestoreid": "",
  "humblestoreid_real": "",
  "script": {
    "exe": "dhewm3",
    "files": [
      {
        "doom3-engine": "https://lutris.net/files/games/doom-3/dhewm-master-x86_64.tar.gz"
      },
      {
        "doom3-data": "$STEAM:9050:base"
      }
    ],
    "installer": [
      {
        "merge": {
          "dst": "$GAMEDIR/base",
          "src": "doom3-data"
        }
      },
      {
        "extract": {
          "file": "doom3-engine"
        }
      },
      {
        "chmodx": "$GAMEDIR/dhewm3"
      }
    ]
  },
  "content": "exe: dhewm3\r\nfiles:\r\n- doom3-engine: https://lutris.net/files/games/doom-3/dhewm-master-x86_64.tar.gz\r\n- doom3-data: $STEAM:9050:base\r\ninstaller:\r\n- merge:\r\n    dst: $GAMEDIR/base\r\n    src: doom3-data\r\n- extract:\r\n    file: doom3-engine\r\n- chmodx: $GAMEDIR/dhewm3"
}