{
  "name": "Hawken",
  "slug": "hawken",
  "year": 2014,
  "description": "",
  "banner_url": "https://lutris.net/games/banner/hawken.jpg",
  "icon_url": "https://lutris.net/games/icon/hawken.png",
  "is_public": true,
  "updated": "2019-01-23T08:29:47.799823Z",
  "provider_games": [],
  "steamid": 271290,
  "gogid": null,
  "gogslug": "",
  "humblestoreid": "",
  "id": 1854
}