{
  "name": "I Can See the Future",
  "slug": "i-can-see-the-future",
  "year": null,
  "description": "",
  "banner_url": "https://lutris.net/games/banner/i-can-see-the-future.jpg",
  "icon_url": "https://lutris.net/games/icon/i-can-see-the-future.png",
  "is_public": true,
  "updated": "2020-10-08T10:00:45.667918Z",
  "provider_games": [
    {
      "name": "I Can See the Future",
      "slug": "708920",
      "service": "steam"
    }
  ],
  "steamid": 708920,
  "gogid": null,
  "gogslug": "",
  "humblestoreid": "",
  "id": 17097
}