{
  "name": "Aeon by SoundSpectrum",
  "slug": "aeon-by-soundspectrum",
  "year": null,
  "description": "",
  "banner_url": "https://lutris.net/games/banner/aeon-by-soundspectrum.jpg",
  "icon_url": "",
  "is_public": false,
  "updated": "2020-01-12T02:01:11.398146Z",
  "provider_games": [],
  "steamid": null,
  "gogid": null,
  "gogslug": "",
  "humblestoreid": "",
  "id": 31113
}