{
  "name": "Danger Room",
  "slug": "danger-room",
  "year": null,
  "description": "",
  "banner_url": "https://lutris.net/games/banner/danger-room.jpg",
  "icon_url": "https://lutris.net/games/icon/danger-room.png",
  "is_public": true,
  "updated": "2020-10-08T10:05:43.889588Z",
  "provider_games": [
    {
      "name": "Danger Room",
      "slug": "552340",
      "service": "steam"
    }
  ],
  "steamid": 552340,
  "gogid": null,
  "gogslug": "",
  "humblestoreid": "",
  "id": 22354
}