{
  "name": "HammerHelm",
  "slug": "hammerhelm",
  "year": null,
  "description": "",
  "banner_url": "https://lutris.net/games/banner/hammerhelm.jpg",
  "icon_url": "https://lutris.net/games/icon/hammerhelm.png",
  "is_public": true,
  "updated": "2020-10-08T10:17:09.482283Z",
  "provider_games": [
    {
      "name": "HammerHelm",
      "slug": "664000",
      "service": "steam"
    }
  ],
  "steamid": 664000,
  "gogid": null,
  "gogslug": "",
  "humblestoreid": "",
  "id": 25643
}