{
  "name": "Hacker Evolution - 2019 HD remaster",
  "slug": "hacker-evolution-2019-hd-remaster",
  "year": null,
  "description": "",
  "banner_url": "https://lutris.net/games/banner/hacker-evolution-2019-hd-remaster.jpg",
  "icon_url": "https://lutris.net/games/icon/hacker-evolution-2019-hd-remaster.png",
  "is_public": true,
  "updated": "2020-10-08T10:10:40.517014Z",
  "provider_games": [
    {
      "name": "Hacker Evolution - 2019 HD remaster",
      "slug": "1153990",
      "service": "steam"
    }
  ],
  "steamid": 1153990,
  "gogid": null,
  "gogslug": "",
  "humblestoreid": "",
  "id": 31683
}