{
  "name": "Home Design 3D",
  "slug": "home-design-3d",
  "year": null,
  "description": "",
  "banner_url": "https://lutris.net/games/banner/home-design-3d.jpg",
  "icon_url": "https://lutris.net/games/icon/home-design-3d.png",
  "is_public": true,
  "updated": "2020-10-08T10:14:33.489556Z",
  "provider_games": [
    {
      "name": "Home Design 3D",
      "slug": "420000",
      "service": "steam"
    }
  ],
  "steamid": 420000,
  "gogid": null,
  "gogslug": "",
  "humblestoreid": "",
  "id": 10006
}