{
  "name": "Back to the Future: Ep 3 - Citizen Brown",
  "slug": "back-to-the-future-ep-3-citizen-brown",
  "year": 2011,
  "description": "After a rought and tumble return to the 1980's, a time-stranded Marty finds himself in a topsy-turvy version of the world lorded over by the enigmatic 'First Citizen Brown'",
  "banner_url": "https://lutris.net/games/banner/back-to-the-future-ep-3-citizen-brown.jpg",
  "icon_url": "https://lutris.net/games/icon/back-to-the-future-ep-3-citizen-brown.png",
  "is_public": true,
  "updated": "2019-01-23T08:28:30.437231Z",
  "provider_games": [
    {
      "name": "Back to the Future: Ep 3 - Citizen Brown",
      "slug": "94510",
      "service": "steam"
    }
  ],
  "steamid": 94510,
  "gogid": null,
  "gogslug": "",
  "humblestoreid": "",
  "id": 176
}