{
  "name": "Flower Garden",
  "slug": "flower-garden",
  "year": 2014,
  "description": "When Kobayashi Chiaki, a short and serious young girl, gets a scholarship to attend St. Marie’s Academy for girls, she decides this will be the turning point in her life. She’ll bloom into a fair and elegant lady, and leave behind her old, shabby lifestyle!\r\nHowever, becoming a true ‘lady’ proves to be quite difficult… especially when she gets a crush on the school idol, Chizuru, who is hiding a dark secret…\r\n\r\nA light and fluffy shoujo ai visual novel, suitable for all ages, with lots of cute girls doing cute things, and having cute crushes on eachother!",
  "banner_url": "https://lutris.net/games/banner/flower-garden.jpg",
  "icon_url": "",
  "is_public": true,
  "updated": "2019-06-01T06:35:40.565129Z",
  "provider_games": [],
  "steamid": null,
  "gogid": null,
  "gogslug": "",
  "humblestoreid": "",
  "id": 27575
}