{
  "name": "Battlestar Galactica Deadlock",
  "slug": "battlestar-galactica-deadlock",
  "year": null,
  "description": "",
  "banner_url": "https://lutris.net/games/banner/battlestar-galactica-deadlock.jpg",
  "icon_url": "https://lutris.net/games/icon/battlestar-galactica-deadlock.png",
  "is_public": true,
  "updated": "2020-05-31T00:17:35.713897Z",
  "provider_games": [
    {
      "name": "Battlestar Galactica Deadlock",
      "slug": "1797575342",
      "service": "gog"
    },
    {
      "name": "Battlestar Galactica Deadlock",
      "slug": "544610",
      "service": "steam"
    }
  ],
  "steamid": 544610,
  "gogid": 1797575342,
  "gogslug": "battlestar_galactica_deadlock",
  "humblestoreid": "",
  "id": 14298
}