{
  "name": "Cupid",
  "slug": "cupid-a-free-to-play-visual-novel",
  "year": 2016,
  "description": "\"Love is both poison and cure, both knife and remedy.\"\r\n\r\nRosa's best friend, Catherine, is dead and she is sure Catherine's betrothed, Marquis Guilleme is to blame. Mother says so. Mother says he has to pay with his life. Although, she knows by now Guilleme is no ordinary man. He is tainted. A monster. He cannot be killed by usual means. To seek the best revenge, she must find out all his secrets and destroy him. But will her own dark desires consume her or liberate her?\r\n\r\nNo matter.\r\n\r\nMother will tell her what to do.\r\n\r\nSet in the romantic 18th century France, play as the third person point of view character of Mother — a unique twist to the visual novel decision making medium. Decide the fate of the characters, scold or console, argue or assent… Just don't be surprised if they start to question your commands.",
  "banner_url": "https://lutris.net/games/banner/cupid-a-free-to-play-visual-novel.jpg",
  "icon_url": "",
  "is_public": true,
  "updated": "2019-01-23T08:29:02.744050Z",
  "provider_games": [
    {
      "name": "CUPID - A free to play Visual Novel",
      "slug": "421670",
      "service": "steam"
    }
  ],
  "steamid": 421670,
  "gogid": null,
  "gogslug": "",
  "humblestoreid": "",
  "id": 5912
}