{
  "id": 14725,
  "game_id": 18242,
  "game_slug": "orbiter-space-flight-simulator",
  "name": "Orbiter Space Flight Simulator",
  "year": 2012,
  "user": "Sellies",
  "runner": "wine",
  "slug": "orbiter-space-flight-simulato-change-me",
  "version": "Change Me",
  "description": null,
  "notes": "",
  "created_at": "2019-07-26T09:28:00.307875Z",
  "updated_at": "2019-07-26T09:28:00.307909Z",
  "draft": false,
  "published": false,
  "published_by": null,
  "rating": "",
  "steamid": null,
  "gogid": null,
  "gogslug": "",
  "humbleid": "",
  "humblestoreid": "",
  "humblestoreid_real": "",
  "script": {
    "files": [
      {
        "filename": "Orbiter2016.zip"
      },
      {
        "url": "http://mirror.orbiter-radio.co.uk/orbiter/assets/packages/core2016/Orbiter2016.zip"
      }
    ],
    "game": {
      "exe": "$GAMEDIR/drive_c/orbiter/orbiter.exe",
      "prefix": "$GAMEDIR"
    },
    "installer": [
      {
        "task": {
          "arch": "win64",
          "description": "Creating 64bit Wine prefix.",
          "name": "create_prefix",
          "prefix": "$GAMEDIR"
        }
      },
      {
        "task": {
          "app": "corefonts",
          "name": "winetricks",
          "prefix": "$GAMEDIR"
        }
      },
      {
        "extract": {
          "dst": "$GAMEDIR/drive_c/orbiter/",
          "file": "$filename"
        }
      }
    ]
  },
  "content": "files:\n- filename: Orbiter2016.zip\n- url: http://mirror.orbiter-radio.co.uk/orbiter/assets/packages/core2016/Orbiter2016.zip\ngame:\n  exe: $GAMEDIR/drive_c/orbiter/orbiter.exe\n  prefix: $GAMEDIR\ninstaller:\n- task:\n    arch: win64\n    description: Creating 64bit Wine prefix.\n    name: create_prefix\n    prefix: $GAMEDIR\n- task:\n    app: corefonts\n    name: winetricks\n    prefix: $GAMEDIR\n- extract:\n    dst: $GAMEDIR/drive_c/orbiter/\n    file: $filename\n"
}