{
  "name": "Blightbound",
  "slug": "blightbound",
  "year": null,
  "description": "",
  "banner_url": "https://lutris.net/games/banner/blightbound.jpg",
  "icon_url": "https://lutris.net/games/icon/blightbound.png",
  "is_public": true,
  "updated": "2020-10-08T10:17:58.147985Z",
  "provider_games": [
    {
      "name": "Blightbound",
      "slug": "1263070",
      "service": "steam"
    }
  ],
  "steamid": 1263070,
  "gogid": null,
  "gogslug": "",
  "humblestoreid": "",
  "id": 39344
}