{
  "id": 3789,
  "game_id": 4583,
  "game_slug": "trine-3-the-artifacts-of-power",
  "name": "Trine 3: The Artifacts of Power",
  "year": null,
  "user": "FakeShemp",
  "runner": "linux",
  "slug": "trine-3-the-artifacts-of-powe-humble",
  "version": "Humble",
  "description": "",
  "notes": "",
  "created_at": "2017-05-22T12:32:20.717745Z",
  "updated_at": "2017-05-27T23:37:08.828112Z",
  "draft": false,
  "published": true,
  "published_by": null,
  "rating": "",
  "steamid": 319910,
  "gogid": 1431599567,
  "gogslug": "trine_3_the_artifacts_of_power",
  "humbleid": "trine3",
  "humblestoreid": "trine3",
  "humblestoreid_real": "trine3",
  "script": {
    "exe": "trine3.sh",
    "files": [
      {
        "file1": "N/A:Please select the Humble archive"
      }
    ],
    "installer": [
      {
        "extract": {
          "file": "$file1"
        }
      },
      {
        "chmodx": "$GAMEDIR/trine3.sh"
      }
    ]
  },
  "content": "exe: trine3.sh\nfiles:\n- file1: N/A:Please select the Humble archive\ninstaller:\n- extract:\n    file: $file1\n- chmodx: $GAMEDIR/trine3.sh\n"
}