{
  "name": "Crimson Trigger",
  "slug": "crimson-trigger",
  "year": null,
  "description": "",
  "banner_url": "https://lutris.net/games/banner/crimson-trigger.jpg",
  "icon_url": "https://lutris.net/games/icon/crimson-trigger.png",
  "is_public": true,
  "updated": "2020-10-08T10:05:18.848165Z",
  "provider_games": [
    {
      "name": "Crimson Trigger",
      "slug": "566750",
      "service": "steam"
    }
  ],
  "steamid": 566750,
  "gogid": null,
  "gogslug": "",
  "humblestoreid": "",
  "id": 22397
}