{
  "name": "Forest Guardian",
  "slug": "forest-guardian",
  "year": null,
  "description": "",
  "banner_url": "https://lutris.net/games/banner/forest-guardian.jpg",
  "icon_url": "https://lutris.net/games/icon/forest-guardian.png",
  "is_public": true,
  "updated": "2020-10-08T10:00:59.331484Z",
  "provider_games": [
    {
      "name": "Forest Guardian",
      "slug": "699550",
      "service": "steam"
    }
  ],
  "steamid": 699550,
  "gogid": null,
  "gogslug": "",
  "humblestoreid": "",
  "id": 21264
}