{
  "name": "Cops'n Robbers",
  "slug": "copsn-robbers",
  "year": 1976,
  "description": "",
  "banner_url": "",
  "icon_url": "https://lutris.net/games/icon/copsn-robbers.png",
  "is_public": true,
  "updated": "2020-05-26T03:32:54.864691Z",
  "provider_games": [
    {
      "name": "Cops'n Robbers",
      "slug": "copsnrob",
      "service": "mame"
    }
  ],
  "steamid": null,
  "gogid": null,
  "gogslug": "",
  "humblestoreid": "",
  "id": 33736
}