{
  "name": "Goodbye Deponia",
  "slug": "goodbye-deponia",
  "year": 2013,
  "description": "More chaos, more destruction, more Rufus. Not one, not two, but three Rufuses cause all kinds of crazy mayhem in the long-awaited adventure comedy Goodbye Deponia!\r\n\r\nThe Organon plans the destruction of Deponia, the lovely Goal has (once again) disappeared, and anti-hero Rufus just can't seem to stop getting in his own way.\r\n\r\nAll inventor and free spirit Rufus wanted to do was to get off the junkyard planet of Deponia and move to Elysium, the paradise orbiting Deponia as a spaceship reserved for the highest echelons of society. Goal, the ex-Elysian girl that Rufus has fallen head over heels for, still seems to be the key to his endeavor...and to the elevator that will get him to space. Finally, Rufus has come up with a seemingly perfect plan.\r\n\r\nAnd yet, everything that could possibly go wrong suddenly does go wrong. Rufus finds himself (initially in disguise) on a highway cruiser amongst stern-faced officials of the Organon, while Goal goes missing. When Rufus stumbles upon a cloning machine, he believes to have found his way out. A clone copy is supposed to help him out of his predicament. But an \"inexplicable\" error causes complications and Goal slips from our hero's reach once again. Now, he has to solve three major problems: He needs to find Goal again, reach Elysium and prevent the destruction of the entire planet of Deponia by the hand of the Organon.\r\n\r\nThree problems that only three Rufuses could solve – and thus, the luckless inventor decides to clone himself! This leads to crazy ramifications for the player: In Goodbye Deponia, the player occasionally needs to control all three Rufuses, using them to complete tasks together – despite Rufus stumbling over himself so often.\r\n\r\nGoodbye Deponia is the epic conclusion to the Deponia trilogy and sequel to the best German game of 2013 (German Computer Game Awards).\r\nThe award-winning Deponia series comprises of three wacky tales of adventure from the junkyard planet Deponia. These classic point & click romps not only delight comedy fans and adventure veterans, but also newcomers to the genre. The humorous Deponia series impresses with beautiful, hand-drawn 2D comic graphics, sarcastic dialogues and plenty of black humor. It has received numerous press awards, among them the German Computer Game Award (Deutscher Computerspielpreis) and many other German developer awards.",
  "banner_url": "https://lutris.net/games/banner/goodbye-deponia.jpg",
  "icon_url": "https://lutris.net/games/icon/goodbye-deponia.png",
  "is_public": true,
  "updated": "2020-05-31T00:17:43.676689Z",
  "provider_games": [
    {
      "name": "Deponia 3: Goodbye Deponia",
      "slug": "1207660233",
      "service": "gog"
    },
    {
      "name": "Goodbye Deponia",
      "slug": "goodbyedeponia",
      "service": "humblebundle"
    },
    {
      "name": "Goodbye Deponia",
      "slug": "241910",
      "service": "steam"
    }
  ],
  "steamid": 241910,
  "gogid": 1207660233,
  "gogslug": "goodbye_deponia",
  "humblestoreid": "goodbye-deponia",
  "id": 2516
}