{
  "name": "Infinium Strike",
  "slug": "infinium-strike",
  "year": 2016,
  "description": "",
  "banner_url": "https://lutris.net/games/banner/infinium-strike.jpg",
  "icon_url": "https://lutris.net/games/icon/infinium-strike.png",
  "is_public": true,
  "updated": "2020-05-31T00:17:45.685734Z",
  "provider_games": [
    {
      "name": "Infinium Strike",
      "slug": "1252846125",
      "service": "gog"
    },
    {
      "name": "Infinium Strike Demo",
      "slug": "1646305015",
      "service": "gog"
    },
    {
      "name": "Infinium Strike",
      "slug": "374050",
      "service": "steam"
    }
  ],
  "steamid": 374050,
  "gogid": 1252846125,
  "gogslug": "infinium_strike",
  "humblestoreid": "",
  "id": 11446
}