{
  "id": 4215,
  "game_id": 11618,
  "game_slug": "cat-girl-alliance",
  "name": "Cat Girl Alliance",
  "year": 2004,
  "user": "FakeShemp",
  "runner": "wine",
  "slug": "cat-girl-alliance-jast-usa",
  "version": "JAST USA",
  "description": "",
  "notes": "",
  "created_at": "2017-06-08T13:46:25.721000Z",
  "updated_at": "2018-05-19T03:41:50.745001Z",
  "draft": false,
  "published": true,
  "published_by": null,
  "rating": "",
  "steamid": null,
  "gogid": null,
  "gogslug": "",
  "humbleid": "",
  "humblestoreid": "",
  "humblestoreid_real": "",
  "script": {
    "files": [
      {
        "file1": "N/A:Please select the JAST USA archive"
      }
    ],
    "game": {
      "arch": "win32",
      "exe": "drive_c/Program Files/Cat Girl Alliance/Koneko_US.exe",
      "prefix": "$GAMEDIR"
    },
    "installer": [
      {
        "extract": {
          "dst": "$CACHE",
          "file": "$file1"
        }
      },
      {
        "merge": {
          "dst": "$GAMEDIR/drive_c/Program Files/Cat Girl Alliance",
          "src": "$CACHE/CatGirlAlliance"
        }
      }
    ]
  },
  "content": "files:\n- file1: N/A:Please select the JAST USA archive\ngame:\n  arch: win32\n  exe: drive_c/Program Files/Cat Girl Alliance/Koneko_US.exe\n  prefix: $GAMEDIR\ninstaller:\n- extract:\n    dst: $CACHE\n    file: $file1\n- merge:\n    dst: $GAMEDIR/drive_c/Program Files/Cat Girl Alliance\n    src: $CACHE/CatGirlAlliance\n"
}