{
  "name": "King Arthur II - The Role-playing Wargame",
  "slug": "king-arthur-ii-the-role-playing-wargame",
  "year": null,
  "description": "",
  "banner_url": "https://lutris.net/games/banner/king-arthur-ii-the-role-playing-wargame.jpg",
  "icon_url": "https://lutris.net/games/icon/king-arthur-ii-the-role-playing-wargame.png",
  "is_public": true,
  "updated": "2020-10-08T10:02:26.187824Z",
  "provider_games": [
    {
      "name": "King Arthur II - The Role-playing Wargame",
      "slug": "24480",
      "service": "steam"
    }
  ],
  "steamid": 24480,
  "gogid": null,
  "gogslug": "",
  "humblestoreid": "",
  "id": 1041
}