{
  "name": "Andoran Skye XD",
  "slug": "andoran-skye-xd",
  "year": null,
  "description": "",
  "banner_url": "https://lutris.net/games/banner/andoran-skye-xd.jpg",
  "icon_url": "https://lutris.net/games/icon/andoran-skye-xd.png",
  "is_public": true,
  "updated": "2020-10-08T10:05:28.664399Z",
  "provider_games": [
    {
      "name": "Andoran Skye 1.5",
      "slug": "560770",
      "service": "steam"
    }
  ],
  "steamid": 560770,
  "gogid": null,
  "gogslug": "",
  "humblestoreid": "",
  "id": 10988
}