{
  "name": "Fiesta Online NA",
  "slug": "fiesta-online-na",
  "year": null,
  "description": "",
  "banner_url": "https://lutris.net/games/banner/fiesta-online-na.jpg",
  "icon_url": "https://lutris.net/games/icon/fiesta-online-na.png",
  "is_public": true,
  "updated": "2020-10-08T09:20:15.802928Z",
  "provider_games": [
    {
      "name": "Fiesta Online NA",
      "slug": "300970",
      "service": "steam"
    }
  ],
  "steamid": 300970,
  "gogid": null,
  "gogslug": "",
  "humblestoreid": "",
  "id": 3206
}