{
  "name": "Beautiful Japanese Scenery - Animated Jigsaws",
  "slug": "beautiful-japanese-scenery-animated-jigsaws",
  "year": null,
  "description": "",
  "banner_url": "https://lutris.net/games/banner/beautiful-japanese-scenery-animated-jigsaws.jpg",
  "icon_url": "https://lutris.net/games/icon/beautiful-japanese-scenery-animated-jigsaws.png",
  "is_public": true,
  "updated": "2019-01-23T08:28:34.269772Z",
  "provider_games": [
    {
      "name": "Beautiful Japanese Scenery - Animated Jigsaws",
      "slug": "514090",
      "service": "steam"
    }
  ],
  "steamid": 514090,
  "gogid": null,
  "gogslug": "",
  "humblestoreid": "",
  "id": 19339
}