{
  "name": "Chaos Legion",
  "slug": "chaos-legion",
  "year": 2003,
  "description": "The story of Chaos Legion is a gothic opera which begins November, 791 A.S. (Anno Satanis): the protagonist, Sieg Wahrheit, is a Knight of the Dark Glyphs who is on a quest under command of the Order of St. Overia to find his former friend, Victor Delacroix, who has stolen the forbidden book \"Apocrypha of Yzarc\", and to stop him from releasing the evil spirit Azrail, who would destroy the three planes of existence: the Nether World, the Middle World, and the Celestial World.",
  "banner_url": "https://lutris.net/games/banner/chaos-legion.jpg",
  "icon_url": "",
  "is_public": true,
  "updated": "2019-07-20T02:59:39.203346Z",
  "provider_games": [],
  "steamid": null,
  "gogid": null,
  "gogslug": "",
  "humblestoreid": "",
  "id": 28351
}