{
  "name": "A Little Lily Princess",
  "slug": "a-little-lily-princess",
  "year": 2016,
  "description": "Sara Crewe was raised like a princess by her doting Papa, always given the best of everything. Now that she is old enough, she must be sent away to boarding school in a foreign land, relying on her love of books and fairytales to help her make friends.\r\n\r\nBut not all smiles can be trusted, and fortune can turn cold and hard at any moment. What would happen to a little princess if she lost everything?",
  "banner_url": "https://lutris.net/games/banner/a-little-lily-princess.jpg",
  "icon_url": "https://lutris.net/games/icon/a-little-lily-princess.png",
  "is_public": true,
  "updated": "2019-01-23T08:28:19.316529Z",
  "provider_games": [
    {
      "name": "A Little Lily Princess",
      "slug": "449250",
      "service": "steam"
    }
  ],
  "steamid": 449250,
  "gogid": null,
  "gogslug": "",
  "humblestoreid": "",
  "id": 6756
}