{
  "name": "BlazBlue: Continuum Shift Extend",
  "slug": "blazblue-continuum-shift-extend",
  "year": null,
  "description": "",
  "banner_url": "https://lutris.net/games/banner/blazblue-continuum-shift-extend.jpg",
  "icon_url": "https://lutris.net/games/icon/blazblue-continuum-shift-extend.png",
  "is_public": true,
  "updated": "2019-11-01T23:31:14.551520Z",
  "provider_games": [
    {
      "name": "BlazBlue: Continuum Shift Extend",
      "slug": "294810",
      "service": "steam"
    }
  ],
  "steamid": 294810,
  "gogid": null,
  "gogslug": "",
  "humblestoreid": "",
  "id": 4994
}