{
  "id": 5994,
  "game_id": 14340,
  "game_slug": "say-when",
  "name": "Say When",
  "year": 2015,
  "user": "FakeShemp",
  "runner": "web",
  "slug": "say-when-itchio",
  "version": "itch.io",
  "description": "",
  "notes": "",
  "created_at": "2017-10-19T16:27:32.832000Z",
  "updated_at": "2017-10-19T16:29:02.591568Z",
  "draft": false,
  "published": true,
  "published_by": null,
  "rating": "",
  "steamid": null,
  "gogid": null,
  "gogslug": "",
  "humbleid": "",
  "humblestoreid": "",
  "humblestoreid_real": "",
  "script": {
    "files": [
      {
        "file1": "N/A:Please select the itch.io HTML"
      }
    ],
    "game": {
      "main_file": "$file1"
    },
    "installer": [
      {
        "merge": {
          "dst": "$GAMEDIR",
          "src": "file1"
        }
      }
    ],
    "web": {
      "window_size": "1280x720"
    }
  },
  "content": "files:\n- file1: N/A:Please select the itch.io HTML\ngame:\n  main_file: $file1\ninstaller:\n- merge:\n    dst: $GAMEDIR\n    src: file1\nweb:\n  window_size: 1280x720\n"
}