{
  "name": "Brinko",
  "slug": "brinko",
  "year": null,
  "description": "",
  "banner_url": "https://lutris.net/games/banner/brinko.jpg",
  "icon_url": "https://lutris.net/games/icon/brinko.png",
  "is_public": true,
  "updated": "2020-10-08T10:00:56.739513Z",
  "provider_games": [
    {
      "name": "Brinko",
      "slug": "701020",
      "service": "steam"
    }
  ],
  "steamid": 701020,
  "gogid": null,
  "gogslug": "",
  "humblestoreid": "",
  "id": 38570
}