{
  "name": "Fallout 4",
  "slug": "fallout-4",
  "year": 2015,
  "description": "Bethesda Game Studios, the award-winning creators of Fallout 3 and The Elder Scrolls V: Skyrim, welcome you to the world of Fallout 4 – their most ambitious game ever, and the next generation of open-world gaming.\r\n\r\nAs the sole survivor of Vault 111, you enter a world destroyed by nuclear war. Every second is a fight for survival, and every choice is yours. Only you can rebuild and determine the fate of the Wasteland. Welcome home.",
  "banner_url": "https://lutris.net/games/banner/fallout-4.jpg",
  "icon_url": "https://lutris.net/games/icon/fallout-4.png",
  "is_public": true,
  "updated": "2019-01-23T08:29:28.097148Z",
  "provider_games": [
    {
      "name": "Fallout 4",
      "slug": "377160",
      "service": "steam"
    }
  ],
  "steamid": 377160,
  "gogid": null,
  "gogslug": "",
  "humblestoreid": "",
  "id": 5339
}