{
  "name": "Genesis Alpha One Deluxe Edition",
  "slug": "genesis-alpha-one-deluxe-edition",
  "year": null,
  "description": "",
  "banner_url": "https://lutris.net/games/banner/genesis-alpha-one-deluxe-edition.jpg",
  "icon_url": "https://lutris.net/games/icon/genesis-alpha-one-deluxe-edition.png",
  "is_public": true,
  "updated": "2020-10-08T10:17:53.015587Z",
  "provider_games": [
    {
      "name": "Genesis Alpha One Deluxe Edition",
      "slug": "712190",
      "service": "steam"
    }
  ],
  "steamid": 712190,
  "gogid": null,
  "gogslug": "",
  "humblestoreid": "",
  "id": 32632
}