{
  "name": "Boet Fighter",
  "slug": "boet-fighter",
  "year": null,
  "description": "",
  "banner_url": "https://lutris.net/games/banner/boet-fighter.jpg",
  "icon_url": "https://lutris.net/games/icon/boet-fighter.png",
  "is_public": true,
  "updated": "2020-10-08T10:11:25.871037Z",
  "provider_games": [
    {
      "name": "Boet Fighter",
      "slug": "1108350",
      "service": "steam"
    }
  ],
  "steamid": 1108350,
  "gogid": null,
  "gogslug": "",
  "humblestoreid": "",
  "id": 32528
}