{
  "name": "Broken Sword: The Shadow of the Templars – The Director's Cut",
  "slug": "broken-sword-1-shadow-of-the-templars-directors-cu",
  "year": 2009,
  "description": "Paris in the Fall… a brutal murder at the Palais Royale. When Nico Collard is invited to interview statesman Pierre Carchon, she finds herself inextricably drawn into a terrifying conspiracy.\r\n\r\nOne of the all-time classic adventures, multi BAFTA-nominated Broken Sword: Director’s Cut pitches sassy journalist Nico Collard, and intrepid American George Stobbart into a mysterious journey of intrigue and jeopardy. Guide George and Nico on their globe-spanning adventure, exploring exotic locations, solving ancient mysteries, and thwarting a dark conspiracy to reveal the secret truths of the Knights Templar.",
  "banner_url": "https://lutris.net/games/banner/broken-sword-1-shadow-of-the-templars-directors-cu.jpg",
  "icon_url": "https://lutris.net/games/icon/broken-sword-1-shadow-of-the-templars-directors-cu.png",
  "is_public": true,
  "updated": "2020-05-31T00:17:36.807156Z",
  "provider_games": [
    {
      "name": "Broken Sword: Director's Cut",
      "slug": "1207658900",
      "service": "gog"
    },
    {
      "name": "Broken Sword 1 - Shadow of the Templars: Director's Cut",
      "slug": "57640",
      "service": "steam"
    }
  ],
  "steamid": 57640,
  "gogid": 1207658900,
  "gogslug": "broken_sword_directors_cut",
  "humblestoreid": "broken-sword-shadow-of-the-templars-the-directors-cut",
  "id": 31
}