{
  "name": "Machines At War 3",
  "slug": "machines-at-war-3",
  "year": null,
  "description": "",
  "banner_url": "https://lutris.net/games/banner/machines-at-war-3.jpg",
  "icon_url": "https://lutris.net/games/icon/machines-at-war-3.png",
  "is_public": true,
  "updated": "2020-10-08T09:20:11.857227Z",
  "provider_games": [
    {
      "name": "Machines At War 3",
      "slug": "303860",
      "service": "steam"
    }
  ],
  "steamid": 303860,
  "gogid": null,
  "gogslug": "",
  "humblestoreid": "",
  "id": 3967
}