{
  "name": "Animal Bonus",
  "slug": "animal-bonus",
  "year": 2003,
  "description": "",
  "banner_url": "",
  "icon_url": "https://lutris.net/games/icon/animal-bonus.png",
  "is_public": true,
  "updated": "2020-05-26T03:31:50.630509Z",
  "provider_games": [
    {
      "name": "Animal Bonus",
      "slug": "anibonus",
      "service": "mame"
    }
  ],
  "steamid": null,
  "gogid": null,
  "gogslug": "",
  "humblestoreid": "",
  "id": 33307
}