{
  "name": "IFSCL",
  "slug": "ifscl",
  "year": 2016,
  "description": "The IFSCL is a free game, professionally made by a passionate fan, a completely interactive exact reproduction of the user interface of the supercomputer that Jeremie uses at the factory!\r\n\r\nThe IFSCL is:\r\n\r\n- A completely original game, based on Jeremie's actions in the original Code Lyoko series, with scan procedures, virtualization and other cool commands to enter with your keyboard, with a playful hierarchical basis.\r\n\r\n- A sandbox mode where everything is possible, and a campaign mode with missions that allows you to learn all the commands trough interactive scenarios, and guided with Jeremie's video diary.\r\n\r\n- A really big importance given to the exact reproduction of the original interface, on sound design, graphical design and animations.\r\n\r\n- The will of adding every system and program that appears in the TV show, and let the players the access to in-development versions of the game.\r\n\r\n- A multilingual interface, and so a really active and multicultural community, from many important points on the Internet: CodeLyoko.Fr, its forum, the website of independent games IndieDB and the social network Facebook.",
  "banner_url": "https://lutris.net/games/banner/ifscl.jpg",
  "icon_url": "",
  "is_public": true,
  "updated": "2019-01-23T08:29:54.829855Z",
  "provider_games": [],
  "steamid": null,
  "gogid": null,
  "gogslug": "",
  "humblestoreid": "",
  "id": 7719
}