{
  "id": 22472,
  "game_id": 19061,
  "game_slug": "monster-hunter-freedom-unite",
  "name": "Monster Hunter Freedom Unite",
  "year": 2009,
  "user": "Pro_Tentious",
  "runner": "ppsspp",
  "slug": "monster-hunter-freedom-unite-ppsspp",
  "version": "PPSSPP",
  "description": null,
  "notes": "",
  "created_at": "2020-07-20T06:52:06.431539Z",
  "updated_at": "2020-07-20T06:52:06.431563Z",
  "draft": true,
  "published": false,
  "published_by": null,
  "rating": "",
  "steamid": null,
  "gogid": null,
  "gogslug": "",
  "humbleid": "",
  "humblestoreid": "",
  "humblestoreid_real": "",
  "script": {
    "files": [
      {
        "rom": "N/A:Please Select the Monster Hunter Freedom Unite ROM file"
      }
    ],
    "game": {
      "main_file": "rom",
      "working_dir": "$GAMEDIR"
    },
    "installer": [
      {
        "copy": {
          "dst": "$GAMEDIR",
          "src": "rom"
        }
      }
    ]
  },
  "content": "files:\n- rom: N/A:Please Select the Monster Hunter Freedom Unite ROM file\ngame:\n  main_file: rom\n  working_dir: $GAMEDIR\ninstaller:\n- copy:\n    dst: $GAMEDIR\n    src: rom\n"
}