{
  "name": "Happyland Adventures",
  "slug": "happyland-adventures",
  "year": 2000,
  "description": "HappyLand is a side scrolling platform jumping game that requires you to gather and lead happyland animals to the happyzones. You play a dog that receives instructions from various old men throughout the game. \r\n\r\nOnce you've lead enough animals to the happyzone, the level door opens and you can proceed to the next level. Of course, you can also stay and find all the goodies hidden in each level.",
  "banner_url": "https://lutris.net/games/banner/happyland-adventures.jpg",
  "icon_url": "",
  "is_public": true,
  "updated": "2019-01-23T08:29:46.932377Z",
  "provider_games": [],
  "steamid": null,
  "gogid": null,
  "gogslug": "",
  "humblestoreid": "",
  "id": 16320
}