{
  "name": "Cum-Fu",
  "slug": "cum-fu",
  "year": 2016,
  "description": "Cum-Fu it's a Parody of Yei-Ar Kung-Fu where you play as a female version of the same protagonist. This Prototype only includes One fight against Shani, The Scroll Guardian. As it's inspiration combat rely on positioning and precise punching.",
  "banner_url": "https://lutris.net/games/banner/cum-fu.jpg",
  "icon_url": "",
  "is_public": true,
  "updated": "2019-01-23T08:29:02.709714Z",
  "provider_games": [],
  "steamid": null,
  "gogid": null,
  "gogslug": "",
  "humblestoreid": "",
  "id": 15653
}