{
  "name": "Astro Lords: Oort Cloud",
  "slug": "astro-lords-oort-cloud",
  "year": null,
  "description": "",
  "banner_url": "https://lutris.net/games/banner/astro-lords-oort-cloud.jpg",
  "icon_url": "https://lutris.net/games/icon/astro-lords-oort-cloud.png",
  "is_public": true,
  "updated": "2020-10-08T10:15:57.565657Z",
  "provider_games": [
    {
      "name": "Astro Lords: Oort Cloud",
      "slug": "372190",
      "service": "steam"
    }
  ],
  "steamid": 372190,
  "gogid": null,
  "gogslug": "",
  "humblestoreid": "",
  "id": 7089
}