{
  "name": "Diablo II",
  "slug": "diablo-ii",
  "year": 2000,
  "description": "Diablo, the Lord of Terror, has fallen to a brave hero beneath the church of Tristram. Now that hero is gone, replaced by a Dark Wanderer who roams the world of Sanctuary leaving death and destruction in his wake. As a hero of humanity, you must face the minions of Diablo's evil brothers and stop the Dark Wanderer before he fulfills his terrible destiny.",
  "banner_url": "https://lutris.net/games/banner/diablo-ii.jpg",
  "icon_url": "https://lutris.net/games/icon/diablo-ii.png",
  "is_public": true,
  "updated": "2019-01-23T08:29:11.186016Z",
  "provider_games": [],
  "steamid": null,
  "gogid": null,
  "gogslug": "",
  "humblestoreid": "",
  "id": 21
}