{
  "id": 19322,
  "game_id": 8094,
  "game_slug": "mafia-iii",
  "name": "Mafia III",
  "year": 2016,
  "user": "soredake",
  "runner": "steam",
  "slug": "mafia-iii-proton",
  "version": "Proton",
  "description": null,
  "notes": "",
  "created_at": "2020-03-31T10:14:48.792418Z",
  "updated_at": "2020-03-31T10:14:57.893144Z",
  "draft": false,
  "published": true,
  "published_by": null,
  "rating": "",
  "steamid": 360430,
  "gogid": 1354640203,
  "gogslug": "mafia_iii",
  "humbleid": "",
  "humblestoreid": "",
  "humblestoreid_real": "",
  "script": {
    "game": {
      "appid": 360430
    }
  },
  "content": "game:\n  appid: 360430\n"
}