{
  "name": "Fantasy Quest Solitaire",
  "slug": "fantasy-quest-solitaire",
  "year": null,
  "description": "",
  "banner_url": "https://lutris.net/games/banner/fantasy-quest-solitaire.jpg",
  "icon_url": "https://lutris.net/games/icon/fantasy-quest-solitaire.png",
  "is_public": true,
  "updated": "2020-10-08T09:58:43.622061Z",
  "provider_games": [
    {
      "name": "Fantasy Quest Solitaire",
      "slug": "755950",
      "service": "steam"
    }
  ],
  "steamid": 755950,
  "gogid": null,
  "gogslug": "",
  "humblestoreid": "",
  "id": 17371
}