{
  "name": "Crusader Kings III",
  "slug": "crusader-kings-iii",
  "year": null,
  "description": "",
  "banner_url": "https://lutris.net/games/banner/crusader-kings-iii.jpg",
  "icon_url": "https://lutris.net/games/icon/crusader-kings-iii.png",
  "is_public": true,
  "updated": "2020-10-08T10:17:18.801457Z",
  "provider_games": [
    {
      "name": "Crusader Kings III",
      "slug": "1158310",
      "service": "steam"
    }
  ],
  "steamid": 1158310,
  "gogid": null,
  "gogslug": "",
  "humblestoreid": "",
  "id": 37329
}