{
  "name": "Kaori After Story",
  "slug": "kaori-after-story",
  "year": null,
  "description": "",
  "banner_url": "https://lutris.net/games/banner/kaori-after-story.jpg",
  "icon_url": "https://lutris.net/games/icon/kaori-after-story.png",
  "is_public": true,
  "updated": "2020-10-08T09:16:39.131213Z",
  "provider_games": [
    {
      "name": "Kaori After Story",
      "slug": "979600",
      "service": "steam"
    }
  ],
  "steamid": 979600,
  "gogid": null,
  "gogslug": "",
  "humblestoreid": "",
  "id": 32066
}