{
  "name": "Bookworm Adventures Deluxe",
  "slug": "bookworm-adventures-deluxe",
  "year": null,
  "description": "",
  "banner_url": "https://lutris.net/games/banner/bookworm-adventures-deluxe.jpg",
  "icon_url": "https://lutris.net/games/icon/bookworm-adventures-deluxe.png",
  "is_public": true,
  "updated": "2019-01-23T08:28:40.347141Z",
  "provider_games": [
    {
      "name": "Bookworm Adventures Deluxe",
      "slug": "3470",
      "service": "steam"
    }
  ],
  "steamid": 3470,
  "gogid": null,
  "gogslug": "",
  "humblestoreid": "",
  "id": 3022
}