{
  "name": "Fechtbuch: Introducing Robert Waschka",
  "slug": "fechtbuch-introducing-robert-waschka",
  "year": null,
  "description": "",
  "banner_url": "https://lutris.net/games/banner/fechtbuch-introducing-robert-waschka.jpg",
  "icon_url": "https://lutris.net/games/icon/fechtbuch-introducing-robert-waschka.png",
  "is_public": true,
  "updated": "2020-10-08T10:12:54.592912Z",
  "provider_games": [
    {
      "name": "Fechtbuch: Introducing Robert Waschka",
      "slug": "1025170",
      "service": "steam"
    }
  ],
  "steamid": 1025170,
  "gogid": null,
  "gogslug": "",
  "humblestoreid": "",
  "id": 26284
}