{
  "name": "Journey of Greed",
  "slug": "journey-of-greed",
  "year": null,
  "description": "",
  "banner_url": "https://lutris.net/games/banner/journey-of-greed.jpg",
  "icon_url": "https://lutris.net/games/icon/journey-of-greed.png",
  "is_public": true,
  "updated": "2020-10-08T10:12:47.903472Z",
  "provider_games": [
    {
      "name": "Journey of Greed",
      "slug": "1032790",
      "service": "steam"
    }
  ],
  "steamid": 1032790,
  "gogid": null,
  "gogslug": "",
  "humblestoreid": "",
  "id": 30912
}