{
  "name": "10 Minute Tower",
  "slug": "10-minute-tower",
  "year": null,
  "description": "",
  "banner_url": "https://lutris.net/games/banner/10-minute-tower.jpg",
  "icon_url": "https://lutris.net/games/icon/10-minute-tower.png",
  "is_public": true,
  "updated": "2020-10-08T10:13:03.397264Z",
  "provider_games": [
    {
      "name": "10 Minute Tower",
      "slug": "477010",
      "service": "steam"
    }
  ],
  "steamid": 477010,
  "gogid": null,
  "gogslug": "",
  "humblestoreid": "",
  "id": 38192
}