{
  "id": 2791,
  "game_id": 43,
  "game_slug": "spelunky",
  "name": "Spelunky",
  "year": 2009,
  "user": "strider",
  "runner": "wine",
  "slug": "spelunky-classic",
  "version": "Classic",
  "description": "",
  "notes": "",
  "created_at": "2016-09-28T00:18:01.901365Z",
  "updated_at": "2016-09-28T00:19:14.684045Z",
  "draft": false,
  "published": true,
  "published_by": null,
  "rating": "",
  "steamid": 239350,
  "gogid": 1207659257,
  "gogslug": "spelunky",
  "humbleid": "spelunky",
  "humblestoreid": "spelunky",
  "humblestoreid_real": "spelunky",
  "script": {
    "exe": "Spelunky.exe",
    "files": [
      {
        "spelunky_game": "http://www.derekyu.com/games/spelunky_1_1.zip"
      }
    ],
    "installer": [
      {
        "extract": {
          "dst": "$GAMEDIR",
          "file": "spelunky_game"
        }
      }
    ]
  },
  "content": "exe: Spelunky.exe\nfiles:\n- spelunky_game: http://www.derekyu.com/games/spelunky_1_1.zip\ninstaller:\n- extract:\n    dst: $GAMEDIR\n    file: spelunky_game\n"
}