{
  "name": "Colorless Life",
  "slug": "colorless-life",
  "year": null,
  "description": "",
  "banner_url": "https://lutris.net/games/banner/colorless-life.jpg",
  "icon_url": "https://lutris.net/games/icon/colorless-life.png",
  "is_public": true,
  "updated": "2020-10-08T10:09:19.516251Z",
  "provider_games": [
    {
      "name": "Colorless Life",
      "slug": "670430",
      "service": "steam"
    }
  ],
  "steamid": 670430,
  "gogid": null,
  "gogslug": "",
  "humblestoreid": "",
  "id": 17009
}