{
  "name": "Knights in the Nightmare",
  "slug": "knights-in-the-nightmare",
  "year": 2008,
  "description": "Knights in the Nightmare is a strategy-shooter role-playing game hybrid from Sting Entertainment, and the fourth episode in the Dept. Heaven series of video games.",
  "banner_url": "https://lutris.net/games/banner/knights-in-the-nightmare.jpg",
  "icon_url": "",
  "is_public": true,
  "updated": "2019-01-23T08:30:06.021557Z",
  "provider_games": [],
  "steamid": null,
  "gogid": null,
  "gogslug": "",
  "humblestoreid": "",
  "id": 20542
}