{
  "name": "Golden Tee '99",
  "slug": "golden-tee-99",
  "year": 1999,
  "description": "",
  "banner_url": "https://lutris.net/games/banner/golden-tee-99.jpg",
  "icon_url": "https://lutris.net/games/icon/golden-tee-99.png",
  "is_public": true,
  "updated": "2020-05-26T03:34:12.155385Z",
  "provider_games": [
    {
      "name": "Golden Tee '99",
      "slug": "gt99",
      "service": "mame"
    }
  ],
  "steamid": null,
  "gogid": null,
  "gogslug": "",
  "humblestoreid": "",
  "id": 34309
}