{
  "name": "Ballads of Reemus: When the Bed Bites",
  "slug": "ballads-of-reemus-when-the-bed-bites",
  "year": null,
  "description": "",
  "banner_url": "https://lutris.net/games/banner/ballads-of-reemus-when-the-bed-bites.jpg",
  "icon_url": "https://lutris.net/games/icon/ballads-of-reemus-when-the-bed-bites.png",
  "is_public": true,
  "updated": "2019-01-23T08:28:31.041005Z",
  "provider_games": [
    {
      "name": "Ballads of Reemus: When the Bed Bites",
      "slug": "327450",
      "service": "steam"
    }
  ],
  "steamid": 327450,
  "gogid": null,
  "gogslug": "",
  "humblestoreid": "",
  "id": 6584
}