{
  "name": "Arkanoid: Doh It Again",
  "slug": "arkanoid-doh-it-again",
  "year": 1997,
  "description": "",
  "banner_url": "https://lutris.net/games/banner/arkanoid-doh-it-again.jpg",
  "icon_url": "",
  "is_public": true,
  "updated": "2019-06-02T05:22:55.110702Z",
  "provider_games": [],
  "steamid": null,
  "gogid": null,
  "gogslug": "",
  "humblestoreid": "",
  "id": 27579
}