{
  "name": "Let the Cat In",
  "slug": "let-the-cat-in",
  "year": null,
  "description": "",
  "banner_url": "https://lutris.net/games/banner/let-the-cat-in.jpg",
  "icon_url": "https://lutris.net/games/icon/let-the-cat-in.png",
  "is_public": true,
  "updated": "2019-01-23T08:30:10.285517Z",
  "provider_games": [
    {
      "name": "Let the Cat In",
      "slug": "369400",
      "service": "steam"
    }
  ],
  "steamid": 369400,
  "gogid": null,
  "gogslug": "",
  "humblestoreid": "",
  "id": 4919
}