{
  "name": "Counter Fight: Samurai Edition",
  "slug": "counter-fight-samurai-edition",
  "year": null,
  "description": "",
  "banner_url": "https://lutris.net/games/banner/counter-fight-samurai-edition.jpg",
  "icon_url": "https://lutris.net/games/icon/counter-fight-samurai-edition.png",
  "is_public": true,
  "updated": "2020-10-08T10:04:28.227416Z",
  "provider_games": [
    {
      "name": "Counter Fight: Samurai Edition",
      "slug": "593210",
      "service": "steam"
    }
  ],
  "steamid": 593210,
  "gogid": null,
  "gogslug": "",
  "humblestoreid": "",
  "id": 26102
}