{
  "name": "Beach Bowling Dream VR",
  "slug": "beach-bowling-dream-vr",
  "year": null,
  "description": "",
  "banner_url": "https://lutris.net/games/banner/beach-bowling-dream-vr.jpg",
  "icon_url": "https://lutris.net/games/icon/beach-bowling-dream-vr.png",
  "is_public": true,
  "updated": "2020-10-08T10:05:33.563123Z",
  "provider_games": [
    {
      "name": "Beach Bowling Dream VR",
      "slug": "557960",
      "service": "steam"
    }
  ],
  "steamid": 557960,
  "gogid": null,
  "gogslug": "",
  "humblestoreid": "",
  "id": 12862
}