{
  "name": "Killing Time",
  "slug": "killing-time",
  "year": null,
  "description": "",
  "banner_url": "https://lutris.net/games/banner/killing-time.jpg",
  "icon_url": "https://lutris.net/games/icon/killing-time.png",
  "is_public": true,
  "updated": "2020-10-08T10:08:53.994172Z",
  "provider_games": [
    {
      "name": "Killing Time",
      "slug": "1259063039",
      "service": "gog"
    },
    {
      "name": "Killing Time",
      "slug": "686190",
      "service": "steam"
    }
  ],
  "steamid": 686190,
  "gogid": 1259063039,
  "gogslug": "killing_time",
  "humblestoreid": "",
  "id": 15873
}