{
  "id": 20978,
  "game_id": 29127,
  "game_slug": "veil-of-darkness",
  "name": "Veil of Darkness",
  "year": 1993,
  "user": "appoloin",
  "runner": "dosbox",
  "slug": "veil-of-darkness-ms-dos",
  "version": "MS-DOS",
  "description": null,
  "notes": "",
  "created_at": "2020-05-29T10:06:30.998000Z",
  "updated_at": "2020-05-29T13:17:16.217656Z",
  "draft": false,
  "published": true,
  "published_by": 20548,
  "rating": "",
  "steamid": null,
  "gogid": null,
  "gogslug": "",
  "humbleid": "",
  "humblestoreid": "",
  "humblestoreid_real": "",
  "script": {
    "files": [
      {
        "game": "N/A:Select the file Veil.com"
      }
    ],
    "game": {
      "main_file": "$GAMEDIR/Veil.conf"
    },
    "installer": [
      {
        "execute": {
          "args": "$GAMEDIR/HDD  $GAMEDIR/HDD/Veil",
          "file": "mkdir"
        }
      },
      {
        "write_file": {
          "content": "#!/bin/bash\nsrc=$1\ndst=$2\nsrc_path=$(echo \"$1\" | sed -r \"s/(.+)\\/.+/\\1/\")\ncp -avr \"$src_path/.\"  \"$dst\"",
          "file": "$CACHE/bulkcopy.sh"
        }
      },
      {
        "chmodx": "$CACHE/bulkcopy.sh"
      },
      {
        "execute": {
          "args": "$game $GAMEDIR/HDD/Veil",
          "file": "$CACHE/bulkcopy.sh"
        }
      },
      {
        "write_file": {
          "content": "[sdl]\nsensitivity=20\n[autoexec]\nmount C \"$GAMEDIR/HDD\" -t dir\nC:\ncd Veil\nVeil\nexit",
          "file": "$GAMEDIR/Veil.conf"
        }
      },
      {
        "write_file": {
          "content": "[sdl]\nsensitivity=20\n[autoexec]\nmount C \"$GAMEDIR/HDD\" -t dir\nC:\ncd Veil\nsetup.com\nexit",
          "file": "$GAMEDIR/veil-setup.conf"
        }
      },
      {
        "task": {
          "config_file": "$GAMEDIR/veil-setup.conf",
          "name": "dosexec",
          "working_dir": "$GAMEDIR/HDD"
        }
      }
    ]
  },
  "content": "files:\n- game: N/A:Select the file Veil.com\ngame:\n  main_file: $GAMEDIR/Veil.conf\ninstaller:\n- execute:\n    args: $GAMEDIR/HDD  $GAMEDIR/HDD/Veil\n    file: mkdir\n- write_file:\n    content: '#!/bin/bash\n\n      src=$1\n\n      dst=$2\n\n      src_path=$(echo \"$1\" | sed -r \"s/(.+)\\/.+/\\1/\")\n\n      cp -avr \"$src_path/.\"  \"$dst\"'\n    file: $CACHE/bulkcopy.sh\n- chmodx: $CACHE/bulkcopy.sh\n- execute:\n    args: $game $GAMEDIR/HDD/Veil\n    file: $CACHE/bulkcopy.sh\n- write_file:\n    content: '[sdl]\n\n      sensitivity=20\n\n      [autoexec]\n\n      mount C \"$GAMEDIR/HDD\" -t dir\n\n      C:\n\n      cd Veil\n\n      Veil\n\n      exit'\n    file: $GAMEDIR/Veil.conf\n- write_file:\n    content: '[sdl]\n\n      sensitivity=20\n\n      [autoexec]\n\n      mount C \"$GAMEDIR/HDD\" -t dir\n\n      C:\n\n      cd Veil\n\n      setup.com\n\n      exit'\n    file: $GAMEDIR/veil-setup.conf\n- task:\n    config_file: $GAMEDIR/veil-setup.conf\n    name: dosexec\n    working_dir: $GAMEDIR/HDD\n"
}