{
  "name": "Impossible Geometry",
  "slug": "impossible-geometry",
  "year": null,
  "description": "",
  "banner_url": "https://lutris.net/games/banner/impossible-geometry.jpg",
  "icon_url": "https://lutris.net/games/icon/impossible-geometry.png",
  "is_public": true,
  "updated": "2020-10-08T10:14:55.618037Z",
  "provider_games": [
    {
      "name": "Impossible Geometry",
      "slug": "406670",
      "service": "steam"
    }
  ],
  "steamid": 406670,
  "gogid": null,
  "gogslug": "",
  "humblestoreid": "",
  "id": 18498
}