{
  "name": "Cavern Escape",
  "slug": "cavern-escape",
  "year": null,
  "description": "",
  "banner_url": "https://lutris.net/games/banner/cavern-escape.jpg",
  "icon_url": "https://lutris.net/games/icon/cavern-escape.png",
  "is_public": true,
  "updated": "2020-10-08T10:05:56.135508Z",
  "provider_games": [
    {
      "name": "Cavern Escape",
      "slug": "546400",
      "service": "steam"
    }
  ],
  "steamid": 546400,
  "gogid": null,
  "gogslug": "",
  "humblestoreid": "",
  "id": 11292
}