{
  "name": "Inner silence",
  "slug": "inner-silence",
  "year": null,
  "description": "",
  "banner_url": "https://lutris.net/games/banner/inner-silence.jpg",
  "icon_url": "https://lutris.net/games/icon/inner-silence.png",
  "is_public": true,
  "updated": "2020-10-08T10:05:02.056541Z",
  "provider_games": [
    {
      "name": "Inner silence",
      "slug": "575780",
      "service": "steam"
    }
  ],
  "steamid": 575780,
  "gogid": null,
  "gogslug": "",
  "humblestoreid": "",
  "id": 12949
}