{
  "id": 6749,
  "game_id": 15222,
  "game_slug": "galaxy-fight-universal-warriors",
  "name": "Galaxy Fight: Universal Warriors",
  "year": 1996,
  "user": "maxlefou",
  "runner": "mame",
  "slug": "galaxy-fight-universal-warrio-neo-geo",
  "version": "NEO GEO",
  "description": null,
  "notes": "",
  "created_at": "2017-12-21T15:23:56.118000Z",
  "updated_at": "2017-12-21T15:38:20.224530Z",
  "draft": false,
  "published": true,
  "published_by": null,
  "rating": "",
  "steamid": null,
  "gogid": null,
  "gogslug": "",
  "humbleid": "",
  "humblestoreid": "",
  "humblestoreid_real": "",
  "script": {
    "files": [
      {
        "gamerom": "N/A:Locate the game's ROM file (galaxyfg.zip)"
      },
      {
        "ngrom": "N/A:Locate the Neo Geo BIOS file (neogeo.zip)"
      }
    ],
    "game": {
      "main_file": "gamerom",
      "runner": "mame",
      "version": "arcade"
    },
    "installer": [
      {
        "merge": {
          "dst": "$GAMEDIR",
          "src": "gamerom"
        }
      },
      {
        "merge": {
          "dst": "$GAMEDIR",
          "src": "ngrom"
        }
      }
    ]
  },
  "content": "files:\n- gamerom: N/A:Locate the game's ROM file (galaxyfg.zip)\n- ngrom: N/A:Locate the Neo Geo BIOS file (neogeo.zip)\ngame:\n  main_file: gamerom\n  runner: mame\n  version: arcade\ninstaller:\n- merge:\n    dst: $GAMEDIR\n    src: gamerom\n- merge:\n    dst: $GAMEDIR\n    src: ngrom\n"
}