{
  "id": 21495,
  "game_id": 24258,
  "game_slug": "88-heroes",
  "name": "88 Heroes",
  "year": 2017,
  "user": "hapster",
  "runner": "linux",
  "slug": "88-heroes-gog",
  "version": "GOG",
  "description": null,
  "notes": "",
  "created_at": "2020-06-14T10:00:31.023061Z",
  "updated_at": "2020-06-14T10:00:31.023088Z",
  "draft": true,
  "published": false,
  "published_by": null,
  "rating": "",
  "steamid": 487040,
  "gogid": 2115164708,
  "gogslug": "88_heroes",
  "humbleid": "",
  "humblestoreid": "",
  "humblestoreid_real": "",
  "script": {
    "files": [
      {
        "goginstaller": "N/A:Please select the GOG.com Linux installer"
      }
    ],
    "game": {
      "exe": "start.sh"
    },
    "installer": [
      {
        "extract": {
          "dst": "$CACHE/GOG",
          "file": "goginstaller",
          "format": "zip"
        }
      },
      {
        "merge": {
          "dst": "$GAMEDIR",
          "src": "$CACHE/GOG/data/noarch/"
        }
      }
    ]
  },
  "content": "files:\n- goginstaller: N/A:Please select the GOG.com Linux installer\ngame:\n  exe: start.sh\ninstaller:\n- extract:\n    dst: $CACHE/GOG\n    file: goginstaller\n    format: zip\n- merge:\n    dst: $GAMEDIR\n    src: $CACHE/GOG/data/noarch/\n"
}