{
  "name": "Barbarian II: The Dungeon of Drax",
  "slug": "barbarian-ii-the-dungeon-of-drax",
  "year": 1988,
  "description": "THE DUNGEON OF DRAX\r\n\r\n ...And Know ye O Prince that while the Kingdoms\r\nof Man rejoiced, the Evil One gathered his strength and\r\nDarkness once more spread its wings across the land...\r\n                                                                           --The Lemurian Chronicles",
  "banner_url": "https://lutris.net/games/banner/barbarian-ii-the-dungeon-of-drax.jpg",
  "icon_url": "",
  "is_public": true,
  "updated": "2019-01-23T08:28:31.557652Z",
  "provider_games": [],
  "steamid": null,
  "gogid": null,
  "gogslug": "",
  "humblestoreid": "",
  "id": 12295
}