{
  "name": "down.",
  "slug": "down",
  "year": 2017,
  "description": "Down is a short, somber atmospheric experience about depression, anxiety, and the inability to forgive oneself.",
  "banner_url": "https://lutris.net/games/banner/down.jpg",
  "icon_url": "",
  "is_public": true,
  "updated": "2020-09-30T05:34:40.555519Z",
  "provider_games": [],
  "steamid": null,
  "gogid": null,
  "gogslug": "",
  "humblestoreid": "",
  "id": 39409
}