{
  "name": "Jump To Die!!",
  "slug": "jump-to-die",
  "year": null,
  "description": "",
  "banner_url": "https://lutris.net/games/banner/jump-to-die.jpg",
  "icon_url": "https://lutris.net/games/icon/jump-to-die.png",
  "is_public": true,
  "updated": "2020-10-08T10:04:53.418408Z",
  "provider_games": [
    {
      "name": "Jump To Die!!",
      "slug": "581060",
      "service": "steam"
    }
  ],
  "steamid": 581060,
  "gogid": null,
  "gogslug": "",
  "humblestoreid": "",
  "id": 11022
}