{
  "name": "Kirisame Blade 2",
  "slug": "kirisame-blade-2",
  "year": null,
  "description": "",
  "banner_url": "https://lutris.net/games/banner/kirisame-blade-2.jpg",
  "icon_url": "",
  "is_public": true,
  "updated": "2019-01-23T08:30:05.300666Z",
  "provider_games": [],
  "steamid": null,
  "gogid": null,
  "gogslug": "",
  "humblestoreid": "",
  "id": 6708
}