{
  "name": "FreeStyle Football",
  "slug": "freestyle-football",
  "year": null,
  "description": "",
  "banner_url": "https://lutris.net/games/banner/freestyle-football.jpg",
  "icon_url": "https://lutris.net/games/icon/freestyle-football.png",
  "is_public": false,
  "updated": "2019-01-23T08:29:35.275757Z",
  "provider_games": [],
  "steamid": 568810,
  "gogid": null,
  "gogslug": "",
  "humblestoreid": "",
  "id": 10334
}