{
  "name": "Cal Omega - Game 7.4",
  "slug": "cal-omega-game-74",
  "year": 1981,
  "description": "",
  "banner_url": "",
  "icon_url": "https://lutris.net/games/icon/cal-omega-game-74.png",
  "is_public": true,
  "updated": "2020-05-26T03:32:33.636247Z",
  "provider_games": [
    {
      "name": "Cal Omega - Game 7.4",
      "slug": "comg074",
      "service": "mame"
    }
  ],
  "steamid": null,
  "gogid": null,
  "gogslug": "",
  "humblestoreid": "",
  "id": 33716
}