{
  "name": "Alphadia Genesis",
  "slug": "alphadia-genesis",
  "year": null,
  "description": "",
  "banner_url": "https://lutris.net/games/banner/alphadia-genesis.jpg",
  "icon_url": "https://lutris.net/games/icon/alphadia-genesis.png",
  "is_public": true,
  "updated": "2020-10-08T09:19:44.826833Z",
  "provider_games": [
    {
      "name": "Alphadia Genesis",
      "slug": "323450",
      "service": "steam"
    }
  ],
  "steamid": 323450,
  "gogid": null,
  "gogslug": "",
  "humblestoreid": "",
  "id": 10655
}