{
  "name": "Animal Doctor",
  "slug": "animal-doctor",
  "year": null,
  "description": "",
  "banner_url": "https://lutris.net/games/banner/animal-doctor.jpg",
  "icon_url": "https://lutris.net/games/icon/animal-doctor.png",
  "is_public": true,
  "updated": "2020-10-08T10:12:46.414927Z",
  "provider_games": [
    {
      "name": "Animal Doctor",
      "slug": "1033930",
      "service": "steam"
    }
  ],
  "steamid": 1033930,
  "gogid": null,
  "gogslug": "",
  "humblestoreid": "",
  "id": 39521
}