{
  "id": 2541,
  "game_id": 4937,
  "game_slug": "jotun",
  "name": "Jotun",
  "year": 2015,
  "user": "ssf",
  "runner": "linux",
  "slug": "jotun-gogcom",
  "version": "GOG.com",
  "description": null,
  "notes": "",
  "created_at": "2016-08-22T15:54:36.717000Z",
  "updated_at": "2019-04-20T21:37:05.687371Z",
  "draft": false,
  "published": true,
  "published_by": 19464,
  "rating": "",
  "steamid": 323580,
  "gogid": 1458127099,
  "gogslug": "jotun",
  "humbleid": "jotun",
  "humblestoreid": "jotun",
  "humblestoreid_real": "jotun",
  "script": {
    "files": [
      {
        "goginstaller": "N/A:Please select the GOG.com Linux installer"
      }
    ],
    "game": {
      "exe": "start.sh"
    },
    "installer": [
      {
        "extract": {
          "dst": "$CACHE/GOG",
          "file": "goginstaller",
          "format": "zip"
        }
      },
      {
        "merge": {
          "dst": "$GAMEDIR",
          "src": "$CACHE/GOG/data/noarch/"
        }
      }
    ]
  },
  "content": "files:\n- goginstaller: N/A:Please select the GOG.com Linux installer\ngame:\n  exe: start.sh\ninstaller:\n- extract:\n    dst: $CACHE/GOG\n    file: goginstaller\n    format: zip\n- merge:\n    dst: $GAMEDIR\n    src: $CACHE/GOG/data/noarch/\n"
}