{
  "id": 4668,
  "game_id": 2355,
  "game_slug": "eidolon",
  "name": "Eidolon",
  "year": null,
  "user": "FakeShemp",
  "runner": "wine",
  "slug": "eidolon-humble",
  "version": "Humble",
  "description": "",
  "notes": "",
  "created_at": "2017-06-27T08:45:48.677000Z",
  "updated_at": "2017-07-01T19:21:24.082168Z",
  "draft": false,
  "published": true,
  "published_by": null,
  "rating": "",
  "steamid": 286140,
  "gogid": null,
  "gogslug": "",
  "humbleid": "",
  "humblestoreid": "",
  "humblestoreid_real": "",
  "script": {
    "files": [
      {
        "file1": "N/A:Please select the Humble installer"
      }
    ],
    "game": {
      "exe": "drive_c/UDK/EIDOLON/Binaries/Win32/UDK.exe",
      "prefix": "$GAMEDIR"
    },
    "installer": [
      {
        "task": {
          "app": "dotnet40",
          "name": "winetricks",
          "prefix": "$GAMEDIR"
        }
      },
      {
        "task": {
          "executable": "$file1",
          "name": "wineexec",
          "prefix": "$GAMEDIR"
        }
      }
    ]
  },
  "content": "files:\n- file1: N/A:Please select the Humble installer\ngame:\n  exe: drive_c/UDK/EIDOLON/Binaries/Win32/UDK.exe\n  prefix: $GAMEDIR\ninstaller:\n- task:\n    app: dotnet40\n    name: winetricks\n    prefix: $GAMEDIR\n- task:\n    executable: $file1\n    name: wineexec\n    prefix: $GAMEDIR\n"
}