{
  "name": "Mad Father",
  "slug": "mad-father",
  "year": null,
  "description": "",
  "banner_url": "https://lutris.net/games/banner/mad-father.jpg",
  "icon_url": "https://lutris.net/games/icon/mad-father.png",
  "is_public": true,
  "updated": "2020-10-08T10:07:52.217946Z",
  "provider_games": [
    {
      "name": "Mad Father",
      "slug": "483980",
      "service": "steam"
    }
  ],
  "steamid": 483980,
  "gogid": null,
  "gogslug": "",
  "humblestoreid": "",
  "id": 8553
}