{
  "name": "Adventure Island",
  "slug": "adventure-island",
  "year": 1986,
  "description": "You just found out that Princess Leilani was kidnapped by the Evil Witch Doctor and taken to Adventure Island in the South Pacific.\r\n\r\nYou land on Adventure Island without weapons or food. The island is thick with tropical forest, mountains and caves. Hidden on the island are your skateboard, axe, food  and other helpful tools you must find by exploring the island.\r\n\r\nBetter find the weapons and food quickly because you will need them to fight the Witch Doctor's spiders, snakes, bats and demons. The Evil Witch Doctor has set lots of traps for you before you can face him one on one. Are you up for the challenge?! Can you live through Adventure Island to save Princess Leilani?!",
  "banner_url": "https://lutris.net/games/banner/adventure-island.jpg",
  "icon_url": "",
  "is_public": true,
  "updated": "2019-01-23T08:28:12.436584Z",
  "provider_games": [],
  "steamid": null,
  "gogid": null,
  "gogslug": "",
  "humblestoreid": "",
  "id": 6119
}