{
  "name": "Bubsy: The Woolies Strike Back",
  "slug": "bubsy-the-woolies-strike-back",
  "year": null,
  "description": "",
  "banner_url": "https://lutris.net/games/banner/bubsy-the-woolies-strike-back.jpg",
  "icon_url": "https://lutris.net/games/icon/bubsy-the-woolies-strike-back.png",
  "is_public": true,
  "updated": "2020-10-08T10:03:20.850961Z",
  "provider_games": [
    {
      "name": "Bubsy: The Woolies Strike Back",
      "slug": "627910",
      "service": "steam"
    }
  ],
  "steamid": 627910,
  "gogid": null,
  "gogslug": "",
  "humblestoreid": "",
  "id": 16736
}