{
  "name": "Invasion: Brain Craving",
  "slug": "invasion-brain-craving",
  "year": null,
  "description": "",
  "banner_url": "https://lutris.net/games/banner/invasion-brain-craving.jpg",
  "icon_url": "https://lutris.net/games/icon/invasion-brain-craving.png",
  "is_public": true,
  "updated": "2020-10-08T10:14:26.535623Z",
  "provider_games": [
    {
      "name": "Invasion: Brain Craving",
      "slug": "423710",
      "service": "steam"
    }
  ],
  "steamid": 423710,
  "gogid": null,
  "gogslug": "",
  "humblestoreid": "",
  "id": 6472
}