{
  "name": "Mad Combat Marines",
  "slug": "mad-combat-marines",
  "year": null,
  "description": "",
  "banner_url": "https://lutris.net/games/banner/mad-combat-marines.jpg",
  "icon_url": "https://lutris.net/games/icon/mad-combat-marines.png",
  "is_public": true,
  "updated": "2020-10-08T10:07:51.230514Z",
  "provider_games": [
    {
      "name": "Mad Combat Marines",
      "slug": "485370",
      "service": "steam"
    }
  ],
  "steamid": 485370,
  "gogid": null,
  "gogslug": "",
  "humblestoreid": "",
  "id": 9253
}