{
  "id": 3519,
  "game_id": 10567,
  "game_slug": "open-sonic",
  "name": "Open Sonic",
  "year": 2008,
  "user": "paperbenni",
  "runner": "linux",
  "slug": "open-sonic-linux-x86",
  "version": "Linux x86",
  "description": "",
  "notes": "",
  "created_at": "2017-04-12T20:24:43.840000Z",
  "updated_at": "2017-05-16T04:26:04.903841Z",
  "draft": false,
  "published": true,
  "published_by": null,
  "rating": "",
  "steamid": null,
  "gogid": null,
  "gogslug": "",
  "humbleid": "",
  "humblestoreid": "",
  "humblestoreid_real": "",
  "script": {
    "exe": "opensonic_bin",
    "files": [
      {
        "os": "https://github.com/paperbenni/hello-world/raw/master/opensnc-linux-0.1.4.tar.gz"
      }
    ],
    "installer": [
      {
        "extract": {
          "dst": "$GAMEDIR",
          "file": "os"
        }
      }
    ]
  },
  "content": "exe: opensonic_bin\nfiles:\n- os: https://github.com/paperbenni/hello-world/raw/master/opensnc-linux-0.1.4.tar.gz\ninstaller:\n- extract:\n    dst: $GAMEDIR\n    file: os\n"
}