{
  "name": "Flora",
  "slug": "flora",
  "year": null,
  "description": "",
  "banner_url": "https://lutris.net/games/banner/flora.jpg",
  "icon_url": "https://lutris.net/games/icon/flora.png",
  "is_public": true,
  "updated": "2020-10-08T10:00:07.389731Z",
  "provider_games": [
    {
      "name": "Flora",
      "slug": "733480",
      "service": "steam"
    }
  ],
  "steamid": 733480,
  "gogid": null,
  "gogslug": "",
  "humblestoreid": "",
  "id": 15544
}