{
  "name": "ISEE",
  "slug": "isee",
  "year": null,
  "description": "",
  "banner_url": "https://lutris.net/games/banner/isee.jpg",
  "icon_url": "https://lutris.net/games/icon/isee.png",
  "is_public": false,
  "updated": "2019-01-23T08:29:58.779526Z",
  "provider_games": [],
  "steamid": 672360,
  "gogid": null,
  "gogslug": "",
  "humblestoreid": "",
  "id": 14104
}