{
  "id": 22107,
  "game_id": 21100,
  "game_slug": "rayman-3-hoodlum-havoc",
  "name": "Rayman 3: Hoodlum Havoc",
  "year": 2003,
  "user": "Snaggle",
  "runner": "wine",
  "slug": "rayman-3-hoodlum-havoc-gog-br3",
  "version": "GOG BR3",
  "description": "Installs the GOG version and patches it with Better Rayman 3 available here: https://raymanpc.com/forum/viewtopic.php?t=12854",
  "notes": "",
  "created_at": "2020-07-03T12:15:07.001022Z",
  "updated_at": "2020-07-03T12:15:07.001049Z",
  "draft": true,
  "published": false,
  "published_by": null,
  "rating": "",
  "steamid": null,
  "gogid": 1207658947,
  "gogslug": "rayman_3_hoodlum_havoc",
  "humbleid": "",
  "humblestoreid": "",
  "humblestoreid_real": "",
  "script": {
    "files": [
      {
        "gog_installer": "N/A:Select the game's setup file"
      },
      {
        "br3_installer": "N/A:Select Better Rayman 3's installer available from here:\nhttps://raymanpc.com/forum/viewtopic.php?t=12854"
      }
    ],
    "game": {
      "arch": "win32",
      "exe": "$GAMEDIR/drive_c/game/Rayman3.exe",
      "gogid": 1207658947,
      "prefix": "$GAMEDIR",
      "working_dir": "$GAMEDIR/drive_c/game"
    },
    "installer": [
      {
        "input_menu": {
          "description": "Choose the game's language:",
          "id": "LANG",
          "options": [
            {
              "English": "English"
            },
            {
              "French": "Français"
            },
            {
              "German": "Deutsch"
            },
            {
              "Italian": "Italiano"
            },
            {
              "Spanish": "Español"
            }
          ],
          "preselect": "English"
        }
      },
      {
        "task": {
          "arch": "win32",
          "description": "Creating Wine prefix",
          "name": "create_prefix",
          "prefix": "$GAMEDIR"
        }
      },
      {
        "task": {
          "args": "/SILENT /LANG=en /SP- /NOCANCEL /SUPPRESSMSGBOXES /DIR=\"C:\\game\"",
          "description": "Installing...",
          "executable": "gog_installer",
          "name": "wineexec",
          "prefix": "$GAMEDIR"
        }
      },
      {
        "extract": {
          "dst": "$CACHE",
          "file": "br3_installer"
        }
      },
      {
        "merge": {
          "dst": "$GAMEDIR/drive_c/game",
          "src": "$CACHE/app"
        }
      },
      {
        "write_config": {
          "file": "$GAMEDIR/drive_c/game/d3d8.ini",
          "key": "D3d8to9",
          "section": "Compatibility",
          "value": 1
        }
      },
      {
        "write_config": {
          "data": {
            "Rayman3": {
              "Adapter": 0,
              "Camera_HorizontalAxis": 3,
              "Camera_VerticalAxis": 4,
              "Gli_Mode": "1 - $RESOLUTION x 32",
              "Identifier": "00000000-0001-0000-0000-000000000000",
              "Language": "$INPUT_LANG",
              "TexturesCompressed": 0,
              "TexturesQuality": 32,
              "TnL": 1,
              "TriLinear": 1,
              "VignettesFile": "Vignette.cnt"
            }
          },
          "file": "$GAMEDIR/drive_c/windows/Ubisoft/ubi.ini"
        }
      },
      {
        "write_config": {
          "file": "$GAMEDIR/drive_c/windows/Ubisoft/ubi.ini",
          "key": "OuterDeadZone",
          "section": "BetterRayman3",
          "value": 20
        }
      }
    ],
    "wine": {
      "Desktop": true,
      "dxvk": true,
      "overrides": {
        "d3d8": "n"
      }
    }
  },
  "content": "files:\n- gog_installer: N/A:Select the game's setup file\n- br3_installer: 'N/A:Select Better Rayman 3''s installer available from here:\n\n    https://raymanpc.com/forum/viewtopic.php?t=12854'\ngame:\n  arch: win32\n  exe: $GAMEDIR/drive_c/game/Rayman3.exe\n  gogid: 1207658947\n  prefix: $GAMEDIR\n  working_dir: $GAMEDIR/drive_c/game\ninstaller:\n- input_menu:\n    description: 'Choose the game''s language:'\n    id: LANG\n    options:\n    - English: English\n    - French: \"Fran\\xE7ais\"\n    - German: Deutsch\n    - Italian: Italiano\n    - Spanish: \"Espa\\xF1ol\"\n    preselect: English\n- task:\n    arch: win32\n    description: Creating Wine prefix\n    name: create_prefix\n    prefix: $GAMEDIR\n- task:\n    args: /SILENT /LANG=en /SP- /NOCANCEL /SUPPRESSMSGBOXES /DIR=\"C:\\game\"\n    description: Installing...\n    executable: gog_installer\n    name: wineexec\n    prefix: $GAMEDIR\n- extract:\n    dst: $CACHE\n    file: br3_installer\n- merge:\n    dst: $GAMEDIR/drive_c/game\n    src: $CACHE/app\n- write_config:\n    file: $GAMEDIR/drive_c/game/d3d8.ini\n    key: D3d8to9\n    section: Compatibility\n    value: 1\n- write_config:\n    data:\n      Rayman3:\n        Adapter: 0\n        Camera_HorizontalAxis: 3\n        Camera_VerticalAxis: 4\n        Gli_Mode: 1 - $RESOLUTION x 32\n        Identifier: 00000000-0001-0000-0000-000000000000\n        Language: $INPUT_LANG\n        TexturesCompressed: 0\n        TexturesQuality: 32\n        TnL: 1\n        TriLinear: 1\n        VignettesFile: Vignette.cnt\n    file: $GAMEDIR/drive_c/windows/Ubisoft/ubi.ini\n- write_config:\n    file: $GAMEDIR/drive_c/windows/Ubisoft/ubi.ini\n    key: OuterDeadZone\n    section: BetterRayman3\n    value: 20\nwine:\n  Desktop: true\n  dxvk: true\n  overrides:\n    d3d8: n\n"
}