{
  "name": "Golf for Workgroups",
  "slug": "golf-for-workgroups",
  "year": null,
  "description": "",
  "banner_url": "https://lutris.net/games/banner/golf-for-workgroups.jpg",
  "icon_url": "https://lutris.net/games/icon/golf-for-workgroups.png",
  "is_public": true,
  "updated": "2020-10-08T10:05:09.232557Z",
  "provider_games": [
    {
      "name": "Golf for Workgroups",
      "slug": "572160",
      "service": "steam"
    }
  ],
  "steamid": 572160,
  "gogid": null,
  "gogslug": "",
  "humblestoreid": "",
  "id": 15845
}