{
  "name": "Far Cry 3",
  "slug": "far-cry-3",
  "year": 2012,
  "description": "Far Cry 3 is an open world first-person shooter set on an island unlike any other. A place where heavily armed warlords traffic in slaves. Where outsiders are hunted for ransom. And as you embark on a desperate quest to rescue your friends, you realize that the only way to escape this darkness… is to embrace it.",
  "banner_url": "https://lutris.net/games/banner/far-cry-3.jpg",
  "icon_url": "https://lutris.net/games/icon/far-cry-3.png",
  "is_public": true,
  "updated": "2020-04-27T23:34:57.688356Z",
  "provider_games": [
    {
      "name": "Far Cry® 3",
      "slug": "220240",
      "service": "steam"
    }
  ],
  "steamid": 220240,
  "gogid": null,
  "gogslug": "",
  "humblestoreid": "",
  "id": 979
}