{
  "name": "Industries of Titan",
  "slug": "industries-of-titan",
  "year": 2020,
  "description": "Create a sprawling industrial city. Compete with the other Great Houses of Titan for resources, territory, and power. Do battle with ships, technology, influence, or the sheer productive power of your factories. Stake your claim to the Industries of Titan in this innovative sim/strategy game!",
  "banner_url": "https://lutris.net/games/banner/industries-of-titan.jpg",
  "icon_url": "",
  "is_public": true,
  "updated": "2020-04-21T13:57:41.633249Z",
  "provider_games": [],
  "steamid": null,
  "gogid": null,
  "gogslug": "",
  "humblestoreid": "",
  "id": 32592
}