{
  "name": "Copod",
  "slug": "copod",
  "year": 2014,
  "description": "A roguelite where you survive as a little creature in a strange world.",
  "banner_url": "https://lutris.net/games/banner/copod.jpg",
  "icon_url": "",
  "is_public": true,
  "updated": "2019-01-23T08:28:58.216654Z",
  "provider_games": [],
  "steamid": null,
  "gogid": null,
  "gogslug": "",
  "humblestoreid": "",
  "id": 11735
}