{
  "name": "CrewChiefV4",
  "slug": "crewchiefv4",
  "year": null,
  "description": "CrewChief version 4.9\r\n\r\nWritten by Jim Britton, Morten Roslev, Vytautas Leonavičius, Paul Burgess, Dan Allongo (Automobilista and rFactor1 implementation), Daniel Nowak (nAudio speech recognition port), Mike Schreiner and Brent Owen (technical input on stock car rules). The application is the result of lots of lots of hard work and input from the guys above as well as some great advice and support from the community and the guys at Sector3 and SMS.\r\n\r\nAdditional material from Scoops (fantastic track layout mapping work), Nolan Bates (conversion of thousands of phrases from speech to text for subtitle support) and Longtomjr (F1 2018 UDP data format structs). Fantastic alternate spotter sounds by Geoffrey Lessel, Matt Orr (aka EmptyBox), Clare Britton, Mike Schreiner, Phil Linden, Lee Taylor and Micha (last name?). Also a thank you to Nick Thissen for his work on iRacingSdkWrapper.\r\n\r\nThe source code for Crew Chief is available here: https://github.com/mrbelowski/CrewChiefV4\r\n\r\nFor support and discussions about Crew Chief we have our very own forum here: http://thecrewchief.org/\r\n\r\nThe full changelog is now at the end of this file.",
  "banner_url": "https://lutris.net/games/banner/crewchiefv4.jpg",
  "icon_url": "",
  "is_public": false,
  "updated": "2020-05-01T10:22:08.296486Z",
  "provider_games": [],
  "steamid": null,
  "gogid": null,
  "gogslug": "",
  "humblestoreid": "",
  "id": 32910
}