{
  "name": "Knights of Pen and Paper +1 Edition",
  "slug": "knights-of-pen-and-paper-1-edition",
  "year": 2013,
  "description": "",
  "banner_url": "https://lutris.net/games/banner/knights-of-pen-and-paper-1-edition.jpg",
  "icon_url": "",
  "is_public": true,
  "updated": "2020-05-31T00:17:46.828803Z",
  "provider_games": [
    {
      "name": "Knights of Pen and Paper +1 Edition",
      "slug": "1320675280",
      "service": "gog"
    }
  ],
  "steamid": null,
  "gogid": 1320675280,
  "gogslug": "knights_of_pen_and_paper_1_edition",
  "humblestoreid": "",
  "id": 24053
}