{
  "name": "LoveKami -Divinity Stage-",
  "slug": "lovekami-divinity-stage-",
  "year": null,
  "description": "",
  "banner_url": "https://lutris.net/games/banner/lovekami-divinity-stage-.jpg",
  "icon_url": "https://lutris.net/games/icon/lovekami-divinity-stage-.png",
  "is_public": true,
  "updated": "2020-10-08T10:05:54.988599Z",
  "provider_games": [
    {
      "name": "LoveKami -Divinity Stage-",
      "slug": "547340",
      "service": "steam"
    }
  ],
  "steamid": 547340,
  "gogid": null,
  "gogslug": "",
  "humblestoreid": "",
  "id": 11784
}