{
  "name": "Gaben Kingdom",
  "slug": "gaben-kingdom",
  "year": null,
  "description": "",
  "banner_url": "https://lutris.net/games/banner/gaben-kingdom.jpg",
  "icon_url": "https://lutris.net/games/icon/gaben-kingdom.png",
  "is_public": true,
  "updated": "2020-10-08T10:04:28.457815Z",
  "provider_games": [
    {
      "name": "Gaben Kingdom",
      "slug": "593340",
      "service": "steam"
    }
  ],
  "steamid": 593340,
  "gogid": null,
  "gogslug": "",
  "humblestoreid": "",
  "id": 13035
}