{
  "name": "Cublast HD",
  "slug": "cublast-hd",
  "year": null,
  "description": "",
  "banner_url": "https://lutris.net/games/banner/cublast-hd.jpg",
  "icon_url": "https://lutris.net/games/icon/cublast-hd.png",
  "is_public": true,
  "updated": "2020-10-08T10:04:53.920138Z",
  "provider_games": [
    {
      "name": "Cublast HD",
      "slug": "580590",
      "service": "steam"
    }
  ],
  "steamid": 580590,
  "gogid": null,
  "gogslug": "",
  "humblestoreid": "",
  "id": 12000
}