{
  "id": 20944,
  "game_id": 14907,
  "game_slug": "prey",
  "name": "Prey",
  "year": 2017,
  "user": "strider",
  "runner": "wine",
  "slug": "prey-gog",
  "version": "GOG",
  "description": null,
  "notes": "",
  "created_at": "2020-05-29T04:56:52.652000Z",
  "updated_at": "2020-05-30T23:57:20.421657Z",
  "draft": false,
  "published": true,
  "published_by": 1,
  "rating": "",
  "steamid": 480490,
  "gogid": 1158493447,
  "gogslug": "prey",
  "humbleid": "",
  "humblestoreid": "",
  "humblestoreid_real": "",
  "script": {
    "files": [
      {
        "goginstaller": "N/A:Select the game's setup file"
      }
    ],
    "game": {
      "arch": "win64",
      "exe": "$GAMEDIR/drive_c/GOG Games/Prey/Binaries/Danielle/x64/Release/Prey.exe",
      "prefix": "$GAMEDIR"
    },
    "installer": [
      {
        "task": {
          "name": "create_prefix",
          "prefix": "$GAMEDIR"
        }
      },
      {
        "task": {
          "executable": "goginstaller",
          "name": "wineexec",
          "prefix": "$GAMEDIR"
        }
      }
    ]
  },
  "content": "files:\n- goginstaller: N/A:Select the game's setup file\ngame:\n  arch: win64\n  exe: $GAMEDIR/drive_c/GOG Games/Prey/Binaries/Danielle/x64/Release/Prey.exe\n  prefix: $GAMEDIR\ninstaller:\n- task:\n    name: create_prefix\n    prefix: $GAMEDIR\n- task:\n    executable: goginstaller\n    name: wineexec\n    prefix: $GAMEDIR\n"
}