{
  "name": "Inuyasha the Movie 3: Swords of an Honorable Ruler",
  "slug": "inuyasha-the-movie-3-swords-of-an-honorable-ruler",
  "year": null,
  "description": "",
  "banner_url": "https://lutris.net/games/banner/inuyasha-the-movie-3-swords-of-an-honorable-ruler.jpg",
  "icon_url": "https://lutris.net/games/icon/inuyasha-the-movie-3-swords-of-an-honorable-ruler.png",
  "is_public": true,
  "updated": "2020-10-08T10:07:46.252106Z",
  "provider_games": [
    {
      "name": "Inuyasha the Movie 3: Swords of an Honorable Ruler",
      "slug": "488390",
      "service": "steam"
    }
  ],
  "steamid": 488390,
  "gogid": null,
  "gogslug": "",
  "humblestoreid": "",
  "id": 11237
}