{
  "name": "BlackHoopS",
  "slug": "blackhoops",
  "year": null,
  "description": "",
  "banner_url": "https://lutris.net/games/banner/blackhoops.jpg",
  "icon_url": "https://lutris.net/games/icon/blackhoops.png",
  "is_public": true,
  "updated": "2020-10-08T09:17:24.216850Z",
  "provider_games": [
    {
      "name": "BlackHoopS",
      "slug": "937770",
      "service": "steam"
    }
  ],
  "steamid": 937770,
  "gogid": null,
  "gogslug": "",
  "humblestoreid": "",
  "id": 32583
}