{
  "name": "Expendable",
  "slug": "expendable",
  "year": null,
  "description": "",
  "banner_url": "https://lutris.net/games/banner/expendable.jpg",
  "icon_url": "https://lutris.net/games/icon/expendable.png",
  "is_public": true,
  "updated": "2020-10-08T09:57:43.425165Z",
  "provider_games": [
    {
      "name": "Expendable",
      "slug": "1207658789",
      "service": "gog"
    },
    {
      "name": "Expendable",
      "slug": "804000",
      "service": "steam"
    }
  ],
  "steamid": 804000,
  "gogid": 1207658789,
  "gogslug": "expendable",
  "humblestoreid": "",
  "id": 22917
}