{
  "name": "BATTLE PIXELS",
  "slug": "battle-pixels",
  "year": null,
  "description": "",
  "banner_url": "https://lutris.net/games/banner/battle-pixels.jpg",
  "icon_url": "https://lutris.net/games/icon/battle-pixels.png",
  "is_public": true,
  "updated": "2020-10-08T10:14:09.619215Z",
  "provider_games": [
    {
      "name": "BATTLE PIXELS",
      "slug": "434500",
      "service": "steam"
    }
  ],
  "steamid": 434500,
  "gogid": null,
  "gogslug": "",
  "humblestoreid": "",
  "id": 8429
}