{
  "name": "EDMtv VR",
  "slug": "edmtv-vr",
  "year": null,
  "description": "",
  "banner_url": "https://lutris.net/games/banner/edmtv-vr.jpg",
  "icon_url": "https://lutris.net/games/icon/edmtv-vr.png",
  "is_public": true,
  "updated": "2020-10-08T10:07:01.078023Z",
  "provider_games": [
    {
      "name": "EDMtv VR",
      "slug": "513200",
      "service": "steam"
    }
  ],
  "steamid": 513200,
  "gogid": null,
  "gogslug": "",
  "humblestoreid": "",
  "id": 9582
}