{
  "name": "BDSM: Big Drunk Satanic Massacre",
  "slug": "bdsm-big-drunk-satanic-massacre",
  "year": null,
  "description": "",
  "banner_url": "https://lutris.net/games/banner/bdsm-big-drunk-satanic-massacre.jpg",
  "icon_url": "https://lutris.net/games/icon/bdsm-big-drunk-satanic-massacre.png",
  "is_public": true,
  "updated": "2020-10-08T10:17:49.656911Z",
  "provider_games": [
    {
      "name": "BDSM: Big Drunk Satanic Massacre",
      "slug": "669950",
      "service": "steam"
    }
  ],
  "steamid": 669950,
  "gogid": null,
  "gogslug": "",
  "humblestoreid": "",
  "id": 31132
}