{
  "name": "Formula 1 '97",
  "slug": "formula-1-97",
  "year": 1997,
  "description": "All tracks, drivers and cards from the 1997 season\r\n    Includes arcade and realistic Grand Prix mode\r\n    New high resolution graphics\r\n    Split screen multiplayer mode",
  "banner_url": "https://lutris.net/games/banner/formula-1-97.jpg",
  "icon_url": "",
  "is_public": true,
  "updated": "2019-01-23T08:29:34.016820Z",
  "provider_games": [],
  "steamid": null,
  "gogid": null,
  "gogslug": "",
  "humblestoreid": "",
  "id": 19980
}