{
  "name": "Golden Poker Double Up",
  "slug": "golden-poker-double-up",
  "year": 1981,
  "description": "",
  "banner_url": "",
  "icon_url": "https://lutris.net/games/icon/golden-poker-double-up.png",
  "is_public": true,
  "updated": "2020-05-26T03:34:11.289378Z",
  "provider_games": [
    {
      "name": "Golden Poker Double Up",
      "slug": "goldnpkr",
      "service": "mame"
    }
  ],
  "steamid": null,
  "gogid": null,
  "gogslug": "",
  "humblestoreid": "",
  "id": 34266
}