{
  "name": "Ciconia When They Cry - Phase 1 For You, the Replaceable Ones",
  "slug": "ciconia-when-they-cry-phase-1-for-you-the-replacea",
  "year": null,
  "description": "",
  "banner_url": "https://lutris.net/games/banner/ciconia-when-they-cry-phase-1-for-you-the-replacea.jpg",
  "icon_url": "https://lutris.net/games/icon/ciconia-when-they-cry-phase-1-for-you-the-replacea.png",
  "is_public": true,
  "updated": "2020-10-08T09:19:09.080445Z",
  "provider_games": [
    {
      "name": "Ciconia When They Cry - Phase 1 For You, the Replaceable Ones",
      "slug": "1162560",
      "service": "steam"
    }
  ],
  "steamid": 1162560,
  "gogid": null,
  "gogslug": "",
  "humblestoreid": "",
  "id": 29609
}