{
  "name": "America's Army 3 Beta",
  "slug": "americas-army-3-beta",
  "year": null,
  "description": "",
  "banner_url": "https://lutris.net/games/banner/americas-army-3-beta.jpg",
  "icon_url": "https://lutris.net/games/icon/americas-army-3-beta.png",
  "is_public": true,
  "updated": "2020-10-08T10:02:37.488935Z",
  "provider_games": [
    {
      "name": "America's Army 3 Beta",
      "slug": "13120",
      "service": "steam"
    }
  ],
  "steamid": 13120,
  "gogid": null,
  "gogslug": "",
  "humblestoreid": "",
  "id": 26350
}