{
  "name": "Defense of Castle Chilly",
  "slug": "defense-of-castle-chilly",
  "year": null,
  "description": "",
  "banner_url": "https://lutris.net/games/banner/defense-of-castle-chilly.jpg",
  "icon_url": "https://lutris.net/games/icon/defense-of-castle-chilly.png",
  "is_public": true,
  "updated": "2020-10-08T10:06:38.128523Z",
  "provider_games": [
    {
      "name": "Defense of Castle Chilly",
      "slug": "523550",
      "service": "steam"
    }
  ],
  "steamid": 523550,
  "gogid": null,
  "gogslug": "",
  "humblestoreid": "",
  "id": 13532
}