{
  "id": 10009,
  "game_id": 21465,
  "game_slug": "might-and-magic-iii-isles-of-terra",
  "name": "Might and Magic III: Isles of Terra",
  "year": 1991,
  "user": "ugly",
  "runner": "dosbox",
  "slug": "might-and-magic-iii-isles-of-gog",
  "version": "GOG",
  "description": "Uses the files from the Windows installer from GOG.",
  "notes": "Audio (MIDI and sound FX) should work without additional setup.",
  "created_at": "2018-09-02T21:28:14.420000Z",
  "updated_at": "2020-06-01T09:58:11.508816Z",
  "draft": false,
  "published": true,
  "published_by": 20548,
  "rating": "",
  "steamid": null,
  "gogid": null,
  "gogslug": "",
  "humbleid": "",
  "humblestoreid": "",
  "humblestoreid_real": "",
  "script": {
    "files": [
      {
        "file1": "N/A:Please select the GOG installer"
      },
      {
        "file2": "https://lutris.nyc3.digitaloceanspaces.com/tools/innoextract/innoextract-1.8-dev-2019-01-13-linux.tar.xz"
      }
    ],
    "game": {
      "config_file": "$GAMEDIR/DOSBOX/dosboxMM3.conf"
    },
    "installer": [
      {
        "extract": {
          "dst": "$CACHE",
          "file": "$file2"
        }
      },
      {
        "execute": {
          "args": "-d \"$CACHE\" \"$file1\"",
          "file": "$CACHE/innoextract"
        }
      },
      {
        "merge": {
          "dst": "$GAMEDIR",
          "src": "$CACHE"
        }
      },
      {
        "merge": {
          "dst": "$GAMEDIR/DOSBOX",
          "src": "$CACHE/__support/app/dosboxMM3_single.conf"
        }
      },
      {
        "merge": {
          "dst": "$GAMEDIR/DOSBOX",
          "src": "$CACHE/__support/app/dosboxMM3.conf"
        }
      },
      {
        "write_config": {
          "file": "$GAMEDIR/DOSBOX/dosboxMM3.conf",
          "key": "aspect",
          "section": "render",
          "value": true
        }
      },
      {
        "write_config": {
          "file": "$GAMEDIR/DOSBOX/dosboxMM3.conf",
          "key": "output",
          "section": "sdl",
          "value": "overlay"
        }
      },
      {
        "write_config": {
          "file": "$GAMEDIR/DOSBOX/dosboxMM3.conf",
          "key": "fullscreen",
          "section": "sdl",
          "value": false
        }
      },
      {
        "write_config": {
          "file": "$GAMEDIR/DOSBOX/dosboxMM3.conf",
          "key": "fullresolution",
          "section": "sdl",
          "value": "1920x1080"
        }
      },
      {
        "write_config": {
          "file": "$GAMEDIR/DOSBOX/dosboxMM3.conf",
          "key": "midiconfig",
          "section": "midi",
          "value": "128:0"
        }
      }
    ],
    "main_file": "$GAMEDIR/DOSBOX/dosboxMM3_single.conf"
  },
  "content": "files:\n- file1: N/A:Please select the GOG installer\n- file2: https://lutris.nyc3.digitaloceanspaces.com/tools/innoextract/innoextract-1.8-dev-2019-01-13-linux.tar.xz\ngame:\n  config_file: $GAMEDIR/DOSBOX/dosboxMM3.conf\ninstaller:\n- extract:\n    dst: $CACHE\n    file: $file2\n- execute:\n    args: -d \"$CACHE\" \"$file1\"\n    file: $CACHE/innoextract\n- merge:\n    dst: $GAMEDIR\n    src: $CACHE\n- merge:\n    dst: $GAMEDIR/DOSBOX\n    src: $CACHE/__support/app/dosboxMM3_single.conf\n- merge:\n    dst: $GAMEDIR/DOSBOX\n    src: $CACHE/__support/app/dosboxMM3.conf\n- write_config:\n    file: $GAMEDIR/DOSBOX/dosboxMM3.conf\n    key: aspect\n    section: render\n    value: true\n- write_config:\n    file: $GAMEDIR/DOSBOX/dosboxMM3.conf\n    key: output\n    section: sdl\n    value: overlay\n- write_config:\n    file: $GAMEDIR/DOSBOX/dosboxMM3.conf\n    key: fullscreen\n    section: sdl\n    value: false\n- write_config:\n    file: $GAMEDIR/DOSBOX/dosboxMM3.conf\n    key: fullresolution\n    section: sdl\n    value: 1920x1080\n- write_config:\n    file: $GAMEDIR/DOSBOX/dosboxMM3.conf\n    key: midiconfig\n    section: midi\n    value: '128:0'\nmain_file: $GAMEDIR/DOSBOX/dosboxMM3_single.conf\n"
}