{
  "name": "Colossal Kaiju Combat™: Kaijuland Battles",
  "slug": "colossal-kaiju-combattm-kaijuland-battles",
  "year": null,
  "description": "",
  "banner_url": "https://lutris.net/games/banner/colossal-kaiju-combattm-kaijuland-battles.jpg",
  "icon_url": "https://lutris.net/games/icon/colossal-kaiju-combattm-kaijuland-battles.png",
  "is_public": true,
  "updated": "2020-10-08T09:20:32.226879Z",
  "provider_games": [
    {
      "name": "Colossal Kaiju Combat™: Kaijuland Battles",
      "slug": "290810",
      "service": "steam"
    }
  ],
  "steamid": 290810,
  "gogid": null,
  "gogslug": "",
  "humblestoreid": "",
  "id": 3305
}