{
  "name": "Desktop Mascot Engine",
  "slug": "desktop-mascot-engine",
  "year": null,
  "description": "",
  "banner_url": "https://lutris.net/games/banner/desktop-mascot-engine.jpg",
  "icon_url": "https://lutris.net/games/icon/desktop-mascot-engine.png",
  "is_public": true,
  "updated": "2020-10-08T10:08:42.486154Z",
  "provider_games": [
    {
      "name": "Desktop Mascot Engine",
      "slug": "821060",
      "service": "steam"
    }
  ],
  "steamid": 821060,
  "gogid": null,
  "gogslug": "",
  "humblestoreid": "",
  "id": 21339
}