{
  "id": 7118,
  "game_id": 6335,
  "game_slug": "chrono-cross",
  "name": "Chrono Cross",
  "year": 1999,
  "user": "Noxes",
  "runner": "libretro",
  "slug": "chrono-cross-playstation",
  "version": "playstation",
  "description": null,
  "notes": "",
  "created_at": "2018-01-16T23:07:44.219000Z",
  "updated_at": "2018-01-19T14:22:46.988836Z",
  "draft": false,
  "published": true,
  "published_by": null,
  "rating": "",
  "steamid": null,
  "gogid": null,
  "gogslug": "",
  "humbleid": "",
  "humblestoreid": "",
  "humblestoreid_real": "",
  "script": {
    "files": [
      {
        "file1": "N/A:Please select the PlayStation CD1 image file"
      },
      {
        "file2": "N/A:Please select the PlayStation CD2 image file"
      }
    ],
    "game": {
      "core": "mednafen_psx_hw",
      "main_file": "file1"
    },
    "installer": [
      {
        "merge": {
          "dst": "$GAMEDIR",
          "src": "file1"
        }
      },
      {
        "merge": {
          "dst": "$GAMEDIR",
          "src": "file2"
        }
      }
    ]
  },
  "content": "files:\n- file1: N/A:Please select the PlayStation CD1 image file\n- file2: N/A:Please select the PlayStation CD2 image file\ngame:\n  core: mednafen_psx_hw\n  main_file: file1\ninstaller:\n- merge:\n    dst: $GAMEDIR\n    src: file1\n- merge:\n    dst: $GAMEDIR\n    src: file2\n"
}