{
  "name": "Empathy: Path of Whispers",
  "slug": "empathy-path-of-whispers",
  "year": null,
  "description": "",
  "banner_url": "https://lutris.net/games/banner/empathy-path-of-whispers.jpg",
  "icon_url": "https://lutris.net/games/icon/empathy-path-of-whispers.png",
  "is_public": true,
  "updated": "2020-10-08T09:20:30.324580Z",
  "provider_games": [
    {
      "name": "Empathy: Path of Whispers",
      "slug": "291690",
      "service": "steam"
    }
  ],
  "steamid": 291690,
  "gogid": null,
  "gogslug": "",
  "humblestoreid": "",
  "id": 16706
}