{
  "name": "Hexoshi",
  "slug": "hexoshi",
  "year": 2016,
  "description": "Hexoshi is an action-adventure maze game similar in style to the original Metroid series. The game consists of exploring the world and gathering \"artifacts\" scattered around, fighting enemies along the way.",
  "banner_url": "https://lutris.net/games/banner/hexoshi.jpg",
  "icon_url": "",
  "is_public": true,
  "updated": "2019-01-23T08:29:50.234302Z",
  "provider_games": [],
  "steamid": null,
  "gogid": null,
  "gogslug": "",
  "humblestoreid": "",
  "id": 23352
}