{
  "name": "Age of Fear: The Undead King",
  "slug": "age-of-fear-the-undead-king",
  "year": null,
  "description": "",
  "banner_url": "https://lutris.net/games/banner/age-of-fear-the-undead-king.jpg",
  "icon_url": "https://lutris.net/games/icon/age-of-fear-the-undead-king.png",
  "is_public": true,
  "updated": "2019-01-23T08:28:14.543321Z",
  "provider_games": [
    {
      "name": "Age of Fear: The Undead King",
      "slug": "351480",
      "service": "steam"
    }
  ],
  "steamid": 351480,
  "gogid": null,
  "gogslug": "",
  "humblestoreid": "",
  "id": 5430
}