{
  "name": "Himiko",
  "slug": "himiko",
  "year": null,
  "description": "",
  "banner_url": "https://lutris.net/games/banner/himiko.jpg",
  "icon_url": "https://lutris.net/games/icon/himiko.png",
  "is_public": false,
  "updated": "2019-01-23T08:29:50.858256Z",
  "provider_games": [],
  "steamid": 603740,
  "gogid": null,
  "gogslug": "",
  "humblestoreid": "",
  "id": 13085
}