{
  "name": "Hellblade: Senua's Sacrifice VR",
  "slug": "hellblade-senuas-sacrifice-vr",
  "year": null,
  "description": "",
  "banner_url": "",
  "icon_url": "",
  "is_public": true,
  "updated": "2020-05-31T00:17:44.447204Z",
  "provider_games": [
    {
      "name": "Hellblade: Senua's Sacrifice VR",
      "slug": "1923443149",
      "service": "gog"
    }
  ],
  "steamid": null,
  "gogid": 1923443149,
  "gogslug": "hellblade_senuas_sacrifice_vr",
  "humblestoreid": "",
  "id": 36702
}