{
  "name": "Hunter's Arena: Legends",
  "slug": "hunters-arena-legends",
  "year": null,
  "description": "",
  "banner_url": "https://lutris.net/games/banner/hunters-arena-legends.jpg",
  "icon_url": "https://lutris.net/games/icon/hunters-arena-legends.png",
  "is_public": true,
  "updated": "2020-10-08T10:12:20.804212Z",
  "provider_games": [
    {
      "name": "Hunter's Arena: Legends",
      "slug": "1061100",
      "service": "steam"
    }
  ],
  "steamid": 1061100,
  "gogid": null,
  "gogslug": "",
  "humblestoreid": "",
  "id": 38142
}