{
  "name": "Death Block Puzzle",
  "slug": "death-block-puzzle",
  "year": 2016,
  "description": "Simply Match3 game. 19 levels try to get 3 same items in same row. After moves you can play same level or move more difficult level\r\n\r\nAmazingly puzzle game",
  "banner_url": "https://lutris.net/games/banner/death-block-puzzle.jpg",
  "icon_url": "",
  "is_public": true,
  "updated": "2019-01-23T08:29:07.115660Z",
  "provider_games": [],
  "steamid": null,
  "gogid": null,
  "gogslug": "",
  "humblestoreid": "",
  "id": 12093
}