{
  "name": "Kyoto Colorful Days",
  "slug": "kyoto-colorful-days",
  "year": null,
  "description": "",
  "banner_url": "https://lutris.net/games/banner/kyoto-colorful-days.jpg",
  "icon_url": "https://lutris.net/games/icon/kyoto-colorful-days.png",
  "is_public": true,
  "updated": "2020-10-08T10:13:18.320752Z",
  "provider_games": [
    {
      "name": "Kyoto Colorful Days",
      "slug": "464080",
      "service": "steam"
    }
  ],
  "steamid": 464080,
  "gogid": null,
  "gogslug": "",
  "humblestoreid": "",
  "id": 15002
}