{
  "name": "Absolver",
  "slug": "absolver",
  "year": 2017,
  "description": "Absolver is an online multiplayer combat game where players are placed behind the mask of a Prospect under control of the Guides, the new rulers of the fallen Adal Empire, who will determine your worth in joining their elite corps of Absolvers.",
  "banner_url": "https://lutris.net/games/banner/absolver.jpg",
  "icon_url": "https://lutris.net/games/icon/absolver.png",
  "is_public": true,
  "updated": "2020-05-31T00:17:33.527956Z",
  "provider_games": [
    {
      "name": "Absolver",
      "slug": "1816205133",
      "service": "gog"
    },
    {
      "name": "Absolver",
      "slug": "473690",
      "service": "steam"
    }
  ],
  "steamid": 473690,
  "gogid": 1816205133,
  "gogslug": "absolver",
  "humblestoreid": "",
  "id": 14041
}