{
  "name": "Heroes Tactics",
  "slug": "heroes-tactics",
  "year": null,
  "description": "",
  "banner_url": "https://lutris.net/games/banner/heroes-tactics.jpg",
  "icon_url": "https://lutris.net/games/icon/heroes-tactics.png",
  "is_public": true,
  "updated": "2020-10-08T10:13:16.535105Z",
  "provider_games": [
    {
      "name": "Heroes Tactics",
      "slug": "465710",
      "service": "steam"
    }
  ],
  "steamid": 465710,
  "gogid": null,
  "gogslug": "",
  "humblestoreid": "",
  "id": 13305
}