{
  "name": "Emily Wants To Play",
  "slug": "emily-wants-to-play",
  "year": null,
  "description": "",
  "banner_url": "https://lutris.net/games/banner/emily-wants-to-play.jpg",
  "icon_url": "https://lutris.net/games/icon/emily-wants-to-play.png",
  "is_public": true,
  "updated": "2020-10-08T10:14:38.779501Z",
  "provider_games": [
    {
      "name": "Emily Wants To Play",
      "slug": "416590",
      "service": "steam"
    }
  ],
  "steamid": 416590,
  "gogid": null,
  "gogslug": "",
  "humblestoreid": "",
  "id": 8369
}