{
  "name": "Heroes of Might & Magic V: Tribes of the East",
  "slug": "heroes-of-might-magic-v-tribes-of-the-east",
  "year": 2007,
  "description": "For the first time, play as the Orc faction and recruit heroes, build armies and manage cities as you explore and conquer legendary lands. Use tactics, skills and magic to outsmart fantasy armies while developing your heroes and unveiling the dark plot that threatens to tear the world of Ashan apart. ",
  "banner_url": "https://lutris.net/games/banner/heroes-of-might-magic-v-tribes-of-the-east.jpg",
  "icon_url": "https://lutris.net/games/icon/heroes-of-might-magic-v-tribes-of-the-east.png",
  "is_public": true,
  "updated": "2019-01-23T08:29:49.510035Z",
  "provider_games": [
    {
      "name": "Heroes of Might & Magic V: Tribes of the East",
      "slug": "15370",
      "service": "steam"
    }
  ],
  "steamid": 15370,
  "gogid": null,
  "gogslug": "",
  "humblestoreid": "",
  "id": 2455
}