{
  "name": "Lepofrenia",
  "slug": "lepofrenia",
  "year": null,
  "description": "",
  "banner_url": "https://lutris.net/games/banner/lepofrenia.jpg",
  "icon_url": "https://lutris.net/games/icon/lepofrenia.png",
  "is_public": false,
  "updated": "2019-01-23T08:30:10.016765Z",
  "provider_games": [],
  "steamid": 527460,
  "gogid": null,
  "gogslug": "",
  "humblestoreid": "",
  "id": 12739
}