{
  "name": "Big Brain Wolf",
  "slug": "big-brain-wolf",
  "year": null,
  "description": "",
  "banner_url": "https://lutris.net/games/banner/big-brain-wolf.jpg",
  "icon_url": "https://lutris.net/games/icon/big-brain-wolf.png",
  "is_public": true,
  "updated": "2020-10-08T10:02:13.942538Z",
  "provider_games": [
    {
      "name": "Big Brain Wolf",
      "slug": "35600",
      "service": "steam"
    }
  ],
  "steamid": 35600,
  "gogid": null,
  "gogslug": "",
  "humblestoreid": "",
  "id": 3262
}