{
  "name": "Guns and Roses",
  "slug": "guns-and-roses",
  "year": 1993,
  "description": "",
  "banner_url": "",
  "icon_url": "https://lutris.net/games/icon/guns-and-roses.png",
  "is_public": true,
  "updated": "2020-05-26T03:34:22.219127Z",
  "provider_games": [
    {
      "name": "Guns and Roses",
      "slug": "gunnrose",
      "service": "mame"
    }
  ],
  "steamid": null,
  "gogid": null,
  "gogslug": "",
  "humblestoreid": "",
  "id": 34334
}