{
  "name": "Animal Bonus Nudge",
  "slug": "animal-bonus-nudge",
  "year": 2003,
  "description": "",
  "banner_url": "",
  "icon_url": "https://lutris.net/games/icon/animal-bonus-nudge.png",
  "is_public": true,
  "updated": "2020-05-26T03:31:50.788594Z",
  "provider_games": [
    {
      "name": "Animal Bonus Nudge",
      "slug": "abnudge",
      "service": "mame"
    }
  ],
  "steamid": null,
  "gogid": null,
  "gogslug": "",
  "humblestoreid": "",
  "id": 33263
}