{
  "name": "Gauntlet™ ",
  "slug": "gauntlettm",
  "year": null,
  "description": "",
  "banner_url": "https://lutris.net/games/banner/gauntlettm.jpg",
  "icon_url": "https://lutris.net/games/icon/gauntlettm.png",
  "is_public": true,
  "updated": "2019-01-23T08:29:38.414562Z",
  "provider_games": [
    {
      "name": "Gauntlet™ ",
      "slug": "258970",
      "service": "steam"
    }
  ],
  "steamid": 258970,
  "gogid": null,
  "gogslug": "",
  "humblestoreid": "",
  "id": 3122
}