{
  "name": "Grid Legion, Storm",
  "slug": "grid-legion-storm",
  "year": null,
  "description": "",
  "banner_url": "https://lutris.net/games/banner/grid-legion-storm.jpg",
  "icon_url": "https://lutris.net/games/icon/grid-legion-storm.png",
  "is_public": true,
  "updated": "2020-10-08T10:07:17.889745Z",
  "provider_games": [
    {
      "name": "Grid Legion, Storm",
      "slug": "504620",
      "service": "steam"
    }
  ],
  "steamid": 504620,
  "gogid": null,
  "gogslug": "",
  "humblestoreid": "",
  "id": 11418
}