{
  "name": "Cult: Fear Inside",
  "slug": "cult-fear-inside",
  "year": null,
  "description": "",
  "banner_url": "https://lutris.net/games/banner/cult-fear-inside.jpg",
  "icon_url": "https://lutris.net/games/icon/cult-fear-inside.png",
  "is_public": true,
  "updated": "2020-10-08T10:03:33.204703Z",
  "provider_games": [
    {
      "name": "Cult: Fear Inside",
      "slug": "622610",
      "service": "steam"
    }
  ],
  "steamid": 622610,
  "gogid": null,
  "gogslug": "",
  "humblestoreid": "",
  "id": 16641
}