{
  "name": "Demented",
  "slug": "demented",
  "year": null,
  "description": "",
  "banner_url": "https://lutris.net/games/banner/demented.jpg",
  "icon_url": "https://lutris.net/games/icon/demented.png",
  "is_public": true,
  "updated": "2019-01-23T08:29:09.128564Z",
  "provider_games": [
    {
      "name": "Demented",
      "slug": "418000",
      "service": "steam"
    }
  ],
  "steamid": 418000,
  "gogid": null,
  "gogslug": "",
  "humblestoreid": "",
  "id": 6471
}