{
  "id": 19387,
  "game_id": 1481,
  "game_slug": "gothic",
  "name": "Gothic",
  "year": 2001,
  "user": "gto",
  "runner": "wine",
  "slug": "gothic-mod-systempack-10",
  "version": "[Mod] SystemPack 1.0",
  "description": "This Installer downloads and installs SystemPack 1.0",
  "notes": "Before installing this Mod you need to install Patch 1.08k and PlayerKit 1.08k",
  "created_at": "2020-04-02T21:46:46.701000Z",
  "updated_at": "2020-04-03T07:36:15.272306Z",
  "draft": false,
  "published": true,
  "published_by": 20548,
  "rating": "",
  "steamid": 65540,
  "gogid": 1207658682,
  "gogslug": "gothic",
  "humbleid": "",
  "humblestoreid": "",
  "humblestoreid_real": "",
  "script": {
    "files": [
      {
        "patch": "https://static.piranhabytesitalia.it/file/piranhabytesitalia/mirror/g1classic-systempack-1.0.exe"
      }
    ],
    "game": {
      "arch": "win32",
      "prefix": "$GAMEDIR"
    },
    "installer": [
      {
        "move": {
          "description": "Moving the SystemPack",
          "dst": "$GAMEDIR/drive_c/g1classic-systempack-1.0.exe",
          "src": "patch"
        }
      },
      {
        "task": {
          "description": "Running the SystemPack",
          "executable": "$GAMEDIR/drive_c/g1classic-systempack-1.0.exe",
          "name": "wineexec",
          "prefix": "$GAMEDIR"
        }
      }
    ],
    "requires": "gothic"
  },
  "content": "files:\n- patch: https://static.piranhabytesitalia.it/file/piranhabytesitalia/mirror/g1classic-systempack-1.0.exe\ngame:\n  arch: win32\n  prefix: $GAMEDIR\ninstaller:\n- move:\n    description: Moving the SystemPack\n    dst: $GAMEDIR/drive_c/g1classic-systempack-1.0.exe\n    src: patch\n- task:\n    description: Running the SystemPack\n    executable: $GAMEDIR/drive_c/g1classic-systempack-1.0.exe\n    name: wineexec\n    prefix: $GAMEDIR\nrequires: gothic\n"
}