{
  "name": "Endless Winter",
  "slug": "endless-winter",
  "year": null,
  "description": "",
  "banner_url": "https://lutris.net/games/banner/endless-winter.jpg",
  "icon_url": "https://lutris.net/games/icon/endless-winter.png",
  "is_public": true,
  "updated": "2020-10-08T10:03:42.298392Z",
  "provider_games": [
    {
      "name": "Endless Winter",
      "slug": "617690",
      "service": "steam"
    }
  ],
  "steamid": 617690,
  "gogid": null,
  "gogslug": "",
  "humblestoreid": "",
  "id": 25466
}