{
  "name": "Epistory - Typing Chronicles",
  "slug": "epistory-typing-chronicles",
  "year": 2014,
  "description": "Epistory - Typing Chronicles is a beautiful atmospheric 3D action/adventure typing game that tells the story of a writer lacking inspiration who asks her muse to help write her latest book.\r\n\r\nIt features a visually stunning paper-craft art style and blends light RPG elements with exploration and unique combat mechanics solely using the keyboard.",
  "banner_url": "https://lutris.net/games/banner/epistory-typing-chronicles.jpg",
  "icon_url": "https://lutris.net/games/icon/epistory-typing-chronicles.png",
  "is_public": true,
  "updated": "2020-05-31T00:17:41.560719Z",
  "provider_games": [
    {
      "name": "Epistory - Typing Chronicles",
      "slug": "1986504189",
      "service": "gog"
    },
    {
      "name": "Epistory - Typing Chronicles",
      "slug": "398850",
      "service": "steam"
    }
  ],
  "steamid": 398850,
  "gogid": 1986504189,
  "gogslug": "epistory_typing_chronicles",
  "humblestoreid": "",
  "id": 7264
}