{
  "name": "Forgotten Paradise",
  "slug": "forgotten-paradise",
  "year": 2018,
  "description": "Forgotten Paradise is a Sci-Fi adult visual novel game is set around a man (the main character) that gets picked for a trip to space, but not only him, but his whole family as well. But what he doesn't know is that this is all an elaborate experiment which he finds out as the story progresses. Lots of sex, cheating and action awaits him with a ton of choices to explore and paths to follow.",
  "banner_url": "https://lutris.net/games/banner/forgotten-paradise.jpg",
  "icon_url": "",
  "is_public": true,
  "updated": "2019-06-13T21:14:20.570618Z",
  "provider_games": [],
  "steamid": null,
  "gogid": null,
  "gogslug": "",
  "humblestoreid": "",
  "id": 23659
}