{
  "id": 5075,
  "game_id": 12308,
  "game_slug": "girl-crush",
  "name": "Girl Crush",
  "year": 2016,
  "user": "FakeShemp",
  "runner": "web",
  "slug": "girl-crush-itchio",
  "version": "itch.io",
  "description": "",
  "notes": "",
  "created_at": "2017-07-17T18:11:42.257951Z",
  "updated_at": "2017-08-27T22:18:22.792827Z",
  "draft": false,
  "published": true,
  "published_by": null,
  "rating": "",
  "steamid": null,
  "gogid": null,
  "gogslug": "",
  "humbleid": "",
  "humblestoreid": "",
  "humblestoreid_real": "",
  "script": {
    "files": [
      {
        "file1": "N/A:Please select the itch.io archive"
      }
    ],
    "game": {
      "main_file": "$GAMEDIR/index.html"
    },
    "installer": [
      {
        "extract": {
          "file": "$file1"
        }
      }
    ],
    "web": {
      "window_size": "1024x768"
    }
  },
  "content": "files:\n- file1: N/A:Please select the itch.io archive\ngame:\n  main_file: $GAMEDIR/index.html\ninstaller:\n- extract:\n    file: $file1\nweb:\n  window_size: 1024x768\n"
}