{
  "name": "Case #9",
  "slug": "case-9",
  "year": null,
  "description": "",
  "banner_url": "https://lutris.net/games/banner/case-9.jpg",
  "icon_url": "https://lutris.net/games/icon/case-9.png",
  "is_public": false,
  "updated": "2019-01-23T08:28:47.141446Z",
  "provider_games": [],
  "steamid": 727680,
  "gogid": null,
  "gogslug": "",
  "humblestoreid": "",
  "id": 18878
}