{
  "name": "Flightless",
  "slug": "flightless",
  "year": null,
  "description": "",
  "banner_url": "https://lutris.net/games/banner/flightless.jpg",
  "icon_url": "https://lutris.net/games/icon/flightless.png",
  "is_public": true,
  "updated": "2020-10-08T10:00:10.196780Z",
  "provider_games": [
    {
      "name": "Flightless Classic",
      "slug": "731770",
      "service": "steam"
    }
  ],
  "steamid": 731770,
  "gogid": null,
  "gogslug": "",
  "humblestoreid": "",
  "id": 15540
}