{
  "name": "Gridiron Fight",
  "slug": "gridiron-fight",
  "year": 1985,
  "description": "",
  "banner_url": "",
  "icon_url": "https://lutris.net/games/icon/gridiron-fight.png",
  "is_public": true,
  "updated": "2020-05-26T03:34:17.028210Z",
  "provider_games": [
    {
      "name": "Gridiron Fight",
      "slug": "gridiron",
      "service": "mame"
    }
  ],
  "steamid": null,
  "gogid": null,
  "gogslug": "",
  "humblestoreid": "",
  "id": 34290
}