{
  "name": "Chrono Trigger",
  "slug": "chrono-trigger",
  "year": 1995,
  "description": "A young man named Crono is about to enjoy a carefree day: he plans to go to the Millennial Fair, where his friend Lucca intends to demonstrate her newest scientific invention: a teleporter. Upon his arrival Crono meets a young girl named Marle, who volunteers to be the first to test Lucca's new device. However, Marle's pendant affects the teleporter's mechanism in a mysterious way, and as a result she is teleported four hundred years into the past. Crono and Lucca quickly recreate the time portal and follow Marle. They find out that her unexpected appearance has created some confusion, and proceed to fix the error, which in turn leads to unforeseen consequences, eventually compelling the heroes to travel to different time periods and change the history of the world.\r\n\r\nChrono Trigger is a Japanese-style role-playing game in which the player takes control of a party consisting of up to seven characters, developing the combat skills of its members and managing their equipment. There are no random encounters in the game: all the enemies are either visibly walking on the field maps and can be avoided by the player, or are waiting to ambush the party. No enemy encounters occur when the player navigates characters over the world map.",
  "banner_url": "https://lutris.net/games/banner/chrono-trigger.jpg",
  "icon_url": "",
  "is_public": true,
  "updated": "2019-01-23T08:28:52.645136Z",
  "provider_games": [
    {
      "name": "CHRONO TRIGGER",
      "slug": "613830",
      "service": "steam"
    }
  ],
  "steamid": 613830,
  "gogid": null,
  "gogslug": "",
  "humblestoreid": "",
  "id": 4572
}