{
  "id": 6917,
  "game_id": 15572,
  "game_slug": "moero-downhill-night",
  "name": "Moero Downhill Night",
  "year": 2005,
  "user": "FakeShemp",
  "runner": "wine",
  "slug": "moero-downhill-night-jast-usa",
  "version": "JAST USA",
  "description": null,
  "notes": "",
  "created_at": "2017-12-31T00:00:39.272000Z",
  "updated_at": "2018-07-26T06:20:52.156125Z",
  "draft": false,
  "published": true,
  "published_by": null,
  "rating": "",
  "steamid": null,
  "gogid": null,
  "gogslug": "",
  "humbleid": "",
  "humblestoreid": "",
  "humblestoreid_real": "",
  "script": {
    "files": [
      {
        "file1": "N/A:Please select the JAST USA archive"
      }
    ],
    "game": {
      "arch": "win32",
      "exe": "drive_c/Program Files/Moero Downhill Night Type R/Moero Downhill Night Type R.exe",
      "prefix": "$GAMEDIR"
    },
    "installer": [
      {
        "extract": {
          "dst": "$CACHE",
          "file": "$file1"
        }
      },
      {
        "task": {
          "arch": "win32",
          "args": "/sp- /verysilent /norestart /suppressmsgboxes /nogui",
          "executable": "$CACHE/Moero 1 Setup.exe",
          "name": "wineexec",
          "prefix": "$GAMEDIR"
        }
      }
    ]
  },
  "content": "files:\n- file1: N/A:Please select the JAST USA archive\ngame:\n  arch: win32\n  exe: drive_c/Program Files/Moero Downhill Night Type R/Moero Downhill Night Type\n    R.exe\n  prefix: $GAMEDIR\ninstaller:\n- extract:\n    dst: $CACHE\n    file: $file1\n- task:\n    arch: win32\n    args: /sp- /verysilent /norestart /suppressmsgboxes /nogui\n    executable: $CACHE/Moero 1 Setup.exe\n    name: wineexec\n    prefix: $GAMEDIR\n"
}