{
  "name": "Impale",
  "slug": "impale",
  "year": null,
  "description": "",
  "banner_url": "https://lutris.net/games/banner/impale.jpg",
  "icon_url": "https://lutris.net/games/icon/impale.png",
  "is_public": true,
  "updated": "2020-10-08T09:58:45.426071Z",
  "provider_games": [
    {
      "name": "Impale",
      "slug": "755250",
      "service": "steam"
    }
  ],
  "steamid": 755250,
  "gogid": null,
  "gogslug": "",
  "humblestoreid": "",
  "id": 24672
}