{
  "name": "Deadly Sky",
  "slug": "deadly-sky",
  "year": null,
  "description": "",
  "banner_url": "https://lutris.net/games/banner/deadly-sky.jpg",
  "icon_url": "https://lutris.net/games/icon/deadly-sky.png",
  "is_public": false,
  "updated": "2019-01-23T08:29:06.605747Z",
  "provider_games": [],
  "steamid": 661590,
  "gogid": null,
  "gogslug": "",
  "humblestoreid": "",
  "id": 16984
}