{
  "id": 15483,
  "game_id": 29362,
  "game_slug": "ween-the-prophecy",
  "name": "Ween: The Prophecy",
  "year": 1992,
  "user": "appoloin",
  "runner": "scummvm",
  "slug": "ween-the-prophecy-ms-dos",
  "version": "MS-DOS",
  "description": null,
  "notes": "",
  "created_at": "2019-09-12T16:16:51.833411Z",
  "updated_at": "2019-09-12T16:16:51.833442Z",
  "draft": false,
  "published": false,
  "published_by": null,
  "rating": "",
  "steamid": null,
  "gogid": null,
  "gogslug": "",
  "humbleid": "",
  "humblestoreid": "",
  "humblestoreid_real": "",
  "script": {
    "files": [
      {
        "game": "N/A:Select the file *.stk"
      }
    ],
    "game": {
      "game_id": "ween",
      "path": "$GAMEDIR"
    },
    "installer": [
      {
        "write_file": {
          "content": "#!/bin/bash\nsrc=$1\ndst=$2\nsrc_path=$(echo \"$1\" | sed -r \"s/(.+)\\/.+/\\1/\")\nfind \"$src_path\" -type f \\( -iname \"*.stk\" \\) -exec cp {} \"$dst\" \\;",
          "file": "$CACHE/selectcopy.sh"
        }
      },
      {
        "chmodx": "$CACHE/selectcopy.sh"
      },
      {
        "execute": {
          "args": "$game $GAMEDIR",
          "file": "$CACHE/selectcopy.sh"
        }
      }
    ]
  },
  "content": "files:\n- game: N/A:Select the file *.stk\ngame:\n  game_id: ween\n  path: $GAMEDIR\ninstaller:\n- write_file:\n    content: '#!/bin/bash\n\n      src=$1\n\n      dst=$2\n\n      src_path=$(echo \"$1\" | sed -r \"s/(.+)\\/.+/\\1/\")\n\n      find \"$src_path\" -type f \\( -iname \"*.stk\" \\) -exec cp {} \"$dst\" \\;'\n    file: $CACHE/selectcopy.sh\n- chmodx: $CACHE/selectcopy.sh\n- execute:\n    args: $game $GAMEDIR\n    file: $CACHE/selectcopy.sh\n"
}