{
  "name": "Abadox: The Deadly Inner War",
  "slug": "abadox-the-deadly-inner-war",
  "year": 1989,
  "description": "Somewhere in the galaxy, a huge alien space creature known as Parasitis travels between realms digesting its prey. The latest victim consumed by the alien entity is the planet Abadox. While trying to devour other planets by assuming the form of this planet, the World Alive Force (WAF) launches an all out assault on the alien life form. The player is a single soldier in this military operation.\r\n\r\nAbadox: The Deadly Inner War is a side-scrolling shooter. Players must fire upon various enemies which travel across the screen and destroy their bosses as well. One button is used for shooting and another to control the shield ability.",
  "banner_url": "https://lutris.net/games/banner/abadox-the-deadly-inner-war.jpg",
  "icon_url": "",
  "is_public": true,
  "updated": "2020-01-06T03:04:19.434993Z",
  "provider_games": [],
  "steamid": null,
  "gogid": null,
  "gogslug": "",
  "humblestoreid": "",
  "id": 31028
}