{
  "name": "Dynamic Shoot Kyousou",
  "slug": "dynamic-shoot-kyousou",
  "year": 1988,
  "description": "",
  "banner_url": "",
  "icon_url": "https://lutris.net/games/icon/dynamic-shoot-kyousou.png",
  "is_public": true,
  "updated": "2020-05-26T03:33:30.405810Z",
  "provider_games": [
    {
      "name": "Dynamic Shoot Kyousou",
      "slug": "dynashot",
      "service": "mame"
    }
  ],
  "steamid": null,
  "gogid": null,
  "gogslug": "",
  "humblestoreid": "",
  "id": 33983
}