{
  "name": "Fantasy General II",
  "slug": "fantasy-general-ii",
  "year": null,
  "description": "",
  "banner_url": "https://lutris.net/games/banner/fantasy-general-ii.jpg",
  "icon_url": "https://lutris.net/games/icon/fantasy-general-ii.png",
  "is_public": true,
  "updated": "2020-10-08T10:12:54.990522Z",
  "provider_games": [
    {
      "name": "Fantasy General II",
      "slug": "1025440",
      "service": "steam"
    }
  ],
  "steamid": 1025440,
  "gogid": null,
  "gogslug": "",
  "humblestoreid": "",
  "id": 29509
}