{
  "name": "G.I. Joe",
  "slug": "gi-joe",
  "year": 1992,
  "description": "",
  "banner_url": "https://lutris.net/games/banner/gi-joe.jpg",
  "icon_url": "https://lutris.net/games/icon/gi-joe.png",
  "is_public": true,
  "updated": "2020-05-26T03:34:07.248928Z",
  "provider_games": [
    {
      "name": "G.I. Joe",
      "slug": "gijoe",
      "service": "mame"
    }
  ],
  "steamid": null,
  "gogid": null,
  "gogslug": "",
  "humblestoreid": "",
  "id": 34240
}