{
  "id": 21497,
  "game_id": 21807,
  "game_slug": "ai-war-2",
  "name": "AI War 2",
  "year": 2019,
  "user": "hapster",
  "runner": "linux",
  "slug": "ai-war-2-gog",
  "version": "GOG",
  "description": null,
  "notes": "",
  "created_at": "2020-06-14T10:03:01.385000Z",
  "updated_at": "2020-07-29T08:39:05.316666Z",
  "draft": false,
  "published": true,
  "published_by": 20548,
  "rating": "",
  "steamid": 573410,
  "gogid": 1895572517,
  "gogslug": "ai_war_2",
  "humbleid": "",
  "humblestoreid": "",
  "humblestoreid_real": "",
  "script": {
    "files": [
      {
        "goginstaller": "N/A:Please select the GOG.com Linux installer"
      }
    ],
    "game": {
      "exe": "start.sh"
    },
    "installer": [
      {
        "extract": {
          "dst": "$CACHE/GOG",
          "file": "goginstaller",
          "format": "zip"
        }
      },
      {
        "merge": {
          "dst": "$GAMEDIR",
          "src": "$CACHE/GOG/data/noarch/"
        }
      }
    ]
  },
  "content": "files:\n- goginstaller: N/A:Please select the GOG.com Linux installer\ngame:\n  exe: start.sh\ninstaller:\n- extract:\n    dst: $CACHE/GOG\n    file: goginstaller\n    format: zip\n- merge:\n    dst: $GAMEDIR\n    src: $CACHE/GOG/data/noarch/\n"
}