{
  "id": 4768,
  "game_id": 2984,
  "game_slug": "tesla-effect",
  "name": "Tesla Effect",
  "year": null,
  "user": "FakeShemp",
  "runner": "wine",
  "slug": "tesla-effect-humble",
  "version": "Humble",
  "description": "",
  "notes": "",
  "created_at": "2017-07-03T14:30:35.114000Z",
  "updated_at": "2018-05-19T03:41:55.127250Z",
  "draft": false,
  "published": true,
  "published_by": null,
  "rating": "",
  "steamid": 261510,
  "gogid": null,
  "gogslug": "",
  "humbleid": "",
  "humblestoreid": "",
  "humblestoreid_real": "",
  "script": {
    "files": [
      {
        "file1": "N/A:Please select the Humble archive"
      }
    ],
    "game": {
      "arch": "win32",
      "exe": "drive_c/Program Files/TeslaEffect/TeslaEffect.exe",
      "prefix": "$GAMEDIR"
    },
    "installer": [
      {
        "extract": {
          "dst": "$GAMEDIR/drive_c/Program Files",
          "file": "$file1"
        }
      },
      {
        "task": {
          "app": "corefonts",
          "name": "winetricks",
          "prefix": "$GAMEDIR"
        }
      }
    ]
  },
  "content": "files:\n- file1: N/A:Please select the Humble archive\ngame:\n  arch: win32\n  exe: drive_c/Program Files/TeslaEffect/TeslaEffect.exe\n  prefix: $GAMEDIR\ninstaller:\n- extract:\n    dst: $GAMEDIR/drive_c/Program Files\n    file: $file1\n- task:\n    app: corefonts\n    name: winetricks\n    prefix: $GAMEDIR\n"
}