{
  "name": "Being Beauteous",
  "slug": "being-beauteous",
  "year": 2015,
  "description": "Being Beauteous is a short kinetic novel that reinvents the overly known story of Cinderella by throwing in a surprising element that disrupts the traditional fairytale in a bittersweet manner.",
  "banner_url": "https://lutris.net/games/banner/being-beauteous.jpg",
  "icon_url": "",
  "is_public": true,
  "updated": "2019-01-23T08:28:34.561308Z",
  "provider_games": [],
  "steamid": null,
  "gogid": null,
  "gogslug": "",
  "humblestoreid": "",
  "id": 17559
}