{
  "name": "Freeway Mutant",
  "slug": "freeway-mutant",
  "year": 2014,
  "description": "In this spin on the endless running genre, you play as a nude green mutant running along a broken-up freeway in post-apocalyptic Somewhere. As you run, you can acquire all manner of materials to continually upgrade your gun until you’re TOTALLY ROCKIN’ IT!\r\n\r\nAlso, the road is littered with active landmines and hideous mutants, and you have a pair of extremely smooth, round cheeks.",
  "banner_url": "https://lutris.net/games/banner/freeway-mutant.jpg",
  "icon_url": "",
  "is_public": true,
  "updated": "2019-01-23T08:29:35.310549Z",
  "provider_games": [],
  "steamid": null,
  "gogid": null,
  "gogslug": "",
  "humblestoreid": "",
  "id": 14812
}