{
  "name": "A Golden Wake",
  "slug": "a-golden-wake",
  "year": 2014,
  "description": "The Roaring Twenties: a bygone era of glitz, glamour, and promise. Nowhere is this more apparent than Coral Gables, Florida. The real estate market is booming and even an ordinary guy like Alfie Banks has a chance to strike it rich.\r\n\r\nBut with the mob on his back, the Great Depression on the horizon, and the Sunshine State’s idyllic waterfront only a hurricane away from total devastation, Alfie finds much more than he bargained for.\r\n\r\nBased on actual events and featuring real life locations and historical figures, you must guide Alfie on his journey to reach the top of the real estate game as he deals with shady salesmen, cutthroat bootleggers, corrupt politicians, and much more, all while swept up in the events surrounding the inception of Coral Gables, The City Beautiful. ",
  "banner_url": "https://lutris.net/games/banner/a-golden-wake.jpg",
  "icon_url": "",
  "is_public": true,
  "updated": "2020-05-31T00:17:33.766674Z",
  "provider_games": [
    {
      "name": "A Golden Wake",
      "slug": "1207666213",
      "service": "gog"
    },
    {
      "name": "A Golden Wake",
      "slug": "307570",
      "service": "steam"
    }
  ],
  "steamid": 307570,
  "gogid": 1207666213,
  "gogslug": "a_golden_wake",
  "humblestoreid": "",
  "id": 3741
}