{
  "name": "Gunbird",
  "slug": "gunbird",
  "year": 1994,
  "description": "",
  "banner_url": "https://lutris.net/games/banner/gunbird.jpg",
  "icon_url": "https://lutris.net/games/icon/gunbird.png",
  "is_public": true,
  "updated": "2020-05-26T03:34:20.008553Z",
  "provider_games": [
    {
      "name": "Gunbird",
      "slug": "gunbird",
      "service": "mame"
    }
  ],
  "steamid": null,
  "gogid": null,
  "gogslug": "",
  "humblestoreid": "",
  "id": 34320
}