{
  "id": 3101,
  "game_id": 1441,
  "game_slug": "to-the-moon",
  "name": "To the Moon",
  "year": 2011,
  "user": "solbero",
  "runner": "linux",
  "slug": "to-the-moon-gog",
  "version": "GOG",
  "description": null,
  "notes": "",
  "created_at": "2016-12-20T11:18:38.413000Z",
  "updated_at": "2019-10-20T01:50:12.012868Z",
  "draft": false,
  "published": true,
  "published_by": 19464,
  "rating": "",
  "steamid": 206440,
  "gogid": 1207659072,
  "gogslug": "to_the_moon",
  "humbleid": "tothemoon",
  "humblestoreid": "tothemoon",
  "humblestoreid_real": "tothemoon",
  "script": {
    "files": [
      {
        "goginstaller": "N/A:Please select the GOG.com Linux installer"
      }
    ],
    "game": {
      "exe": "start.sh"
    },
    "installer": [
      {
        "extract": {
          "dst": "$CACHE/GOG",
          "file": "goginstaller",
          "format": "zip"
        }
      },
      {
        "merge": {
          "dst": "$GAMEDIR",
          "src": "$CACHE/GOG/data/noarch/"
        }
      }
    ]
  },
  "content": "files:\n- goginstaller: N/A:Please select the GOG.com Linux installer\ngame:\n  exe: start.sh\ninstaller:\n- extract:\n    dst: $CACHE/GOG\n    file: goginstaller\n    format: zip\n- merge:\n    dst: $GAMEDIR\n    src: $CACHE/GOG/data/noarch/\n"
}