{
  "name": "JCB Pioneer: Mars",
  "slug": "jcb-pioneer-mars",
  "year": null,
  "description": "",
  "banner_url": "https://lutris.net/games/banner/jcb-pioneer-mars.jpg",
  "icon_url": "https://lutris.net/games/icon/jcb-pioneer-mars.png",
  "is_public": true,
  "updated": "2020-10-08T10:06:10.764452Z",
  "provider_games": [
    {
      "name": "JCB Pioneer: Mars",
      "slug": "536660",
      "service": "steam"
    }
  ],
  "steamid": 536660,
  "gogid": null,
  "gogslug": "",
  "humblestoreid": "",
  "id": 21550
}