{
  "name": "Hover : Revolt Of Gamers",
  "slug": "hover-revolt-of-gamers",
  "year": null,
  "description": "",
  "banner_url": "https://lutris.net/games/banner/hover-revolt-of-gamers.jpg",
  "icon_url": "https://lutris.net/games/icon/hover-revolt-of-gamers.png",
  "is_public": true,
  "updated": "2020-10-08T09:20:43.202961Z",
  "provider_games": [
    {
      "name": "Hover",
      "slug": "280180",
      "service": "steam"
    }
  ],
  "steamid": 280180,
  "gogid": null,
  "gogslug": "",
  "humblestoreid": "",
  "id": 7352
}