{
  "id": 6997,
  "game_id": 15653,
  "game_slug": "cum-fu",
  "name": "Cum-Fu",
  "year": 2016,
  "user": "FakeShemp",
  "runner": "wine",
  "slug": "cum-fu-itchio",
  "version": "itch.io",
  "description": null,
  "notes": "",
  "created_at": "2018-01-04T00:45:31.462623Z",
  "updated_at": "2018-05-19T03:41:59.924760Z",
  "draft": false,
  "published": true,
  "published_by": null,
  "rating": "",
  "steamid": null,
  "gogid": null,
  "gogslug": "",
  "humbleid": "",
  "humblestoreid": "",
  "humblestoreid_real": "",
  "script": {
    "files": [
      {
        "file1": "N/A:Please select the itch.io executable"
      }
    ],
    "game": {
      "arch": "win32",
      "exe": "file1",
      "prefix": "$GAMEDIR"
    },
    "installer": [
      {
        "merge": {
          "dst": "$GAMEDIR/drive_c/Program Files/Cum-Fu",
          "src": "file1"
        }
      }
    ]
  },
  "content": "files:\n- file1: N/A:Please select the itch.io executable\ngame:\n  arch: win32\n  exe: file1\n  prefix: $GAMEDIR\ninstaller:\n- merge:\n    dst: $GAMEDIR/drive_c/Program Files/Cum-Fu\n    src: file1\n"
}