{
  "name": "Borb the Birb",
  "slug": "borb-the-birb",
  "year": 2015,
  "description": "meet borb\r\n\r\nborb will give u compliments and general life advice\r\n\r\nborb loves u",
  "banner_url": "https://lutris.net/games/banner/borb-the-birb.jpg",
  "icon_url": "",
  "is_public": false,
  "updated": "2020-10-01T00:08:32.442008Z",
  "provider_games": [],
  "steamid": null,
  "gogid": null,
  "gogslug": "",
  "humblestoreid": "",
  "id": 39543
}