{
  "name": "Descent - Silence of Mind",
  "slug": "descent-silence-of-mind",
  "year": null,
  "description": "",
  "banner_url": "https://lutris.net/games/banner/descent-silence-of-mind.jpg",
  "icon_url": "https://lutris.net/games/icon/descent-silence-of-mind.png",
  "is_public": true,
  "updated": "2020-10-08T10:09:31.868894Z",
  "provider_games": [
    {
      "name": "Descent - Silence of Mind",
      "slug": "652600",
      "service": "steam"
    }
  ],
  "steamid": 652600,
  "gogid": null,
  "gogslug": "",
  "humblestoreid": "",
  "id": 16444
}