{
  "name": "007 Legends",
  "slug": "007-legends",
  "year": 2012,
  "description": "Taking place after the opening but prior to the events of Skyfall, James Bond is shot and left for dead during a botched assignment in Istanbul. As his life hangs in the balance, he begins to remember his previous adventures — foiling Operation Grand Slam, the assault on Piz Gloria, his vendetta against drug kingpin Franz Sanchez, his encounter with Gustav Graves, and thwarting billionaire industrialist Hugo Drax's plot to kill the entire human race. Straight after his return to the present day, Bond realizes that he's still alive. He tracks down Patrice, whom he was after in the very beginning of the game, to Shanghai where he stops an assassination plot and eliminates the hitman. The game presents a What if? scenario where all of the \"classic\" Bond adventures have taken place during the four year gap between the storylines of Quantum of Solace and Skyfall.",
  "banner_url": "https://lutris.net/games/banner/007-legends.jpg",
  "icon_url": "https://lutris.net/games/icon/007-legends.png",
  "is_public": true,
  "updated": "2019-01-23T08:28:07.239958Z",
  "provider_games": [
    {
      "name": "007™ Legends",
      "slug": "211670",
      "service": "steam"
    }
  ],
  "steamid": 211670,
  "gogid": null,
  "gogslug": "",
  "humblestoreid": "",
  "id": 2429
}