{
  "name": "Desert Ride Coaster",
  "slug": "desert-ride-coaster",
  "year": null,
  "description": "",
  "banner_url": "https://lutris.net/games/banner/desert-ride-coaster.jpg",
  "icon_url": "https://lutris.net/games/icon/desert-ride-coaster.png",
  "is_public": true,
  "updated": "2020-10-08T10:05:39.393576Z",
  "provider_games": [
    {
      "name": "Desert Ride Coaster",
      "slug": "554140",
      "service": "steam"
    }
  ],
  "steamid": 554140,
  "gogid": null,
  "gogslug": "",
  "humblestoreid": "",
  "id": 9658
}