{
  "name": "Evolution VR",
  "slug": "evolution-vr",
  "year": null,
  "description": "",
  "banner_url": "https://lutris.net/games/banner/evolution-vr.jpg",
  "icon_url": "https://lutris.net/games/icon/evolution-vr.png",
  "is_public": true,
  "updated": "2020-10-08T10:05:50.567421Z",
  "provider_games": [
    {
      "name": "Evolution VR",
      "slug": "549760",
      "service": "steam"
    }
  ],
  "steamid": 549760,
  "gogid": null,
  "gogslug": "",
  "humblestoreid": "",
  "id": 9648
}