{
  "name": "Lords Of The Fallen",
  "slug": "lords-of-the-fallen",
  "year": null,
  "description": "",
  "banner_url": "https://lutris.net/games/banner/lords-of-the-fallen.jpg",
  "icon_url": "https://lutris.net/games/icon/lords-of-the-fallen.png",
  "is_public": true,
  "updated": "2019-01-23T08:30:12.854069Z",
  "provider_games": [
    {
      "name": "Lords Of The Fallen",
      "slug": "265300",
      "service": "steam"
    }
  ],
  "steamid": 265300,
  "gogid": null,
  "gogslug": "",
  "humblestoreid": "",
  "id": 4371
}