{
  "name": "Axion",
  "slug": "axion",
  "year": null,
  "description": "",
  "banner_url": "https://lutris.net/games/banner/axion.jpg",
  "icon_url": "https://lutris.net/games/icon/axion.png",
  "is_public": true,
  "updated": "2020-10-08T10:15:43.620586Z",
  "provider_games": [
    {
      "name": "Axion",
      "slug": "380570",
      "service": "steam"
    }
  ],
  "steamid": 380570,
  "gogid": null,
  "gogslug": "",
  "humblestoreid": "",
  "id": 7444
}