{
  "name": "Existentia",
  "slug": "existentia",
  "year": null,
  "description": "",
  "banner_url": "https://lutris.net/games/banner/existentia.jpg",
  "icon_url": "https://lutris.net/games/icon/existentia.png",
  "is_public": true,
  "updated": "2020-10-08T10:07:05.366580Z",
  "provider_games": [
    {
      "name": "Existentia",
      "slug": "511340",
      "service": "steam"
    }
  ],
  "steamid": 511340,
  "gogid": null,
  "gogslug": "",
  "humblestoreid": "",
  "id": 9968
}