{
  "name": "3on3 FreeStyle",
  "slug": "3on3-freestyle",
  "year": null,
  "description": "",
  "banner_url": "https://lutris.net/games/banner/3on3-freestyle.jpg",
  "icon_url": "https://lutris.net/games/icon/3on3-freestyle.png",
  "is_public": true,
  "updated": "2020-10-08T10:03:28.583977Z",
  "provider_games": [
    {
      "name": "3on3 FreeStyle",
      "slug": "624910",
      "service": "steam"
    }
  ],
  "steamid": 624910,
  "gogid": null,
  "gogslug": "",
  "humblestoreid": "",
  "id": 15401
}