{
  "name": "Half Minute Hero: The Second Coming",
  "slug": "half-minute-hero-the-second-coming",
  "year": null,
  "description": "",
  "banner_url": "https://lutris.net/games/banner/half-minute-hero-the-second-coming.jpg",
  "icon_url": "https://lutris.net/games/icon/half-minute-hero-the-second-coming.png",
  "is_public": true,
  "updated": "2019-01-23T08:29:46.449665Z",
  "provider_games": [
    {
      "name": "Half Minute Hero: The Second Coming",
      "slug": "240970",
      "service": "steam"
    }
  ],
  "steamid": 240970,
  "gogid": null,
  "gogslug": "",
  "humblestoreid": "",
  "id": 3938
}