{
  "id": 3902,
  "game_id": 3076,
  "game_slug": "influent",
  "name": "Influent",
  "year": 2014,
  "user": "FakeShemp",
  "runner": "linux",
  "slug": "influent-humble-2",
  "version": "Humble",
  "description": "Latin Language Pack",
  "notes": "",
  "created_at": "2017-05-26T13:10:55.598940Z",
  "updated_at": "2017-05-27T21:13:10.445362Z",
  "draft": false,
  "published": true,
  "published_by": null,
  "rating": "",
  "steamid": 274980,
  "gogid": null,
  "gogslug": "",
  "humbleid": "influent",
  "humblestoreid": "influent",
  "humblestoreid_real": "influent",
  "script": {
    "files": [
      {
        "file1": "N/A:Please select the language pack archive"
      }
    ],
    "installer": [
      {
        "extract": {
          "file": "$file1"
        }
      }
    ],
    "requires": "influent-humble"
  },
  "content": "files:\n- file1: N/A:Please select the language pack archive\ninstaller:\n- extract:\n    file: $file1\nrequires: influent-humble\n"
}