{
  "name": "City Siege: Faction Island",
  "slug": "city-siege-faction-island",
  "year": null,
  "description": "",
  "banner_url": "https://lutris.net/games/banner/city-siege-faction-island.jpg",
  "icon_url": "https://lutris.net/games/icon/city-siege-faction-island.png",
  "is_public": true,
  "updated": "2020-10-08T10:04:57.767960Z",
  "provider_games": [
    {
      "name": "City Siege: Faction Island",
      "slug": "578590",
      "service": "steam"
    }
  ],
  "steamid": 578590,
  "gogid": null,
  "gogslug": "",
  "humblestoreid": "",
  "id": 12964
}