{
  "name": "God of Failure",
  "slug": "god-of-failure",
  "year": null,
  "description": "",
  "banner_url": "https://lutris.net/games/banner/god-of-failure.jpg",
  "icon_url": "https://lutris.net/games/icon/god-of-failure.png",
  "is_public": true,
  "updated": "2020-10-08T10:00:44.931308Z",
  "provider_games": [
    {
      "name": "God of Failure",
      "slug": "709190",
      "service": "steam"
    }
  ],
  "steamid": 709190,
  "gogid": null,
  "gogslug": "",
  "humblestoreid": "",
  "id": 20343
}