{
  "name": "La Pucelle: Tactics",
  "slug": "la-pucelle-tactics",
  "year": 2004,
  "description": "Prier and her brother Culotte are novices with the demon-hunting organization, La Pucelle. They've just passed their final exams and are ready to do real work fighting demons and zombies, but quickly find themselves embroiled in a series of plots orchestrated by a rival church with dark intentions. The gameplay is played on a tactical map, as teams up to six characters work to clear boards of enemies and dark energy. The unique \"purify\" command allows players to recruit monsters to their team and execute complex \"miracle\" energy attacks.",
  "banner_url": "https://lutris.net/games/banner/la-pucelle-tactics.jpg",
  "icon_url": "",
  "is_public": true,
  "updated": "2019-01-23T08:30:07.700539Z",
  "provider_games": [],
  "steamid": null,
  "gogid": null,
  "gogslug": "",
  "humblestoreid": "",
  "id": 24455
}