{
  "name": "Johnny Graves—The Unchosen One",
  "slug": "johnny-gravesthe-unchosen-one",
  "year": null,
  "description": "",
  "banner_url": "https://lutris.net/games/banner/johnny-gravesthe-unchosen-one.jpg",
  "icon_url": "https://lutris.net/games/icon/johnny-gravesthe-unchosen-one.png",
  "is_public": true,
  "updated": "2020-10-08T10:13:04.327804Z",
  "provider_games": [
    {
      "name": "Johnny Graves—The Unchosen One",
      "slug": "476030",
      "service": "steam"
    }
  ],
  "steamid": 476030,
  "gogid": null,
  "gogslug": "",
  "humblestoreid": "",
  "id": 7786
}