{
  "name": "Golems",
  "slug": "golems",
  "year": 2014,
  "description": "",
  "banner_url": "https://lutris.net/games/banner/golems.jpg",
  "icon_url": "",
  "is_public": false,
  "updated": "2020-09-26T17:03:13.804203Z",
  "provider_games": [],
  "steamid": null,
  "gogid": null,
  "gogslug": "",
  "humblestoreid": "",
  "id": 39333
}