{
  "name": "Battle Lane! Vol. 5",
  "slug": "battle-lane-vol-5",
  "year": 1986,
  "description": "",
  "banner_url": "https://lutris.net/games/banner/battle-lane-vol-5.jpg",
  "icon_url": "https://lutris.net/games/icon/battle-lane-vol-5.png",
  "is_public": true,
  "updated": "2020-05-26T03:32:06.140567Z",
  "provider_games": [
    {
      "name": "Battle Lane! Vol. 5",
      "slug": "battlane",
      "service": "mame"
    }
  ],
  "steamid": null,
  "gogid": null,
  "gogslug": "",
  "humblestoreid": "",
  "id": 33388
}