{
  "name": "Death Runner",
  "slug": "death-runner",
  "year": null,
  "description": "",
  "banner_url": "https://lutris.net/games/banner/death-runner.jpg",
  "icon_url": "https://lutris.net/games/icon/death-runner.png",
  "is_public": true,
  "updated": "2020-10-08T10:09:26.142374Z",
  "provider_games": [
    {
      "name": "Death Runner",
      "slug": "665550",
      "service": "steam"
    }
  ],
  "steamid": 665550,
  "gogid": null,
  "gogslug": "",
  "humblestoreid": "",
  "id": 25821
}