{
  "name": "MacGuffin",
  "slug": "macguffin",
  "year": null,
  "description": "",
  "banner_url": "https://lutris.net/games/banner/macguffin.jpg",
  "icon_url": "https://lutris.net/games/icon/macguffin.png",
  "is_public": true,
  "updated": "2020-10-08T10:15:11.185734Z",
  "provider_games": [
    {
      "name": "MacGuffin",
      "slug": "398930",
      "service": "steam"
    }
  ],
  "steamid": 398930,
  "gogid": null,
  "gogslug": "",
  "humblestoreid": "",
  "id": 7967
}