{
  "name": "BMX XXX",
  "slug": "bmx-xxx",
  "year": 2002,
  "description": "Slightly unusual for a tricks/stunt game, BMX XXX adds a twist to its genre by employing themes involving foul language, nudity and toilet humour.\r\n\r\nThe \"Hardcore Tour\" mode has you playing the levels, pulling off tricks and completing goals to unlock things such as new levels or stripper videos. The goals are of the odd variety, including things like collecting yellow snow for an icecream man, or gathering empty cans for a homeless guy. Also have to watch out for a health bar which accounts for your injuries and can make you start over levels if you run out of it.",
  "banner_url": "https://lutris.net/games/banner/bmx-xxx.jpg",
  "icon_url": "",
  "is_public": true,
  "updated": "2019-01-23T08:28:39.730253Z",
  "provider_games": [],
  "steamid": null,
  "gogid": null,
  "gogslug": "",
  "humblestoreid": "",
  "id": 16144
}