{
  "name": "Frozen Synapse",
  "slug": "frozen-synapse",
  "year": 2011,
  "description": "Frozen Synapse is the ultimate tactical game on PC and Mac. \r\nIt brings the simultaneous turn-based strategy genre bang up-to-date and lets you give detailed, accurate orders to your squad: classic gameplay with a modern interface. \r\nPlan your moves, test them out, then hit the \"Prime\" button: both you and your enemy's turns are executed simultaneously. \r\nCompetitive-but-intuitive multiplayer and a huge single player campaign mean that Frozen Synapse will give you hours and hours of tactical delight.",
  "banner_url": "https://lutris.net/games/banner/frozen-synapse.jpg",
  "icon_url": "https://lutris.net/games/icon/frozen-synapse.png",
  "is_public": true,
  "updated": "2020-08-15T23:50:34.868982Z",
  "provider_games": [
    {
      "name": "Frozen Synapse",
      "slug": "1438076423",
      "service": "gog"
    },
    {
      "name": "Frozen Synapse",
      "slug": "frozensynapse",
      "service": "humblebundle"
    },
    {
      "name": "Frozen Synapse",
      "slug": "98200",
      "service": "steam"
    }
  ],
  "steamid": 98200,
  "gogid": 1438343741,
  "gogslug": "frozen_synapse",
  "humblestoreid": "frozensynapse",
  "id": 235
}