{
  "name": "Hazardous Space",
  "slug": "hazardous-space",
  "year": null,
  "description": "",
  "banner_url": "https://lutris.net/games/banner/hazardous-space.jpg",
  "icon_url": "https://lutris.net/games/icon/hazardous-space.png",
  "is_public": true,
  "updated": "2020-10-08T09:58:38.343275Z",
  "provider_games": [
    {
      "name": "Hazardous Space",
      "slug": "760080",
      "service": "steam"
    }
  ],
  "steamid": 760080,
  "gogid": null,
  "gogslug": "",
  "humblestoreid": "",
  "id": 30744
}