{
  "name": "Drifting Cloud",
  "slug": "drifting-cloud",
  "year": null,
  "description": "",
  "banner_url": "https://lutris.net/games/banner/drifting-cloud.jpg",
  "icon_url": "https://lutris.net/games/icon/drifting-cloud.png",
  "is_public": true,
  "updated": "2020-10-08T09:58:19.998122Z",
  "provider_games": [
    {
      "name": "Drifting Cloud",
      "slug": "773710",
      "service": "steam"
    }
  ],
  "steamid": 773710,
  "gogid": null,
  "gogslug": "",
  "humblestoreid": "",
  "id": 24935
}