{
  "name": "Deadlock II - Shrine Wars",
  "slug": "deadlock-ii-shrine-wars",
  "year": null,
  "description": "",
  "banner_url": "https://lutris.net/games/banner/deadlock-ii-shrine-wars.jpg",
  "icon_url": "https://lutris.net/games/icon/deadlock-ii-shrine-wars.png",
  "is_public": true,
  "updated": "2020-10-08T09:19:37.397339Z",
  "provider_games": [
    {
      "name": "Deadlock II - Shrine Wars",
      "slug": "328450",
      "service": "steam"
    }
  ],
  "steamid": 328450,
  "gogid": null,
  "gogslug": "",
  "humblestoreid": "",
  "id": 12113
}