{
  "name": "DRAG",
  "slug": "drag",
  "year": null,
  "description": "",
  "banner_url": "https://lutris.net/games/banner/drag.jpg",
  "icon_url": "https://lutris.net/games/icon/drag.png",
  "is_public": false,
  "updated": "2020-10-20T09:16:51.411377Z",
  "provider_games": [],
  "steamid": 773840,
  "gogid": null,
  "gogslug": "",
  "humblestoreid": "",
  "id": 39907
}