{
  "name": "Impulse Revolution",
  "slug": "impulse-revolution",
  "year": null,
  "description": "",
  "banner_url": "https://lutris.net/games/banner/impulse-revolution.jpg",
  "icon_url": "https://lutris.net/games/icon/impulse-revolution.png",
  "is_public": true,
  "updated": "2020-10-08T10:15:36.888684Z",
  "provider_games": [
    {
      "name": "Impulse Revolution",
      "slug": "384040",
      "service": "steam"
    }
  ],
  "steamid": 384040,
  "gogid": null,
  "gogslug": "",
  "humblestoreid": "",
  "id": 20971
}