{
  "name": "Double Cheese",
  "slug": "double-cheese",
  "year": 1993,
  "description": "",
  "banner_url": "",
  "icon_url": "https://lutris.net/games/icon/double-cheese.png",
  "is_public": true,
  "updated": "2020-05-26T03:33:21.992656Z",
  "provider_games": [
    {
      "name": "Double Cheese",
      "slug": "dcheese",
      "service": "mame"
    }
  ],
  "steamid": null,
  "gogid": null,
  "gogslug": "",
  "humblestoreid": "",
  "id": 33842
}