{
  "name": "Mad Dagger 2",
  "slug": "mad-dagger-2",
  "year": null,
  "description": "",
  "banner_url": "https://lutris.net/games/banner/mad-dagger-2.jpg",
  "icon_url": "https://lutris.net/games/icon/mad-dagger-2.png",
  "is_public": false,
  "updated": "2019-01-23T08:30:15.010542Z",
  "provider_games": [],
  "steamid": 858370,
  "gogid": null,
  "gogslug": "",
  "humblestoreid": "",
  "id": 23332
}