{
  "name": "Gutwhale",
  "slug": "gutwhale",
  "year": 2020,
  "description": "Gutwhale is a finite roguelite about managing the space between you and your ammo, while fighting your way through a digestive system!",
  "banner_url": "https://lutris.net/games/banner/gutwhale.jpg",
  "icon_url": "",
  "is_public": false,
  "updated": "2020-09-09T20:45:08.962527Z",
  "provider_games": [],
  "steamid": null,
  "gogid": null,
  "gogslug": "",
  "humblestoreid": "",
  "id": 38753
}