{
  "name": "Daylight's End VR Edition",
  "slug": "daylights-end-vr-edition",
  "year": null,
  "description": "",
  "banner_url": "https://lutris.net/games/banner/daylights-end-vr-edition.jpg",
  "icon_url": "https://lutris.net/games/icon/daylights-end-vr-edition.png",
  "is_public": true,
  "updated": "2020-10-08T10:07:00.969528Z",
  "provider_games": [
    {
      "name": "Daylight's End VR Edition",
      "slug": "513150",
      "service": "steam"
    }
  ],
  "steamid": 513150,
  "gogid": null,
  "gogslug": "",
  "humblestoreid": "",
  "id": 9559
}