{
  "name": "K.G. Bird",
  "slug": "kg-bird",
  "year": 1996,
  "description": "",
  "banner_url": "",
  "icon_url": "https://lutris.net/games/icon/kg-bird.png",
  "is_public": true,
  "updated": "2020-05-26T03:34:59.797929Z",
  "provider_games": [
    {
      "name": "K.G. Bird",
      "slug": "kgbird",
      "service": "mame"
    }
  ],
  "steamid": null,
  "gogid": null,
  "gogslug": "",
  "humblestoreid": "",
  "id": 34619
}