{
  "name": "Gon' E-Choo!",
  "slug": "gon-e-choo",
  "year": null,
  "description": "",
  "banner_url": "https://lutris.net/games/banner/gon-e-choo.jpg",
  "icon_url": "https://lutris.net/games/icon/gon-e-choo.png",
  "is_public": true,
  "updated": "2020-10-08T10:15:34.954036Z",
  "provider_games": [
    {
      "name": "Gon' E-Choo!",
      "slug": "384990",
      "service": "steam"
    }
  ],
  "steamid": 384990,
  "gogid": null,
  "gogslug": "",
  "humblestoreid": "",
  "id": 5244
}