{
  "name": "King of Fighters 2003",
  "slug": "king-of-fighters-2003",
  "year": 2003,
  "description": "The tenth installment in SNK's long running King of Fighters series, and the last KOF to appear on the Neo Geo system. This game's storyline focuses on the unexpected return of the Orochi power, who was thought to have been permenantly sealed away back in 1997 by Kyo Kusanagi, Iori Yagami and Chizuru Kagura. It appears that someone has been tampering with the seal, however...\r\n\r\nThis year there are 30 characters, 2 edit characters (Kyo Kusanagi and Iori Yagami) and 2 hidden characters (Kusanagi from KOF '02 and Chizuru Kagura) to choose from. There are several returning characters (Jhun Hoon, King, Shingo Yabuki, Hinako Shijou, Billy Kane and Ryuji Yamazaki) and few new fighters as well (Ash Crimson, Shen Woo, Duo Lon, Malin, Adelheid Bernstein and Mukai).",
  "banner_url": "https://lutris.net/games/banner/king-of-fighters-2003.jpg",
  "icon_url": "",
  "is_public": true,
  "updated": "2019-01-23T08:30:04.201964Z",
  "provider_games": [],
  "steamid": null,
  "gogid": null,
  "gogslug": "",
  "humblestoreid": "",
  "id": 4430
}