{
  "id": 4463,
  "game_id": 292,
  "game_slug": "rocketbirds-hardboiled-chicken",
  "name": "Rocketbirds: Hardboiled Chicken",
  "year": null,
  "user": "FakeShemp",
  "runner": "linux",
  "slug": "rocketbirds-hardboiled-chicke-humble",
  "version": "Humble",
  "description": null,
  "notes": "",
  "created_at": "2017-06-18T11:09:41.570000Z",
  "updated_at": "2018-06-24T12:20:50.237663Z",
  "draft": false,
  "published": true,
  "published_by": null,
  "rating": "",
  "steamid": 215510,
  "gogid": null,
  "gogslug": "",
  "humbleid": "rocketbirdshardboiledchicken",
  "humblestoreid": "rocketbirdshardboiledchicken",
  "humblestoreid_real": "rocketbirdshardboiledchicken",
  "script": {
    "exe": "rocketbirds.bin.x86",
    "files": [
      {
        "file1": "N/A:Please select the Humble installer"
      }
    ],
    "installer": [
      {
        "chmodx": "$file1"
      },
      {
        "execute": {
          "args": "--tar -xf -C $CACHE",
          "file": "$file1"
        }
      },
      {
        "extract": {
          "dst": "$CACHE",
          "file": "$CACHE/instarchive_linux_all",
          "format": "lzma"
        }
      },
      {
        "extract": {
          "dst": "$CACHE",
          "file": "$CACHE/instarchive_all",
          "format": "lzma"
        }
      },
      {
        "extract": {
          "dst": "$GAMEDIR",
          "file": "$CACHE/instarchive_linux_all~",
          "format": "tar"
        }
      },
      {
        "extract": {
          "dst": "$GAMEDIR",
          "file": "$CACHE/instarchive_all~",
          "format": "tar"
        }
      }
    ]
  },
  "content": "exe: rocketbirds.bin.x86\nfiles:\n- file1: N/A:Please select the Humble installer\ninstaller:\n- chmodx: $file1\n- execute:\n    args: --tar -xf -C $CACHE\n    file: $file1\n- extract:\n    dst: $CACHE\n    file: $CACHE/instarchive_linux_all\n    format: lzma\n- extract:\n    dst: $CACHE\n    file: $CACHE/instarchive_all\n    format: lzma\n- extract:\n    dst: $GAMEDIR\n    file: $CACHE/instarchive_linux_all~\n    format: tar\n- extract:\n    dst: $GAMEDIR\n    file: $CACHE/instarchive_all~\n    format: tar\n"
}