{
  "name": "Catacomb Explorers",
  "slug": "catacomb-explorers",
  "year": null,
  "description": "",
  "banner_url": "https://lutris.net/games/banner/catacomb-explorers.jpg",
  "icon_url": "https://lutris.net/games/icon/catacomb-explorers.png",
  "is_public": false,
  "updated": "2019-01-23T08:28:48.075360Z",
  "provider_games": [],
  "steamid": 543420,
  "gogid": null,
  "gogslug": "",
  "humblestoreid": "",
  "id": 11445
}