{
  "name": "HoDoKu",
  "slug": "hodoku",
  "year": 2012,
  "description": "HoDoKu is a sudoku helper written in Java and available in English and German. Generate sudokus in five different and fully configurable difficulty levels. Solve them yourself (with help from HoDoKu's hint system) or let HoDoKu do it for you.",
  "banner_url": "https://lutris.net/games/banner/hodoku.jpg",
  "icon_url": "",
  "is_public": true,
  "updated": "2020-08-29T22:36:46.854568Z",
  "provider_games": [],
  "steamid": null,
  "gogid": null,
  "gogslug": "",
  "humblestoreid": "",
  "id": 37887
}