{
  "name": "Forest Harvester Simulator",
  "slug": "forest-harvester-simulator",
  "year": null,
  "description": "",
  "banner_url": "https://lutris.net/games/banner/forest-harvester-simulator.jpg",
  "icon_url": "https://lutris.net/games/icon/forest-harvester-simulator.png",
  "is_public": true,
  "updated": "2020-10-08T10:08:49.703948Z",
  "provider_games": [
    {
      "name": "Forest Harvester Simulator",
      "slug": "815240",
      "service": "steam"
    }
  ],
  "steamid": 815240,
  "gogid": null,
  "gogslug": "",
  "humblestoreid": "",
  "id": 23318
}