{
  "name": "Counter-Strike",
  "slug": "counter-strike",
  "year": 2000,
  "description": "Play the world's number 1 online action game. Engage in an incredibly realistic brand of terrorist warfare in this wildly popular team-based game. Ally with teammates to complete strategic missions. Take out enemy sites. Rescue hostages. Your role affects your team's success. Your team's success affects your role. ",
  "banner_url": "https://lutris.net/games/banner/counter-strike.jpg",
  "icon_url": "https://lutris.net/games/icon/counter-strike.png",
  "is_public": true,
  "updated": "2019-01-23T08:28:58.849547Z",
  "provider_games": [
    {
      "name": "Counter-Strike",
      "slug": "10",
      "service": "steam"
    }
  ],
  "steamid": 10,
  "gogid": null,
  "gogslug": "",
  "humblestoreid": "",
  "id": 97
}