{
  "name": "de Blob 2",
  "slug": "de-blob-2",
  "year": null,
  "description": "",
  "banner_url": "https://lutris.net/games/banner/de-blob-2.jpg",
  "icon_url": "https://lutris.net/games/icon/de-blob-2.png",
  "is_public": true,
  "updated": "2020-10-08T10:05:25.342044Z",
  "provider_games": [
    {
      "name": "de Blob 2",
      "slug": "2070890632",
      "service": "gog"
    },
    {
      "name": "de Blob 2",
      "slug": "563190",
      "service": "steam"
    }
  ],
  "steamid": 563190,
  "gogid": 2070890632,
  "gogslug": "de_blob_2",
  "humblestoreid": "",
  "id": 21022
}