{
  "name": "Great Golf",
  "slug": "great-golf",
  "year": 1987,
  "description": "",
  "banner_url": "https://lutris.net/games/banner/great-golf.jpg",
  "icon_url": "",
  "is_public": true,
  "updated": "2019-01-23T08:29:43.081508Z",
  "provider_games": [],
  "steamid": null,
  "gogid": null,
  "gogslug": "",
  "humblestoreid": "",
  "id": 13738
}