{
  "name": "Breath of Warfare",
  "slug": "breath-of-warfare",
  "year": null,
  "description": "",
  "banner_url": "https://lutris.net/games/banner/breath-of-warfare.jpg",
  "icon_url": "https://lutris.net/games/icon/breath-of-warfare.png",
  "is_public": false,
  "updated": "2019-01-23T08:28:41.846767Z",
  "provider_games": [],
  "steamid": 746090,
  "gogid": null,
  "gogslug": "",
  "humblestoreid": "",
  "id": 21712
}