{
  "name": "Element TD",
  "slug": "element-td",
  "year": null,
  "description": "",
  "banner_url": "https://lutris.net/games/banner/element-td.jpg",
  "icon_url": "https://lutris.net/games/icon/element-td.png",
  "is_public": true,
  "updated": "2020-10-08T10:04:57.389708Z",
  "provider_games": [
    {
      "name": "Element TD",
      "slug": "578350",
      "service": "steam"
    }
  ],
  "steamid": 578350,
  "gogid": null,
  "gogslug": "",
  "humblestoreid": "",
  "id": 11985
}