{
  "name": "Brave Story: New Traveler",
  "slug": "brave-story-new-traveler",
  "year": 2006,
  "description": "An original title created specifically for the PSP & reg; system and developed by Game Republic (Genji series), Brave Story: New Traveler features beautifully rendered 3D graphics, an epic tale with a host of colorful supporting characters, and a traditional turn-based battle system easy for beginners to pickup and play but with enough depth and innovative features for seasoned gamers.\r\n\r\n    A role-playing game with an epic tale, introducing unique characters with distinct personalities and leading the player through the imaginative world of Vision as he learns to become a hero.\r\n    Traditional turn-based battle system enhanced by innovative features based on the story’s themes of friendship, courage, and growth.\r\n    Beautifully rendered 3D graphics with vibrant colors and a distinct visual style, highlighted by polished character and enemy movement, graphical representations of sound effects, and a unique animation for each special ability – all exceptionally well drawn and intricately textured.\r\n    Collect special birds which you can use in mini-games or trade in for rare and precious weapons, armor, and items.",
  "banner_url": "https://lutris.net/games/banner/brave-story-new-traveler.jpg",
  "icon_url": "",
  "is_public": true,
  "updated": "2020-08-29T22:40:28.818707Z",
  "provider_games": [],
  "steamid": null,
  "gogid": null,
  "gogslug": "",
  "humblestoreid": "",
  "id": 37622
}