{
  "name": "Donkey Kong Plus",
  "slug": "donkey-kong-plus",
  "year": 2017,
  "description": "",
  "banner_url": "https://lutris.net/games/banner/donkey-kong-plus.jpg",
  "icon_url": "",
  "is_public": true,
  "updated": "2019-01-23T08:29:14.836131Z",
  "provider_games": [],
  "steamid": null,
  "gogid": null,
  "gogslug": "",
  "humblestoreid": "",
  "id": 13524
}