{
  "id": 21036,
  "game_id": 23979,
  "game_slug": "project-eden",
  "name": "Project Eden",
  "year": 2001,
  "user": "appoloin",
  "runner": "wine",
  "slug": "project-eden-gog",
  "version": "GOG",
  "description": null,
  "notes": "",
  "created_at": "2020-05-30T18:39:58.368000Z",
  "updated_at": "2020-05-31T08:45:02.058364Z",
  "draft": false,
  "published": true,
  "published_by": 20548,
  "rating": "",
  "steamid": null,
  "gogid": 1207659235,
  "gogslug": "project_eden",
  "humbleid": "",
  "humblestoreid": "",
  "humblestoreid_real": "",
  "script": {
    "files": [
      {
        "setup": "N/A:Select GOG installer"
      }
    ],
    "game": {
      "arch": "win32",
      "exe": "$GAMEDIR/drive_c/GOG Games/Project Eden/Eden.exe",
      "prefix": "$GAMEDIR"
    },
    "installer": [
      {
        "task": {
          "arch": "win32",
          "install_gecko": false,
          "install_mono": false,
          "name": "create_prefix",
          "prefix": "$GAMEDIR"
        }
      },
      {
        "task": {
          "executable": "$setup",
          "name": "wineexec",
          "prefix": "$GAMEDIR"
        }
      }
    ],
    "wine": {
      "Desktop": true
    }
  },
  "content": "files:\n- setup: N/A:Select GOG installer\ngame:\n  arch: win32\n  exe: $GAMEDIR/drive_c/GOG Games/Project Eden/Eden.exe\n  prefix: $GAMEDIR\ninstaller:\n- task:\n    arch: win32\n    install_gecko: false\n    install_mono: false\n    name: create_prefix\n    prefix: $GAMEDIR\n- task:\n    executable: $setup\n    name: wineexec\n    prefix: $GAMEDIR\nwine:\n  Desktop: true\n"
}