{
  "name": "hack_me",
  "slug": "hack_me",
  "year": null,
  "description": "",
  "banner_url": "https://lutris.net/games/banner/hack_me.jpg",
  "icon_url": "https://lutris.net/games/icon/hack_me.png",
  "is_public": true,
  "updated": "2020-10-08T10:06:30.808841Z",
  "provider_games": [
    {
      "name": "hack_me",
      "slug": "526740",
      "service": "steam"
    }
  ],
  "steamid": 526740,
  "gogid": null,
  "gogslug": "",
  "humblestoreid": "",
  "id": 10923
}