{
  "name": "Audioshield",
  "slug": "audioshield",
  "year": null,
  "description": "",
  "banner_url": "https://lutris.net/games/banner/audioshield.jpg",
  "icon_url": "https://lutris.net/games/icon/audioshield.png",
  "is_public": true,
  "updated": "2020-10-08T10:14:46.934092Z",
  "provider_games": [
    {
      "name": "Audioshield",
      "slug": "412740",
      "service": "steam"
    }
  ],
  "steamid": 412740,
  "gogid": null,
  "gogslug": "",
  "humblestoreid": "",
  "id": 8561
}