{
  "name": "Green Thread of Fate",
  "slug": "green-thread-of-fate",
  "year": 2019,
  "description": "One fine day, our cheerful protagonist stumbles across a mysterious portal and dives into a world of adventure and friendship!\r\n\r\n- Find the four elemental warriors and summon the dragon god!\r\n- Fight a bunch of giant monsters!\r\n- Enjoy a wide array of dated references!\r\n- Make lots of friends along the way!\r\n- Technically a reverse harem but with aromanticism and friendship!\r\n\r\nOriginally created for Rainbow Jam 2019.",
  "banner_url": "https://lutris.net/games/banner/green-thread-of-fate.jpg",
  "icon_url": "",
  "is_public": true,
  "updated": "2019-12-15T18:54:34.190985Z",
  "provider_games": [],
  "steamid": null,
  "gogid": null,
  "gogslug": "",
  "humblestoreid": "",
  "id": 30701
}