{
  "id": 23701,
  "game_id": 5029,
  "game_slug": "doom-64",
  "name": "Doom 64",
  "year": 1997,
  "user": "legluondunet",
  "runner": "zdoom",
  "slug": "doom-64-brutal-doom-64-tc-mo",
  "version": "Brutal Doom 64 TC mod",
  "description": "This script will facilitate you install of this game on Linux OS:\r\n\"Doom64\" using Lutris GZDoom runner with \"Brutal DOOM 64 Absolution TC REMAKE\" mod.\r\nDuring install please let all options by default.\r\nThanks to the people who helped us play this game in the best conditions on Linux platform.",
  "notes": "- During install, you will need to provide:\r\n-- \"doom2.wad\" file from \"Doom II\" game\r\n-- \"Brutal DOOM 64 Absolution TC REMAKE\" mod archive. You can download it here: https://www.moddb.com/mods/brutal-doom-64/downloads/brutal-doom-64-absolution-tc-remake\r\n- Please report issue concerning this script on my Github page:\r\nhttps://github.com/legluondunet/MyLittleLutrisScripts",
  "created_at": "2020-10-04T19:53:28.878000Z",
  "updated_at": "2020-11-06T12:48:07.679243Z",
  "draft": false,
  "published": true,
  "published_by": 494,
  "rating": "",
  "steamid": 1148590,
  "gogid": null,
  "gogslug": "",
  "humbleid": "",
  "humblestoreid": "",
  "humblestoreid_real": "",
  "script": {
    "custom-name": "Doom 64 - Brutal DOOM 64 Absolution TC REMAKE mod - GZDoom",
    "files": [
      {
        "brutalmod": "N/A:Please select the \"Brutal DOOM 64 Absolution TC REMAKE\" mod archive available for dowload at https://www.moddb.com/mods/brutal-doom-64/downloads/brutal-doom-64-absolution-tc-remake"
      }
    ],
    "game": {
      "files": [
        "mods/bd64gamev2_TCREMAKEV1.4.pk3",
        "mods/bd64mapsV2_TCREMAKEV1.4.pk3",
        "mods/ZD64MUSIC_TCREMAKEV1.4.PK3"
      ],
      "main_file": "doom2.wad",
      "savedir": "saves"
    },
    "installer": [
      {
        "extract": {
          "dst": "$CACHE",
          "src": "brutalmod"
        }
      },
      {
        "execute": {
          "command": "mkdir \"$GAMEDIR/mods\"; find \"$CACHE\" \\( -iname \"*.pk3\" -o -iname \"*.wad\" -o -iname \"*.txt\" \\) -exec cp {} \"$GAMEDIR/mods\" \\;"
        }
      },
      {
        "insert-disc": {
          "description": "Please browse folder where is located DOOM2.WAD file. \"Autodetect\" button will not work here, use \"Browse\" button.",
          "requires": "doom2.wad"
        }
      },
      {
        "execute": {
          "command": "ls \"$DISC\" | grep -i doom2.wad | xargs -I {} cp \"$DISC/{}\" \"$GAMEDIR/doom2.wad\"; mkdir \"$GAMEDIR/saves\";"
        }
      },
      {
        "write_file": {
          "content": "[SoundfontSearch.Directories]\nPath=soundfonts\n[GlobalSettings]\nfreelook=true\n",
          "file": "$GAMEDIR/gzdoom.ini"
        }
      }
    ],
    "zdoom": {
      "config": "$GAMEDIR/gzdoom.ini"
    }
  },
  "content": "custom-name: Doom 64 - Brutal DOOM 64 Absolution TC REMAKE mod - GZDoom\nfiles:\n- brutalmod: N/A:Please select the \"Brutal DOOM 64 Absolution TC REMAKE\" mod archive\n    available for dowload at https://www.moddb.com/mods/brutal-doom-64/downloads/brutal-doom-64-absolution-tc-remake\ngame:\n  files:\n  - mods/bd64gamev2_TCREMAKEV1.4.pk3\n  - mods/bd64mapsV2_TCREMAKEV1.4.pk3\n  - mods/ZD64MUSIC_TCREMAKEV1.4.PK3\n  main_file: doom2.wad\n  savedir: saves\ninstaller:\n- extract:\n    dst: $CACHE\n    src: brutalmod\n- execute:\n    command: mkdir \"$GAMEDIR/mods\"; find \"$CACHE\" \\( -iname \"*.pk3\" -o -iname \"*.wad\"\n      -o -iname \"*.txt\" \\) -exec cp {} \"$GAMEDIR/mods\" \\;\n- insert-disc:\n    description: Please browse folder where is located DOOM2.WAD file. \"Autodetect\"\n      button will not work here, use \"Browse\" button.\n    requires: doom2.wad\n- execute:\n    command: ls \"$DISC\" | grep -i doom2.wad | xargs -I {} cp \"$DISC/{}\" \"$GAMEDIR/doom2.wad\";\n      mkdir \"$GAMEDIR/saves\";\n- write_file:\n    content: '[SoundfontSearch.Directories]\n\n      Path=soundfonts\n\n      [GlobalSettings]\n\n      freelook=true\n\n      '\n    file: $GAMEDIR/gzdoom.ini\nzdoom:\n  config: $GAMEDIR/gzdoom.ini\n"
}