{
  "id": 23692,
  "game_id": 5029,
  "game_slug": "doom-64",
  "name": "Doom 64",
  "year": 1997,
  "user": "legluondunet",
  "runner": "linux",
  "slug": "doom-64-doom64ex",
  "version": "Doom64EX",
  "description": "This script will facilitate you install of this game on Linux OS:\r\n\"Doom64\" using Doom64EX project:\r\nhttps://github.com/svkaiser/Doom64EX\r\nDuring install please let all options by default.\r\nThanks to the people who helped us play this game in the best conditions on Linux platform.",
  "notes": "- You will need to provide Nintendo Doom 64 rom file during install (uncompressed).\r\n- Please report issue concerning this script on my Github page:\r\nhttps://github.com/legluondunet/MyLittleLutrisScripts",
  "created_at": "2020-10-04T10:15:05.690000Z",
  "updated_at": "2020-11-06T12:48:14.676340Z",
  "draft": false,
  "published": true,
  "published_by": 494,
  "rating": "",
  "steamid": 1148590,
  "gogid": null,
  "gogslug": "",
  "humbleid": "",
  "humblestoreid": "",
  "humblestoreid_real": "",
  "script": {
    "custom-name": "Doom 64 - Doom64EX",
    "files": [
      {
        "d64ex": "https://github.com/legluondunet/MyLittleLutrisScripts/raw/master/Doom%2064/Doom64EX_x64.7z"
      },
      {
        "rom": "N/A:Please select the Nintedo 64 Doom64 rom file (uncompressed)."
      }
    ],
    "game": {
      "exe": "$GAMEDIR/doom64ex"
    },
    "installer": [
      {
        "extract": {
          "dst": "$GAMEDIR",
          "src": "d64ex"
        }
      },
      {
        "execute": {
          "args": "-wadgen $rom",
          "file": "$GAMEDIR/doom64ex"
        }
      },
      {
        "execute": {
          "command": "mv \"$HOME/.local/share/doom64ex/\"* \"$GAMEDIR\";"
        }
      }
    ]
  },
  "content": "custom-name: Doom 64 - Doom64EX\nfiles:\n- d64ex: https://github.com/legluondunet/MyLittleLutrisScripts/raw/master/Doom%2064/Doom64EX_x64.7z\n- rom: N/A:Please select the Nintedo 64 Doom64 rom file (uncompressed).\ngame:\n  exe: $GAMEDIR/doom64ex\ninstaller:\n- extract:\n    dst: $GAMEDIR\n    src: d64ex\n- execute:\n    args: -wadgen $rom\n    file: $GAMEDIR/doom64ex\n- execute:\n    command: mv \"$HOME/.local/share/doom64ex/\"* \"$GAMEDIR\";\n"
}