{
  "name": "Freedoom",
  "slug": "freedoom",
  "year": 2003,
  "description": "The Freedoom project aims to create a complete free content first person shooter game. But Freedoom by itself is just the raw material for a game: it must be paired with a compatible game engine to be played. The download page lists some recommended ones.\r\n\r\nid Software released the source code to their classic game, Doom, under the GNU General Public License. This means that the program code that powers Doom is free; Freedoom complements this with free levels, artwork, sound effects and music to make a completely free game.\r\n\r\nFreedoom is actually three games in one, consisting of two single player campaigns and one set of levels intended for multiplayer deathmatch (FreeDM).",
  "banner_url": "https://lutris.net/games/banner/freedoom.jpg",
  "icon_url": "https://lutris.net/games/icon/freedoom.png",
  "is_public": true,
  "updated": "2019-01-23T08:29:35.177631Z",
  "provider_games": [],
  "steamid": null,
  "gogid": null,
  "gogslug": "",
  "humblestoreid": "",
  "id": 7153
}