{
  "name": "Full-On Paintball",
  "slug": "full-on-paintball",
  "year": null,
  "description": "",
  "banner_url": "https://lutris.net/games/banner/full-on-paintball.jpg",
  "icon_url": "https://lutris.net/games/icon/full-on-paintball.png",
  "is_public": true,
  "updated": "2020-10-08T10:09:06.110630Z",
  "provider_games": [
    {
      "name": "Full-On Paintball",
      "slug": "678450",
      "service": "steam"
    }
  ],
  "steamid": 678450,
  "gogid": null,
  "gogslug": "",
  "humblestoreid": "",
  "id": 25707
}