{
  "id": 17876,
  "game_id": 3951,
  "game_slug": "nekopara-vol-1",
  "name": "NEKOPARA Vol. 1",
  "year": 2014,
  "user": "soredake",
  "runner": "steam",
  "slug": "nekopara-vol-1-proton",
  "version": "Proton",
  "description": null,
  "notes": "",
  "created_at": "2020-01-12T12:06:30.978000Z",
  "updated_at": "2020-01-12T12:06:49.244169Z",
  "draft": false,
  "published": true,
  "published_by": 20548,
  "rating": "",
  "steamid": 333600,
  "gogid": null,
  "gogslug": "",
  "humbleid": "",
  "humblestoreid": "",
  "humblestoreid_real": "",
  "script": {
    "game": {
      "appid": 333600
    },
    "system": {
      "env": {
        "LC_ALL": "ja_JP.UTF-8"
      }
    }
  },
  "content": "game:\n  appid: 333600\nsystem:\n  env:\n    LC_ALL: ja_JP.UTF-8\n"
}