{
  "name": "FORGOTTEN BALL",
  "slug": "forgotten-ball",
  "year": null,
  "description": "",
  "banner_url": "https://lutris.net/games/banner/forgotten-ball.jpg",
  "icon_url": "https://lutris.net/games/icon/forgotten-ball.png",
  "is_public": true,
  "updated": "2020-10-08T10:14:10.041663Z",
  "provider_games": [
    {
      "name": "FORGOTTEN BALL",
      "slug": "434700",
      "service": "steam"
    }
  ],
  "steamid": 434700,
  "gogid": null,
  "gogslug": "",
  "humblestoreid": "",
  "id": 5991
}