{
  "name": "Elon Simulator 2019",
  "slug": "elon-simulator-2019",
  "year": null,
  "description": "",
  "banner_url": "https://lutris.net/games/banner/elon-simulator-2019.jpg",
  "icon_url": "",
  "is_public": true,
  "updated": "2020-06-16T20:39:41.137281Z",
  "provider_games": [],
  "steamid": null,
  "gogid": null,
  "gogslug": "",
  "humblestoreid": "",
  "id": 36582
}