{
  "id": 23356,
  "game_id": 812,
  "game_slug": "stalker-call-of-pripyat",
  "name": "S.T.A.L.K.E.R.: Call of Pripyat",
  "year": null,
  "user": "Re4mstr",
  "runner": "wine",
  "slug": "stalker-call-of-pripyat-mod-anomaly",
  "version": "MOD: Anomaly",
  "description": "This is an installer for the Anomaly MOD of S.T.A.L.K.E.R. COP.\r\nIt is currently configured to run on dx11.",
  "notes": "Before installation:\r\n- Download all 3 parts + latest update of the game from the proper source.\r\n- Extract all the zips in turn into the location of choice. (This location needs to be chosen in the installation in Lutris as game directory)\r\n\r\nAfter installation: \r\n- Install the latest staging version of Wine (Tested 5.17) which should work, and set it in the configurations.",
  "created_at": "2020-09-14T16:23:54.286023Z",
  "updated_at": "2020-09-14T16:23:54.286045Z",
  "draft": false,
  "published": false,
  "published_by": null,
  "rating": "",
  "steamid": 41700,
  "gogid": 1207660583,
  "gogslug": "stalker_call_of_pripyat",
  "humbleid": "",
  "humblestoreid": "",
  "humblestoreid_real": "",
  "script": {
    "game": {
      "appid": 41700,
      "exe": "$GAMEDIR/AnomalyLauncher.exe",
      "prefix": "$GAMEDIR",
      "working_dir": "$GAMEDIR/"
    },
    "installer": [
      {
        "task": {
          "app": "d3dcompiler_43",
          "name": "winetricks",
          "prefix": "$GAMEDIR"
        }
      },
      {
        "task": {
          "app": "d3dcompiler_47",
          "name": "winetricks",
          "prefix": "$GAMEDIR"
        }
      },
      {
        "task": {
          "app": "d3dx10_43",
          "name": "winetricks",
          "prefix": "$GAMEDIR"
        }
      },
      {
        "task": {
          "app": "d3dx10",
          "name": "winetricks",
          "prefix": "$GAMEDIR"
        }
      },
      {
        "task": {
          "app": "d3dx11_42",
          "name": "winetricks",
          "prefix": "$GAMEDIR"
        }
      },
      {
        "task": {
          "app": "d3dx11_43",
          "name": "winetricks",
          "prefix": "$GAMEDIR"
        }
      },
      {
        "task": {
          "app": "d3dx9_43",
          "name": "winetricks",
          "prefix": "$GAMEDIR"
        }
      },
      {
        "task": {
          "app": "d3dx9",
          "name": "winetricks",
          "prefix": "$GAMEDIR"
        }
      },
      {
        "task": {
          "app": "d9vk",
          "name": "winetricks",
          "prefix": "$GAMEDIR"
        }
      },
      {
        "task": {
          "app": "directplay",
          "name": "winetricks",
          "prefix": "$GAMEDIR"
        }
      },
      {
        "task": {
          "app": "dxvk",
          "name": "winetricks",
          "prefix": "$GAMEDIR"
        }
      }
    ],
    "wine": {
      "Desktop": true,
      "dxvk": true,
      "esync": true
    }
  },
  "content": "game:\n  appid: 41700\n  exe: $GAMEDIR/AnomalyLauncher.exe\n  prefix: $GAMEDIR\n  working_dir: $GAMEDIR/\ninstaller:\n- task:\n    app: d3dcompiler_43\n    name: winetricks\n    prefix: $GAMEDIR\n- task:\n    app: d3dcompiler_47\n    name: winetricks\n    prefix: $GAMEDIR\n- task:\n    app: d3dx10_43\n    name: winetricks\n    prefix: $GAMEDIR\n- task:\n    app: d3dx10\n    name: winetricks\n    prefix: $GAMEDIR\n- task:\n    app: d3dx11_42\n    name: winetricks\n    prefix: $GAMEDIR\n- task:\n    app: d3dx11_43\n    name: winetricks\n    prefix: $GAMEDIR\n- task:\n    app: d3dx9_43\n    name: winetricks\n    prefix: $GAMEDIR\n- task:\n    app: d3dx9\n    name: winetricks\n    prefix: $GAMEDIR\n- task:\n    app: d9vk\n    name: winetricks\n    prefix: $GAMEDIR\n- task:\n    app: directplay\n    name: winetricks\n    prefix: $GAMEDIR\n- task:\n    app: dxvk\n    name: winetricks\n    prefix: $GAMEDIR\nwine:\n  Desktop: true\n  dxvk: true\n  esync: true\n"
}