{
  "name": "Far Cry Primal",
  "slug": "far-cry-primal",
  "year": 2016,
  "description": "The award-winning Far Cry franchise that stormed the tropics and the Himalayas now enters the original fight for humanity’s survival with its innovative open-world sandbox gameplay, bringing together massive beasts, breathtaking environments, and unpredictable savage encounters.\r\nWelcome to the Stone Age, a time of extreme danger and limitless adventure, when giant mammoths and sabretooth tigers ruled the Earth and humanity is at the bottom of the food chain. As the last survivor of your hunting group, you will learn to craft a deadly arsenal, fend off fierce predators, and outsmart enemy tribes to conquer the land of Oros and become the Apex Predator.\r\nGAME FEATURES\r\n\r\n    STONE AGE BY FAR CRY: The rich setting of the Stone Age provides a new setting filled with unpredictable mayhem, dangerous threats, and incredible stories that Far Cry is known for.\r\n    RISE ABOVE EXTINCTION: Play as Takkar, a seasoned hunter and the last surviving member of your group. There is one goal: survive in a world where you are the prey.\r\n    FIERCE WILDLIFE AND SAVAGE AND MAJESTIC WORLD: This is earth before man laid claim to it, where deadly sabretooth tigers ruled the world, giant woolly mammoths were kings, and herds of massive Elk stormed through the plains. Discover these and many more daunting creatures in the savage open-world of Oros within the towering redwood forests, harsh taiga, cold glacial mountains and humid swamps.",
  "banner_url": "https://lutris.net/games/banner/far-cry-primal.jpg",
  "icon_url": "https://lutris.net/games/icon/far-cry-primal.png",
  "is_public": true,
  "updated": "2019-01-23T08:29:28.665478Z",
  "provider_games": [
    {
      "name": "Far Cry Primal",
      "slug": "371660",
      "service": "steam"
    }
  ],
  "steamid": 371660,
  "gogid": null,
  "gogslug": "",
  "humblestoreid": "",
  "id": 7156
}