{
  "name": "Fantasy Fortune",
  "slug": "fantasy-fortune",
  "year": 1998,
  "description": "",
  "banner_url": "",
  "icon_url": "https://lutris.net/games/icon/fantasy-fortune.png",
  "is_public": true,
  "updated": "2020-05-26T03:33:42.573368Z",
  "provider_games": [
    {
      "name": "Fantasy Fortune",
      "slug": "ffortune",
      "service": "mame"
    }
  ],
  "steamid": null,
  "gogid": null,
  "gogslug": "",
  "humblestoreid": "",
  "id": 34082
}