{
  "name": "Lethal Crash Race / Bakuretsu Crash Race",
  "slug": "lethal-crash-race-bakuretsu-crash-race",
  "year": 1993,
  "description": "",
  "banner_url": "",
  "icon_url": "https://lutris.net/games/icon/lethal-crash-race-bakuretsu-crash-race.png",
  "is_public": true,
  "updated": "2020-05-26T03:35:14.936231Z",
  "provider_games": [
    {
      "name": "Lethal Crash Race / Bakuretsu Crash Race",
      "slug": "crshrace",
      "service": "mame"
    }
  ],
  "steamid": null,
  "gogid": null,
  "gogslug": "",
  "humblestoreid": "",
  "id": 33763
}