{
  "name": "BlazeRush",
  "slug": "blazerush",
  "year": null,
  "description": "",
  "banner_url": "https://lutris.net/games/banner/blazerush.jpg",
  "icon_url": "",
  "is_public": true,
  "updated": "2019-01-23T08:28:38.063669Z",
  "provider_games": [
    {
      "name": "BlazeRush",
      "slug": "302710",
      "service": "steam"
    }
  ],
  "steamid": 302710,
  "gogid": null,
  "gogslug": "",
  "humblestoreid": "",
  "id": 3758
}