{
  "name": "Death Coming",
  "slug": "death-coming",
  "year": null,
  "description": "",
  "banner_url": "https://lutris.net/games/banner/death-coming.jpg",
  "icon_url": "",
  "is_public": true,
  "updated": "2020-05-17T08:49:11.541064Z",
  "provider_games": [],
  "steamid": null,
  "gogid": null,
  "gogslug": "",
  "humblestoreid": "",
  "id": 33032
}