{
  "name": "Danger Scavenger",
  "slug": "danger-scavenger",
  "year": null,
  "description": "",
  "banner_url": "https://lutris.net/games/banner/danger-scavenger.jpg",
  "icon_url": "https://lutris.net/games/icon/danger-scavenger.png",
  "is_public": true,
  "updated": "2020-10-08T09:19:00.564914Z",
  "provider_games": [
    {
      "name": "Danger Scavenger",
      "slug": "1169740",
      "service": "steam"
    }
  ],
  "steamid": 1169740,
  "gogid": null,
  "gogslug": "",
  "humblestoreid": "",
  "id": 37518
}