{
  "name": "Bear Simulator",
  "slug": "bear-simulator",
  "year": null,
  "description": "",
  "banner_url": "https://lutris.net/games/banner/bear-simulator.jpg",
  "icon_url": "https://lutris.net/games/icon/bear-simulator.png",
  "is_public": true,
  "updated": "2020-10-08T10:15:16.160359Z",
  "provider_games": [
    {
      "name": "Bear Simulator",
      "slug": "395850",
      "service": "steam"
    }
  ],
  "steamid": 395850,
  "gogid": null,
  "gogslug": "",
  "humblestoreid": "",
  "id": 10266
}