{
  "name": "Flute Master",
  "slug": "flute-master",
  "year": null,
  "description": "",
  "banner_url": "https://lutris.net/games/banner/flute-master.jpg",
  "icon_url": "https://lutris.net/games/icon/flute-master.png",
  "is_public": true,
  "updated": "2020-10-08T10:15:44.277499Z",
  "provider_games": [
    {
      "name": "Flute Master",
      "slug": "380100",
      "service": "steam"
    }
  ],
  "steamid": 380100,
  "gogid": null,
  "gogslug": "",
  "humblestoreid": "",
  "id": 11101
}