{
  "name": "Arcadia",
  "slug": "arcadia",
  "year": null,
  "description": "",
  "banner_url": "https://lutris.net/games/banner/arcadia.jpg",
  "icon_url": "https://lutris.net/games/icon/arcadia.png",
  "is_public": false,
  "updated": "2019-01-23T08:28:23.860160Z",
  "provider_games": [],
  "steamid": 72500,
  "gogid": null,
  "gogslug": "",
  "humblestoreid": "",
  "id": 4538
}