{
  "id": 24486,
  "game_id": 30444,
  "game_slug": "fifa-20",
  "name": "FIFA 20",
  "year": 2019,
  "user": "zayn",
  "runner": "wine",
  "slug": "fifa-20-blablif",
  "version": "blablif",
  "description": null,
  "notes": "",
  "created_at": "2020-11-12T08:35:56.280890Z",
  "updated_at": "2020-11-12T08:35:56.280913Z",
  "draft": true,
  "published": false,
  "published_by": null,
  "rating": "",
  "steamid": null,
  "gogid": null,
  "gogslug": "",
  "humbleid": "",
  "humblestoreid": "",
  "humblestoreid_real": "",
  "script": {
    "files": [
      {
        "client": "https://origin-a.akamaihd.net/Origin-Client-Download/origin/live/OriginThinSetup.exe"
      },
      {
        "updater": "https://raw.githubusercontent.com/DrDoctor13/wine-origin-updater/master/updateorigin.sh"
      },
      {
        "vcrun2019_ge": "https://github.com/GloriousEggroll/protonfixes/blob/master/gamefixes/verbs/vcrun2019_ge.verb"
      }
    ],
    "game": {
      "arch": "win64",
      "exe": "drive_c/Program Files (x86)/Origin/Origin.exe",
      "prefix": "$GAMEDIR"
    },
    "installer": [
      {
        "task": {
          "arch": "win64",
          "description": "Creating Wine prefix",
          "name": "create_prefix",
          "prefix": "$GAMEDIR"
        }
      },
      {
        "input_menu": {
          "description": "Setting DXVK workarounds please choose your GPU:",
          "id": "GPU",
          "options": [
            {
              "Not needed for AMD. Ignore this.": "AMD"
            },
            {
              "dxgi.customVendorId = 10de\ndxgi.nvapiHack = False\ndxvk.useRawSsbo = True": "Nvidia"
            }
          ],
          "preselect": "Not needed for AMD. Ignore this."
        }
      },
      {
        "write_file": {
          "content": "$INPUT_GPU",
          "file": "$GAMEDIR/dxvk.conf"
        }
      },
      {
        "task": {
          "app": "vcrun2012",
          "arch": "win64",
          "description": "Installing vcrun2012 please be patient",
          "name": "winetricks",
          "prefix": "$GAMEDIR"
        }
      },
      {
        "task": {
          "app": "vcrun2013",
          "arch": "win64",
          "description": "Installing vcrun2013 please be patient",
          "name": "winetricks",
          "prefix": "$GAMEDIR"
        }
      },
      {
        "task": {
          "app": "vcrun2019_ge",
          "arch": "win64",
          "description": "Installing vcrun2019_ge please be patient",
          "name": "winetricks",
          "prefix": "$GAMEDIR"
        }
      },
      {
        "task": {
          "app": "allfonts",
          "arch": "win64",
          "description": "Installing allfonts please be patient",
          "name": "winetricks",
          "prefix": "$GAMEDIR"
        }
      },
      {
        "task": {
          "app": "dotnet462",
          "arch": "win64",
          "description": "Installing dotnet462 please be patient",
          "name": "winetricks",
          "prefix": "$GAMEDIR"
        }
      },
      {
        "task": {
          "app": "d3dcompiler_47",
          "arch": "win64",
          "description": "Installing d3dcompiler_47 please be patient",
          "name": "winetricks",
          "prefix": "$GAMEDIR"
        }
      },
      {
        "task": {
          "app": "d3dcompiler_43",
          "arch": "win64",
          "description": "Installing d3dcompiler_43 please be patient",
          "name": "winetricks",
          "prefix": "$GAMEDIR"
        }
      },
      {
        "task": {
          "app": "nocrashdialog win7",
          "arch": "win64",
          "name": "winetricks",
          "prefix": "$GAMEDIR"
        }
      },
      {
        "task": {
          "arch": "win64",
          "args": "/silent",
          "description": "Installing Origin... Login window will pop-up and close.",
          "exclude_processes": "mscorsvw.exe Origin.exe OriginClientService.exe OriginWebHelperService.exe QtWebEngineProcess.exe",
          "executable": "client",
          "name": "wineexec",
          "prefix": "$GAMEDIR"
        }
      },
      {
        "task": {
          "arch": "win64",
          "name": "winekill",
          "prefix": "$GAMEDIR"
        }
      },
      {
        "chmodx": "updater"
      },
      {
        "merge": {
          "dst": "$GAMEDIR/drive_c/Program Files (x86)/Origin",
          "src": "updater"
        }
      }
    ],
    "system": {
      "disable_runtime": false,
      "env": {
        "DXVK_CONFIG_FILE": "$GAMEDIR/dxvk.conf",
        "DXVK_HUD": 0,
        "DXVK_LOG_LEVEL": "none"
      }
    },
    "wine": {
      "dxvk": true,
      "esync": true,
      "overrides": {
        "nvapi,nvapi64": "disabled",
        "xaudio2_7": "native,builtin"
      }
    }
  },
  "content": "files:\n- client: https://origin-a.akamaihd.net/Origin-Client-Download/origin/live/OriginThinSetup.exe\n- updater: https://raw.githubusercontent.com/DrDoctor13/wine-origin-updater/master/updateorigin.sh\n- vcrun2019_ge: https://github.com/GloriousEggroll/protonfixes/blob/master/gamefixes/verbs/vcrun2019_ge.verb\ngame:\n  arch: win64\n  exe: drive_c/Program Files (x86)/Origin/Origin.exe\n  prefix: $GAMEDIR\ninstaller:\n- task:\n    arch: win64\n    description: Creating Wine prefix\n    name: create_prefix\n    prefix: $GAMEDIR\n- input_menu:\n    description: 'Setting DXVK workarounds please choose your GPU:'\n    id: GPU\n    options:\n    - Not needed for AMD. Ignore this.: AMD\n    - ? 'dxgi.customVendorId = 10de\n\n        dxgi.nvapiHack = False\n\n        dxvk.useRawSsbo = True'\n      : Nvidia\n    preselect: Not needed for AMD. Ignore this.\n- write_file:\n    content: $INPUT_GPU\n    file: $GAMEDIR/dxvk.conf\n- task:\n    app: vcrun2012\n    arch: win64\n    description: Installing vcrun2012 please be patient\n    name: winetricks\n    prefix: $GAMEDIR\n- task:\n    app: vcrun2013\n    arch: win64\n    description: Installing vcrun2013 please be patient\n    name: winetricks\n    prefix: $GAMEDIR\n- task:\n    app: vcrun2019_ge\n    arch: win64\n    description: Installing vcrun2019_ge please be patient\n    name: winetricks\n    prefix: $GAMEDIR\n- task:\n    app: allfonts\n    arch: win64\n    description: Installing allfonts please be patient\n    name: winetricks\n    prefix: $GAMEDIR\n- task:\n    app: dotnet462\n    arch: win64\n    description: Installing dotnet462 please be patient\n    name: winetricks\n    prefix: $GAMEDIR\n- task:\n    app: d3dcompiler_47\n    arch: win64\n    description: Installing d3dcompiler_47 please be patient\n    name: winetricks\n    prefix: $GAMEDIR\n- task:\n    app: d3dcompiler_43\n    arch: win64\n    description: Installing d3dcompiler_43 please be patient\n    name: winetricks\n    prefix: $GAMEDIR\n- task:\n    app: nocrashdialog win7\n    arch: win64\n    name: winetricks\n    prefix: $GAMEDIR\n- task:\n    arch: win64\n    args: /silent\n    description: Installing Origin... Login window will pop-up and close.\n    exclude_processes: mscorsvw.exe Origin.exe OriginClientService.exe OriginWebHelperService.exe\n      QtWebEngineProcess.exe\n    executable: client\n    name: wineexec\n    prefix: $GAMEDIR\n- task:\n    arch: win64\n    name: winekill\n    prefix: $GAMEDIR\n- chmodx: updater\n- merge:\n    dst: $GAMEDIR/drive_c/Program Files (x86)/Origin\n    src: updater\nsystem:\n  disable_runtime: false\n  env:\n    DXVK_CONFIG_FILE: $GAMEDIR/dxvk.conf\n    DXVK_HUD: 0\n    DXVK_LOG_LEVEL: none\nwine:\n  dxvk: true\n  esync: true\n  overrides:\n    nvapi,nvapi64: disabled\n    xaudio2_7: native,builtin\n"
}