{
  "name": "Command and Conquer 3: Kane's Wrath",
  "slug": "command-and-conquer-3-kanes-wrath",
  "year": null,
  "description": "",
  "banner_url": "https://lutris.net/games/banner/command-and-conquer-3-kanes-wrath.jpg",
  "icon_url": "https://lutris.net/games/icon/command-and-conquer-3-kanes-wrath.png",
  "is_public": true,
  "updated": "2020-10-08T10:02:25.048055Z",
  "provider_games": [
    {
      "name": "Command and Conquer 3: Kane's Wrath",
      "slug": "24810",
      "service": "steam"
    }
  ],
  "steamid": 24810,
  "gogid": null,
  "gogslug": "",
  "humblestoreid": "",
  "id": 1317
}