{
  "name": "D.N.Age",
  "slug": "dnage",
  "year": null,
  "description": "",
  "banner_url": "https://lutris.net/games/banner/dnage.jpg",
  "icon_url": "https://lutris.net/games/icon/dnage.png",
  "is_public": true,
  "updated": "2020-10-08T10:07:30.666420Z",
  "provider_games": [
    {
      "name": "D.N.Age",
      "slug": "497470",
      "service": "steam"
    }
  ],
  "steamid": 497470,
  "gogid": null,
  "gogslug": "",
  "humblestoreid": "",
  "id": 18267
}