{
  "name": "Batman: The Brave and The Bold - The Videogame",
  "slug": "batman-the-brave-and-the-bold-the-videogame",
  "year": 2010,
  "description": "Play through exciting escapades in a fun and interactive way on Wii as the hit animated series comes to life in Batman: The Brave and the Bold the Videogame.\r\n\r\nTeam up in the ultimate co-op adventure and battle as Batman along with his powerful posse including Green Lantern, Robin, Hawkman and Blue Beetle, or call in the help of drop-in heroes such as The Flash and Aquaman to squash enemies.\r\n\r\nUsing Batman’s legendary gadgets, take on the most notorious villains in the DC Universe in the fight for justice. Players will face-off against evil in a variety of locations from crime filled alleys, strange alien planets, mysterious laboratories and beyond. Fight crime, solve puzzles, experience interplanetary travel and more as you go behind the cowl of the Caped Crusader and discover what it’s like to be a superhero in Batman: The Brave and the Bold the Videogame!",
  "banner_url": "https://lutris.net/games/banner/batman-the-brave-and-the-bold-the-videogame.jpg",
  "icon_url": "",
  "is_public": true,
  "updated": "2019-03-29T16:44:21.733184Z",
  "provider_games": [],
  "steamid": null,
  "gogid": null,
  "gogslug": "",
  "humblestoreid": "",
  "id": 26399
}