{
  "name": "Homefront",
  "slug": "homefront",
  "year": 2011,
  "description": "The year is 2027. The world as we know it is unraveling after fifteen years of economic meltdown and widespread global conflict over dwindling natural resources.\r\nA once proud America has fallen, her infrastructure shattered and military in disarray. Crippled by a devastating EMP strike, the USA is powerless to resist the ever expanding occupation of a savage, nuclear armed Greater Korean Republic.\r\nAbandoned by her former allies, the United States is a bleak landscape of walled towns and abandoned suburbs. This is a police state where high school stadiums have become detention centers, and shopping malls shelter armored attack vehicles. A once-free people are now prisoners… or collaborators… or revolutionaries.\r\nJoin the Resistance, stand united and fight for freedom against an overwhelming military force in Homefront’s gripping single player campaign penned by John Milius (Apocalypse Now, Red Dawn). Stand alongside a cast of memorable characters as an emotional plot unfolds in this terrifyingly plausible near-future world. Experience visceral, cinematic first-person shooter action as you fight your way across Occupied USA using guerrilla tactics, and commandeer military vehicles and advanced drone technology to defeat the enemy. \r\nMultiplayer brings epic warfare to the online arena as infantry, tanks, attack helicopters and combat drones battle across huge, open battlefields. A rich feature set offering layers of tactical depth combined with a game-changing innovation in the multiplayer space will set a new benchmark in online warfare.",
  "banner_url": "https://lutris.net/games/banner/homefront.jpg",
  "icon_url": "https://lutris.net/games/icon/homefront.png",
  "is_public": true,
  "updated": "2019-01-23T08:29:51.849745Z",
  "provider_games": [
    {
      "name": "Homefront",
      "slug": "55100",
      "service": "steam"
    }
  ],
  "steamid": 55100,
  "gogid": null,
  "gogslug": "",
  "humblestoreid": "",
  "id": 841
}