{
  "name": "Another Star",
  "slug": "another-star",
  "year": 2014,
  "description": "Another Star is a console-style RPG with a fast-paced battle system and a world that encourages players to explore and discover hidden areas as they lead their party on a journey across a fantasy world. While clearly influenced by the style and gameplay of the past, the game also implements innovations and ideas from the present. Random battles are less intrusive than classic console RPGs, alerting the player when enemies have been encountered, but giving them the choice to accept and fight, or ignore and continue exploring.\r\n\r\nThough the game is crammed into a single 128×128 pixel tile sheet, Another Star still manages to bring you a vast world to explore. Secrets are hidden everywhere, and you never know what you might find on the next screen. Those who take the time to explore instead of merely rushing to the next objective are certain to be rewarded.",
  "banner_url": "https://lutris.net/games/banner/another-star.jpg",
  "icon_url": "",
  "is_public": true,
  "updated": "2019-01-23T08:28:22.752443Z",
  "provider_games": [
    {
      "name": "Another Star",
      "slug": "358030",
      "service": "steam"
    }
  ],
  "steamid": 358030,
  "gogid": null,
  "gogslug": "",
  "humblestoreid": "",
  "id": 3910
}