{
  "name": "Last KM",
  "slug": "last-km",
  "year": 1995,
  "description": "",
  "banner_url": "",
  "icon_url": "https://lutris.net/games/icon/last-km.png",
  "is_public": true,
  "updated": "2020-05-26T03:35:12.432434Z",
  "provider_games": [
    {
      "name": "Last KM",
      "slug": "lastkm",
      "service": "mame"
    }
  ],
  "steamid": null,
  "gogid": null,
  "gogslug": "",
  "humblestoreid": "",
  "id": 34699
}