{
  "name": "Dungeon Hearts",
  "slug": "dungeon-hearts",
  "year": null,
  "description": "",
  "banner_url": "https://lutris.net/games/banner/dungeon-hearts.jpg",
  "icon_url": "https://lutris.net/games/icon/dungeon-hearts.png",
  "is_public": true,
  "updated": "2020-08-15T23:50:34.665478Z",
  "provider_games": [
    {
      "name": "Dungeon Hearts",
      "slug": "dungeonhearts",
      "service": "humblebundle"
    },
    {
      "name": "Dungeon Hearts",
      "slug": "229520",
      "service": "steam"
    }
  ],
  "steamid": 229520,
  "gogid": null,
  "gogslug": "",
  "humblestoreid": "dungeonhearts",
  "id": 1180
}