{
  "name": "Agent A: A puzzle in disguise",
  "slug": "agent-a-a-puzzle-in-disguise",
  "year": null,
  "description": "",
  "banner_url": "https://lutris.net/games/banner/agent-a-a-puzzle-in-disguise.jpg",
  "icon_url": "https://lutris.net/games/icon/agent-a-a-puzzle-in-disguise.png",
  "is_public": true,
  "updated": "2020-10-08T10:17:10.984626Z",
  "provider_games": [
    {
      "name": "Agent A: A puzzle in disguise",
      "slug": "1243209140",
      "service": "gog"
    },
    {
      "name": "Agent A: A puzzle in disguise",
      "slug": "801480",
      "service": "steam"
    }
  ],
  "steamid": 801480,
  "gogid": 1243209140,
  "gogslug": "agent_a_a_puzzle_in_disguise",
  "humblestoreid": "",
  "id": 33118
}