{
  "name": "Ace of Spades",
  "slug": "ace-of-spades",
  "year": 2012,
  "description": "Say hello to the creative shooter. Ace of Spades: Battle Builder is the first-person shooter that lets you create your battleground, destroy it, then create it again. Up to 32 players choose from seven unique classes and jump into team-based, multiplayer mayhem across an endlessly evolving battlefield, to construct, destruct and take out the opposition.",
  "banner_url": "https://lutris.net/games/banner/ace-of-spades.jpg",
  "icon_url": "https://lutris.net/games/icon/ace-of-spades.png",
  "is_public": true,
  "updated": "2019-01-23T08:28:10.938934Z",
  "provider_games": [
    {
      "name": "Ace of Spades",
      "slug": "224540",
      "service": "steam"
    }
  ],
  "steamid": 224540,
  "gogid": null,
  "gogslug": "",
  "humblestoreid": "",
  "id": 650
}