{
  "name": "Bakugan: Battle Brawlers",
  "slug": "bakugan-battle-brawlers",
  "year": 2006,
  "description": "",
  "banner_url": "https://lutris.net/games/banner/bakugan-battle-brawlers.jpg",
  "icon_url": "",
  "is_public": true,
  "updated": "2020-04-21T14:11:54.358372Z",
  "provider_games": [],
  "steamid": null,
  "gogid": null,
  "gogslug": "",
  "humblestoreid": "",
  "id": 32202
}