{
  "id": 4176,
  "game_id": 1574,
  "game_slug": "master-reboot",
  "name": "Master Reboot",
  "year": null,
  "user": "FakeShemp",
  "runner": "wine",
  "slug": "master-reboot-humble",
  "version": "Humble",
  "description": "",
  "notes": "",
  "created_at": "2017-06-06T18:05:31.836000Z",
  "updated_at": "2018-05-19T03:41:52.454786Z",
  "draft": false,
  "published": true,
  "published_by": null,
  "rating": "",
  "steamid": 251850,
  "gogid": null,
  "gogslug": "",
  "humbleid": "",
  "humblestoreid": "",
  "humblestoreid_real": "",
  "script": {
    "files": [
      {
        "file1": "N/A:Please select the Humble installer"
      }
    ],
    "game": {
      "arch": "win32",
      "exe": "drive_c/Program Files/Master Reboot/Binaries/Win32/MasterReboot.exe",
      "prefix": "$GAMEDIR"
    },
    "installer": [
      {
        "task": {
          "executable": "$file1",
          "name": "wineexec",
          "prefix": "$GAMEDIR"
        }
      },
      {
        "task": {
          "app": "dotnet40",
          "name": "winetricks",
          "prefix": "$GAMEDIR"
        }
      }
    ]
  },
  "content": "files:\n- file1: N/A:Please select the Humble installer\ngame:\n  arch: win32\n  exe: drive_c/Program Files/Master Reboot/Binaries/Win32/MasterReboot.exe\n  prefix: $GAMEDIR\ninstaller:\n- task:\n    executable: $file1\n    name: wineexec\n    prefix: $GAMEDIR\n- task:\n    app: dotnet40\n    name: winetricks\n    prefix: $GAMEDIR\n"
}