{
  "name": "Bullet Heaven 2",
  "slug": "bullet-heaven-2",
  "year": null,
  "description": "",
  "banner_url": "https://lutris.net/games/banner/bullet-heaven-2.jpg",
  "icon_url": "https://lutris.net/games/icon/bullet-heaven-2.png",
  "is_public": true,
  "updated": "2020-10-08T10:14:46.828440Z",
  "provider_games": [
    {
      "name": "Bullet Heaven 2",
      "slug": "412670",
      "service": "steam"
    }
  ],
  "steamid": 412670,
  "gogid": null,
  "gogslug": "",
  "humblestoreid": "",
  "id": 8452
}