{
  "id": 6538,
  "game_id": 2872,
  "game_slug": "frayed-knights-the-skull-of-smakh-daon",
  "name": "Frayed Knights: The Skull of S'makh-Daon",
  "year": null,
  "user": "FakeShemp",
  "runner": "wine",
  "slug": "frayed-knights-the-skull-of-s-groupees",
  "version": "Groupees",
  "description": null,
  "notes": "",
  "created_at": "2017-12-03T11:25:16.003000Z",
  "updated_at": "2018-05-19T03:41:51.940444Z",
  "draft": false,
  "published": true,
  "published_by": null,
  "rating": "",
  "steamid": 314120,
  "gogid": null,
  "gogslug": "",
  "humbleid": "",
  "humblestoreid": "",
  "humblestoreid_real": "",
  "script": {
    "files": [
      {
        "file1": "N/A:Please select the Groupees archive"
      }
    ],
    "game": {
      "arch": "win32",
      "exe": "drive_c/Program Files/Frayed Knights 1/FrayedKnights.exe",
      "prefix": "$GAMEDIR"
    },
    "installer": [
      {
        "extract": {
          "dst": "$CACHE",
          "file": "$file1"
        }
      },
      {
        "task": {
          "args": "/sp- /verysilent /norestart /suppressmsgboxes /nogui",
          "executable": "$CACHE/FK_TSoSD_Setup_v1.06.exe",
          "name": "wineexec",
          "prefix": "$GAMEDIR"
        }
      }
    ]
  },
  "content": "files:\n- file1: N/A:Please select the Groupees archive\ngame:\n  arch: win32\n  exe: drive_c/Program Files/Frayed Knights 1/FrayedKnights.exe\n  prefix: $GAMEDIR\ninstaller:\n- extract:\n    dst: $CACHE\n    file: $file1\n- task:\n    args: /sp- /verysilent /norestart /suppressmsgboxes /nogui\n    executable: $CACHE/FK_TSoSD_Setup_v1.06.exe\n    name: wineexec\n    prefix: $GAMEDIR\n"
}