{
  "id": 23172,
  "game_id": 14254,
  "game_slug": "cuphead",
  "name": "Cuphead",
  "year": 2017,
  "user": "albertMIHAI1222222222222222",
  "runner": "wine",
  "slug": "cuphead-change-me-1",
  "version": "Change Me",
  "description": null,
  "notes": "",
  "created_at": "2020-09-03T13:35:52.097294Z",
  "updated_at": "2020-09-03T13:35:52.097324Z",
  "draft": false,
  "published": false,
  "published_by": null,
  "rating": "",
  "steamid": 268910,
  "gogid": 1963513391,
  "gogslug": "cuphead",
  "humbleid": "",
  "humblestoreid": "",
  "humblestoreid_real": "",
  "script": {
    "files": [
      {
        "install": "N/A:Select the Windows setup file downloaded from GOG"
      }
    ],
    "game": {
      "exe": "drive_c/game/Cuphead.exe",
      "prefix": "$GAMEDIR"
    },
    "installer": [
      {
        "task": {
          "name": "create_prefix",
          "prefix": "$GAMEDIR"
        }
      },
      {
        "task": {
          "args": "/LANG=en /SP- /NOCANCEL /SUPPRESSMSGBOXES /NOGUI /DIR=\"C:/game\"",
          "executable": "install",
          "name": "wineexec",
          "prefix": "$GAMEDIR"
        }
      }
    ]
  },
  "content": "files:\n- install: N/A:Select the Windows setup file downloaded from GOG\ngame:\n  exe: drive_c/game/Cuphead.exe\n  prefix: $GAMEDIR\ninstaller:\n- task:\n    name: create_prefix\n    prefix: $GAMEDIR\n- task:\n    args: /LANG=en /SP- /NOCANCEL /SUPPRESSMSGBOXES /NOGUI /DIR=\"C:/game\"\n    executable: install\n    name: wineexec\n    prefix: $GAMEDIR\n"
}