{
  "name": "BRAINPIPE: A Plunge to Unhumanity",
  "slug": "brainpipe-a-plunge-to-unhumanity",
  "year": null,
  "description": "",
  "banner_url": "https://lutris.net/games/banner/brainpipe-a-plunge-to-unhumanity.jpg",
  "icon_url": "https://lutris.net/games/icon/brainpipe-a-plunge-to-unhumanity.png",
  "is_public": true,
  "updated": "2020-10-08T10:02:14.027991Z",
  "provider_games": [
    {
      "name": "BRAINPIPE: A Plunge to Unhumanity",
      "slug": "35800",
      "service": "steam"
    }
  ],
  "steamid": 35800,
  "gogid": null,
  "gogslug": "",
  "humblestoreid": "",
  "id": 1246
}