{
  "name": "Fantasy Strike",
  "slug": "fantasy-strike",
  "year": null,
  "description": "",
  "banner_url": "https://lutris.net/games/banner/fantasy-strike.jpg",
  "icon_url": "https://lutris.net/games/icon/fantasy-strike.png",
  "is_public": true,
  "updated": "2019-02-05T21:32:07.705006Z",
  "provider_games": [
    {
      "name": "Fantasy Strike",
      "slug": "390560",
      "service": "steam"
    }
  ],
  "steamid": 390560,
  "gogid": null,
  "gogslug": "",
  "humblestoreid": "",
  "id": 15650
}