{
  "name": "Evenicle",
  "slug": "evenicle",
  "year": null,
  "description": "",
  "banner_url": "https://lutris.net/games/banner/evenicle.jpg",
  "icon_url": "https://lutris.net/games/icon/evenicle.png",
  "is_public": true,
  "updated": "2020-10-08T09:17:05.455917Z",
  "provider_games": [
    {
      "name": "Evenicle",
      "slug": "955560",
      "service": "steam"
    }
  ],
  "steamid": 955560,
  "gogid": null,
  "gogslug": "",
  "humblestoreid": "",
  "id": 25511
}