{
  "name": "GOKEN",
  "slug": "goken",
  "year": null,
  "description": "",
  "banner_url": "https://lutris.net/games/banner/goken.jpg",
  "icon_url": "https://lutris.net/games/icon/goken.png",
  "is_public": true,
  "updated": "2020-10-08T10:09:18.195133Z",
  "provider_games": [
    {
      "name": "GOKEN",
      "slug": "671260",
      "service": "steam"
    }
  ],
  "steamid": 671260,
  "gogid": null,
  "gogslug": "",
  "humblestoreid": "",
  "id": 13861
}