{
  "name": "Bug Fables",
  "slug": "bug-fables",
  "year": null,
  "description": "",
  "banner_url": "https://lutris.net/games/banner/bug-fables.jpg",
  "icon_url": "https://lutris.net/games/icon/bug-fables.png",
  "is_public": true,
  "updated": "2020-10-08T10:11:58.763336Z",
  "provider_games": [
    {
      "name": "Bug Fables",
      "slug": "1082710",
      "service": "steam"
    }
  ],
  "steamid": 1082710,
  "gogid": null,
  "gogslug": "",
  "humblestoreid": "",
  "id": 37394
}