{
  "name": "Carnivores: Dinosaur Hunter Reborn",
  "slug": "carnivores-dinosaur-hunter-reborn",
  "year": null,
  "description": "",
  "banner_url": "https://lutris.net/games/banner/carnivores-dinosaur-hunter-reborn.jpg",
  "icon_url": "https://lutris.net/games/icon/carnivores-dinosaur-hunter-reborn.png",
  "is_public": true,
  "updated": "2020-10-08T10:17:26.172544Z",
  "provider_games": [
    {
      "name": "Carnivores: Dinosaur Hunter Reborn",
      "slug": "293520",
      "service": "steam"
    }
  ],
  "steamid": 293520,
  "gogid": null,
  "gogslug": "",
  "humblestoreid": "",
  "id": 9047
}