{
  "name": "Frog & Spiders",
  "slug": "frog-spiders",
  "year": 1981,
  "description": "",
  "banner_url": "https://lutris.net/games/banner/frog-spiders.jpg",
  "icon_url": "https://lutris.net/games/icon/frog-spiders.png",
  "is_public": true,
  "updated": "2020-05-26T03:33:54.020535Z",
  "provider_games": [
    {
      "name": "Frog & Spiders",
      "slug": "fspiderb",
      "service": "mame"
    }
  ],
  "steamid": null,
  "gogid": null,
  "gogslug": "",
  "humblestoreid": "",
  "id": 34152
}