{
  "name": "Faerie Solitaire Remastered",
  "slug": "faerie-solitaire-remastered",
  "year": 2017,
  "description": "This is the Remastered version of Faerie Solitaire. It is a free additional game for current and future owners of the original Faerie Solitaire. If you buy Faerie Solitaire Remastered from this page you will also get the original Faerie Solitaire added to your account.\r\n\r\nhttp://store.steampowered.com/app/38600/Faerie_Solitaire/\r\n\r\nHave magical fun in the addicting Card game, Faerie Solitaire! Find and raise a Faerie pet and repopulate the magical land of Avalon using the resources found by clearing each level.\r\n\r\nEarn enough gold to purchase unique powerups and specialized upgrades, making each stage a breeze. Chain together combos to fill up your energy meter and save the Faeries!\r\n\r\nWith 8 worlds, 40 levels, over 400 hands to play through, loads of upgrades to buy, and one exciting adventure, Faerie Solitaire will have you hooked for months, giving you the very best value over any other game available today.",
  "banner_url": "https://lutris.net/games/banner/faerie-solitaire-remastered.jpg",
  "icon_url": "https://lutris.net/games/icon/faerie-solitaire-remastered.png",
  "is_public": true,
  "updated": "2019-01-23T08:29:27.574631Z",
  "provider_games": [
    {
      "name": "Faerie Solitaire Remastered",
      "slug": "583930",
      "service": "steam"
    }
  ],
  "steamid": 583930,
  "gogid": null,
  "gogslug": "",
  "humblestoreid": "",
  "id": 15340
}