{
  "name": "Biggest Week In Action Sports",
  "slug": "biggest-week-in-action-sports",
  "year": null,
  "description": "",
  "banner_url": "https://lutris.net/games/banner/biggest-week-in-action-sports.jpg",
  "icon_url": "https://lutris.net/games/icon/biggest-week-in-action-sports.png",
  "is_public": true,
  "updated": "2020-10-08T09:56:13.451441Z",
  "provider_games": [
    {
      "name": "Biggest Week In Action Sports",
      "slug": "900030",
      "service": "steam"
    }
  ],
  "steamid": 900030,
  "gogid": null,
  "gogslug": "",
  "humblestoreid": "",
  "id": 30296
}