{
  "name": "Eekeemoo - Splinters of the Dark Shard",
  "slug": "eekeemoo-splinters-of-the-dark-shard",
  "year": null,
  "description": "",
  "banner_url": "https://lutris.net/games/banner/eekeemoo-splinters-of-the-dark-shard.jpg",
  "icon_url": "https://lutris.net/games/icon/eekeemoo-splinters-of-the-dark-shard.png",
  "is_public": true,
  "updated": "2020-10-08T10:14:45.948507Z",
  "provider_games": [
    {
      "name": "Eekeemoo - Splinters of the Dark Shard",
      "slug": "413040",
      "service": "steam"
    }
  ],
  "steamid": 413040,
  "gogid": null,
  "gogslug": "",
  "humblestoreid": "",
  "id": 31427
}