{
  "name": "Eagle Flight",
  "slug": "eagle-flight",
  "year": null,
  "description": "",
  "banner_url": "https://lutris.net/games/banner/eagle-flight.jpg",
  "icon_url": "https://lutris.net/games/icon/eagle-flight.png",
  "is_public": true,
  "updated": "2020-10-08T10:14:53.701072Z",
  "provider_games": [
    {
      "name": "Eagle Flight",
      "slug": "408250",
      "service": "steam"
    }
  ],
  "steamid": 408250,
  "gogid": null,
  "gogslug": "",
  "humblestoreid": "",
  "id": 14143
}