{
  "name": "Air Threat",
  "slug": "air-threat",
  "year": null,
  "description": "",
  "banner_url": "https://lutris.net/games/banner/air-threat.jpg",
  "icon_url": "https://lutris.net/games/icon/air-threat.png",
  "is_public": true,
  "updated": "2020-10-08T09:57:08.709768Z",
  "provider_games": [
    {
      "name": "Air Threat",
      "slug": "853380",
      "service": "steam"
    }
  ],
  "steamid": 853380,
  "gogid": null,
  "gogslug": "",
  "humblestoreid": "",
  "id": 20761
}