{
  "name": "Gunpoint",
  "slug": "gunpoint",
  "year": null,
  "description": "",
  "banner_url": "https://lutris.net/games/banner/gunpoint.jpg",
  "icon_url": "https://lutris.net/games/icon/gunpoint.png",
  "is_public": true,
  "updated": "2020-08-15T23:50:35.069555Z",
  "provider_games": [
    {
      "name": "Gunpoint",
      "slug": "gunpoint",
      "service": "humblebundle"
    },
    {
      "name": "Gunpoint",
      "slug": "206190",
      "service": "steam"
    }
  ],
  "steamid": 206190,
  "gogid": null,
  "gogslug": "",
  "humblestoreid": "gunpoint",
  "id": 1533
}