{
  "name": "Football Manager 2020 Touch",
  "slug": "football-manager-2020-touch",
  "year": null,
  "description": "",
  "banner_url": "https://lutris.net/games/banner/football-manager-2020-touch.jpg",
  "icon_url": "https://lutris.net/games/icon/football-manager-2020-touch.png",
  "is_public": true,
  "updated": "2020-10-08T10:11:33.461039Z",
  "provider_games": [
    {
      "name": "Football Manager 2020 Touch",
      "slug": "1100620",
      "service": "steam"
    }
  ],
  "steamid": 1100620,
  "gogid": null,
  "gogslug": "",
  "humblestoreid": "",
  "id": 30664
}