{
  "name": "Containment Protocol",
  "slug": "containment-protocol",
  "year": null,
  "description": "",
  "banner_url": "https://lutris.net/games/banner/containment-protocol.jpg",
  "icon_url": "https://lutris.net/games/icon/containment-protocol.png",
  "is_public": true,
  "updated": "2020-10-08T10:16:43.835169Z",
  "provider_games": [
    {
      "name": "Containment Protocol",
      "slug": "346300",
      "service": "steam"
    }
  ],
  "steamid": 346300,
  "gogid": null,
  "gogslug": "",
  "humblestoreid": "",
  "id": 22234
}