{
  "name": "Fat Mask",
  "slug": "fat-mask",
  "year": null,
  "description": "",
  "banner_url": "https://lutris.net/games/banner/fat-mask.jpg",
  "icon_url": "https://lutris.net/games/icon/fat-mask.png",
  "is_public": true,
  "updated": "2020-10-08T10:06:54.199893Z",
  "provider_games": [
    {
      "name": "Fat Mask",
      "slug": "516790",
      "service": "steam"
    }
  ],
  "steamid": 516790,
  "gogid": null,
  "gogslug": "",
  "humblestoreid": "",
  "id": 21326
}