{
  "name": "Fitness Dash",
  "slug": "fitness-dash",
  "year": null,
  "description": "",
  "banner_url": "https://lutris.net/games/banner/fitness-dash.jpg",
  "icon_url": "https://lutris.net/games/icon/fitness-dash.png",
  "is_public": true,
  "updated": "2020-10-08T10:02:13.542809Z",
  "provider_games": [
    {
      "name": "Fitness Dash",
      "slug": "37340",
      "service": "steam"
    }
  ],
  "steamid": 37340,
  "gogid": null,
  "gogslug": "",
  "humblestoreid": "",
  "id": 5204
}