{
  "name": "bookSLEEPer",
  "slug": "booksleeper",
  "year": 2017,
  "description": "bookSLEEPer is the story of an undeclared college student who isn't doing so well in school. With finals coming up, she decides to spend her reading week studying. When she accidentally falls asleep on a textbook, she discovers that she can enter the world of a book when she sleeps on it.\r\n\r\nWill our protagonist forge friendships, or even romances, as she explores these books? Will she pass her exams, or will she drop out of college and become a cat lady? The choice is yours!",
  "banner_url": "https://lutris.net/games/banner/booksleeper.jpg",
  "icon_url": "",
  "is_public": true,
  "updated": "2019-01-23T08:28:40.338876Z",
  "provider_games": [],
  "steamid": null,
  "gogid": null,
  "gogslug": "",
  "humblestoreid": "",
  "id": 15652
}