{
  "name": "Baseball Mogul 2017",
  "slug": "baseball-mogul-2017",
  "year": null,
  "description": "",
  "banner_url": "https://lutris.net/games/banner/baseball-mogul-2017.jpg",
  "icon_url": "https://lutris.net/games/icon/baseball-mogul-2017.png",
  "is_public": true,
  "updated": "2020-10-08T10:10:15.386737Z",
  "provider_games": [
    {
      "name": "Baseball Mogul 2017",
      "slug": "658400",
      "service": "steam"
    }
  ],
  "steamid": 658400,
  "gogid": null,
  "gogslug": "",
  "humblestoreid": "",
  "id": 18644
}