{
  "name": "Balloonatics",
  "slug": "balloonatics",
  "year": null,
  "description": "",
  "banner_url": "https://lutris.net/games/banner/balloonatics.jpg",
  "icon_url": "https://lutris.net/games/icon/balloonatics.png",
  "is_public": true,
  "updated": "2020-10-08T09:59:02.349122Z",
  "provider_games": [
    {
      "name": "Balloonatics",
      "slug": "744600",
      "service": "steam"
    }
  ],
  "steamid": 744600,
  "gogid": null,
  "gogslug": "",
  "humblestoreid": "",
  "id": 28108
}