{
  "name": "Game & Watch: Super Mario Bros.",
  "slug": "game-watch-super-mario-bros",
  "year": 1986,
  "description": "Super Mario Bros. for the Game & Watch was a game that was released on the Crystal Screen and New Wide Screen unit.",
  "banner_url": "https://lutris.net/games/banner/game-watch-super-mario-bros.jpg",
  "icon_url": "",
  "is_public": true,
  "updated": "2019-01-23T08:29:37.877644Z",
  "provider_games": [],
  "steamid": null,
  "gogid": null,
  "gogslug": "",
  "humblestoreid": "",
  "id": 23810
}