{
  "name": "Dimahoo",
  "slug": "dimahoo-1",
  "year": 2000,
  "description": "",
  "banner_url": "https://lutris.net/games/banner/dimahoo-1.jpg",
  "icon_url": "https://lutris.net/games/icon/dimahoo-1.png",
  "is_public": true,
  "updated": "2020-05-26T03:33:15.148896Z",
  "provider_games": [
    {
      "name": "Dimahoo",
      "slug": "dimahoo",
      "service": "mame"
    }
  ],
  "steamid": null,
  "gogid": null,
  "gogslug": "",
  "humblestoreid": "",
  "id": 33895
}