{
  "name": "Ace Driver: Racing Evolution",
  "slug": "ace-driver-racing-evolution",
  "year": 1994,
  "description": "Ace Driver is NAMCO's 1994 addition to the F-1 Genre. The 4 teams in the game were, Team Red Lightning, Scuderia Blue Castle, Yellow Cyclone Racing and Green Island Motor Sports. The game was playable for up to 4 competitors. There was also a deluxe cabinet with moving cockpits. Ace Driver consisted of the player selecting \"Beginner Class\", \"Expert Class\" or \"Expert Pro Class\". Ace Driver was also a sequel to Driver's Eyes, an earlier F-1 Simulator on the previous System 21 \"Polygonizer\" system.",
  "banner_url": "https://lutris.net/games/banner/ace-driver-racing-evolution.jpg",
  "icon_url": "https://lutris.net/games/icon/ace-driver-racing-evolution.png",
  "is_public": true,
  "updated": "2020-05-26T03:31:41.113868Z",
  "provider_games": [
    {
      "name": "Ace Driver: Racing Evolution",
      "slug": "acedrvrw",
      "service": "mame"
    }
  ],
  "steamid": null,
  "gogid": null,
  "gogslug": "",
  "humblestoreid": "",
  "id": 29374
}