{
  "name": "Build Wars",
  "slug": "build-wars",
  "year": null,
  "description": "",
  "banner_url": "https://lutris.net/games/banner/build-wars.jpg",
  "icon_url": "https://lutris.net/games/icon/build-wars.png",
  "is_public": true,
  "updated": "2020-10-08T10:08:48.570223Z",
  "provider_games": [
    {
      "name": "Build Wars",
      "slug": "816240",
      "service": "steam"
    }
  ],
  "steamid": 816240,
  "gogid": null,
  "gogslug": "",
  "humblestoreid": "",
  "id": 18283
}