{
  "name": "Hyper Dragon Ball Z",
  "slug": "hyper-dragon-ball-z",
  "year": 2017,
  "description": "Team Z2 is proud to announce the next official update to our from-fans-to-fans fighting game built on the MUGEN engine - Hyper Dragon Ball Z!\r\nCurrent Main Hyper DBZ  dev team is: Balthazar, Iced, Just No Point, XGargoyle, Daeron, Barker, AlexSin, HQ and of course Cybaster\r\nIf you want to support the ongoing project, if only for a little bit, please concider becoming one of Balthazar's Patreons:      https://www.patreon.com/TheBalthazar\r\nOr for a single donation:     http://network.mugenguild.com/balthazar/paypal.html\r\n´Official´ Hyper DBZ Facebook:     https://www.facebook.com/HyperDBZ/\r\n'Official' Hyper DBZ Twitter:     https://twitter.com/z2_team\r\nMugen Fighters Guild:        http://mugenguild.com/forum/hyper-dbz.412\r\nPatreon:      https://www.patreon.com/TheBalthazar\r\nTwitter:     https://twitter.com/\r\nDiscord:     https://discord.gg/3YrQZtw\r\n\r\nDisclaimer:\r\nHyper Dragon Ball Z is a non-profit fan game, made by fans for fans. If you ever had to click a AD.fly link or pay for it, you are being fooled! Follow us at Mugenguild.com\r\nDragon Ball is copyright of Akira Toryama and TOEI TV. Please support the official releases!\r\nA big thanks to Capcom, Namco, Akira toryama and many others without which this game wouldn't be possible.\r\nAnd last but not least, a special thanks to YOU, for your continued support!",
  "banner_url": "https://lutris.net/games/banner/hyper-dragon-ball-z.jpg",
  "icon_url": "",
  "is_public": true,
  "updated": "2020-04-15T07:39:53.256482Z",
  "provider_games": [],
  "steamid": null,
  "gogid": null,
  "gogslug": "",
  "humblestoreid": "",
  "id": 31246
}