{
  "name": "GRIS",
  "slug": "gris",
  "year": 2018,
  "description": "Gris is an indie platform-adventure game by Spanish indie developer Nomada Studio and published by Devolver Digital for Nintendo Switch, macOS and Microsoft Windows. The game was released on 13 December 2018.",
  "banner_url": "https://lutris.net/games/banner/gris.jpg",
  "icon_url": "https://lutris.net/games/icon/gris.png",
  "is_public": true,
  "updated": "2020-05-31T00:17:43.951426Z",
  "provider_games": [
    {
      "name": "GRIS",
      "slug": "2078272297",
      "service": "gog"
    },
    {
      "name": "GRIS",
      "slug": "683320",
      "service": "steam"
    }
  ],
  "steamid": 683320,
  "gogid": 2078272297,
  "gogslug": "gris",
  "humblestoreid": "",
  "id": 24246
}