{
  "id": 9703,
  "game_id": 20875,
  "game_slug": "world-rally-fever-born-on-the-road",
  "name": "World Rally Fever: Born on the Road",
  "year": 1996,
  "user": "miky_kr5",
  "runner": "dosbox",
  "slug": "world-rally-fever-born-on-the-gog",
  "version": "GOG",
  "description": null,
  "notes": "",
  "created_at": "2018-08-12T00:31:02.836632Z",
  "updated_at": "2018-08-12T14:57:31.148213Z",
  "draft": false,
  "published": true,
  "published_by": null,
  "rating": "",
  "steamid": null,
  "gogid": 1207658990,
  "gogslug": "world_rally_fever_born_on_the_road",
  "humbleid": "",
  "humblestoreid": "",
  "humblestoreid_real": "",
  "script": {
    "files": [
      {
        "setup_wr": "N/A:Please select the GOG installer"
      }
    ],
    "game": {
      "main_file": "RALLY.EXE"
    },
    "installer": [
      {
        "task": {
          "executable": "$setup_wr",
          "name": "wine.wineexec",
          "prefix": "$GAMEDIR"
        }
      },
      {
        "write_file": {
          "content": "[ipx] # ipx: Enable ipx over UDP/IP emulation.\nipx=false\n\n[autoexec] # Lines in this section will be run at startup. # You can put your\n\nMOUNT lines here. @echo off\n\nmount c \"./\" imgmount d \"c:\\wrf.dat\" -t iso\nc:\nrally\nexit\n",
          "file": "$GAMEDIR/dosboxWRF.conf",
          "mode": "a"
        }
      }
    ]
  },
  "content": "files:\n- setup_wr: N/A:Please select the GOG installer\ngame:\n  main_file: RALLY.EXE\ninstaller:\n- task:\n    executable: $setup_wr\n    name: wine.wineexec\n    prefix: $GAMEDIR\n- write_file:\n    content: '[ipx] # ipx: Enable ipx over UDP/IP emulation.\n\n      ipx=false\n\n\n      [autoexec] # Lines in this section will be run at startup. # You can put your\n\n\n      MOUNT lines here. @echo off\n\n\n      mount c \"./\" imgmount d \"c:\\wrf.dat\" -t iso\n\n      c:\n\n      rally\n\n      exit\n\n      '\n    file: $GAMEDIR/dosboxWRF.conf\n    mode: a\n"
}