{
  "name": "Hashihime of the Old Book Town",
  "slug": "hashihime-of-the-old-book-town",
  "year": 2019,
  "description": "Jinbochou, Tokyo\r\nJune 1922, Taisho Era\r\nThe Rainy Season\r\n\r\nTamamori came to Tokyo with his sights set on getting accepted to the Imperial University. However, he doesn't pass the entrance exam, and is so undisciplined and wrapped up in endless fantasies that he's kicked out of his boarding house after only two years. Through a stroke of luck, Tamamori begins to live and work at Umebachidou, a used book store. There, he enjoys whiling away his time as a \"student preparing for entrance exams\" and taking advantage of friends who are also from his hometown. But one right after the other, mysterious deaths befall those friends and, realizing he's been repeating the same rainy three days over and over again, Tamamori finds himself racing throughout Jinbochou to save them.\r\n\r\nIn this pop-occult mystery that surrounds the deaths of his friends... What is real, and what is a hallucination?",
  "banner_url": "https://lutris.net/games/banner/hashihime-of-the-old-book-town.jpg",
  "icon_url": "https://lutris.net/games/icon/hashihime-of-the-old-book-town.png",
  "is_public": true,
  "updated": "2019-10-22T22:06:47.966427Z",
  "provider_games": [
    {
      "name": "Hashihime of the Old Book Town",
      "slug": "1039940",
      "service": "steam"
    }
  ],
  "steamid": 1039940,
  "gogid": null,
  "gogslug": "",
  "humblestoreid": "",
  "id": 29461
}