{
  "name": "Indian Battle",
  "slug": "indian-battle",
  "year": 1980,
  "description": "",
  "banner_url": "https://lutris.net/games/banner/indian-battle.jpg",
  "icon_url": "https://lutris.net/games/icon/indian-battle.png",
  "is_public": true,
  "updated": "2020-05-26T03:34:42.529075Z",
  "provider_games": [
    {
      "name": "Indian Battle",
      "slug": "indianbt",
      "service": "mame"
    }
  ],
  "steamid": null,
  "gogid": null,
  "gogslug": "",
  "humblestoreid": "",
  "id": 34483
}