{
  "name": "Dungeons & Lesbians",
  "slug": "dungeons-lesbians",
  "year": 2018,
  "description": "Dungeons & Lesbians is the story of five lesbians, with microphones of varying quality, actually organizing enough to record and distribute their Dungeons & Dragons: 5th Edition game.",
  "banner_url": "https://lutris.net/games/banner/dungeons-lesbians.jpg",
  "icon_url": "",
  "is_public": false,
  "updated": "2020-09-09T20:12:05.163828Z",
  "provider_games": [],
  "steamid": null,
  "gogid": null,
  "gogslug": "",
  "humblestoreid": "",
  "id": 38744
}