{
  "id": 20357,
  "game_id": 13535,
  "game_slug": "harry-potter-and-the-chamber-of-secrets",
  "name": "Harry Potter and the Chamber of Secrets",
  "year": 2002,
  "user": "Asayu",
  "runner": "wine",
  "slug": "harry-potter-and-the-chamber-pc-retail-cd",
  "version": "PC Retail CD",
  "description": "This version is intented to be used with the original cd of the game.\r\nThe installer will ask you where is the AutoRun.exe file, as well as your language.\r\nIt's important to choose the very same language you intend to play the game in as the game path changes based on which version you install.",
  "notes": "The launcher's main menu is not centered, it's a known bug in wine and is still not fixed to this day.\r\nHowever this doesn't impact the game in any way, you can still create or load a new game. The rest of the game is flawless.\r\nThe game is preconfigured with the highest settings so there's no need to tweak them unless you want to.",
  "created_at": "2020-05-09T19:12:42.365679Z",
  "updated_at": "2020-05-09T19:12:42.365701Z",
  "draft": false,
  "published": false,
  "published_by": null,
  "rating": "",
  "steamid": null,
  "gogid": null,
  "gogslug": "",
  "humbleid": "",
  "humblestoreid": "",
  "humblestoreid_real": "",
  "script": {
    "files": [
      {
        "noCDPatch": {
          "filename": "nocd.7z",
          "url": "https://files.lonebullet.com/harry-potter-the-chamber-of-secrets/cracks/harry-potter-and-the-chamber-of-secrets-v10-english-no-cd.zip?"
        }
      }
    ],
    "game": {
      "arch": "win32",
      "exe": "$GAMEDIR/drive_c/Program Files/EA Games/$INPUT_LANG/system/Game.exe",
      "prefix": "$GAMEDIR"
    },
    "install_complete_text": "Installation complete! Enjoy!",
    "installer": [
      {
        "insert-disc": {
          "requires": "AutoRun.exe"
        }
      },
      {
        "input_menu": {
          "description": "Choose the language you intend to install the game in. A mismatch between this setting and the game own setting will result in a failed installation",
          "id": "LANG",
          "options": [
            {
              "Harry Potter and the Chamber of Secrets": "English"
            },
            {
              "Harry Potter et la Chambre des Secrets ": "Français"
            },
            {
              "Harry Potter und die Kammer des Schreckens": "Deutsch"
            },
            {
              "Harry Potter en de Geheime Kamer": "Nederlands"
            }
          ],
          "preselect": "Harry Potter et la Chambre des Secrets "
        }
      },
      {
        "task": {
          "arch": "win32",
          "description": "Creating Wine prefix",
          "install_gecko": false,
          "install_mono": false,
          "name": "create_prefix",
          "prefix": "$GAMEDIR"
        }
      },
      {
        "task": {
          "arch": "win32",
          "description": "Click the 'no' button on the 'launch the game after install ?' window",
          "executable": "$DISC/AutoRun.exe",
          "name": "wineexec",
          "working_dir": "$DISC"
        }
      },
      {
        "execute": {
          "command": "mkdir $GAMEDIR/Temp"
        }
      },
      {
        "move": {
          "dst": "$GAMEDIR/Temp",
          "src": "noCDPatch"
        }
      },
      {
        "execute": {
          "command": "7z x -plonebullet $GAMEDIR/Temp/nocd.7z -o$GAMEDIR/Temp -aoa;7z x $GAMEDIR/Temp/harry-potter-and-the-chamber-of-secrets-v10-english-no-cd.zip -o$GAMEDIR/\"drive_c/Program Files/EA Games/$INPUT_LANG/system\" -aoa;rm -rf $GAMEDIR/Temp;mkdir \"$GAMEDIR/drive_c/users/$USER/My Documents/Harry Potter II\""
        }
      },
      {
        "execute": {
          "command": "echo -e \"[URL]\\nProtocol=unreal\\nProtocolDescription=Unreal Protocol\\nName=Player\\nMap=autoplay.unr\\nLocalMap=Startup.unr\\nHost=\\nPortal=\\nMapExt=unr\\nSaveExt=usa\\nPort=7777\\nClass=Engine.Playerpawn\\n[FirstRun]\\nFirstRun=433\\nReconfig=1\\nForceSoftware=0\\n[FrontEnd]\\nEASplashWaitTime=3\\nWBSplashWaitTime=3\\nLaunchCode=0\\nUseSaveSlot=1\\n[Engine.Engine]\\nGameRenderDevice=D3DDrv.D3DRenderDevice\\nAudioDevice=ALAudio.ALAudioSubsystem\\nNetworkDevice=IpDrv.TcpNetDriver\\nDemoRecordingDevice=Engine.DemoRecDriver\\nConsole=HGame.HPConsole\\nLanguage=fre\\nGameEngine=Engine.GameEngine\\nEditorEngine=Editor.EditorEngine\\nWindowedRenderDevice=SoftDrv.SoftwareRenderDevice\\nRenderDevice=GlideDrv.GlideRenderDevice\\nDefaultGame=Engine.GameInfo\\nDefaultServerGame=Engine.GameInfo\\nViewportManager=WinDrv.WindowsClient\\nRender=Render.Render\\nInput=Engine.Input\\nCanvas=Engine.Canvas\\nRunCount=61\\n[Core.System]\\nPurgeCacheDays=30\\nSavePath=C:/users/$USER/My Documents/Harry Potter II/Save/Slot1\\nCachePath=../Cache\\nCacheExt=.uxx\\nPaths=../System/*.u\\nPaths=../Maps/*.unr\\nPaths=../Textures/*.utx\\nPaths=../Sounds/*.uax\\nPaths=../Music/*.umx\\nPaths=C:/users/$USER/My Documents/Harry Potter II/Save/Slot1/*.usa\\nSuppress=DevLoad\\nSuppress=DevSave\\nSuppress=DevNetTraffic\\nSuppress=DevGarbage\\nSuppress=DevKill\\nSuppress=DevReplace\\nSuppress=DevSound\\nSuppress=DevCompile\\nSuppress=DevBind\\nSuppress=DevBsp\\nSuppress=ScriptWarning\\nSuppress=Localization\\n[Engine.GameEngine]\\nCacheSizeMegs=4\\nUseSound=True\\nServerActors=IpDrv.UdpBeacon\\nServerActors=IpServer.UdpServerQuery\\nServerActors=IpServer.UdpServerUplink MasterServerAddress=unreal.epicgames.com MasterServerPort=27900\\nServerActors=IpServer.UdpServerUplink MasterServerAddress=master0.gamespy.com MasterServerPort=27900\\nServerActors=IpServer.UdpServerUplink MasterServerAddress=master.mplayer.com MasterServerPort=27900\\nServerActors=UWeb.WebServer\\n[WinDrv.WindowsClient]\\nWindowedViewportX=792\\nWindowedViewportY=573\\nWindowedColorBits=32\\nFullscreenViewportX=1024\\nFullscreenViewportY=768\\nFullscreenColorBits=32\\nBrightness=0.4\\nMipFactor=1\\nUseDirectDraw=True\\nUseJoystick=True\\nCaptureMouse=True\\nStartupFullscreen=True\\nCurvedSurfaces=False\\nLowDetailTextures=False\\nScreenFlashes=True\\nNoLighting=False\\nSlowVideoBuffering=True\\nDeadZoneXYZ=True\\nDeadZoneRUV=False\\nInvertVertical=False\\nScaleXYZ=1000\\nScaleRUV=2000\\nMinDesiredFrameRate=30\\nDecals=True\\nNoDynamicLights=False\\nParticleDensity=1\\nUseDirectInput=False\\nNoFractalAnim=False\\nSkinDetail=High\\nTextureDetail=High\\n[XDrv.XClient]\\nWindowedViewportX=640\\nWindowedViewportY=480\\nWindowedColorBits=16\\nFullscreenViewportX=640\\nFullscreenViewportY=480\\nFullscreenColorBits=32\\nBrightness=0.500000\\nMipFactor=1.000000\\nSlowVideoBuffering=False\\nStartupFullscreen=True\\nCurvedSurfaces=False\\nCaptureMouse=True\\nLowDetailTextures=False\\nScreenFlashes=True\\nNoLighting=False\\nDeadZoneXYZ=True\\nDeadZoneRUV=False\\nInvertVertical=False\\nScaleXYZ=1000.0\\nScaleRUV=2000.0\\nMinDesiredFrameRate=30.0\\n[Engine.Player]\\nConfiguredInternetSpeed=2600\\nConfiguredLanSpeed=20000\\n[Audio.GenericAudioSubsystem]\\nUseFilter=True\\nUseSurround=False\\nUseStereo=True\\nUseCDMusic=False\\nUseDigitalMusic=False\\nUseSpatial=False\\nUseReverb=False\\nUse3dHardware=False\\nLowSoundQuality=False\\nReverseStereo=False\\nLatency=40\\nOutputRate=22050Hz\\nChannels=16\\nMusicVolume=128\\nSoundVolume=200\\nAmbientFactor=0.7\\n[ALAudio.ALAudioSubsystem]\\nUseEAX=False\\nCompatibilityMode=False\\nUsePrecache=False\\nReverseStereo=False\\nChannels=32\\nMusicVolume=0.52\\nSoundVolume=0.9\\nDopplerFactor=1\\nRollOff=1\\n[IpDrv.TcpNetDriver]\\nAllowDownloads=True\\nConnectionTimeout=15.0\\nInitialConnectTimeout=300.0\\nAckTimeout=1.0\\nKeepAliveTime=0.2\\nMaxClientRate=20000\\nSimLatency=0\\nRelevantTimeout=5.0\\nSpawnPrioritySeconds=1.0\\nServerTravelPause=4.0\\nNetServerMaxTickRate=20\\nLanServerMaxTickRate=35\\nDownloadManagers=IpDrv.HTTPDownload\\nDownloadManagers=Engine.ChannelDownload\\n[IpDrv.HTTPDownload]\\nRedirectToURL=\\nProxyServerHost=\\nProxyServerPort=3128\\nUseCompression=True\\n[Engine.DemoRecDriver]\\nDemoSpectatorClass=HGame.harry\\nMaxClientRate=25000\\nConnectionTimeout=15.0\\nInitialConnectTimeout=500.0\\nAckTimeout=1.0\\nKeepAliveTime=1.0\\nSimLatency=0\\nRelevantTimeout=5.0\\nSpawnPrioritySeconds=1.0\\nServerTravelPause=4.0\\nNetServerMaxTickRate=60\\nLanServerMaxTickRate=60\\n[Engine.GameReplicationInfo]\\nServerName=Another UT Server\\nShortName=UT Server\\n[IpDrv.TcpipConnection]\\nSimPacketLoss=0\\nSimLatency=0\\n[IpServer.UdpServerQuery]\\nGameName=ut\\n[IpDrv.UdpBeacon]\\nDoBeacon=True\\nBeaconTime=0.50\\nBeaconTimeout=5.0\\nBeaconProduct=ut\\n[SoftDrv.SoftwareRenderDevice]\\nTranslucency=True\\nVolumetricLighting=True\\nShinySurfaces=True\\nCoronas=False\\nHighDetailActors=False\\nHighResTextureSmooth=True\\nLowResTextureSmooth=False\\nFastTranslucency=True\\n[GlideDrv.GlideRenderDevice]\\nTranslucency=True\\nVolumetricLighting=True\\nShinySurfaces=True\\nCoronas=True\\nHighDetailActors=True\\nDetailBias=-1.500000\\nRefreshRate=60Hz\\nDetailTextures=True\\nFastUglyRefresh=False\\nScreenSmoothing=True\\nResolution=Default\\n[MetalDrv.MetalRenderDevice]\\nTranslucency=True\\nVolumetricLighting=True\\nShinySurfaces=True\\nCoronas=True\\nHighDetailActors=True\\nDetailTextures=False\\n[OpenGLDrv.OpenGLRenderDevice]\\nTranslucency=True\\nVolumetricLighting=True\\nShinySurfaces=True\\nCoronas=True\\nHighDetailActors=True\\nDetailTextures=True\\n[D3DDrv.D3DRenderDevice]\\nTranslucency=True\\nVolumetricLighting=True\\nShinySurfaces=True\\nCoronas=True\\nHighDetailActors=True\\nUseMipmapping=True\\nUseTrilinear=False\\nUseMultitexture=True\\nUsePageFlipping=True\\nUsePalettes=True\\nUseFullscreen=true\\nUseGammaCorrection=True\\nDetailTextures=False\\nUse3dfx=False\\nUseTripleBuffering=True\\nUsePrecache=False\\nUse32BitTextures=False\\nDescFlags=1\\ndwDeviceId=7815\\ndwVendorId=4318\\nUse32BitZBuffer=False\\nUseVertexFog=False\\nUseAGPTextures=False\\nUseVideoMemoryVB=False\\nUseVSync=False\\nDescription=NVIDIA GeForce RTX 2080\\n[SglDrv.SglRenderDevice]\\nTranslucency=True\\nVolumetricLighting=False\\nShinySurfaces=False\\nCoronas=True\\nHighDetailActors=False\\nColorDepth=32\\nDetailTextures=False\\nFastUglyRefresh=False\\nTextureDetailBias=Near\\nVertexLighting=False\\n[Editor.EditorEngine]\\nUseSound=True\\nCacheSizeMegs=6\\nGridEnabled=True\\nSnapVertices=True\\nSnapDistance=10.000000\\nGridSize=(X=16.000000\\nY=16.000000\\nZ=16.000000)\\nRotGridEnabled=True\\nRotGridSize=(Pitch=1024\\nYaw=1024\\nRoll=1024)\\nGameCommandLine=-log\\nFovAngleDegrees=90.000000\\nGodMode=True\\nAutoSave=False\\nAutoSaveTimeMinutes=5\\nAutoSaveIndex=6\\nC_WorldBox=(R=0\\nG=0\\nB=107\\nA=0)\\nC_GroundPlane=(R=0\\nG=0\\nB=63\\nA=0)\\nC_GroundHighlight=(R=0\\nG=0\\nB=127\\nA=0)\\nC_BrushWire=(R=255\\nG=63\\nB=63\\nA=0)\\nC_Pivot=(R=0\\nG=255\\nB=0\\nA=0)\\nC_Select=(R=0\\nG=0\\nB=127\\nA=0)\\nC_AddWire=(R=127\\nG=127\\nB=255\\nA=0)\\nC_SubtractWire=(R=255\\nG=192\\nB=63\\nA=0)\\nC_GreyWire=(R=163\\nG=163\\nB=163\\nA=0)\\nC_Invalid=(R=163\\nG=163\\nB=163\\nA=0)\\nC_ActorWire=(R=127\\nG=63\\nB=0\\nA=0)\\nC_ActorHiWire=(R=255\\nG=127\\nB=0\\nA=0)\\nC_White=(R=255\\nG=255\\nB=255\\nA=0)\\nC_SemiSolidWire=(R=127\\nG=255\\nB=0\\nA=0)\\nC_NonSolidWire=(R=63\\nG=192\\nB=32\\nA=0)\\nC_WireGridAxis=(R=119\\nG=119\\nB=119\\nA=0)\\nC_ActorArrow=(R=163\\nG=0\\nB=0\\nA=0)\\nC_ScaleBox=(R=151\\nG=67\\nB=11\\nA=0)\\nC_ScaleBoxHi=(R=223\\nG=149\\nB=157\\nA=0)\\nC_Mover=(R=255\\nG=0\\nB=255\\nA=0)\\nC_OrthoBackground=(R=163\\nG=163\\nB=163\\nA=0)\\nC_Current=(R=0\\nG=0\\nB=0\\nA=0)\\nC_BrushVertex=(R=0\\nG=0\\nB=0\\nA=0)\\nC_BrushSnap=(R=0\\nG=0\\nB=0\\nA=0)\\nC_Black=(R=0\\nG=0\\nB=0\\nA=0)\\nC_Mask=(R=0\\nG=0\\nB=0\\nA=0)\\nC_WireBackground=(R=0\\nG=0\\nB=0\\nA=0)\\nC_ZoneWire=(R=0\\nG=0\\nB=0\\nA=0)\\nEditPackages=Core\\nEditPackages=Engine\\nEditPackages=Editor\\nEditPackages=UWindow\\nEditPackages=Fire\\nEditPackages=UnrealShare\\nEditPackages=HPSounds\\nEditPackages=HPModels\\nEditPackages=HPParticle\\nEditPackages=HProps\\nEditPackages=HGame\\n[Engine.GameInfo]\\nbLowGore=False\\nbVeryLowGore=False\\n[HGame.HPConsole]\\nbDebugMode=False\\nRootWindow=UWindow.UWindowRootWindow\\nMouseScale=0.6\\nShowDesktop=False\\nbShowConsole=False\\nUWindowKey=IK_None\\n[UBrowser.UBrowserMainClientWindow]\\nLANTabName=UBrowserLAN\\nServerListNames[0]=UBrowserUT\\nServerListNames[1]=UBrowserLAN\\nServerListNames[2]=UBrowserPopulated\\nServerListNames[3]=UBrowserDeathmatch\\nServerListNames[4]=UBrowserTeamGames\\nServerListNames[5]=UBrowserCTF\\nServerListNames[6]=UBrowserDOM\\nServerListNames[7]=UBrowserAS\\nServerListNames[8]=UBrowserLMS\\nServerListNames[9]=UBrowserAll\\nServerListNames[10]=None\\nServerListNames[11]=None\\nServerListNames[12]=None\\nServerListNames[13]=None\\nServerListNames[14]=None\\nServerListNames[15]=None\\nServerListNames[16]=None\\nServerListNames[17]=None\\nServerListNames[18]=None\\nServerListNames[19]=None\\n[UBrowserUT]\\nListFactories[0]=UBrowser.UBrowserSubsetFact\\nSupersetTag=UBrowserAll\\nbCompatibleServersOnly=True\\n[UBrowserLAN]\\nListFactories[0]=UBrowser.UBrowserLocalFact\\nBeaconProduct=ut\\nURLAppend=?LAN\\nAutoRefreshTime=10\\nbNoAutoSort=True\\n[UWeb.WebServer]\\nApplications[0]=UTServerAdmin.UTServerAdmin\\nApplicationPaths[0]=/ServerAdmin\\nApplications[1]=UTServerAdmin.UTImageServer\\nApplicationPaths[1]=/images\\nDefaultApplication=0\\nbEnabled=False\\n[UBrowser.UBrowserHTTPClient]\\nProxyServerAddress=\\nProxyServerPort=\\n[UTServerAdmin.UTServerAdmin]\\nAdminUsername=admin\\nAdminPassword=admin\\n[optionsettings]\\nMaxRes=1024\\nshadowsOn=true\\n[CARDCAP]\\nVRAM=4191231\\n[WindowPositions]\\nGameLog=(X=0,Y=0,XL=512,YL=256)\\nFrontEndPageConfigVideo=(X=0,Y=0,XL=477,YL=419)\\nFrontEndPageConfig=(X=0,Y=0,XL=480,YL=450)\\nFrontEndPageMainMenu=(X=269,Y=101,XL=486,YL=566)\\nFrontEndDialog=(X=305,Y=107,XL=486,YL=581)\\nFrontEndPageNewGame=(X=0,Y=0,XL=482,YL=419)\\nFrontEndPageLoadGame=(X=0,Y=0,XL=482,YL=419)\\n[HGame.baseConsole]\\nbDebugMode=False\\nbUseSystemFonts=True\\n[UWindow.WindowConsole]\\nConsoleKey=192\\n[UWindow.UWindowRootWindow]\\nGUIScale=1.6\\nLookAndFeelClass=UWindow.UWindowWin95LookAndFeel\\n\" > \"$GAMEDIR/drive_c/users/$USER/My Documents/Harry Potter II/Game.ini\""
        }
      },
      {
        "execute": {
          "command": "echo -e \"[DefaultPlayer]\\nName=Player\\nClass=HGame.harry\\nteam=255\\n\\n[Engine.Input]\\nAliases[0]=(Command=\\\"Button bFire | Fire\\\",Alias=Fire)\\nAliases[1]=(Command=\\\"Button bAltFire | AltFire\\\",Alias=AltFire)\\nAliases[2]=(Command=\\\"Axis aBaseY  Speed=+300.0\\\",Alias=MoveForward)\\nAliases[3]=(Command=\\\"Axis aBaseY  Speed=-300.0\\\",Alias=MoveBackward)\\nAliases[4]=(Command=\\\"Axis aBaseX Speed=-200.0\\\",Alias=RotLeft)\\nAliases[5]=(Command=\\\"Axis aBaseX  Speed=+200.0\\\",Alias=RotRight)\\nAliases[6]=(Command=\\\"Axis aStrafe Speed=-300.0\\\",Alias=StrafeLeft)\\nAliases[7]=(Command=\\\"Axis aStrafe Speed=+300.0\\\",Alias=StrafeRight)\\nAliases[8]=(Command=\\\"Jump | Axis aUp Speed=+300.0 | Button bSpellBallAction\\\",Alias=Jump)\\nAliases[9]=(Command=\\\"Button bDuck | Axis aUp Speed=-300.0\\\",Alias=Duck)\\nAliases[10]=(Command=\\\"Button bLook\\\",Alias=Look)\\nAliases[11]=(Command=\\\"Toggle bLook\\\",Alias=LookToggle)\\nAliases[12]=(Command=\\\"ActivateItem\\\",Alias=InventoryActivate)\\nAliases[13]=(Command=\\\"NextItem\\\",Alias=InventoryNext)\\nAliases[14]=(Command=\\\"PrevItem\\\",Alias=InventoryPrevious)\\nAliases[15]=(Command=\\\"Axis aLookUp Speed=+100.0\\\",Alias=LookUp)\\nAliases[16]=(Command=\\\"Axis aLookUp Speed=-100.0\\\",Alias=LookDown)\\nAliases[17]=(Command=\\\"Button bSnapLevel\\\",Alias=CenterView)\\nAliases[18]=(Command=\\\"Button bRun\\\",Alias=Walking)\\nAliases[19]=(Command=\\\"Button bStrafe\\\",Alias=Strafe)\\nAliases[20]=(Command=\\\"\\\",Alias=None)\\nAliases[21]=(Command=\\\"ActivateTranslator\\\",Alias=ActivateTranslator)\\nAliases[22]=(Command=\\\"ActivateHint\\\",Alias=ActivateHint)\\nAliases[23]=(Command=\\\"Button bFreeLook\\\",Alias=FreeLook)\\nAliases[24]=(Command=\\\"ViewClass Pawn\\\",Alias=ViewTeam)\\nAliases[25]=(Command=\\\"Axis aForward  Speed=+300.0\\\",Alias=MoveForward)\\nAliases[26]=(Command=\\\"Axis aForward  Speed=-150.0\\\",Alias=MoveBackward)\\nAliases[27]=(Command=\\\"\\\",Alias=None)\\nAliases[28]=(Command=\\\"\\\",Alias=None)\\nAliases[29]=(Command=\\\"\\\",Alias=None)\\nAliases[30]=(Command=\\\"\\\",Alias=None)\\nAliases[31]=(Command=\\\"\\\",Alias=None)\\nAliases[32]=(Command=\\\"\\\",Alias=None)\\nAliases[33]=(Command=\\\"\\\",Alias=None)\\nAliases[34]=(Command=\\\"\\\",Alias=None)\\nAliases[35]=(Command=\\\"\\\",Alias=None)\\nAliases[36]=(Command=\\\"\\\",Alias=None)\\nAliases[37]=(Command=\\\"\\\",Alias=None)\\nAliases[38]=(Command=\\\"\\\",Alias=None)\\nAliases[39]=(Command=\\\"\\\",Alias=None)\\nRightMouse=jump | Button bBroomAction | Button bDuelCycleSpell\\nLeftMouse=AltFire | Button bBroomAction | Button bVendorReply\\nMiddleMouse=\\nTab=button bOpenMap\\nEnter=button bSkipCutScene\\nShift=\\nCtrl=BUTTON BBROOMACTION | JUMP\\nAlt=AltFire\\nPause=\\nCapsLock=\\nEscape=quit\\nSpace=BUTTON BDUELCYCLESPELL | BUTTON BDRINKWIGGENWELL\\nPageDown=\\nEnd=\\nLeft=RotLeft | Button bBroomYawLeft | Button bSpellLessonLeft\\nUp=BUTTON BSPELLLESSONUP\\nRight=RotRight | Button bBroomYawRight | Button bSpellLessonRight\\nDown=MoveBackward | Button bBroomPitchDown | Button bSpellLessonDown\\nInsert=\\nDelete=\\n0=\\n1=Button bDuelRictusempra\\n2=Button bDuelMimblewimble\\n3=Button bDuelExpelliarmus\\n4=\\n5=\\n6=\\n7=\\n8=\\n9=\\nLeftBracket=\\nRightBracket=\\nG=\\nM=\\nO=\\nT=\\nZ=MOVEFORWARD | BUTTON BBROOMPITCHUP\\nF1=\\nF2=\\nF3=\\nF4=\\nF5=\\nF6=\\nF7=\\nF8=\\nF9=\\nF10=\\nF11=\\nF12=\\nEquals=\\nComma=\\nMinus=\\nPeriod=StrafeRight\\nSlash=\\nLeftBracket=\\nBackslash=\\nRightBracket=\\nMouseX=Axis aMouseX Speed=4.0 | Axis aBroomYaw Speed=4.0\\nMouseY=Axis aMouseY Speed=4.0 | Axis aBroomPitch Speed=-4.0\\nMouseW=\\nNone=\\nCancel=\\nBackspace=\\nPageUp=\\nhome=\\nSelect=\\nPrint=\\nExecute=\\nPrintScrn=\\nHelp=\\nA=StrafeLeft\\nB=\\nC=\\nD=StrafeRight\\nE=\\nF=\\nH=\\ni=\\nj=\\nK=\\nL=\\nO=\\nP=\\nQ=STRAFELEFT\\nR=\\nS=MoveBackward\\nU=\\nV=\\nW=MOVEFORWARD | BUTTON BBROOMPITCHUP\\nX=\\nY=\\nNumPad0=\\nNumPad1=\\nNumPad2=\\nNumPad3=\\nNumPad4=\\nNumPad5=\\nNumPad6=\\nNumPad7=\\nNumPad8=\\nNumPad9=\\nGreyStar=\\nSeparator=\\nNumPadPeriod=\\nGreySlash=\\nF13=\\nF14=\\nF15=\\nF16=\\nF17=\\nF18=\\nF19=\\nF20=\\nF21=\\nF22=\\nF23=\\nF24=\\nNumLock=\\nScrollLock=\\nLShift=\\nRShift=\\nLControl=\\nRControl=\\nSemicolon=\\nTilde=\\nSingleQuote=\\nAttn=\\nCrSel=\\nExSel=\\nErEof=\\nPlay=\\nZoom=\\nNoName=\\nPA1=\\nOemClear=\\nMouseZ=\\nMouseWheelDown=\\nMouseWheelUp=\\nJoy1=\\nJoy2=\\nJoy3=\\nJoy4=\\nJoy5=\\nJoy6=\\nJoy7=\\nJoy8=\\nJoy9=\\nJoy10=\\nJoy11=\\nJoy12=\\nJoy13=\\nJoy14=\\nJoy15=\\nJoy16=\\nJoyX=Axis aBaseX speed=1 | Axis aJoyBroomYaw Speed=2.0 | Axis aSpellLessonX\\nJoyY=Axis aBaseY speed=2 | Axis aJoyBroomPitch Speed=-2.0 | Axis aSpellLessonY\\nJoyZ=\\nJoyR=\\nJoyU=Axis aturn speed=5\\nJoyV=Axis aLookUp speed=-3\\nJoyPovRight=\\nJoyPovLeft=\\nJoyPovUp=\\nJoyPovDown=\\nUnknownF5=\\nUnknownF4=\\nUnknown10F=\\nUnknown10E=\\nUnknownEB=\\nUnknownEA=\\nUnknownDF=\\nUnknownDA=\\nUnknownD9=\\nUnknownD8=\\nUnknownC7=\\nUnknownC6=\\nUnknownC5=\\nUnknownC4=\\nUnknownC3=\\nUnknownC2=\\nUnknownC1=\\nUnknownB9=\\nUnknownB8=\\nUnknownB7=\\nUnknownB6=\\nUnknownB5=\\nUnknownB4=\\nUnknownB3=\\nUnknownB2=\\nUnknownB1=\\nUnknownB0=\\nUnknownAF=\\nUnknownAE=\\nUnknownAD=\\nUnknownAC=\\nUnknownAB=\\nUnknownAA=\\nUnknownA9=\\nUnknownA8=\\nUnknownA7=\\nUnknownA6=\\nUnknownA5=\\nUnknownA4=\\nUnknown9F=\\nUnknown9E=\\nUnknown9D=\\nUnknown9C=\\nUnknown9B=\\nUnknown9A=\\nUnknown99=\\nUnknown98=\\nUnknown97=\\nUnknown96=\\nUnknown95=\\nUnknown94=\\nUnknown93=\\nUnknown92=\\nUnknown8F=\\nUnknown8E=\\nUnknown8D=\\nUnknown8C=\\nUnknown8B=\\nUnknown8A=\\nUnknown89=\\nUnknown88=\\nGreyMinus=\\nGreyPlus=\\nUnknown5F=\\nUnknown5E=\\nUnknown5D=\\nUnknown5C=\\nUnknown5B=\\nN=\\nUnknown40=\\nUnknown3F=\\nUnknown3E=\\nUnknown3D=\\nUnknown3C=\\nUnknown3B=\\nUnknown3A=\\nUnknown1F=\\nUnknown1E=\\nUnknown1D=\\nUnknown1C=\\nUnknown1A=\\nUnknown19=\\nUnknown18=\\nUnknown17=\\nUnknown16=\\nUnknown15=\\nUnknown0F=\\nUnknown0E=\\nUnknown0C=\\nUnknown0B=\\nUnknown0A=\\nUnknown07=\\nUnknown06=\\nUnknown05=\\nStrProperty0=\\n\\n[Engine.PlayerPawn]\\nWeaponPriority[0]=None\\nWeaponPriority[1]=None\\nWeaponPriority[2]=None\\nWeaponPriority[3]=None\\nWeaponPriority[4]=None\\nWeaponPriority[5]=None\\nWeaponPriority[6]=None\\nWeaponPriority[7]=None\\nWeaponPriority[8]=None\\nWeaponPriority[9]=None\\nWeaponPriority[10]=None\\nWeaponPriority[11]=None\\nWeaponPriority[12]=None\\nWeaponPriority[13]=None\\nWeaponPriority[14]=None\\nWeaponPriority[15]=None\\nWeaponPriority[16]=None\\nWeaponPriority[17]=None\\nWeaponPriority[18]=None\\nWeaponPriority[19]=None\\nDifficulty=DifficultyEasy\\nObjectDetail=ObjectDetailVeryHigh\\nPassword=\\nDodgeClickTime=0.25\\nBob=0.016\\nDesiredFOV=90\\nDefaultFOV=90\\nMyAutoAim=1\\nHandedness=-1\\nbLookUpStairs=False\\nbSnapToLevel=False\\nbAlwaysMouseLook=True\\nbAutoJump=False\\nbKeyboardLook=True\\nbInvertMouse=False\\nbMaxMouseSmoothing=True\\nbNoFlash=True\\nbNoVoices=False\\nbMessageBeep=True\\nbNeverAutoSwitch=False\\nMouseSensitivity=3\\nWeaponPriority[20]=None\\nWeaponPriority[21]=None\\nWeaponPriority[22]=None\\nWeaponPriority[23]=None\\nWeaponPriority[24]=None\\nWeaponPriority[25]=None\\nWeaponPriority[26]=None\\nWeaponPriority[27]=None\\nWeaponPriority[28]=None\\nWeaponPriority[29]=None\\nWeaponPriority[30]=None\\nWeaponPriority[31]=None\\nWeaponPriority[32]=None\\nWeaponPriority[33]=None\\nWeaponPriority[34]=None\\nWeaponPriority[35]=None\\nWeaponPriority[36]=None\\nWeaponPriority[37]=None\\nWeaponPriority[38]=None\\nWeaponPriority[39]=None\\nWeaponPriority[40]=None\\nWeaponPriority[41]=None\\nWeaponPriority[42]=None\\nWeaponPriority[43]=None\\nWeaponPriority[44]=None\\nWeaponPriority[45]=None\\nWeaponPriority[46]=None\\nWeaponPriority[47]=None\\nWeaponPriority[48]=None\\nWeaponPriority[49]=None\\nMouseSmoothThreshold=0.07\\nMaxTimeMargin=3\\nngWorldSecret=\\nngSecretSet=False\\n\\n[Engine.HUD]\\nHudMode=0\t\\nCrosshair=0\\n\\n[HGame.Harry]\\nbInvertBroomPitch=False\\nbAutoCenterCamera=True\\nbMoveWhileCasting=True\\nbAutoQuaff=True\\nfDamageMultiplier_Easy=1.2\\nfDamageMultiplier_Medium=2\\nfDamageMultiplier_Hard=3\\nbWithOlly=False\\nAnnouncerVolume=0\\nbAllowBroomMouse=False\\nbDisableDialog=False\\n\\n[Engine.Pawn]\\nbNeverSwitchOnPickup=False\\n\\n\" > \"$GAMEDIR/drive_c/users/$USER/My Documents/Harry Potter II/User.ini\""
        }
      }
    ],
    "require-binaries": "7z",
    "system": {
      "reset_desktop": true,
      "resolution": "1024x768"
    },
    "wine": {
      "Desktop": false,
      "WineDesktop": "800x600",
      "version": "tkg-protonified-4.6-x86_64",
      "vkd3d": false
    }
  },
  "content": "files:\n- noCDPatch:\n    filename: nocd.7z\n    url: https://files.lonebullet.com/harry-potter-the-chamber-of-secrets/cracks/harry-potter-and-the-chamber-of-secrets-v10-english-no-cd.zip?\ngame:\n  arch: win32\n  exe: $GAMEDIR/drive_c/Program Files/EA Games/$INPUT_LANG/system/Game.exe\n  prefix: $GAMEDIR\ninstall_complete_text: Installation complete! Enjoy!\ninstaller:\n- insert-disc:\n    requires: AutoRun.exe\n- input_menu:\n    description: Choose the language you intend to install the game in. A mismatch\n      between this setting and the game own setting will result in a failed installation\n    id: LANG\n    options:\n    - Harry Potter and the Chamber of Secrets: English\n    - 'Harry Potter et la Chambre des Secrets ': \"Fran\\xE7ais\"\n    - Harry Potter und die Kammer des Schreckens: Deutsch\n    - Harry Potter en de Geheime Kamer: Nederlands\n    preselect: 'Harry Potter et la Chambre des Secrets '\n- task:\n    arch: win32\n    description: Creating Wine prefix\n    install_gecko: false\n    install_mono: false\n    name: create_prefix\n    prefix: $GAMEDIR\n- task:\n    arch: win32\n    description: Click the 'no' button on the 'launch the game after install ?' window\n    executable: $DISC/AutoRun.exe\n    name: wineexec\n    working_dir: $DISC\n- execute:\n    command: mkdir $GAMEDIR/Temp\n- move:\n    dst: $GAMEDIR/Temp\n    src: noCDPatch\n- execute:\n    command: 7z x -plonebullet $GAMEDIR/Temp/nocd.7z -o$GAMEDIR/Temp -aoa;7z x $GAMEDIR/Temp/harry-potter-and-the-chamber-of-secrets-v10-english-no-cd.zip\n      -o$GAMEDIR/\"drive_c/Program Files/EA Games/$INPUT_LANG/system\" -aoa;rm -rf $GAMEDIR/Temp;mkdir\n      \"$GAMEDIR/drive_c/users/$USER/My Documents/Harry Potter II\"\n- execute:\n    command: echo -e \"[URL]\\nProtocol=unreal\\nProtocolDescription=Unreal Protocol\\nName=Player\\nMap=autoplay.unr\\nLocalMap=Startup.unr\\nHost=\\nPortal=\\nMapExt=unr\\nSaveExt=usa\\nPort=7777\\nClass=Engine.Playerpawn\\n[FirstRun]\\nFirstRun=433\\nReconfig=1\\nForceSoftware=0\\n[FrontEnd]\\nEASplashWaitTime=3\\nWBSplashWaitTime=3\\nLaunchCode=0\\nUseSaveSlot=1\\n[Engine.Engine]\\nGameRenderDevice=D3DDrv.D3DRenderDevice\\nAudioDevice=ALAudio.ALAudioSubsystem\\nNetworkDevice=IpDrv.TcpNetDriver\\nDemoRecordingDevice=Engine.DemoRecDriver\\nConsole=HGame.HPConsole\\nLanguage=fre\\nGameEngine=Engine.GameEngine\\nEditorEngine=Editor.EditorEngine\\nWindowedRenderDevice=SoftDrv.SoftwareRenderDevice\\nRenderDevice=GlideDrv.GlideRenderDevice\\nDefaultGame=Engine.GameInfo\\nDefaultServerGame=Engine.GameInfo\\nViewportManager=WinDrv.WindowsClient\\nRender=Render.Render\\nInput=Engine.Input\\nCanvas=Engine.Canvas\\nRunCount=61\\n[Core.System]\\nPurgeCacheDays=30\\nSavePath=C:/users/$USER/My\n      Documents/Harry Potter II/Save/Slot1\\nCachePath=../Cache\\nCacheExt=.uxx\\nPaths=../System/*.u\\nPaths=../Maps/*.unr\\nPaths=../Textures/*.utx\\nPaths=../Sounds/*.uax\\nPaths=../Music/*.umx\\nPaths=C:/users/$USER/My\n      Documents/Harry Potter II/Save/Slot1/*.usa\\nSuppress=DevLoad\\nSuppress=DevSave\\nSuppress=DevNetTraffic\\nSuppress=DevGarbage\\nSuppress=DevKill\\nSuppress=DevReplace\\nSuppress=DevSound\\nSuppress=DevCompile\\nSuppress=DevBind\\nSuppress=DevBsp\\nSuppress=ScriptWarning\\nSuppress=Localization\\n[Engine.GameEngine]\\nCacheSizeMegs=4\\nUseSound=True\\nServerActors=IpDrv.UdpBeacon\\nServerActors=IpServer.UdpServerQuery\\nServerActors=IpServer.UdpServerUplink\n      MasterServerAddress=unreal.epicgames.com MasterServerPort=27900\\nServerActors=IpServer.UdpServerUplink\n      MasterServerAddress=master0.gamespy.com MasterServerPort=27900\\nServerActors=IpServer.UdpServerUplink\n      MasterServerAddress=master.mplayer.com MasterServerPort=27900\\nServerActors=UWeb.WebServer\\n[WinDrv.WindowsClient]\\nWindowedViewportX=792\\nWindowedViewportY=573\\nWindowedColorBits=32\\nFullscreenViewportX=1024\\nFullscreenViewportY=768\\nFullscreenColorBits=32\\nBrightness=0.4\\nMipFactor=1\\nUseDirectDraw=True\\nUseJoystick=True\\nCaptureMouse=True\\nStartupFullscreen=True\\nCurvedSurfaces=False\\nLowDetailTextures=False\\nScreenFlashes=True\\nNoLighting=False\\nSlowVideoBuffering=True\\nDeadZoneXYZ=True\\nDeadZoneRUV=False\\nInvertVertical=False\\nScaleXYZ=1000\\nScaleRUV=2000\\nMinDesiredFrameRate=30\\nDecals=True\\nNoDynamicLights=False\\nParticleDensity=1\\nUseDirectInput=False\\nNoFractalAnim=False\\nSkinDetail=High\\nTextureDetail=High\\n[XDrv.XClient]\\nWindowedViewportX=640\\nWindowedViewportY=480\\nWindowedColorBits=16\\nFullscreenViewportX=640\\nFullscreenViewportY=480\\nFullscreenColorBits=32\\nBrightness=0.500000\\nMipFactor=1.000000\\nSlowVideoBuffering=False\\nStartupFullscreen=True\\nCurvedSurfaces=False\\nCaptureMouse=True\\nLowDetailTextures=False\\nScreenFlashes=True\\nNoLighting=False\\nDeadZoneXYZ=True\\nDeadZoneRUV=False\\nInvertVertical=False\\nScaleXYZ=1000.0\\nScaleRUV=2000.0\\nMinDesiredFrameRate=30.0\\n[Engine.Player]\\nConfiguredInternetSpeed=2600\\nConfiguredLanSpeed=20000\\n[Audio.GenericAudioSubsystem]\\nUseFilter=True\\nUseSurround=False\\nUseStereo=True\\nUseCDMusic=False\\nUseDigitalMusic=False\\nUseSpatial=False\\nUseReverb=False\\nUse3dHardware=False\\nLowSoundQuality=False\\nReverseStereo=False\\nLatency=40\\nOutputRate=22050Hz\\nChannels=16\\nMusicVolume=128\\nSoundVolume=200\\nAmbientFactor=0.7\\n[ALAudio.ALAudioSubsystem]\\nUseEAX=False\\nCompatibilityMode=False\\nUsePrecache=False\\nReverseStereo=False\\nChannels=32\\nMusicVolume=0.52\\nSoundVolume=0.9\\nDopplerFactor=1\\nRollOff=1\\n[IpDrv.TcpNetDriver]\\nAllowDownloads=True\\nConnectionTimeout=15.0\\nInitialConnectTimeout=300.0\\nAckTimeout=1.0\\nKeepAliveTime=0.2\\nMaxClientRate=20000\\nSimLatency=0\\nRelevantTimeout=5.0\\nSpawnPrioritySeconds=1.0\\nServerTravelPause=4.0\\nNetServerMaxTickRate=20\\nLanServerMaxTickRate=35\\nDownloadManagers=IpDrv.HTTPDownload\\nDownloadManagers=Engine.ChannelDownload\\n[IpDrv.HTTPDownload]\\nRedirectToURL=\\nProxyServerHost=\\nProxyServerPort=3128\\nUseCompression=True\\n[Engine.DemoRecDriver]\\nDemoSpectatorClass=HGame.harry\\nMaxClientRate=25000\\nConnectionTimeout=15.0\\nInitialConnectTimeout=500.0\\nAckTimeout=1.0\\nKeepAliveTime=1.0\\nSimLatency=0\\nRelevantTimeout=5.0\\nSpawnPrioritySeconds=1.0\\nServerTravelPause=4.0\\nNetServerMaxTickRate=60\\nLanServerMaxTickRate=60\\n[Engine.GameReplicationInfo]\\nServerName=Another\n      UT Server\\nShortName=UT Server\\n[IpDrv.TcpipConnection]\\nSimPacketLoss=0\\nSimLatency=0\\n[IpServer.UdpServerQuery]\\nGameName=ut\\n[IpDrv.UdpBeacon]\\nDoBeacon=True\\nBeaconTime=0.50\\nBeaconTimeout=5.0\\nBeaconProduct=ut\\n[SoftDrv.SoftwareRenderDevice]\\nTranslucency=True\\nVolumetricLighting=True\\nShinySurfaces=True\\nCoronas=False\\nHighDetailActors=False\\nHighResTextureSmooth=True\\nLowResTextureSmooth=False\\nFastTranslucency=True\\n[GlideDrv.GlideRenderDevice]\\nTranslucency=True\\nVolumetricLighting=True\\nShinySurfaces=True\\nCoronas=True\\nHighDetailActors=True\\nDetailBias=-1.500000\\nRefreshRate=60Hz\\nDetailTextures=True\\nFastUglyRefresh=False\\nScreenSmoothing=True\\nResolution=Default\\n[MetalDrv.MetalRenderDevice]\\nTranslucency=True\\nVolumetricLighting=True\\nShinySurfaces=True\\nCoronas=True\\nHighDetailActors=True\\nDetailTextures=False\\n[OpenGLDrv.OpenGLRenderDevice]\\nTranslucency=True\\nVolumetricLighting=True\\nShinySurfaces=True\\nCoronas=True\\nHighDetailActors=True\\nDetailTextures=True\\n[D3DDrv.D3DRenderDevice]\\nTranslucency=True\\nVolumetricLighting=True\\nShinySurfaces=True\\nCoronas=True\\nHighDetailActors=True\\nUseMipmapping=True\\nUseTrilinear=False\\nUseMultitexture=True\\nUsePageFlipping=True\\nUsePalettes=True\\nUseFullscreen=true\\nUseGammaCorrection=True\\nDetailTextures=False\\nUse3dfx=False\\nUseTripleBuffering=True\\nUsePrecache=False\\nUse32BitTextures=False\\nDescFlags=1\\ndwDeviceId=7815\\ndwVendorId=4318\\nUse32BitZBuffer=False\\nUseVertexFog=False\\nUseAGPTextures=False\\nUseVideoMemoryVB=False\\nUseVSync=False\\nDescription=NVIDIA\n      GeForce RTX 2080\\n[SglDrv.SglRenderDevice]\\nTranslucency=True\\nVolumetricLighting=False\\nShinySurfaces=False\\nCoronas=True\\nHighDetailActors=False\\nColorDepth=32\\nDetailTextures=False\\nFastUglyRefresh=False\\nTextureDetailBias=Near\\nVertexLighting=False\\n[Editor.EditorEngine]\\nUseSound=True\\nCacheSizeMegs=6\\nGridEnabled=True\\nSnapVertices=True\\nSnapDistance=10.000000\\nGridSize=(X=16.000000\\nY=16.000000\\nZ=16.000000)\\nRotGridEnabled=True\\nRotGridSize=(Pitch=1024\\nYaw=1024\\nRoll=1024)\\nGameCommandLine=-log\\nFovAngleDegrees=90.000000\\nGodMode=True\\nAutoSave=False\\nAutoSaveTimeMinutes=5\\nAutoSaveIndex=6\\nC_WorldBox=(R=0\\nG=0\\nB=107\\nA=0)\\nC_GroundPlane=(R=0\\nG=0\\nB=63\\nA=0)\\nC_GroundHighlight=(R=0\\nG=0\\nB=127\\nA=0)\\nC_BrushWire=(R=255\\nG=63\\nB=63\\nA=0)\\nC_Pivot=(R=0\\nG=255\\nB=0\\nA=0)\\nC_Select=(R=0\\nG=0\\nB=127\\nA=0)\\nC_AddWire=(R=127\\nG=127\\nB=255\\nA=0)\\nC_SubtractWire=(R=255\\nG=192\\nB=63\\nA=0)\\nC_GreyWire=(R=163\\nG=163\\nB=163\\nA=0)\\nC_Invalid=(R=163\\nG=163\\nB=163\\nA=0)\\nC_ActorWire=(R=127\\nG=63\\nB=0\\nA=0)\\nC_ActorHiWire=(R=255\\nG=127\\nB=0\\nA=0)\\nC_White=(R=255\\nG=255\\nB=255\\nA=0)\\nC_SemiSolidWire=(R=127\\nG=255\\nB=0\\nA=0)\\nC_NonSolidWire=(R=63\\nG=192\\nB=32\\nA=0)\\nC_WireGridAxis=(R=119\\nG=119\\nB=119\\nA=0)\\nC_ActorArrow=(R=163\\nG=0\\nB=0\\nA=0)\\nC_ScaleBox=(R=151\\nG=67\\nB=11\\nA=0)\\nC_ScaleBoxHi=(R=223\\nG=149\\nB=157\\nA=0)\\nC_Mover=(R=255\\nG=0\\nB=255\\nA=0)\\nC_OrthoBackground=(R=163\\nG=163\\nB=163\\nA=0)\\nC_Current=(R=0\\nG=0\\nB=0\\nA=0)\\nC_BrushVertex=(R=0\\nG=0\\nB=0\\nA=0)\\nC_BrushSnap=(R=0\\nG=0\\nB=0\\nA=0)\\nC_Black=(R=0\\nG=0\\nB=0\\nA=0)\\nC_Mask=(R=0\\nG=0\\nB=0\\nA=0)\\nC_WireBackground=(R=0\\nG=0\\nB=0\\nA=0)\\nC_ZoneWire=(R=0\\nG=0\\nB=0\\nA=0)\\nEditPackages=Core\\nEditPackages=Engine\\nEditPackages=Editor\\nEditPackages=UWindow\\nEditPackages=Fire\\nEditPackages=UnrealShare\\nEditPackages=HPSounds\\nEditPackages=HPModels\\nEditPackages=HPParticle\\nEditPackages=HProps\\nEditPackages=HGame\\n[Engine.GameInfo]\\nbLowGore=False\\nbVeryLowGore=False\\n[HGame.HPConsole]\\nbDebugMode=False\\nRootWindow=UWindow.UWindowRootWindow\\nMouseScale=0.6\\nShowDesktop=False\\nbShowConsole=False\\nUWindowKey=IK_None\\n[UBrowser.UBrowserMainClientWindow]\\nLANTabName=UBrowserLAN\\nServerListNames[0]=UBrowserUT\\nServerListNames[1]=UBrowserLAN\\nServerListNames[2]=UBrowserPopulated\\nServerListNames[3]=UBrowserDeathmatch\\nServerListNames[4]=UBrowserTeamGames\\nServerListNames[5]=UBrowserCTF\\nServerListNames[6]=UBrowserDOM\\nServerListNames[7]=UBrowserAS\\nServerListNames[8]=UBrowserLMS\\nServerListNames[9]=UBrowserAll\\nServerListNames[10]=None\\nServerListNames[11]=None\\nServerListNames[12]=None\\nServerListNames[13]=None\\nServerListNames[14]=None\\nServerListNames[15]=None\\nServerListNames[16]=None\\nServerListNames[17]=None\\nServerListNames[18]=None\\nServerListNames[19]=None\\n[UBrowserUT]\\nListFactories[0]=UBrowser.UBrowserSubsetFact\\nSupersetTag=UBrowserAll\\nbCompatibleServersOnly=True\\n[UBrowserLAN]\\nListFactories[0]=UBrowser.UBrowserLocalFact\\nBeaconProduct=ut\\nURLAppend=?LAN\\nAutoRefreshTime=10\\nbNoAutoSort=True\\n[UWeb.WebServer]\\nApplications[0]=UTServerAdmin.UTServerAdmin\\nApplicationPaths[0]=/ServerAdmin\\nApplications[1]=UTServerAdmin.UTImageServer\\nApplicationPaths[1]=/images\\nDefaultApplication=0\\nbEnabled=False\\n[UBrowser.UBrowserHTTPClient]\\nProxyServerAddress=\\nProxyServerPort=\\n[UTServerAdmin.UTServerAdmin]\\nAdminUsername=admin\\nAdminPassword=admin\\n[optionsettings]\\nMaxRes=1024\\nshadowsOn=true\\n[CARDCAP]\\nVRAM=4191231\\n[WindowPositions]\\nGameLog=(X=0,Y=0,XL=512,YL=256)\\nFrontEndPageConfigVideo=(X=0,Y=0,XL=477,YL=419)\\nFrontEndPageConfig=(X=0,Y=0,XL=480,YL=450)\\nFrontEndPageMainMenu=(X=269,Y=101,XL=486,YL=566)\\nFrontEndDialog=(X=305,Y=107,XL=486,YL=581)\\nFrontEndPageNewGame=(X=0,Y=0,XL=482,YL=419)\\nFrontEndPageLoadGame=(X=0,Y=0,XL=482,YL=419)\\n[HGame.baseConsole]\\nbDebugMode=False\\nbUseSystemFonts=True\\n[UWindow.WindowConsole]\\nConsoleKey=192\\n[UWindow.UWindowRootWindow]\\nGUIScale=1.6\\nLookAndFeelClass=UWindow.UWindowWin95LookAndFeel\\n\"\n      > \"$GAMEDIR/drive_c/users/$USER/My Documents/Harry Potter II/Game.ini\"\n- execute:\n    command: \"echo -e \\\"[DefaultPlayer]\\\\nName=Player\\\\nClass=HGame.harry\\\\nteam=255\\\\\\\n      n\\\\n[Engine.Input]\\\\nAliases[0]=(Command=\\\\\\\"Button bFire | Fire\\\\\\\",Alias=Fire)\\\\\\\n      nAliases[1]=(Command=\\\\\\\"Button bAltFire | AltFire\\\\\\\",Alias=AltFire)\\\\nAliases[2]=(Command=\\\\\\\n      \\\"Axis aBaseY  Speed=+300.0\\\\\\\",Alias=MoveForward)\\\\nAliases[3]=(Command=\\\\\\\"\\\n      Axis aBaseY  Speed=-300.0\\\\\\\",Alias=MoveBackward)\\\\nAliases[4]=(Command=\\\\\\\"\\\n      Axis aBaseX Speed=-200.0\\\\\\\",Alias=RotLeft)\\\\nAliases[5]=(Command=\\\\\\\"Axis aBaseX\\\n      \\  Speed=+200.0\\\\\\\",Alias=RotRight)\\\\nAliases[6]=(Command=\\\\\\\"Axis aStrafe Speed=-300.0\\\\\\\n      \\\",Alias=StrafeLeft)\\\\nAliases[7]=(Command=\\\\\\\"Axis aStrafe Speed=+300.0\\\\\\\"\\\n      ,Alias=StrafeRight)\\\\nAliases[8]=(Command=\\\\\\\"Jump | Axis aUp Speed=+300.0 |\\\n      \\ Button bSpellBallAction\\\\\\\",Alias=Jump)\\\\nAliases[9]=(Command=\\\\\\\"Button bDuck\\\n      \\ | Axis aUp Speed=-300.0\\\\\\\",Alias=Duck)\\\\nAliases[10]=(Command=\\\\\\\"Button\\\n      \\ bLook\\\\\\\",Alias=Look)\\\\nAliases[11]=(Command=\\\\\\\"Toggle bLook\\\\\\\",Alias=LookToggle)\\\\\\\n      nAliases[12]=(Command=\\\\\\\"ActivateItem\\\\\\\",Alias=InventoryActivate)\\\\nAliases[13]=(Command=\\\\\\\n      \\\"NextItem\\\\\\\",Alias=InventoryNext)\\\\nAliases[14]=(Command=\\\\\\\"PrevItem\\\\\\\"\\\n      ,Alias=InventoryPrevious)\\\\nAliases[15]=(Command=\\\\\\\"Axis aLookUp Speed=+100.0\\\\\\\n      \\\",Alias=LookUp)\\\\nAliases[16]=(Command=\\\\\\\"Axis aLookUp Speed=-100.0\\\\\\\",Alias=LookDown)\\\\\\\n      nAliases[17]=(Command=\\\\\\\"Button bSnapLevel\\\\\\\",Alias=CenterView)\\\\nAliases[18]=(Command=\\\\\\\n      \\\"Button bRun\\\\\\\",Alias=Walking)\\\\nAliases[19]=(Command=\\\\\\\"Button bStrafe\\\\\\\n      \\\",Alias=Strafe)\\\\nAliases[20]=(Command=\\\\\\\"\\\\\\\",Alias=None)\\\\nAliases[21]=(Command=\\\\\\\n      \\\"ActivateTranslator\\\\\\\",Alias=ActivateTranslator)\\\\nAliases[22]=(Command=\\\\\\\n      \\\"ActivateHint\\\\\\\",Alias=ActivateHint)\\\\nAliases[23]=(Command=\\\\\\\"Button bFreeLook\\\\\\\n      \\\",Alias=FreeLook)\\\\nAliases[24]=(Command=\\\\\\\"ViewClass Pawn\\\\\\\",Alias=ViewTeam)\\\\\\\n      nAliases[25]=(Command=\\\\\\\"Axis aForward  Speed=+300.0\\\\\\\",Alias=MoveForward)\\\\\\\n      nAliases[26]=(Command=\\\\\\\"Axis aForward  Speed=-150.0\\\\\\\",Alias=MoveBackward)\\\\\\\n      nAliases[27]=(Command=\\\\\\\"\\\\\\\",Alias=None)\\\\nAliases[28]=(Command=\\\\\\\"\\\\\\\",Alias=None)\\\\\\\n      nAliases[29]=(Command=\\\\\\\"\\\\\\\",Alias=None)\\\\nAliases[30]=(Command=\\\\\\\"\\\\\\\",Alias=None)\\\\\\\n      nAliases[31]=(Command=\\\\\\\"\\\\\\\",Alias=None)\\\\nAliases[32]=(Command=\\\\\\\"\\\\\\\",Alias=None)\\\\\\\n      nAliases[33]=(Command=\\\\\\\"\\\\\\\",Alias=None)\\\\nAliases[34]=(Command=\\\\\\\"\\\\\\\",Alias=None)\\\\\\\n      nAliases[35]=(Command=\\\\\\\"\\\\\\\",Alias=None)\\\\nAliases[36]=(Command=\\\\\\\"\\\\\\\",Alias=None)\\\\\\\n      nAliases[37]=(Command=\\\\\\\"\\\\\\\",Alias=None)\\\\nAliases[38]=(Command=\\\\\\\"\\\\\\\",Alias=None)\\\\\\\n      nAliases[39]=(Command=\\\\\\\"\\\\\\\",Alias=None)\\\\nRightMouse=jump | Button bBroomAction\\\n      \\ | Button bDuelCycleSpell\\\\nLeftMouse=AltFire | Button bBroomAction | Button\\\n      \\ bVendorReply\\\\nMiddleMouse=\\\\nTab=button bOpenMap\\\\nEnter=button bSkipCutScene\\\\\\\n      nShift=\\\\nCtrl=BUTTON BBROOMACTION | JUMP\\\\nAlt=AltFire\\\\nPause=\\\\nCapsLock=\\\\\\\n      nEscape=quit\\\\nSpace=BUTTON BDUELCYCLESPELL | BUTTON BDRINKWIGGENWELL\\\\nPageDown=\\\\\\\n      nEnd=\\\\nLeft=RotLeft | Button bBroomYawLeft | Button bSpellLessonLeft\\\\nUp=BUTTON\\\n      \\ BSPELLLESSONUP\\\\nRight=RotRight | Button bBroomYawRight | Button bSpellLessonRight\\\\\\\n      nDown=MoveBackward | Button bBroomPitchDown | Button bSpellLessonDown\\\\nInsert=\\\\\\\n      nDelete=\\\\n0=\\\\n1=Button bDuelRictusempra\\\\n2=Button bDuelMimblewimble\\\\n3=Button\\\n      \\ bDuelExpelliarmus\\\\n4=\\\\n5=\\\\n6=\\\\n7=\\\\n8=\\\\n9=\\\\nLeftBracket=\\\\nRightBracket=\\\\\\\n      nG=\\\\nM=\\\\nO=\\\\nT=\\\\nZ=MOVEFORWARD | BUTTON BBROOMPITCHUP\\\\nF1=\\\\nF2=\\\\nF3=\\\\\\\n      nF4=\\\\nF5=\\\\nF6=\\\\nF7=\\\\nF8=\\\\nF9=\\\\nF10=\\\\nF11=\\\\nF12=\\\\nEquals=\\\\nComma=\\\\\\\n      nMinus=\\\\nPeriod=StrafeRight\\\\nSlash=\\\\nLeftBracket=\\\\nBackslash=\\\\nRightBracket=\\\\\\\n      nMouseX=Axis aMouseX Speed=4.0 | Axis aBroomYaw Speed=4.0\\\\nMouseY=Axis aMouseY\\\n      \\ Speed=4.0 | Axis aBroomPitch Speed=-4.0\\\\nMouseW=\\\\nNone=\\\\nCancel=\\\\nBackspace=\\\\\\\n      nPageUp=\\\\nhome=\\\\nSelect=\\\\nPrint=\\\\nExecute=\\\\nPrintScrn=\\\\nHelp=\\\\nA=StrafeLeft\\\\\\\n      nB=\\\\nC=\\\\nD=StrafeRight\\\\nE=\\\\nF=\\\\nH=\\\\ni=\\\\nj=\\\\nK=\\\\nL=\\\\nO=\\\\nP=\\\\nQ=STRAFELEFT\\\\\\\n      nR=\\\\nS=MoveBackward\\\\nU=\\\\nV=\\\\nW=MOVEFORWARD | BUTTON BBROOMPITCHUP\\\\nX=\\\\\\\n      nY=\\\\nNumPad0=\\\\nNumPad1=\\\\nNumPad2=\\\\nNumPad3=\\\\nNumPad4=\\\\nNumPad5=\\\\nNumPad6=\\\\\\\n      nNumPad7=\\\\nNumPad8=\\\\nNumPad9=\\\\nGreyStar=\\\\nSeparator=\\\\nNumPadPeriod=\\\\nGreySlash=\\\\\\\n      nF13=\\\\nF14=\\\\nF15=\\\\nF16=\\\\nF17=\\\\nF18=\\\\nF19=\\\\nF20=\\\\nF21=\\\\nF22=\\\\nF23=\\\\\\\n      nF24=\\\\nNumLock=\\\\nScrollLock=\\\\nLShift=\\\\nRShift=\\\\nLControl=\\\\nRControl=\\\\\\\n      nSemicolon=\\\\nTilde=\\\\nSingleQuote=\\\\nAttn=\\\\nCrSel=\\\\nExSel=\\\\nErEof=\\\\nPlay=\\\\\\\n      nZoom=\\\\nNoName=\\\\nPA1=\\\\nOemClear=\\\\nMouseZ=\\\\nMouseWheelDown=\\\\nMouseWheelUp=\\\\\\\n      nJoy1=\\\\nJoy2=\\\\nJoy3=\\\\nJoy4=\\\\nJoy5=\\\\nJoy6=\\\\nJoy7=\\\\nJoy8=\\\\nJoy9=\\\\nJoy10=\\\\\\\n      nJoy11=\\\\nJoy12=\\\\nJoy13=\\\\nJoy14=\\\\nJoy15=\\\\nJoy16=\\\\nJoyX=Axis aBaseX speed=1\\\n      \\ | Axis aJoyBroomYaw Speed=2.0 | Axis aSpellLessonX\\\\nJoyY=Axis aBaseY speed=2\\\n      \\ | Axis aJoyBroomPitch Speed=-2.0 | Axis aSpellLessonY\\\\nJoyZ=\\\\nJoyR=\\\\nJoyU=Axis\\\n      \\ aturn speed=5\\\\nJoyV=Axis aLookUp speed=-3\\\\nJoyPovRight=\\\\nJoyPovLeft=\\\\\\\n      nJoyPovUp=\\\\nJoyPovDown=\\\\nUnknownF5=\\\\nUnknownF4=\\\\nUnknown10F=\\\\nUnknown10E=\\\\\\\n      nUnknownEB=\\\\nUnknownEA=\\\\nUnknownDF=\\\\nUnknownDA=\\\\nUnknownD9=\\\\nUnknownD8=\\\\\\\n      nUnknownC7=\\\\nUnknownC6=\\\\nUnknownC5=\\\\nUnknownC4=\\\\nUnknownC3=\\\\nUnknownC2=\\\\\\\n      nUnknownC1=\\\\nUnknownB9=\\\\nUnknownB8=\\\\nUnknownB7=\\\\nUnknownB6=\\\\nUnknownB5=\\\\\\\n      nUnknownB4=\\\\nUnknownB3=\\\\nUnknownB2=\\\\nUnknownB1=\\\\nUnknownB0=\\\\nUnknownAF=\\\\\\\n      nUnknownAE=\\\\nUnknownAD=\\\\nUnknownAC=\\\\nUnknownAB=\\\\nUnknownAA=\\\\nUnknownA9=\\\\\\\n      nUnknownA8=\\\\nUnknownA7=\\\\nUnknownA6=\\\\nUnknownA5=\\\\nUnknownA4=\\\\nUnknown9F=\\\\\\\n      nUnknown9E=\\\\nUnknown9D=\\\\nUnknown9C=\\\\nUnknown9B=\\\\nUnknown9A=\\\\nUnknown99=\\\\\\\n      nUnknown98=\\\\nUnknown97=\\\\nUnknown96=\\\\nUnknown95=\\\\nUnknown94=\\\\nUnknown93=\\\\\\\n      nUnknown92=\\\\nUnknown8F=\\\\nUnknown8E=\\\\nUnknown8D=\\\\nUnknown8C=\\\\nUnknown8B=\\\\\\\n      nUnknown8A=\\\\nUnknown89=\\\\nUnknown88=\\\\nGreyMinus=\\\\nGreyPlus=\\\\nUnknown5F=\\\\\\\n      nUnknown5E=\\\\nUnknown5D=\\\\nUnknown5C=\\\\nUnknown5B=\\\\nN=\\\\nUnknown40=\\\\nUnknown3F=\\\\\\\n      nUnknown3E=\\\\nUnknown3D=\\\\nUnknown3C=\\\\nUnknown3B=\\\\nUnknown3A=\\\\nUnknown1F=\\\\\\\n      nUnknown1E=\\\\nUnknown1D=\\\\nUnknown1C=\\\\nUnknown1A=\\\\nUnknown19=\\\\nUnknown18=\\\\\\\n      nUnknown17=\\\\nUnknown16=\\\\nUnknown15=\\\\nUnknown0F=\\\\nUnknown0E=\\\\nUnknown0C=\\\\\\\n      nUnknown0B=\\\\nUnknown0A=\\\\nUnknown07=\\\\nUnknown06=\\\\nUnknown05=\\\\nStrProperty0=\\\\\\\n      n\\\\n[Engine.PlayerPawn]\\\\nWeaponPriority[0]=None\\\\nWeaponPriority[1]=None\\\\\\\n      nWeaponPriority[2]=None\\\\nWeaponPriority[3]=None\\\\nWeaponPriority[4]=None\\\\\\\n      nWeaponPriority[5]=None\\\\nWeaponPriority[6]=None\\\\nWeaponPriority[7]=None\\\\\\\n      nWeaponPriority[8]=None\\\\nWeaponPriority[9]=None\\\\nWeaponPriority[10]=None\\\\\\\n      nWeaponPriority[11]=None\\\\nWeaponPriority[12]=None\\\\nWeaponPriority[13]=None\\\\\\\n      nWeaponPriority[14]=None\\\\nWeaponPriority[15]=None\\\\nWeaponPriority[16]=None\\\\\\\n      nWeaponPriority[17]=None\\\\nWeaponPriority[18]=None\\\\nWeaponPriority[19]=None\\\\\\\n      nDifficulty=DifficultyEasy\\\\nObjectDetail=ObjectDetailVeryHigh\\\\nPassword=\\\\\\\n      nDodgeClickTime=0.25\\\\nBob=0.016\\\\nDesiredFOV=90\\\\nDefaultFOV=90\\\\nMyAutoAim=1\\\\\\\n      nHandedness=-1\\\\nbLookUpStairs=False\\\\nbSnapToLevel=False\\\\nbAlwaysMouseLook=True\\\\\\\n      nbAutoJump=False\\\\nbKeyboardLook=True\\\\nbInvertMouse=False\\\\nbMaxMouseSmoothing=True\\\\\\\n      nbNoFlash=True\\\\nbNoVoices=False\\\\nbMessageBeep=True\\\\nbNeverAutoSwitch=False\\\\\\\n      nMouseSensitivity=3\\\\nWeaponPriority[20]=None\\\\nWeaponPriority[21]=None\\\\nWeaponPriority[22]=None\\\\\\\n      nWeaponPriority[23]=None\\\\nWeaponPriority[24]=None\\\\nWeaponPriority[25]=None\\\\\\\n      nWeaponPriority[26]=None\\\\nWeaponPriority[27]=None\\\\nWeaponPriority[28]=None\\\\\\\n      nWeaponPriority[29]=None\\\\nWeaponPriority[30]=None\\\\nWeaponPriority[31]=None\\\\\\\n      nWeaponPriority[32]=None\\\\nWeaponPriority[33]=None\\\\nWeaponPriority[34]=None\\\\\\\n      nWeaponPriority[35]=None\\\\nWeaponPriority[36]=None\\\\nWeaponPriority[37]=None\\\\\\\n      nWeaponPriority[38]=None\\\\nWeaponPriority[39]=None\\\\nWeaponPriority[40]=None\\\\\\\n      nWeaponPriority[41]=None\\\\nWeaponPriority[42]=None\\\\nWeaponPriority[43]=None\\\\\\\n      nWeaponPriority[44]=None\\\\nWeaponPriority[45]=None\\\\nWeaponPriority[46]=None\\\\\\\n      nWeaponPriority[47]=None\\\\nWeaponPriority[48]=None\\\\nWeaponPriority[49]=None\\\\\\\n      nMouseSmoothThreshold=0.07\\\\nMaxTimeMargin=3\\\\nngWorldSecret=\\\\nngSecretSet=False\\\\\\\n      n\\\\n[Engine.HUD]\\\\nHudMode=0\\t\\\\nCrosshair=0\\\\n\\\\n[HGame.Harry]\\\\nbInvertBroomPitch=False\\\\\\\n      nbAutoCenterCamera=True\\\\nbMoveWhileCasting=True\\\\nbAutoQuaff=True\\\\nfDamageMultiplier_Easy=1.2\\\\\\\n      nfDamageMultiplier_Medium=2\\\\nfDamageMultiplier_Hard=3\\\\nbWithOlly=False\\\\nAnnouncerVolume=0\\\\\\\n      nbAllowBroomMouse=False\\\\nbDisableDialog=False\\\\n\\\\n[Engine.Pawn]\\\\nbNeverSwitchOnPickup=False\\\\\\\n      n\\\\n\\\" > \\\"$GAMEDIR/drive_c/users/$USER/My Documents/Harry Potter II/User.ini\\\"\"\nrequire-binaries: 7z\nsystem:\n  reset_desktop: true\n  resolution: 1024x768\nwine:\n  Desktop: false\n  WineDesktop: 800x600\n  version: tkg-protonified-4.6-x86_64\n  vkd3d: false\n"
}