{
  "name": "Desert Ashes",
  "slug": "desert-ashes",
  "year": null,
  "description": "",
  "banner_url": "https://lutris.net/games/banner/desert-ashes.jpg",
  "icon_url": "https://lutris.net/games/icon/desert-ashes.png",
  "is_public": true,
  "updated": "2020-10-08T09:19:43.647115Z",
  "provider_games": [
    {
      "name": "Desert Ashes",
      "slug": "324420",
      "service": "steam"
    }
  ],
  "steamid": 324420,
  "gogid": null,
  "gogslug": "",
  "humblestoreid": "",
  "id": 3607
}