{
  "name": "Death Goat",
  "slug": "death-goat",
  "year": null,
  "description": "",
  "banner_url": "https://lutris.net/games/banner/death-goat.jpg",
  "icon_url": "https://lutris.net/games/icon/death-goat.png",
  "is_public": true,
  "updated": "2020-10-08T09:19:17.920493Z",
  "provider_games": [
    {
      "name": "Death Goat",
      "slug": "340770",
      "service": "steam"
    }
  ],
  "steamid": 340770,
  "gogid": null,
  "gogslug": "",
  "humblestoreid": "",
  "id": 7067
}