{
  "name": "Hot Shots Tennis",
  "slug": "hot-shots-tennis",
  "year": 1990,
  "description": "",
  "banner_url": "https://lutris.net/games/banner/hot-shots-tennis.jpg",
  "icon_url": "https://lutris.net/games/icon/hot-shots-tennis.png",
  "is_public": true,
  "updated": "2020-05-26T03:34:37.759983Z",
  "provider_games": [
    {
      "name": "Hot Shots Tennis",
      "slug": "hstennis",
      "service": "mame"
    }
  ],
  "steamid": null,
  "gogid": null,
  "gogslug": "",
  "humblestoreid": "",
  "id": 34442
}