{
  "name": "Chambara",
  "slug": "chambara",
  "year": null,
  "description": "",
  "banner_url": "https://lutris.net/games/banner/chambara.jpg",
  "icon_url": "https://lutris.net/games/icon/chambara.png",
  "is_public": true,
  "updated": "2020-10-08T09:59:01.600487Z",
  "provider_games": [
    {
      "name": "Chambara",
      "slug": "745790",
      "service": "steam"
    }
  ],
  "steamid": 745790,
  "gogid": null,
  "gogslug": "",
  "humblestoreid": "",
  "id": 26235
}