{
  "name": "Doomsday Survival:Training",
  "slug": "doomsday-survivaltraining",
  "year": null,
  "description": "",
  "banner_url": "https://lutris.net/games/banner/doomsday-survivaltraining.jpg",
  "icon_url": "https://lutris.net/games/icon/doomsday-survivaltraining.png",
  "is_public": true,
  "updated": "2020-10-08T10:05:45.790673Z",
  "provider_games": [
    {
      "name": "Doomsday Survival:Training",
      "slug": "552230",
      "service": "steam"
    }
  ],
  "steamid": 552230,
  "gogid": null,
  "gogslug": "",
  "humblestoreid": "",
  "id": 15812
}