{
  "name": "Destruction Derby Raw",
  "slug": "destruction-derby-raw",
  "year": 2000,
  "description": "The Smashing Sequel to the King of Destruction!\r\nProgressive vehicle damage with realistic physics\r\nUp to 4 players for maximum destruction!\r\nEight different gameplay modes\r\n24 cars and 31 total tracks with jumps, tunnels and vicious crossovers\r\nSkyscraper mode--battle on rooftops!\r\nVehicle upgrades to increase battle worthiness",
  "banner_url": "https://lutris.net/games/banner/destruction-derby-raw.jpg",
  "icon_url": "",
  "is_public": true,
  "updated": "2020-08-29T22:36:57.888758Z",
  "provider_games": [],
  "steamid": null,
  "gogid": null,
  "gogslug": "",
  "humblestoreid": "",
  "id": 37853
}