{
  "name": "ESEA",
  "slug": "esea",
  "year": null,
  "description": "",
  "banner_url": "https://lutris.net/games/banner/esea.jpg",
  "icon_url": "https://lutris.net/games/icon/esea.png",
  "is_public": true,
  "updated": "2020-10-08T10:13:01.087031Z",
  "provider_games": [
    {
      "name": "ESEA",
      "slug": "479130",
      "service": "steam"
    }
  ],
  "steamid": 479130,
  "gogid": null,
  "gogslug": "",
  "humblestoreid": "",
  "id": 8086
}