{
  "name": "Honor Cry: Aftermath",
  "slug": "honor-cry-aftermath",
  "year": null,
  "description": "",
  "banner_url": "https://lutris.net/games/banner/honor-cry-aftermath.jpg",
  "icon_url": "https://lutris.net/games/icon/honor-cry-aftermath.png",
  "is_public": true,
  "updated": "2020-10-08T09:56:49.463693Z",
  "provider_games": [
    {
      "name": "Honor Cry: Aftermath",
      "slug": "867540",
      "service": "steam"
    }
  ],
  "steamid": 867540,
  "gogid": null,
  "gogslug": "",
  "humblestoreid": "",
  "id": 22879
}