{
  "id": 3852,
  "game_id": 1144,
  "game_slug": "the-blackwell-legacy",
  "name": "The Blackwell Legacy",
  "year": 2006,
  "user": "FakeShemp",
  "runner": "linux",
  "slug": "the-blackwell-legacy-humble",
  "version": "Humble",
  "description": "",
  "notes": "",
  "created_at": "2017-05-24T21:06:57.374842Z",
  "updated_at": "2017-05-27T23:50:35.826692Z",
  "draft": false,
  "published": true,
  "published_by": null,
  "rating": "",
  "steamid": 80330,
  "gogid": 1207662883,
  "gogslug": "episode_1_the_blackwell_legacy",
  "humbleid": "",
  "humblestoreid": "",
  "humblestoreid_real": "",
  "script": {
    "exe": "Legacy.bin.x86",
    "exe64": "Legacy.bin.x86_64",
    "files": [
      {
        "file1": "N/A:Please select the Humble installer"
      }
    ],
    "installer": [
      {
        "extract": {
          "dst": "$CACHE",
          "file": "$file1",
          "format": "zip"
        }
      },
      {
        "merge": {
          "dst": "$GAMEDIR",
          "src": "$CACHE/data/noarch"
        }
      },
      {
        "merge": {
          "dst": "$GAMEDIR",
          "src": "$CACHE/data/x86"
        }
      },
      {
        "merge": {
          "dst": "$GAMEDIR",
          "src": "$CACHE/data/x86_64"
        }
      }
    ]
  },
  "content": "exe: Legacy.bin.x86\nexe64: Legacy.bin.x86_64\nfiles:\n- file1: N/A:Please select the Humble installer\ninstaller:\n- extract:\n    dst: $CACHE\n    file: $file1\n    format: zip\n- merge:\n    dst: $GAMEDIR\n    src: $CACHE/data/noarch\n- merge:\n    dst: $GAMEDIR\n    src: $CACHE/data/x86\n- merge:\n    dst: $GAMEDIR\n    src: $CACHE/data/x86_64\n"
}