{
  "name": "Knives Out",
  "slug": "knives-out-for-pc",
  "year": 2018,
  "description": "【100 enter, but only 1 emerges】\r\n100 players are scattered throughout the massive battlefield. Explore the map, collect weapons, take aim, and pull the trigger. Remember, there can only be one winner!\r\n\r\n【It's a big bad world out there】\r\nExplore islands, snow-capped mountains, train tunnels and other unique locations while you wait for your moment to strike!\r\n\r\n【Team Up, Speed Up, Tear Up】\r\nStorm the battlefield with battle buddies in Duo Mode, Squad Mode and Fireteam Mode. Coordinate your attacks with your teammates using voice chat to outmaneuver and crush your enemies.\r\n\r\n【Play with your own rules】\r\nIt doesn't matter if you choose to ambush your enemy or attack head on, snipe from a distance or get close and messy, there is only one objective, survive at all costs!\r\n\r\n*Follow Us\r\nFacebook (English): https://www.facebook.com/KnivesOutGame/\r\nCustomer service: gameknivesout@service.netease.com",
  "banner_url": "https://lutris.net/games/banner/knives-out-for-pc.jpg",
  "icon_url": "https://lutris.net/games/icon/knives-out-for-pc.png",
  "is_public": true,
  "updated": "2019-10-07T03:27:25.335058Z",
  "provider_games": [],
  "steamid": null,
  "gogid": null,
  "gogslug": "",
  "humblestoreid": "",
  "id": 23215
}