{
  "name": "Doom II: Hell on Earth",
  "slug": "doom-ii-hell-on-earth",
  "year": 1994,
  "description": "Let the Obsession begin. Again.\r\nThis time, the entire forces of the netherworld have overrun Earth. To save her, you must descend into the stygian depths of Hell itself!\r\nBattle mightier, nastier, deadlier demons and monsters. Use more powerful weapons. Survive more mind-blowing explosions and more of the bloodiest, fiercest, most awesome blastfest ever!\r\nPlay DOOM II solo, with two people over a modem, or with up to four players over a LAN (supporting IPX protocol). No matter which way you choose, get ready for adrenaline-pumping, action-packed excitement that's sure to give your heart a real workout.",
  "banner_url": "https://lutris.net/games/banner/doom-ii-hell-on-earth.jpg",
  "icon_url": "https://lutris.net/games/icon/doom-ii-hell-on-earth.png",
  "is_public": true,
  "updated": "2020-10-08T19:13:53.308223Z",
  "provider_games": [
    {
      "name": "DOOM II: Hell on Earth",
      "slug": "2300",
      "service": "steam"
    }
  ],
  "steamid": 2300,
  "gogid": 1440161275,
  "gogslug": "doom_ii_final_doom",
  "humblestoreid": "",
  "id": 127
}