{
  "name": "300 Dwarves",
  "slug": "300-dwarves",
  "year": null,
  "description": "",
  "banner_url": "https://lutris.net/games/banner/300-dwarves.jpg",
  "icon_url": "https://lutris.net/games/icon/300-dwarves.png",
  "is_public": true,
  "updated": "2020-10-08T09:20:15.470773Z",
  "provider_games": [
    {
      "name": "300 Dwarves",
      "slug": "301730",
      "service": "steam"
    }
  ],
  "steamid": 301730,
  "gogid": null,
  "gogslug": "",
  "humblestoreid": "",
  "id": 14478
}