{
  "id": 20484,
  "game_id": 1328,
  "game_slug": "mortal-kombat-komplete-edition",
  "name": "Mortal Kombat Komplete Edition",
  "year": null,
  "user": "VENOMMIND",
  "runner": "winesteam",
  "slug": "mortal-kombat-komplete-editio-change-me",
  "version": "Change Me",
  "description": null,
  "notes": "Works only in non-staging wine versions",
  "created_at": "2020-05-15T06:50:15.785220Z",
  "updated_at": "2020-05-15T06:50:15.785258Z",
  "draft": false,
  "published": false,
  "published_by": null,
  "rating": "",
  "steamid": 237110,
  "gogid": null,
  "gogslug": "",
  "humbleid": "",
  "humblestoreid": "",
  "humblestoreid_real": "",
  "script": {
    "game": {
      "appid": 237110
    }
  },
  "content": "game:\r\n  appid: 237110"
}