{
  "name": "Fateholders of Tetsoidea",
  "slug": "fateholders-of-tetsoidea",
  "year": null,
  "description": "",
  "banner_url": "https://lutris.net/games/banner/fateholders-of-tetsoidea.jpg",
  "icon_url": "https://lutris.net/games/icon/fateholders-of-tetsoidea.png",
  "is_public": true,
  "updated": "2020-10-08T10:09:27.105498Z",
  "provider_games": [
    {
      "name": "Fateholders of Tetsoidea",
      "slug": "665240",
      "service": "steam"
    }
  ],
  "steamid": 665240,
  "gogid": null,
  "gogslug": "",
  "humblestoreid": "",
  "id": 25471
}