{
  "id": 3920,
  "game_id": 1171,
  "game_slug": "defenders-quest-valley-of-the-forgotten",
  "name": "Defender's Quest: Valley of the Forgotten",
  "year": 2012,
  "user": "FakeShemp",
  "runner": "linux",
  "slug": "defenders-quest-valley-of-the-humble-dx",
  "version": "Humble - DX",
  "description": "",
  "notes": "",
  "created_at": "2017-05-27T19:03:45.092665Z",
  "updated_at": "2017-05-28T00:04:31.453371Z",
  "draft": false,
  "published": true,
  "published_by": null,
  "rating": "",
  "steamid": 218410,
  "gogid": 1207659129,
  "gogslug": "defenders_quest",
  "humbleid": "",
  "humblestoreid": "",
  "humblestoreid_real": "",
  "script": {
    "exe": "DefendersQuest.sh",
    "files": [
      {
        "file1": "N/A:Please select the Humble archive"
      }
    ],
    "installer": [
      {
        "extract": {
          "file": "$file1"
        }
      }
    ]
  },
  "content": "exe: DefendersQuest.sh\nfiles:\n- file1: N/A:Please select the Humble archive\ninstaller:\n- extract:\n    file: $file1\n"
}