{
  "name": "Blasto",
  "slug": "blasto",
  "year": 1978,
  "description": "",
  "banner_url": "https://lutris.net/games/banner/blasto.jpg",
  "icon_url": "https://lutris.net/games/icon/blasto.png",
  "is_public": true,
  "updated": "2020-05-26T03:32:18.417804Z",
  "provider_games": [
    {
      "name": "Blasto",
      "slug": "blasto",
      "service": "mame"
    }
  ],
  "steamid": null,
  "gogid": null,
  "gogslug": "",
  "humblestoreid": "",
  "id": 33457
}