{
  "name": "Borench",
  "slug": "borench",
  "year": 1990,
  "description": "",
  "banner_url": "",
  "icon_url": "https://lutris.net/games/icon/borench.png",
  "is_public": true,
  "updated": "2020-05-26T03:32:24.619110Z",
  "provider_games": [
    {
      "name": "Borench",
      "slug": "borench",
      "service": "mame"
    }
  ],
  "steamid": null,
  "gogid": null,
  "gogslug": "",
  "humblestoreid": "",
  "id": 33521
}