{
  "name": "Girls and Dungeons",
  "slug": "girls-and-dungeons",
  "year": 2017,
  "description": "A cute, fanservice filled dungeon crawling RPG following the story of a young mercenary exploring a long forgotten dungeon. Along the way he teams up with the charming \"Lost Maidens\" to take on the threat of the mysterious demon of intoxication, Yashumugi. This bizarre, light-hearted adventure will leave you in disbelief as you venture through episodes filled with booze, silly interactions, inspiring battles, and fanservice filled moments.",
  "banner_url": "https://lutris.net/games/banner/girls-and-dungeons.jpg",
  "icon_url": "https://lutris.net/games/icon/girls-and-dungeons.png",
  "is_public": true,
  "updated": "2020-10-08T10:01:05.029823Z",
  "provider_games": [
    {
      "name": "Girls and Dungeons",
      "slug": "695760",
      "service": "steam"
    }
  ],
  "steamid": 695760,
  "gogid": null,
  "gogslug": "",
  "humblestoreid": "",
  "id": 16108
}