{
  "name": "Jitsuryoku!! Pro Yakyuu",
  "slug": "jitsuryoku-pro-yakyuu",
  "year": 1989,
  "description": "",
  "banner_url": "",
  "icon_url": "https://lutris.net/games/icon/jitsuryoku-pro-yakyuu.png",
  "is_public": true,
  "updated": "2020-05-26T03:34:49.752821Z",
  "provider_games": [
    {
      "name": "Jitsuryoku!! Pro Yakyuu",
      "slug": "jitsupro",
      "service": "mame"
    }
  ],
  "steamid": null,
  "gogid": null,
  "gogslug": "",
  "humblestoreid": "",
  "id": 34544
}