{
  "id": 4513,
  "game_id": 1604,
  "game_slug": "x-com-ufo-defense",
  "name": "X-COM: UFO Defense",
  "year": 1993,
  "user": "FakeShemp",
  "runner": "dosbox",
  "slug": "x-com-ufo-defense-humble",
  "version": "Humble",
  "description": "Uses the files from the Windows archive from Humble.",
  "notes": "",
  "created_at": "2017-06-19T21:31:24.205000Z",
  "updated_at": "2017-07-04T18:08:32.349042Z",
  "draft": false,
  "published": true,
  "published_by": null,
  "rating": "",
  "steamid": 7760,
  "gogid": 1445250340,
  "gogslug": "xcom_ufo_defense",
  "humbleid": "",
  "humblestoreid": "",
  "humblestoreid_real": "",
  "script": {
    "files": [
      {
        "file1": "N/A:Please select the Humble archive"
      }
    ],
    "game": {
      "config_file": "$GAMEDIR/dosbox_lutris.conf"
    },
    "installer": [
      {
        "extract": {
          "file": "$file1"
        }
      },
      {
        "merge": {
          "dst": "$CACHE",
          "src": "$GAMEDIR/dosbox.conf"
        }
      },
      {
        "write_config": {
          "file": "$CACHE/dosbox.conf",
          "key": "aspect",
          "section": "render",
          "value": true
        }
      },
      {
        "write_config": {
          "file": "$CACHE/dosbox.conf",
          "key": "fullscreen",
          "section": "sdl",
          "value": false
        }
      },
      {
        "move": {
          "dst": "$GAMEDIR/dosbox_lutris.conf",
          "src": "$CACHE/dosbox.conf"
        }
      }
    ],
    "main_file": "dosbox.conf"
  },
  "content": "files:\n- file1: N/A:Please select the Humble archive\ngame:\n  config_file: $GAMEDIR/dosbox_lutris.conf\ninstaller:\n- extract:\n    file: $file1\n- merge:\n    dst: $CACHE\n    src: $GAMEDIR/dosbox.conf\n- write_config:\n    file: $CACHE/dosbox.conf\n    key: aspect\n    section: render\n    value: true\n- write_config:\n    file: $CACHE/dosbox.conf\n    key: fullscreen\n    section: sdl\n    value: false\n- move:\n    dst: $GAMEDIR/dosbox_lutris.conf\n    src: $CACHE/dosbox.conf\nmain_file: dosbox.conf\n"
}