{
  "name": "Lazy Devil's game life",
  "slug": "lazy-devils-game-life",
  "year": null,
  "description": "",
  "banner_url": "https://lutris.net/games/banner/lazy-devils-game-life.jpg",
  "icon_url": "https://lutris.net/games/icon/lazy-devils-game-life.png",
  "is_public": false,
  "updated": "2019-03-10T01:34:47.984728Z",
  "provider_games": [],
  "steamid": 825410,
  "gogid": null,
  "gogslug": "",
  "humblestoreid": "",
  "id": 26202
}