{
  "name": "Island",
  "slug": "island-1",
  "year": 2005,
  "description": "",
  "banner_url": "",
  "icon_url": "https://lutris.net/games/icon/island-1.png",
  "is_public": true,
  "updated": "2020-05-26T03:34:46.040611Z",
  "provider_games": [
    {
      "name": "Island",
      "slug": "island",
      "service": "mame"
    }
  ],
  "steamid": null,
  "gogid": null,
  "gogslug": "",
  "humblestoreid": "",
  "id": 34512
}