{
  "name": "DarkMaze",
  "slug": "darkmaze",
  "year": null,
  "description": "",
  "banner_url": "https://lutris.net/games/banner/darkmaze.jpg",
  "icon_url": "https://lutris.net/games/icon/darkmaze.png",
  "is_public": true,
  "updated": "2020-10-08T10:09:36.014677Z",
  "provider_games": [
    {
      "name": "DarkMaze",
      "slug": "649630",
      "service": "steam"
    }
  ],
  "steamid": 649630,
  "gogid": null,
  "gogslug": "",
  "humblestoreid": "",
  "id": 19613
}