{
  "name": "Espire 1: VR Operative",
  "slug": "espire-1-vr-operative",
  "year": null,
  "description": "",
  "banner_url": "https://lutris.net/games/banner/espire-1-vr-operative.jpg",
  "icon_url": "https://lutris.net/games/icon/espire-1-vr-operative.png",
  "is_public": true,
  "updated": "2020-10-08T10:09:20.625337Z",
  "provider_games": [
    {
      "name": "Espire 1: VR Operative",
      "slug": "669290",
      "service": "steam"
    }
  ],
  "steamid": 669290,
  "gogid": null,
  "gogslug": "",
  "humblestoreid": "",
  "id": 31812
}