{
  "name": "Gotham City Impostors: Free To Play",
  "slug": "gotham-city-impostors-free-to-play",
  "year": null,
  "description": "",
  "banner_url": "https://lutris.net/games/banner/gotham-city-impostors-free-to-play.jpg",
  "icon_url": "https://lutris.net/games/icon/gotham-city-impostors-free-to-play.png",
  "is_public": true,
  "updated": "2020-10-08T10:17:36.738439Z",
  "provider_games": [
    {
      "name": "Gotham City Impostors: Free To Play",
      "slug": "206210",
      "service": "steam"
    }
  ],
  "steamid": 206210,
  "gogid": null,
  "gogslug": "",
  "humblestoreid": "",
  "id": 680
}