{
  "name": "Fighter Royale: Last Ace Flying",
  "slug": "fighter-royale-last-ace-flying",
  "year": 2019,
  "description": "",
  "banner_url": "https://lutris.net/games/banner/fighter-royale-last-ace-flying.jpg",
  "icon_url": "",
  "is_public": false,
  "updated": "2020-11-14T23:29:20.664527Z",
  "provider_games": [],
  "steamid": null,
  "gogid": null,
  "gogslug": "",
  "humblestoreid": "",
  "id": 40262
}