{
  "name": "Battlezone",
  "slug": "battlezone",
  "year": 1980,
  "description": "The earth is in big trouble--and you are our only hope for survival! From the control panel of your combat tank you must search out and destroy automated weapons that have invaded the countryside. Armed with a radar screen and turret gun, your mission is to find aerial fighters, enemy tanks, super tanks, and flying saucers before they find you. Get ready--the battle has just begun!",
  "banner_url": "https://lutris.net/games/banner/battlezone.jpg",
  "icon_url": "",
  "is_public": true,
  "updated": "2019-01-23T08:28:33.685701Z",
  "provider_games": [
    {
      "name": "Battlezone",
      "slug": "312650",
      "service": "steam"
    }
  ],
  "steamid": 312650,
  "gogid": null,
  "gogslug": "",
  "humblestoreid": "",
  "id": 7083
}