{
  "name": "Elizabeth Find M.D. - Diagnosis Mystery - Season 2",
  "slug": "elizabeth-find-md-diagnosis-mystery-season-2",
  "year": null,
  "description": "",
  "banner_url": "https://lutris.net/games/banner/elizabeth-find-md-diagnosis-mystery-season-2.jpg",
  "icon_url": "https://lutris.net/games/icon/elizabeth-find-md-diagnosis-mystery-season-2.png",
  "is_public": true,
  "updated": "2020-10-08T10:02:17.065688Z",
  "provider_games": [
    {
      "name": "Elizabeth Find M.D. - Diagnosis Mystery - Season 2",
      "slug": "33790",
      "service": "steam"
    }
  ],
  "steamid": 33790,
  "gogid": null,
  "gogslug": "",
  "humblestoreid": "",
  "id": 8639
}