{
  "name": "aMAZE Double",
  "slug": "amaze-double",
  "year": null,
  "description": "",
  "banner_url": "https://lutris.net/games/banner/amaze-double.jpg",
  "icon_url": "https://lutris.net/games/icon/amaze-double.png",
  "is_public": true,
  "updated": "2020-10-08T10:00:02.569561Z",
  "provider_games": [
    {
      "name": "aMAZE Double",
      "slug": "736840",
      "service": "steam"
    }
  ],
  "steamid": 736840,
  "gogid": null,
  "gogslug": "",
  "humblestoreid": "",
  "id": 19448
}