{
  "name": "4th Generation Warfare",
  "slug": "4th-generation-warfare",
  "year": null,
  "description": "",
  "banner_url": "https://lutris.net/games/banner/4th-generation-warfare.jpg",
  "icon_url": "https://lutris.net/games/icon/4th-generation-warfare.png",
  "is_public": true,
  "updated": "2020-10-08T09:18:25.115191Z",
  "provider_games": [
    {
      "name": "4th Generation Warfare",
      "slug": "1204230",
      "service": "steam"
    }
  ],
  "steamid": 1204230,
  "gogid": null,
  "gogslug": "",
  "humblestoreid": "",
  "id": 39180
}