{
  "id": 12654,
  "game_id": 3810,
  "game_slug": "survivalist",
  "name": "Survivalist",
  "year": null,
  "user": "cxf",
  "runner": "wine",
  "slug": "survivalist-indiegala",
  "version": "IndieGala",
  "description": null,
  "notes": "Doesn't play music",
  "created_at": "2019-04-07T05:42:14.885000Z",
  "updated_at": "2020-01-23T02:57:15.141910Z",
  "draft": false,
  "published": true,
  "published_by": 19464,
  "rating": "",
  "steamid": 340050,
  "gogid": null,
  "gogslug": "",
  "humbleid": "",
  "humblestoreid": "",
  "humblestoreid_real": "",
  "script": {
    "files": [
      {
        "zip": "N/A:Select survivalist_win.zip"
      }
    ],
    "game": {
      "exe": "drive_c/Program Files (x86)/Survivalist/Survivalist.exe",
      "prefix": "$GAMEDIR"
    },
    "installer": [
      {
        "task": {
          "name": "create_prefix",
          "prefix": "$GAMEDIR"
        }
      },
      {
        "task": {
          "app": "dotnet472",
          "description": "Installing .NET 4.7.2",
          "name": "winetricks",
          "prefix": "$GAMEDIR"
        }
      },
      {
        "extract": {
          "dst": "$CACHE",
          "src": "zip"
        }
      },
      {
        "task": {
          "args": "/silent",
          "executable": "$CACHE/SurvivalistSetup_v69.exe",
          "name": "wineexec",
          "prefix": "$GAMEDIR"
        }
      }
    ]
  },
  "content": "files:\n- zip: N/A:Select survivalist_win.zip\ngame:\n  exe: drive_c/Program Files (x86)/Survivalist/Survivalist.exe\n  prefix: $GAMEDIR\ninstaller:\n- task:\n    name: create_prefix\n    prefix: $GAMEDIR\n- task:\n    app: dotnet472\n    description: Installing .NET 4.7.2\n    name: winetricks\n    prefix: $GAMEDIR\n- extract:\n    dst: $CACHE\n    src: zip\n- task:\n    args: /silent\n    executable: $CACHE/SurvivalistSetup_v69.exe\n    name: wineexec\n    prefix: $GAMEDIR\n"
}