{
  "name": "Land of Illusion Starring Mickey Mouse",
  "slug": "land-of-illusion-starring-mickey-mouse",
  "year": 1992,
  "description": "Land of Illusion is a typical platform game, with the player sidescrolling his way through 14 stages, trying to retrieve the crystal to the villagers. Mickey can attack his enemies by picking up an item (such as a stone block) and throwing it at his enemies, or he can jump at them in a sitting pose.\r\n\r\nThroughout the game, the player can pick up items that imbue Mickey with new abilities, such as a rope for climbing up walls or a potion that can make Mickey shrink in size. Furthermore, the player can then return to previous levels and utilise these items to gain access to previously inaccessible areas.\r\n\r\nMickey begins the game with two power stars indicating how many hits he can take by enemies. Power stars can be collected throughout the game to give Mickey more health to a maximum of 5. However, there is one power star on every level making 14 in total. Each star collected after collecting 5 gives full health and an extra life. Most of them are in the inaccessible areas which require many of the special items collected throughout the game. Upon completion of the game, the number of stars the player collects is tallied. Collecting all 14 stars gives a special score bonus.",
  "banner_url": "https://lutris.net/games/banner/land-of-illusion-starring-mickey-mouse.jpg",
  "icon_url": "",
  "is_public": true,
  "updated": "2019-01-23T08:30:07.541145Z",
  "provider_games": [],
  "steamid": null,
  "gogid": null,
  "gogslug": "",
  "humblestoreid": "",
  "id": 13742
}