{
  "name": "Insector X",
  "slug": "insector-x",
  "year": 1989,
  "description": "",
  "banner_url": "",
  "icon_url": "https://lutris.net/games/icon/insector-x.png",
  "is_public": true,
  "updated": "2020-05-26T03:34:43.230586Z",
  "provider_games": [
    {
      "name": "Insector X",
      "slug": "insectx",
      "service": "mame"
    }
  ],
  "steamid": null,
  "gogid": null,
  "gogslug": "",
  "humblestoreid": "",
  "id": 34487
}