{
  "id": 22952,
  "game_id": 19481,
  "game_slug": "star-trek-armada",
  "name": "Star Trek - Armada",
  "year": 2000,
  "user": "fltcaptriker",
  "runner": "wine",
  "slug": "star-trek-armada-original-cd",
  "version": "Original CD",
  "description": null,
  "notes": "",
  "created_at": "2020-08-20T01:25:56.763238Z",
  "updated_at": "2020-08-20T01:25:56.763273Z",
  "draft": true,
  "published": false,
  "published_by": null,
  "rating": "",
  "steamid": null,
  "gogid": null,
  "gogslug": "",
  "humbleid": "",
  "humblestoreid": "",
  "humblestoreid_real": "",
  "script": {
    "installer": [
      {
        "insert-disc": {
          "requires": "setup.exe"
        }
      }
    ]
  },
  "content": "installer:\n- insert-disc:\n    requires: setup.exe\n"
}