{
  "name": "Champion of the Gods",
  "slug": "champion-of-the-gods",
  "year": null,
  "description": "",
  "banner_url": "https://lutris.net/games/banner/champion-of-the-gods.jpg",
  "icon_url": "https://lutris.net/games/icon/champion-of-the-gods.png",
  "is_public": true,
  "updated": "2020-10-08T10:15:32.059677Z",
  "provider_games": [
    {
      "name": "Champion of the Gods",
      "slug": "386520",
      "service": "steam"
    }
  ],
  "steamid": 386520,
  "gogid": null,
  "gogslug": "",
  "humblestoreid": "",
  "id": 16188
}