{
  "id": 23762,
  "game_id": 32269,
  "game_slug": "valorant",
  "name": "Valorant",
  "year": 2020,
  "user": "Leylan",
  "runner": "wine",
  "slug": "valorant-change-me-1",
  "version": "Change Me",
  "description": null,
  "notes": "",
  "created_at": "2020-10-07T19:27:51.793568Z",
  "updated_at": "2020-10-07T19:27:51.793598Z",
  "draft": true,
  "published": false,
  "published_by": null,
  "rating": "",
  "steamid": null,
  "gogid": null,
  "gogslug": "",
  "humbleid": "",
  "humblestoreid": "",
  "humblestoreid_real": "",
  "script": {
    "files": [
      {
        "valorant_installer": "https://valorant.secure.dyn.riotcdn.net/channels/public/x/installer/current/live.live.na.exe"
      }
    ],
    "game": {
      "exe": "$GAMEDIR/drive_c/Riot Games/Valorant/ValorantClient.exe",
      "prefix": "$GAMEDIR"
    },
    "installer": [
      {
        "input_menu": {
          "description": "Choose the game's language:",
          "id": "LOCALE",
          "options": [
            {
              "cs_CZ": "Čeština"
            },
            {
              "en_AU": "English AUS"
            },
            {
              "en_GB": "English U.K."
            },
            {
              "en_US": "English U.S."
            },
            {
              "fr_FR": "Français"
            },
            {
              "de_DE": "Deutsch"
            },
            {
              "es_ES": "Español"
            },
            {
              "es_MX": "Español Mexicano"
            },
            {
              "it_IT": "Italiano"
            },
            {
              "ja_JP": "日本語"
            },
            {
              "hu_HU": "Magyar"
            },
            {
              "pl_PL": "Polski"
            },
            {
              "pt_BR": "Português do Brasil"
            },
            {
              "ro_RO": "Romanian"
            },
            {
              "ru_RU": "русский"
            },
            {
              "tr_TR": "Türkçe"
            }
          ],
          "preselect": "en_US"
        }
      },
      {
        "input_menu": {
          "description": "Choose the game's server region:",
          "id": "REGION",
          "options": [
            {
              "BR": "Brazil"
            },
            {
              "EUNE": "Europe Nordic & East"
            },
            {
              "EUW": "Europe West"
            },
            {
              "LAN": "Latin America North"
            },
            {
              "LAS": "Latin America South"
            },
            {
              "NA": "North America"
            },
            {
              "OCE": "Oceania"
            },
            {
              "RU": "Russia"
            },
            {
              "TR": "Turkey"
            },
            {
              "JP": "Japan"
            },
            {
              "SEA": "South East Asia"
            }
          ],
          "preselect": "NA"
        }
      },
      {
        "task": {
          "arch": "win32",
          "description": "Creating Wine prefix",
          "name": "create_prefix",
          "prefix": "$GAMEDIR"
        }
      },
      {
        "task": {
          "app": "d3dcompiler_43 d3dx9",
          "arch": "win32",
          "name": "winetricks",
          "prefix": "$GAMEDIR"
        }
      },
      {
        "task": {
          "arch": "win32",
          "description": "Installing League of Legends",
          "executable": "valorant_installer",
          "name": "wineexec",
          "prefix": "$GAMEDIR"
        }
      },
      {
        "task": {
          "arch": "win32",
          "name": "winekill",
          "prefix": "$GAMEDIR"
        }
      },
      {
        "task": {
          "arch": "win32",
          "key": "GrabFullScreen",
          "name": "set_regedit",
          "path": "HKEY_CURRENT_USER\\Software\\Wine\\X11 Driver",
          "prefix": "$GAMEDIR",
          "value": "Y"
        }
      },
      {
        "task": {
          "arch": "win32",
          "key": "UseXVidMode",
          "name": "set_regedit",
          "path": "HKEY_CURRENT_USER\\Software\\Wine\\X11 Driver",
          "prefix": "$GAMEDIR",
          "value": "N"
        }
      },
      {
        "write_file": {
          "content": {
            "install": {
              "globals": {
                "locale": "$INPUT_LOCALE",
                "region": "$INPUT_REGION"
              }
            }
          },
          "file": "$GAMEDIR/drive_c/Riot Games/Valorant/Config/ValorantClientSettings.yaml"
        }
      },
      {
        "task": {
          "arch": "win32",
          "name": "winekill",
          "prefix": "$GAMEDIR"
        }
      },
      {
        "write_file": {
          "content": "#!/usr/bin/env sh\n\n# If abi.vsyscall32=0 is already set, no need to do anything\nif [ \"$(cat /proc/sys/abi/vsyscall32)\" -eq 0 ]; then\n    exit 0\nfi\n\ndialog() {\n    zenity \"$@\" --icon-name='lutris' --width=\"400\" --title=\"League of Legends anticheat compatibility check\"\n}\n\nfinal_check() {\n    if [ \"$(cat /proc/sys/abi/vsyscall32)\" -ne 0 ]; then\n        dialog --warning --text=\"As far as this script can detect, your system is not configured to work with League's anticheat. Please verify that you can get into the practice too before playing a multiplayer game.\"\n    fi\n}\n\ntrap final_check EXIT\n\nif grep -E -x -q \"abi.vsyscall32( )?=( )?0\" /etc/sysctl.conf; then\n    if dialog --question --text=\"It looks like you already configured your system to work with League anticheat, and saved the setting to persist across reboots. However, for some reason the persistence part did not work.\\n\\nFor now, would you like to enable the setting again until the next reboot?\"\n    then\n        pkexec sh -c 'sysctl -w abi.vsyscall32=0'\n    fi\n    exit 0\nfi\n\nonce=\"Change setting until next reboot\"\npersist=\"Change setting and persist after reboot\"\nmanual=\"Show me the commands; I'll handle it myself\"\n\nif dialog --question --text=\"League of Legends' anticheat requires using a modified version of wine and changing a system setting. Otherwise, the game will crash after champion select. Wine-lol comes with the Lutris installer, but as far as this script can detect, the setting has not been changed yet.\\nNote: The setting (abi.vsyscall32=0) may reduce the performance of some 32 bit applications.\\n\\nWould you like to change the setting now?\"\nthen\n    # I tried to embed the command in the dialog and run the output, but\n    # parsing variables with embedded quotes is an excercise in frustration.\n    RESULT=$(dialog --list --radiolist --height=\"200\" \\\n        --column=\"\" --column=\"Command\" \\\n        \"TRUE\" \"$once\" \\\n        \"FALSE\" \"$persist\" \\\n        \"FALSE\" \"$manual\")\n\n    case \"$RESULT\" in\n        \"$once\")\n            pkexec sh -c 'sysctl -w abi.vsyscall32=0'\n            ;;\n        \"$persist\")\n            pkexec sh -c 'echo \"abi.vsyscall32 = 0\" >> /etc/sysctl.conf && sysctl -p'\n            ;;\n        \"$manual\")\n            dialog --info --no-wrap --text=\"To change the setting (a kernel parameter) until next boot, run:\\n\\nsudo sh -c 'sysctl -w abi.vsyscall32=0'\\n\\nTo persist the setting between reboots, run:\\n\\nsudo sh -c 'echo \\\"abi.vsyscall32 = 0\\\" >> /etc/sysctl.conf &amp;&amp; sysctl -p'\"\n            # Anyone who wants to do it manually doesn't need another warning\n            trap - EXIT\n            ;;\n        *)\n            echo \"Dialog canceled or unknown option selected: $RESULT\"\n            ;;\n    esac\nfi\n",
          "file": "$GAMEDIR/syscall_check.sh"
        }
      },
      {
        "chmodx": "$GAMEDIR/syscall_check.sh"
      }
    ],
    "system": {
      "disable_compositor": true,
      "env": {
        "DXVK_LOG_LEVEL": "none",
        "DXVK_STATE_CACHE_PATH": "$GAMEDIR",
        "STAGING_SHARED_MEMORY": 1,
        "WINE_LARGE_ADDRESS_AWARE": 1,
        "__GL_SHADER_DISK_CACHE": 1,
        "__GL_SHADER_DISK_CACHE_PATH": "$GAMEDIR"
      },
      "prelaunch_command": "$GAMEDIR/syscall_check.sh"
    },
    "wine": {
      "MouseWarpOverride": "enable",
      "dxvk": true,
      "esync": true,
      "version": "lutris-lol-5.5-2-x86_64"
    }
  },
  "content": "files:\n- valorant_installer: https://valorant.secure.dyn.riotcdn.net/channels/public/x/installer/current/live.live.na.exe\ngame:\n  exe: $GAMEDIR/drive_c/Riot Games/Valorant/ValorantClient.exe\n  prefix: $GAMEDIR\ninstaller:\n- input_menu:\n    description: 'Choose the game''s language:'\n    id: LOCALE\n    options:\n    - cs_CZ: \"\\u010Ce\\u0161tina\"\n    - en_AU: English AUS\n    - en_GB: English U.K.\n    - en_US: English U.S.\n    - fr_FR: \"Fran\\xE7ais\"\n    - de_DE: Deutsch\n    - es_ES: \"Espa\\xF1ol\"\n    - es_MX: \"Espa\\xF1ol Mexicano\"\n    - it_IT: Italiano\n    - ja_JP: \"\\u65E5\\u672C\\u8A9E\"\n    - hu_HU: Magyar\n    - pl_PL: Polski\n    - pt_BR: \"Portugu\\xEAs do Brasil\"\n    - ro_RO: Romanian\n    - ru_RU: \"\\u0440\\u0443\\u0441\\u0441\\u043A\\u0438\\u0439\"\n    - tr_TR: \"T\\xFCrk\\xE7e\"\n    preselect: en_US\n- input_menu:\n    description: 'Choose the game''s server region:'\n    id: REGION\n    options:\n    - BR: Brazil\n    - EUNE: Europe Nordic & East\n    - EUW: Europe West\n    - LAN: Latin America North\n    - LAS: Latin America South\n    - NA: North America\n    - OCE: Oceania\n    - RU: Russia\n    - TR: Turkey\n    - JP: Japan\n    - SEA: South East Asia\n    preselect: NA\n- task:\n    arch: win32\n    description: Creating Wine prefix\n    name: create_prefix\n    prefix: $GAMEDIR\n- task:\n    app: d3dcompiler_43 d3dx9\n    arch: win32\n    name: winetricks\n    prefix: $GAMEDIR\n- task:\n    arch: win32\n    description: Installing League of Legends\n    executable: valorant_installer\n    name: wineexec\n    prefix: $GAMEDIR\n- task:\n    arch: win32\n    name: winekill\n    prefix: $GAMEDIR\n- task:\n    arch: win32\n    key: GrabFullScreen\n    name: set_regedit\n    path: HKEY_CURRENT_USER\\Software\\Wine\\X11 Driver\n    prefix: $GAMEDIR\n    value: Y\n- task:\n    arch: win32\n    key: UseXVidMode\n    name: set_regedit\n    path: HKEY_CURRENT_USER\\Software\\Wine\\X11 Driver\n    prefix: $GAMEDIR\n    value: N\n- write_file:\n    content:\n      install:\n        globals:\n          locale: $INPUT_LOCALE\n          region: $INPUT_REGION\n    file: $GAMEDIR/drive_c/Riot Games/Valorant/Config/ValorantClientSettings.yaml\n- task:\n    arch: win32\n    name: winekill\n    prefix: $GAMEDIR\n- write_file:\n    content: \"#!/usr/bin/env sh\\n\\n# If abi.vsyscall32=0 is already set, no need to\\\n      \\ do anything\\nif [ \\\"$(cat /proc/sys/abi/vsyscall32)\\\" -eq 0 ]; then\\n    exit\\\n      \\ 0\\nfi\\n\\ndialog() {\\n    zenity \\\"$@\\\" --icon-name='lutris' --width=\\\"400\\\"\\\n      \\ --title=\\\"League of Legends anticheat compatibility check\\\"\\n}\\n\\nfinal_check()\\\n      \\ {\\n    if [ \\\"$(cat /proc/sys/abi/vsyscall32)\\\" -ne 0 ]; then\\n        dialog\\\n      \\ --warning --text=\\\"As far as this script can detect, your system is not configured\\\n      \\ to work with League's anticheat. Please verify that you can get into the practice\\\n      \\ too before playing a multiplayer game.\\\"\\n    fi\\n}\\n\\ntrap final_check EXIT\\n\\\n      \\nif grep -E -x -q \\\"abi.vsyscall32( )?=( )?0\\\" /etc/sysctl.conf; then\\n   \\\n      \\ if dialog --question --text=\\\"It looks like you already configured your system\\\n      \\ to work with League anticheat, and saved the setting to persist across reboots.\\\n      \\ However, for some reason the persistence part did not work.\\\\n\\\\nFor now,\\\n      \\ would you like to enable the setting again until the next reboot?\\\"\\n    then\\n\\\n      \\        pkexec sh -c 'sysctl -w abi.vsyscall32=0'\\n    fi\\n    exit 0\\nfi\\n\\\n      \\nonce=\\\"Change setting until next reboot\\\"\\npersist=\\\"Change setting and persist\\\n      \\ after reboot\\\"\\nmanual=\\\"Show me the commands; I'll handle it myself\\\"\\n\\n\\\n      if dialog --question --text=\\\"League of Legends' anticheat requires using a\\\n      \\ modified version of wine and changing a system setting. Otherwise, the game\\\n      \\ will crash after champion select. Wine-lol comes with the Lutris installer,\\\n      \\ but as far as this script can detect, the setting has not been changed yet.\\\\\\\n      nNote: The setting (abi.vsyscall32=0) may reduce the performance of some 32\\\n      \\ bit applications.\\\\n\\\\nWould you like to change the setting now?\\\"\\nthen\\n\\\n      \\    # I tried to embed the command in the dialog and run the output, but\\n\\\n      \\    # parsing variables with embedded quotes is an excercise in frustration.\\n\\\n      \\    RESULT=$(dialog --list --radiolist --height=\\\"200\\\" \\\\\\n        --column=\\\"\\\n      \\\" --column=\\\"Command\\\" \\\\\\n        \\\"TRUE\\\" \\\"$once\\\" \\\\\\n        \\\"FALSE\\\"\\\n      \\ \\\"$persist\\\" \\\\\\n        \\\"FALSE\\\" \\\"$manual\\\")\\n\\n    case \\\"$RESULT\\\" in\\n\\\n      \\        \\\"$once\\\")\\n            pkexec sh -c 'sysctl -w abi.vsyscall32=0'\\n\\\n      \\            ;;\\n        \\\"$persist\\\")\\n            pkexec sh -c 'echo \\\"abi.vsyscall32\\\n      \\ = 0\\\" >> /etc/sysctl.conf && sysctl -p'\\n            ;;\\n        \\\"$manual\\\"\\\n      )\\n            dialog --info --no-wrap --text=\\\"To change the setting (a kernel\\\n      \\ parameter) until next boot, run:\\\\n\\\\nsudo sh -c 'sysctl -w abi.vsyscall32=0'\\\\\\\n      n\\\\nTo persist the setting between reboots, run:\\\\n\\\\nsudo sh -c 'echo \\\\\\\"\\\n      abi.vsyscall32 = 0\\\\\\\" >> /etc/sysctl.conf &amp;&amp; sysctl -p'\\\"\\n       \\\n      \\     # Anyone who wants to do it manually doesn't need another warning\\n  \\\n      \\          trap - EXIT\\n            ;;\\n        *)\\n            echo \\\"Dialog\\\n      \\ canceled or unknown option selected: $RESULT\\\"\\n            ;;\\n    esac\\n\\\n      fi\\n\"\n    file: $GAMEDIR/syscall_check.sh\n- chmodx: $GAMEDIR/syscall_check.sh\nsystem:\n  disable_compositor: true\n  env:\n    DXVK_LOG_LEVEL: none\n    DXVK_STATE_CACHE_PATH: $GAMEDIR\n    STAGING_SHARED_MEMORY: 1\n    WINE_LARGE_ADDRESS_AWARE: 1\n    __GL_SHADER_DISK_CACHE: 1\n    __GL_SHADER_DISK_CACHE_PATH: $GAMEDIR\n  prelaunch_command: $GAMEDIR/syscall_check.sh\nwine:\n  MouseWarpOverride: enable\n  dxvk: true\n  esync: true\n  version: lutris-lol-5.5-2-x86_64\n"
}