{
  "name": "Draugen",
  "slug": "draugen",
  "year": null,
  "description": "",
  "banner_url": "https://lutris.net/games/banner/draugen.jpg",
  "icon_url": "",
  "is_public": true,
  "updated": "2020-05-31T00:17:40.627193Z",
  "provider_games": [
    {
      "name": "Draugen",
      "slug": "1567038173",
      "service": "gog"
    },
    {
      "name": "Draugen",
      "slug": "770390",
      "service": "steam"
    }
  ],
  "steamid": 770390,
  "gogid": 1567038173,
  "gogslug": "draugen",
  "humblestoreid": "",
  "id": 24167
}