{
  "id": 8250,
  "game_id": 443,
  "game_slug": "star-wars-jedi-knight-jedi-academy",
  "name": "Star Wars Jedi Knight: Jedi Academy",
  "year": 2003,
  "user": "exit_head",
  "runner": "linux",
  "slug": "star-wars-jedi-knight-jedi-ac-gog-openjk",
  "version": "GOG + OpenJK",
  "description": null,
  "notes": "",
  "created_at": "2018-05-09T09:32:30.639000Z",
  "updated_at": "2020-11-02T12:52:44.348637Z",
  "draft": false,
  "published": true,
  "published_by": 1,
  "rating": "",
  "steamid": 6020,
  "gogid": 1428935726,
  "gogslug": "star_wars_jedi_knight_jedi_academy",
  "humbleid": "",
  "humblestoreid": "",
  "humblestoreid_real": "",
  "script": {
    "files": [
      {
        "goginstaller": "N/A:Please select the GOG installer"
      },
      {
        "openjk-build": "http://builds.openjk.org/openjk-2018-02-26-e3f22070-linux-64.tar.gz"
      },
      {
        "inno": "http://constexpr.org/innoextract/files/innoextract-1.6-linux.tar.xz"
      }
    ],
    "game": {
      "exe": "$GAMEDIR/openjk_sp.x86_64"
    },
    "installer": [
      {
        "extract": {
          "dst": "$CACHE",
          "file": "$inno"
        }
      },
      {
        "execute": {
          "args": "-d \"$CACHE\" \"$goginstaller\"",
          "file": "$CACHE/innoextract"
        }
      },
      {
        "extract": {
          "dst": "$CACHE",
          "file": "openjk-build"
        }
      },
      {
        "merge": {
          "dst": "$GAMEDIR",
          "src": "$CACHE/JediAcademy/"
        }
      },
      {
        "merge": {
          "dst": "$GAMEDIR/base",
          "src": "$CACHE/app/GameData/base"
        }
      }
    ]
  },
  "content": "files:\n- goginstaller: N/A:Please select the GOG installer\n- openjk-build: http://builds.openjk.org/openjk-2018-02-26-e3f22070-linux-64.tar.gz\n- inno: http://constexpr.org/innoextract/files/innoextract-1.6-linux.tar.xz\ngame:\n  exe: $GAMEDIR/openjk_sp.x86_64\ninstaller:\n- extract:\n    dst: $CACHE\n    file: $inno\n- execute:\n    args: -d \"$CACHE\" \"$goginstaller\"\n    file: $CACHE/innoextract\n- extract:\n    dst: $CACHE\n    file: openjk-build\n- merge:\n    dst: $GAMEDIR\n    src: $CACHE/JediAcademy/\n- merge:\n    dst: $GAMEDIR/base\n    src: $CACHE/app/GameData/base\n"
}