{
  "name": "Crab Cakes Rescue",
  "slug": "crab-cakes-rescue",
  "year": null,
  "description": "",
  "banner_url": "https://lutris.net/games/banner/crab-cakes-rescue.jpg",
  "icon_url": "https://lutris.net/games/icon/crab-cakes-rescue.png",
  "is_public": true,
  "updated": "2020-10-08T09:19:37.778008Z",
  "provider_games": [
    {
      "name": "Crab Cakes Rescue",
      "slug": "328680",
      "service": "steam"
    }
  ],
  "steamid": 328680,
  "gogid": null,
  "gogslug": "",
  "humblestoreid": "",
  "id": 5678
}