{
  "name": "Albion Online",
  "slug": "albion-online",
  "year": 2017,
  "description": "Albion Online is a sandbox MMORPG set in an open medieval fantasy world. The game features a player-driven economy where nearly every item is player-crafted. Combine armor pieces and weapons suited to your playstyle in a unique, classless \"you are what you wear\" system. Explore the world, take on other adventurers in thrilling battles, conquer territories, and build a home.\r\n\r\nCraft. Trade. Conquer.\r\nDive in now and become part of a living fantasy world where everybody matters.",
  "banner_url": "https://lutris.net/games/banner/albion-online.jpg",
  "icon_url": "",
  "is_public": true,
  "updated": "2019-01-23T08:28:17.898027Z",
  "provider_games": [
    {
      "name": "Albion Online",
      "slug": "761890",
      "service": "steam"
    }
  ],
  "steamid": 761890,
  "gogid": null,
  "gogslug": "",
  "humblestoreid": "",
  "id": 9014
}