{
  "name": "House of Velez - part 1",
  "slug": "house-of-velez-part-1",
  "year": null,
  "description": "",
  "banner_url": "https://lutris.net/games/banner/house-of-velez-part-1.jpg",
  "icon_url": "https://lutris.net/games/icon/house-of-velez-part-1.png",
  "is_public": true,
  "updated": "2020-10-08T10:00:22.691102Z",
  "provider_games": [
    {
      "name": "House of Velez - part 1",
      "slug": "724010",
      "service": "steam"
    }
  ],
  "steamid": 724010,
  "gogid": null,
  "gogslug": "",
  "humblestoreid": "",
  "id": 17124
}