{
  "id": 21077,
  "game_id": 37041,
  "game_slug": "fish",
  "name": "Fish",
  "year": 1988,
  "user": "appoloin",
  "runner": "frotz",
  "slug": "fish-ms-dos",
  "version": "MS-DOS",
  "description": null,
  "notes": "",
  "created_at": "2020-05-31T07:57:14.596000Z",
  "updated_at": "2020-05-31T08:38:46.810196Z",
  "draft": false,
  "published": true,
  "published_by": 20548,
  "rating": "",
  "steamid": null,
  "gogid": null,
  "gogslug": "",
  "humbleid": "",
  "humblestoreid": "",
  "humblestoreid_real": "",
  "script": {
    "files": [
      {
        "game": "N/A:Select the MAG file"
      },
      {
        "game1": "N/A:Select the GXF file"
      }
    ],
    "game": {
      "story": "$GAMEDIR/fish.mag"
    },
    "installer": [
      {
        "execute": {
          "args": "$game $GAMEDIR/fish.mag",
          "file": "/bin/cp"
        }
      },
      {
        "execute": {
          "args": "$game1 $GAMEDIR/fish.gfx",
          "file": "/bin/cp"
        }
      }
    ]
  },
  "content": "files:\n- game: N/A:Select the MAG file\n- game1: N/A:Select the GXF file\ngame:\n  story: $GAMEDIR/fish.mag\ninstaller:\n- execute:\n    args: $game $GAMEDIR/fish.mag\n    file: /bin/cp\n- execute:\n    args: $game1 $GAMEDIR/fish.gfx\n    file: /bin/cp\n"
}