{
  "name": "Legion TD 2",
  "slug": "legion-td-2",
  "year": null,
  "description": "",
  "banner_url": "https://lutris.net/games/banner/legion-td-2.jpg",
  "icon_url": "https://lutris.net/games/icon/legion-td-2.png",
  "is_public": true,
  "updated": "2019-10-11T01:56:28.387955Z",
  "provider_games": [
    {
      "name": "Legion TD 2",
      "slug": "469600",
      "service": "steam"
    }
  ],
  "steamid": 469600,
  "gogid": null,
  "gogslug": "",
  "humblestoreid": "",
  "id": 19800
}