{
  "name": "Lightbender",
  "slug": "lightbender",
  "year": null,
  "description": "",
  "banner_url": "https://lutris.net/games/banner/lightbender.jpg",
  "icon_url": "https://lutris.net/games/icon/lightbender.png",
  "is_public": true,
  "updated": "2019-01-23T08:30:10.827326Z",
  "provider_games": [
    {
      "name": "Lightbender",
      "slug": "415990",
      "service": "steam"
    }
  ],
  "steamid": 415990,
  "gogid": null,
  "gogslug": "",
  "humblestoreid": "",
  "id": 19332
}