{
  "name": "Airborne Ranger",
  "slug": "airborne-ranger",
  "year": 1987,
  "description": "Arguably the first ever tactical simulation of modern warfare, Airborne Ranger was billed as \"action simulation,\" and it flawlessly fulfills that audacious claim. For the first time, success in a military-themed game requires stealth and careful planning in addition to quick reflexes. Game description and review at MobyGames says it all about this ground-breaking classic:",
  "banner_url": "https://lutris.net/games/banner/airborne-ranger.jpg",
  "icon_url": "",
  "is_public": true,
  "updated": "2019-01-23T08:28:16.605550Z",
  "provider_games": [],
  "steamid": null,
  "gogid": null,
  "gogslug": "",
  "humblestoreid": "",
  "id": 19158
}