{
  "name": "FIRST TELEGRAM WAR",
  "slug": "first-telegram-war",
  "year": null,
  "description": "",
  "banner_url": "https://lutris.net/games/banner/first-telegram-war.jpg",
  "icon_url": "https://lutris.net/games/icon/first-telegram-war.png",
  "is_public": false,
  "updated": "2019-01-23T08:29:31.590882Z",
  "provider_games": [],
  "steamid": 793700,
  "gogid": null,
  "gogslug": "",
  "humblestoreid": "",
  "id": 21340
}