{
  "name": "Domino Craft VR",
  "slug": "domino-craft-vr",
  "year": null,
  "description": "",
  "banner_url": "https://lutris.net/games/banner/domino-craft-vr.jpg",
  "icon_url": "https://lutris.net/games/icon/domino-craft-vr.png",
  "is_public": true,
  "updated": "2020-10-08T10:05:10.360365Z",
  "provider_games": [
    {
      "name": "Domino Craft VR",
      "slug": "571230",
      "service": "steam"
    }
  ],
  "steamid": 571230,
  "gogid": null,
  "gogslug": "",
  "humblestoreid": "",
  "id": 11009
}