{
  "name": "Diet Go Go",
  "slug": "diet-go-go",
  "year": 1992,
  "description": "",
  "banner_url": "https://lutris.net/games/banner/diet-go-go.jpg",
  "icon_url": "https://lutris.net/games/icon/diet-go-go.png",
  "is_public": true,
  "updated": "2020-05-26T03:33:14.533389Z",
  "provider_games": [
    {
      "name": "Diet Go Go",
      "slug": "dietgo",
      "service": "mame"
    }
  ],
  "steamid": null,
  "gogid": null,
  "gogslug": "",
  "humblestoreid": "",
  "id": 33892
}