{
  "name": "Drunken Fight Simulator",
  "slug": "drunken-fight-simulator",
  "year": null,
  "description": "",
  "banner_url": "https://lutris.net/games/banner/drunken-fight-simulator.jpg",
  "icon_url": "https://lutris.net/games/icon/drunken-fight-simulator.png",
  "is_public": true,
  "updated": "2020-10-08T10:05:01.534389Z",
  "provider_games": [
    {
      "name": "Drunken Fight Simulator",
      "slug": "576480",
      "service": "steam"
    }
  ],
  "steamid": 576480,
  "gogid": null,
  "gogslug": "",
  "humblestoreid": "",
  "id": 11018
}