{
  "name": "Gas Guzzlers Extreme",
  "slug": "gas-guzzlers-extreme",
  "year": null,
  "description": "",
  "banner_url": "https://lutris.net/games/banner/gas-guzzlers-extreme.jpg",
  "icon_url": "https://lutris.net/games/icon/gas-guzzlers-extreme.png",
  "is_public": true,
  "updated": "2020-10-08T09:21:21.717800Z",
  "provider_games": [
    {
      "name": "Gas Guzzlers Extreme",
      "slug": "243800",
      "service": "steam"
    }
  ],
  "steamid": 243800,
  "gogid": null,
  "gogslug": "",
  "humblestoreid": "",
  "id": 1580
}