{
  "name": "FreeSO",
  "slug": "freeso",
  "year": 2017,
  "description": "FreeSO (“Free Simulator Online”) is a reimplementation of The Sims Online™’s game engine, using C# and Monogame.",
  "banner_url": "https://lutris.net/games/banner/freeso.jpg",
  "icon_url": "",
  "is_public": true,
  "updated": "2019-01-23T08:29:35.251960Z",
  "provider_games": [],
  "steamid": null,
  "gogid": null,
  "gogslug": "",
  "humblestoreid": "",
  "id": 12352
}