{
  "name": "Abnormal Check",
  "slug": "abnormal-check",
  "year": 1996,
  "description": "",
  "banner_url": "",
  "icon_url": "https://lutris.net/games/icon/abnormal-check.png",
  "is_public": true,
  "updated": "2020-05-26T03:31:40.491041Z",
  "provider_games": [
    {
      "name": "Abnormal Check",
      "slug": "abcheck",
      "service": "mame"
    }
  ],
  "steamid": null,
  "gogid": null,
  "gogslug": "",
  "humblestoreid": "",
  "id": 33262
}