{
  "name": "Lif",
  "slug": "lif",
  "year": null,
  "description": "",
  "banner_url": "https://lutris.net/games/banner/lif.jpg",
  "icon_url": "https://lutris.net/games/icon/lif.png",
  "is_public": true,
  "updated": "2020-10-08T10:16:43.650538Z",
  "provider_games": [
    {
      "name": "Lif",
      "slug": "346220",
      "service": "steam"
    }
  ],
  "steamid": 346220,
  "gogid": null,
  "gogslug": "",
  "humblestoreid": "",
  "id": 11057
}