{
  "name": "Goodnight Butcher",
  "slug": "goodnight-butcher",
  "year": null,
  "description": "",
  "banner_url": "https://lutris.net/games/banner/goodnight-butcher.jpg",
  "icon_url": "https://lutris.net/games/icon/goodnight-butcher.png",
  "is_public": true,
  "updated": "2019-01-23T08:29:41.655406Z",
  "provider_games": [
    {
      "name": "Goodnight Butcher",
      "slug": "426040",
      "service": "steam"
    }
  ],
  "steamid": 426040,
  "gogid": null,
  "gogslug": "",
  "humblestoreid": "",
  "id": 7009
}