{
  "name": "Bitcoin Collector: Spinners Attack",
  "slug": "bitcoin-collector-spinners-attack",
  "year": null,
  "description": "",
  "banner_url": "https://lutris.net/games/banner/bitcoin-collector-spinners-attack.jpg",
  "icon_url": "https://lutris.net/games/icon/bitcoin-collector-spinners-attack.png",
  "is_public": true,
  "updated": "2020-10-08T10:00:25.931300Z",
  "provider_games": [
    {
      "name": "Bitcoin Collector: Spinners Attack",
      "slug": "722020",
      "service": "steam"
    }
  ],
  "steamid": 722020,
  "gogid": null,
  "gogslug": "",
  "humblestoreid": "",
  "id": 30615
}