{
  "id": 19805,
  "game_id": 32591,
  "game_slug": "bloom",
  "name": "Bloom",
  "year": 2019,
  "user": "strider",
  "runner": "zdoom",
  "slug": "bloom-gog-doom-ii-bloom-16",
  "version": "GOG Doom II + Bloom 1.666",
  "description": null,
  "notes": "",
  "created_at": "2020-04-19T00:16:07.575000Z",
  "updated_at": "2020-04-19T00:46:53.102189Z",
  "draft": false,
  "published": true,
  "published_by": 1,
  "rating": "",
  "steamid": null,
  "gogid": null,
  "gogslug": "",
  "humbleid": "",
  "humblestoreid": "",
  "humblestoreid_real": "",
  "script": {
    "files": [
      {
        "bloom_archive": "https://lutris.nyc3.digitaloceanspaces.com/games/bloom/Bloom_demo_ver1.666.7z"
      },
      {
        "inno": "http://constexpr.org/innoextract/files/snapshots/innoextract-1.8-dev-2019-01-13/innoextract-1.8-dev-2019-01-13-linux.tar.xz"
      },
      {
        "doom2_gog": "N/A"
      }
    ],
    "game": {
      "files": [
        "$GAMEDIR/Bloom_demo_ver1.666.pk3"
      ],
      "gogid": 1435848814,
      "main_file": "$GAMEDIR/DOOM2.WAD"
    },
    "installer": [
      {
        "extract": {
          "dst": "$CACHE/innoextract",
          "file": "inno"
        }
      },
      {
        "execute": {
          "args": "--extract $doom2_gog --output-dir \"$CACHE/doom2\"",
          "file": "$CACHE/innoextract/innoextract"
        }
      },
      {
        "move": {
          "dst": "$GAMEDIR",
          "src": "$CACHE/doom2/doom2/DOOM2.WAD"
        }
      },
      {
        "extract": {
          "dst": "$GAMEDIR",
          "file": "bloom_archive"
        }
      }
    ]
  },
  "content": "files:\n- bloom_archive: https://lutris.nyc3.digitaloceanspaces.com/games/bloom/Bloom_demo_ver1.666.7z\n- inno: http://constexpr.org/innoextract/files/snapshots/innoextract-1.8-dev-2019-01-13/innoextract-1.8-dev-2019-01-13-linux.tar.xz\n- doom2_gog: N/A\ngame:\n  files:\n  - $GAMEDIR/Bloom_demo_ver1.666.pk3\n  gogid: 1435848814\n  main_file: $GAMEDIR/DOOM2.WAD\ninstaller:\n- extract:\n    dst: $CACHE/innoextract\n    file: inno\n- execute:\n    args: --extract $doom2_gog --output-dir \"$CACHE/doom2\"\n    file: $CACHE/innoextract/innoextract\n- move:\n    dst: $GAMEDIR\n    src: $CACHE/doom2/doom2/DOOM2.WAD\n- extract:\n    dst: $GAMEDIR\n    file: bloom_archive\n"
}