{
  "name": "Fake World VR",
  "slug": "fake-world-vr",
  "year": null,
  "description": "",
  "banner_url": "https://lutris.net/games/banner/fake-world-vr.jpg",
  "icon_url": "https://lutris.net/games/icon/fake-world-vr.png",
  "is_public": true,
  "updated": "2020-10-08T10:01:08.406194Z",
  "provider_games": [
    {
      "name": "Fake World VR",
      "slug": "693330",
      "service": "steam"
    }
  ],
  "steamid": 693330,
  "gogid": null,
  "gogslug": "",
  "humblestoreid": "",
  "id": 23093
}