{
  "name": "Killer Comet",
  "slug": "killer-comet",
  "year": 1980,
  "description": "",
  "banner_url": "https://lutris.net/games/banner/killer-comet.jpg",
  "icon_url": "https://lutris.net/games/icon/killer-comet.png",
  "is_public": true,
  "updated": "2020-05-26T03:35:01.889774Z",
  "provider_games": [
    {
      "name": "Killer Comet",
      "slug": "killcom",
      "service": "mame"
    }
  ],
  "steamid": null,
  "gogid": null,
  "gogslug": "",
  "humblestoreid": "",
  "id": 34629
}