{
  "name": "1953 - KGB Unleashed",
  "slug": "1953-kgb-unleashed",
  "year": null,
  "description": "",
  "banner_url": "https://lutris.net/games/banner/1953-kgb-unleashed.jpg",
  "icon_url": "https://lutris.net/games/icon/1953-kgb-unleashed.png",
  "is_public": true,
  "updated": "2020-10-08T09:21:18.498804Z",
  "provider_games": [
    {
      "name": "1953 - KGB Unleashed",
      "slug": "248490",
      "service": "steam"
    }
  ],
  "steamid": 248490,
  "gogid": null,
  "gogslug": "",
  "humblestoreid": "",
  "id": 1204
}