{
  "name": "East India Company Gold",
  "slug": "east-india-company-gold",
  "year": null,
  "description": "",
  "banner_url": "https://lutris.net/games/banner/east-india-company-gold.jpg",
  "icon_url": "https://lutris.net/games/icon/east-india-company-gold.png",
  "is_public": true,
  "updated": "2019-01-23T08:29:20.967853Z",
  "provider_games": [
    {
      "name": "East India Company Gold",
      "slug": "254000",
      "service": "steam"
    }
  ],
  "steamid": 254000,
  "gogid": null,
  "gogslug": "",
  "humblestoreid": "",
  "id": 1209
}