{
  "name": "Hot Blocks - Tetrix II",
  "slug": "hot-blocks-tetrix-ii",
  "year": 1993,
  "description": "",
  "banner_url": "",
  "icon_url": "https://lutris.net/games/icon/hot-blocks-tetrix-ii.png",
  "is_public": true,
  "updated": "2020-05-26T03:34:36.736658Z",
  "provider_games": [
    {
      "name": "Hot Blocks - Tetrix II",
      "slug": "hotblock",
      "service": "mame"
    }
  ],
  "steamid": null,
  "gogid": null,
  "gogslug": "",
  "humblestoreid": "",
  "id": 34424
}