{
  "name": "Cinderella Escape 2 Revenge",
  "slug": "cinderella-escape-2-revenge",
  "year": null,
  "description": "",
  "banner_url": "https://lutris.net/games/banner/cinderella-escape-2-revenge.jpg",
  "icon_url": "https://lutris.net/games/icon/cinderella-escape-2-revenge.png",
  "is_public": true,
  "updated": "2020-10-08T10:00:44.729380Z",
  "provider_games": [
    {
      "name": "Cinderella Escape 2 Revenge",
      "slug": "710030",
      "service": "steam"
    }
  ],
  "steamid": 710030,
  "gogid": null,
  "gogslug": "",
  "humblestoreid": "",
  "id": 18038
}