{
  "name": "Buried: An Interactive Story",
  "slug": "buried-an-interactive-story",
  "year": null,
  "description": "",
  "banner_url": "https://lutris.net/games/banner/buried-an-interactive-story.jpg",
  "icon_url": "https://lutris.net/games/icon/buried-an-interactive-story.png",
  "is_public": true,
  "updated": "2020-10-08T10:14:09.193044Z",
  "provider_games": [
    {
      "name": "Buried: An Interactive Story",
      "slug": "434370",
      "service": "steam"
    }
  ],
  "steamid": 434370,
  "gogid": null,
  "gogslug": "",
  "humblestoreid": "",
  "id": 11641
}