{
  "id": 2665,
  "game_id": 4888,
  "game_slug": "soma",
  "name": "SOMA",
  "year": 2015,
  "user": "ssf",
  "runner": "linux",
  "slug": "soma-gog",
  "version": "GOG",
  "description": null,
  "notes": "",
  "created_at": "2016-09-01T19:31:09.126000Z",
  "updated_at": "2019-02-06T22:02:00.077209Z",
  "draft": false,
  "published": true,
  "published_by": 19464,
  "rating": "",
  "steamid": 282140,
  "gogid": 1439487606,
  "gogslug": "soma",
  "humbleid": "soma",
  "humblestoreid": "soma",
  "humblestoreid_real": "soma",
  "script": {
    "files": [
      {
        "goginstaller": "N/A:Please select the GOG.com Linux installer"
      }
    ],
    "game": {
      "exe": "start.sh"
    },
    "installer": [
      {
        "extract": {
          "dst": "$CACHE/GOG",
          "file": "goginstaller",
          "format": "zip"
        }
      },
      {
        "merge": {
          "dst": "$GAMEDIR",
          "src": "$CACHE/GOG/data/noarch/"
        }
      }
    ]
  },
  "content": "files:\n- goginstaller: N/A:Please select the GOG.com Linux installer\ngame:\n  exe: start.sh\ninstaller:\n- extract:\n    dst: $CACHE/GOG\n    file: goginstaller\n    format: zip\n- merge:\n    dst: $GAMEDIR\n    src: $CACHE/GOG/data/noarch/\n"
}