{
  "name": "Candy Smash VR",
  "slug": "candy-smash-vr",
  "year": null,
  "description": "",
  "banner_url": "https://lutris.net/games/banner/candy-smash-vr.jpg",
  "icon_url": "https://lutris.net/games/icon/candy-smash-vr.png",
  "is_public": true,
  "updated": "2020-10-08T10:07:18.426480Z",
  "provider_games": [
    {
      "name": "Candy Smash VR",
      "slug": "503900",
      "service": "steam"
    }
  ],
  "steamid": 503900,
  "gogid": null,
  "gogslug": "",
  "humblestoreid": "",
  "id": 10870
}