{
  "name": "BoX -containment-",
  "slug": "box-containment-",
  "year": null,
  "description": "",
  "banner_url": "https://lutris.net/games/banner/box-containment-.jpg",
  "icon_url": "https://lutris.net/games/icon/box-containment-.png",
  "is_public": true,
  "updated": "2020-10-08T10:13:01.161478Z",
  "provider_games": [
    {
      "name": "BoX -containment-",
      "slug": "479150",
      "service": "steam"
    }
  ],
  "steamid": 479150,
  "gogid": null,
  "gogslug": "",
  "humblestoreid": "",
  "id": 10826
}