{
  "name": "GlPortal",
  "slug": "glportal",
  "year": null,
  "description": "GlPortal is a free game for GNU/Linux, Windows and Mac OS X. The Objective is to reach the cake by means of teleportation.\r\n\r\nGlPortal is under active development. It is not a Portal clone (Is GlPortal is a free Portal clone?), it features its own story centered around an ambitious lab assistant named Ada, who has to solve dangerous tasks for science on a daily basis. Her sidekick, a know-it-all Robot with a more than impressive laser canon, and an overexcited professor support her in her mission. Most of the time she has to dodge lasers and bullets while preventing the destruction of all life on earth. She is aided in her quest by the newest gizmo created by the engineers downstairs.",
  "banner_url": "https://lutris.net/games/banner/glportal.jpg",
  "icon_url": "",
  "is_public": true,
  "updated": "2019-01-23T08:29:40.371185Z",
  "provider_games": [],
  "steamid": null,
  "gogid": null,
  "gogslug": "",
  "humblestoreid": "",
  "id": 9712
}