{
  "name": "Inertia",
  "slug": "inertia",
  "year": null,
  "description": "",
  "banner_url": "https://lutris.net/games/banner/inertia.jpg",
  "icon_url": "https://lutris.net/games/icon/inertia.png",
  "is_public": true,
  "updated": "2020-10-08T10:09:24.526805Z",
  "provider_games": [
    {
      "name": "Inertia",
      "slug": "666330",
      "service": "steam"
    }
  ],
  "steamid": 666330,
  "gogid": null,
  "gogslug": "",
  "humblestoreid": "",
  "id": 20128
}