{
  "name": "Insaniquarium! Deluxe",
  "slug": "insaniquarium-deluxe",
  "year": null,
  "description": "",
  "banner_url": "https://lutris.net/games/banner/insaniquarium-deluxe.jpg",
  "icon_url": "https://lutris.net/games/icon/insaniquarium-deluxe.png",
  "is_public": true,
  "updated": "2019-01-23T08:29:57.189499Z",
  "provider_games": [
    {
      "name": "Insaniquarium! Deluxe",
      "slug": "3320",
      "service": "steam"
    }
  ],
  "steamid": 3320,
  "gogid": null,
  "gogslug": "",
  "humblestoreid": "",
  "id": 3011
}