{
  "name": "EVERSPACE™ 2",
  "slug": "everspacetm-2",
  "year": null,
  "description": "",
  "banner_url": "https://lutris.net/games/banner/everspacetm-2.jpg",
  "icon_url": "https://lutris.net/games/icon/everspacetm-2.png",
  "is_public": true,
  "updated": "2020-10-08T10:11:03.675059Z",
  "provider_games": [
    {
      "name": "EVERSPACE™ 2",
      "slug": "1128920",
      "service": "steam"
    }
  ],
  "steamid": 1128920,
  "gogid": null,
  "gogslug": "",
  "humblestoreid": "",
  "id": 38869
}