{
  "name": "Calico & Co",
  "slug": "calico-co",
  "year": null,
  "description": "",
  "banner_url": "https://lutris.net/games/banner/calico-co.jpg",
  "icon_url": "https://lutris.net/games/icon/calico-co.png",
  "is_public": true,
  "updated": "2020-10-08T10:03:36.199571Z",
  "provider_games": [
    {
      "name": "Calico & Co",
      "slug": "620580",
      "service": "steam"
    }
  ],
  "steamid": 620580,
  "gogid": null,
  "gogslug": "",
  "humblestoreid": "",
  "id": 13153
}