{
  "name": "DJ Boy",
  "slug": "dj-boy",
  "year": 1989,
  "description": "",
  "banner_url": "",
  "icon_url": "https://lutris.net/games/icon/dj-boy.png",
  "is_public": true,
  "updated": "2020-05-26T03:33:16.795133Z",
  "provider_games": [
    {
      "name": "DJ Boy",
      "slug": "djboy",
      "service": "mame"
    }
  ],
  "steamid": null,
  "gogid": null,
  "gogslug": "",
  "humblestoreid": "",
  "id": 33904
}