{
  "name": "A Tale of Caos: Overture",
  "slug": "a-tale-of-caos-overture",
  "year": null,
  "description": "",
  "banner_url": "https://lutris.net/games/banner/a-tale-of-caos-overture.jpg",
  "icon_url": "https://lutris.net/games/icon/a-tale-of-caos-overture.png",
  "is_public": true,
  "updated": "2020-10-08T10:07:23.646583Z",
  "provider_games": [
    {
      "name": "A Tale of Caos: Overture",
      "slug": "500320",
      "service": "steam"
    }
  ],
  "steamid": 500320,
  "gogid": null,
  "gogslug": "",
  "humblestoreid": "",
  "id": 16627
}