{
  "name": "Cubic complex",
  "slug": "cubic-complex",
  "year": null,
  "description": "",
  "banner_url": "https://lutris.net/games/banner/cubic-complex.jpg",
  "icon_url": "https://lutris.net/games/icon/cubic-complex.png",
  "is_public": true,
  "updated": "2020-10-08T10:17:33.725883Z",
  "provider_games": [
    {
      "name": "Cubic complex",
      "slug": "500100",
      "service": "steam"
    }
  ],
  "steamid": 500100,
  "gogid": null,
  "gogslug": "",
  "humblestoreid": "",
  "id": 10863
}