{
  "name": "Dungeons & Robots",
  "slug": "dungeons-robots",
  "year": null,
  "description": "",
  "banner_url": "https://lutris.net/games/banner/dungeons-robots.jpg",
  "icon_url": "https://lutris.net/games/icon/dungeons-robots.png",
  "is_public": true,
  "updated": "2020-10-08T10:15:32.318652Z",
  "provider_games": [
    {
      "name": "Dungeons & Robots",
      "slug": "386650",
      "service": "steam"
    }
  ],
  "steamid": 386650,
  "gogid": null,
  "gogslug": "",
  "humblestoreid": "",
  "id": 12422
}