{
  "name": "Insector",
  "slug": "insector",
  "year": 1982,
  "description": "",
  "banner_url": "",
  "icon_url": "https://lutris.net/games/icon/insector.png",
  "is_public": true,
  "updated": "2020-05-26T03:34:43.102712Z",
  "provider_games": [
    {
      "name": "Insector",
      "slug": "insector",
      "service": "mame"
    }
  ],
  "steamid": null,
  "gogid": null,
  "gogslug": "",
  "humblestoreid": "",
  "id": 34486
}