{
  "id": 22016,
  "game_id": 31842,
  "game_slug": "three-sisters-story",
  "name": "Three Sister's Story",
  "year": 1996,
  "user": "nezlob94",
  "runner": "dosbox",
  "slug": "three-sisters-story-rus",
  "version": "RUS",
  "description": null,
  "notes": "",
  "created_at": "2020-06-28T11:21:27.270205Z",
  "updated_at": "2020-06-28T11:21:27.270234Z",
  "draft": true,
  "published": false,
  "published_by": null,
  "rating": "",
  "steamid": null,
  "gogid": null,
  "gogslug": "",
  "humbleid": "",
  "humblestoreid": "",
  "humblestoreid_real": "",
  "script": {
    "files": [
      {
        "archive": "https://github.com/nezlob994/Lutrisgames/raw/master/TSSRU.tar.gz"
      }
    ],
    "game": {
      "main_file": "$GAMEDIR/3SIS.bat",
      "working_dir": "$GAMEDIR"
    },
    "installer": [
      {
        "extract": {
          "dst": "$GAMEDIR",
          "src": "archive"
        }
      }
    ]
  },
  "content": "files:\n- archive: https://github.com/nezlob994/Lutrisgames/raw/master/TSSRU.tar.gz\ngame:\n  main_file: $GAMEDIR/3SIS.bat\n  working_dir: $GAMEDIR\ninstaller:\n- extract:\n    dst: $GAMEDIR\n    src: archive\n"
}