{
  "name": "Dashing Dinosaurs & Sexy Centaurs: Winter's Tale",
  "slug": "dashing-dinosaurs-sexy-centaurs-winters-tale",
  "year": 2019,
  "description": "",
  "banner_url": "https://lutris.net/games/banner/dashing-dinosaurs-sexy-centaurs-winters-tale.jpg",
  "icon_url": "",
  "is_public": true,
  "updated": "2020-08-29T22:37:58.426121Z",
  "provider_games": [],
  "steamid": null,
  "gogid": null,
  "gogslug": "",
  "humblestoreid": "",
  "id": 37807
}