{
  "name": "Konrad the Rocket",
  "slug": "konrad-the-rocket",
  "year": null,
  "description": "",
  "banner_url": "https://lutris.net/games/banner/konrad-the-rocket.jpg",
  "icon_url": "https://lutris.net/games/icon/konrad-the-rocket.png",
  "is_public": true,
  "updated": "2020-10-08T10:00:33.013161Z",
  "provider_games": [
    {
      "name": "Konrad the Rocket",
      "slug": "717060",
      "service": "steam"
    }
  ],
  "steamid": 717060,
  "gogid": null,
  "gogslug": "",
  "humblestoreid": "",
  "id": 33042
}