{
  "name": "BLUE REFLECTION",
  "slug": "blue-reflection",
  "year": null,
  "description": "",
  "banner_url": "https://lutris.net/games/banner/blue-reflection.jpg",
  "icon_url": "https://lutris.net/games/icon/blue-reflection.png",
  "is_public": true,
  "updated": "2020-10-08T10:10:16.280412Z",
  "provider_games": [
    {
      "name": "BLUE REFLECTION",
      "slug": "658260",
      "service": "steam"
    }
  ],
  "steamid": 658260,
  "gogid": null,
  "gogslug": "",
  "humblestoreid": "",
  "id": 24366
}