{
  "name": "Date Treat",
  "slug": "date-treat",
  "year": 2016,
  "description": "This is a quick little april fools game!",
  "banner_url": "https://lutris.net/games/banner/date-treat.jpg",
  "icon_url": "https://lutris.net/games/icon/date-treat.png",
  "is_public": true,
  "updated": "2019-01-23T08:29:05.365179Z",
  "provider_games": [],
  "steamid": null,
  "gogid": null,
  "gogslug": "",
  "humblestoreid": "",
  "id": 14839
}