{
  "name": "C9",
  "slug": "c9",
  "year": null,
  "description": "",
  "banner_url": "https://lutris.net/games/banner/c9.jpg",
  "icon_url": "https://lutris.net/games/icon/c9.png",
  "is_public": true,
  "updated": "2020-10-08T09:54:38.869141Z",
  "provider_games": [
    {
      "name": "C9",
      "slug": "212390",
      "service": "steam"
    }
  ],
  "steamid": 212390,
  "gogid": null,
  "gogslug": "",
  "humblestoreid": "",
  "id": 3199
}