{
  "name": "Jockey Club",
  "slug": "jockey-club",
  "year": 1990,
  "description": "",
  "banner_url": "",
  "icon_url": "https://lutris.net/games/icon/jockey-club.png",
  "is_public": true,
  "updated": "2020-05-26T03:34:50.194399Z",
  "provider_games": [
    {
      "name": "Jockey Club",
      "slug": "jockeyc",
      "service": "mame"
    }
  ],
  "steamid": null,
  "gogid": null,
  "gogslug": "",
  "humblestoreid": "",
  "id": 34552
}