{
  "name": "Age of Steel: Recharge",
  "slug": "age-of-steel-recharge",
  "year": null,
  "description": "",
  "banner_url": "https://lutris.net/games/banner/age-of-steel-recharge.jpg",
  "icon_url": "https://lutris.net/games/icon/age-of-steel-recharge.png",
  "is_public": true,
  "updated": "2020-10-08T10:14:32.669467Z",
  "provider_games": [
    {
      "name": "Age of Steel: Recharge",
      "slug": "421060",
      "service": "steam"
    }
  ],
  "steamid": 421060,
  "gogid": null,
  "gogslug": "",
  "humblestoreid": "",
  "id": 7073
}