{
  "name": "Kindred Spirits on the Roof Drama CD Vol.2",
  "slug": "kindred-spirits-on-the-roof-drama-cd-vol2",
  "year": null,
  "description": "",
  "banner_url": "https://lutris.net/games/banner/kindred-spirits-on-the-roof-drama-cd-vol2.jpg",
  "icon_url": "https://lutris.net/games/icon/kindred-spirits-on-the-roof-drama-cd-vol2.png",
  "is_public": true,
  "updated": "2020-10-08T10:13:05.904472Z",
  "provider_games": [
    {
      "name": "Kindred Spirits on the Roof Drama CD Vol.2",
      "slug": "474230",
      "service": "steam"
    }
  ],
  "steamid": 474230,
  "gogid": 1423645417,
  "gogslug": "kindred_spirits_on_the_roof_drama_cd_vol2",
  "humblestoreid": "",
  "id": 15965
}