{
  "name": "Age of Civilizations II",
  "slug": "age-of-civilizations-ii",
  "year": null,
  "description": "",
  "banner_url": "https://lutris.net/games/banner/age-of-civilizations-ii.jpg",
  "icon_url": "https://lutris.net/games/icon/age-of-civilizations-ii.png",
  "is_public": true,
  "updated": "2020-10-08T10:17:21.711582Z",
  "provider_games": [
    {
      "name": "Age of Civilizations II",
      "slug": "1405735336",
      "service": "gog"
    },
    {
      "name": "Age of Civilizations II",
      "slug": "603850",
      "service": "steam"
    }
  ],
  "steamid": 603850,
  "gogid": 1405735336,
  "gogslug": "age_of_civilizations_ii",
  "humblestoreid": "",
  "id": 25162
}