{
  "id": 18873,
  "game_id": 31986,
  "game_slug": "sisterly-bliss-dont-let-mom-find-out",
  "name": "Sisterly Bliss ~Don't Let Mom Find Out~",
  "year": 2018,
  "user": "kimchitea",
  "runner": "linux",
  "slug": "sisterly-bliss-dont-let-mom-f-mangagamer",
  "version": "MangaGamer",
  "description": null,
  "notes": "",
  "created_at": "2020-03-15T03:38:47.917000Z",
  "updated_at": "2020-03-16T10:12:14.705030Z",
  "draft": false,
  "published": true,
  "published_by": 20548,
  "rating": "",
  "steamid": null,
  "gogid": null,
  "gogslug": "",
  "humbleid": "",
  "humblestoreid": "",
  "humblestoreid_real": "",
  "script": {
    "exe": "SisterlyBliss-1.0-pc/SisterlyBliss.sh",
    "files": [
      {
        "file1": "N/A:Please select the game archive"
      }
    ],
    "installer": [
      {
        "extract": {
          "file": "$file1"
        }
      },
      {
        "chmodx": "$GAMEDIR/SisterlyBliss-1.0-pc/SisterlyBliss.sh"
      },
      {
        "chmodx": "$GAMEDIR/SisterlyBliss-1.0-pc/lib/linux-i686/SisterlyBliss"
      },
      {
        "chmodx": "$GAMEDIR/SisterlyBliss-1.0-pc/lib/linux-x86_64/SisterlyBliss"
      }
    ]
  },
  "content": "exe: SisterlyBliss-1.0-pc/SisterlyBliss.sh\nfiles:\n- file1: N/A:Please select the game archive\ninstaller:\n- extract:\n    file: $file1\n- chmodx: $GAMEDIR/SisterlyBliss-1.0-pc/SisterlyBliss.sh\n- chmodx: $GAMEDIR/SisterlyBliss-1.0-pc/lib/linux-i686/SisterlyBliss\n- chmodx: $GAMEDIR/SisterlyBliss-1.0-pc/lib/linux-x86_64/SisterlyBliss\n"
}