{
  "name": "American Fugitive",
  "slug": "american-fugitive",
  "year": 2019,
  "description": "Set in a sleepy American country town in the 1980s, American Fugitive invites you to play as Will Riley. You're no angel, but you're not a killer. Yet the cold-blooded murder of your dad is the crime they've locked you up for. Fueled by grief and a burning desire for vengeance, you must break out of jail to find the real culprit. It's payback time.\r\n \r\nThrough the fast-paced gameplay the player will discover the joy of top-down carnage with stunning 3D graphics and destructible environments, dramatic storytelling and epic car-chase mayhem.",
  "banner_url": "https://lutris.net/games/banner/american-fugitive.jpg",
  "icon_url": "",
  "is_public": true,
  "updated": "2019-11-22T23:28:26.903193Z",
  "provider_games": [
    {
      "name": "American Fugitive",
      "slug": "934780",
      "service": "steam"
    }
  ],
  "steamid": 934780,
  "gogid": null,
  "gogslug": "",
  "humblestoreid": "",
  "id": 27451
}