{
  "name": "Hatsune Miku: Project Diva Extend",
  "slug": "hatsune-miku-project-diva-extend",
  "year": 2011,
  "description": "Hatsune Miku: Project DIVA Extend is the third game in the Project DIVA series and the last to be released on the PlayStation Portable. It acts as an expansion of Hatsune Miku: Project DIVA 2nd, utilizing the exact same gameplay and adding a selection of nine new songs, including modules and music videos to go along with them.",
  "banner_url": "https://lutris.net/games/banner/hatsune-miku-project-diva-extend.jpg",
  "icon_url": "",
  "is_public": true,
  "updated": "2019-01-23T08:29:47.607532Z",
  "provider_games": [],
  "steamid": null,
  "gogid": null,
  "gogslug": "",
  "humblestoreid": "",
  "id": 6271
}