{
  "id": 15012,
  "game_id": 1599,
  "game_slug": "spore",
  "name": "Spore",
  "year": 2008,
  "user": "ThePixelMouse",
  "runner": "wine",
  "slug": "spore-mod-spore-modapi",
  "version": "[Mod] Spore ModAPI",
  "description": "To install mods, run EXE in prefix, the exe is located in drive_c/ProgramData/SPORE ModAPI Launcher Kit/Spore ModAPI Easy Installer.exe and wait. You'll get a popup to select mods for installation.",
  "notes": "The ModAPI launcher will prompt you to possible problems with it being run as administrator, but you can still proceed. There is a possible solution via command line by running EXE via runas with trust level being set up to 0x20000, but I don't know how to implement this in the launcher itself.",
  "created_at": "2019-08-14T18:59:27.751000Z",
  "updated_at": "2020-07-29T05:45:00.971810Z",
  "draft": false,
  "published": true,
  "published_by": 20548,
  "rating": "",
  "steamid": 17390,
  "gogid": 1948823323,
  "gogslug": "spore_collection",
  "humbleid": "",
  "humblestoreid": "",
  "humblestoreid_real": "",
  "script": {
    "custom-name": "Spore ModAPI",
    "files": [
      {
        "modApiInstaller": {
          "filename": "Spore ModAPI Launcher Kit Setup 1-1-0-39.exe",
          "url": "http://davoonline.com/sporemodder/rob55rod/ModAPI/Public/Spore%20ModAPI%20Launcher%20Kit%20Setup%201-1-0-39.exe"
        }
      }
    ],
    "game": {
      "exe": "drive_c/ProgramData/SPORE ModAPI Launcher Kit/Spore ModAPI Launcher.exe"
    },
    "installer": [
      {
        "task": {
          "app": "dotnet452",
          "arch": "win32",
          "name": "winetricks",
          "prefix": "$GAMEDIR"
        }
      },
      {
        "task": {
          "arch": "win32",
          "description": "Setting version to 7...",
          "key": "Version",
          "name": "set_regedit",
          "path": "HKEY_CURRENT_USER\\Software\\Wine",
          "prefix": "$GAMEDIR",
          "value": "win7"
        }
      },
      {
        "task": {
          "name": "winekill",
          "prefix": "$GAMEDIR"
        }
      },
      {
        "task": {
          "arch": "win32",
          "description": "Installing the ModAPI",
          "executable": "modApiInstaller",
          "name": "wineexec",
          "prefix": "$GAMEDIR"
        }
      }
    ],
    "requires": "spore-origin | spore-origin-w-d9vk | spore-gog | spore-gog-w-d9vk | spore-steam | spore-steam-w-d9vk"
  },
  "content": "custom-name: Spore ModAPI\nfiles:\n- modApiInstaller:\n    filename: Spore ModAPI Launcher Kit Setup 1-1-0-39.exe\n    url: http://davoonline.com/sporemodder/rob55rod/ModAPI/Public/Spore%20ModAPI%20Launcher%20Kit%20Setup%201-1-0-39.exe\ngame:\n  exe: drive_c/ProgramData/SPORE ModAPI Launcher Kit/Spore ModAPI Launcher.exe\ninstaller:\n- task:\n    app: dotnet452\n    arch: win32\n    name: winetricks\n    prefix: $GAMEDIR\n- task:\n    arch: win32\n    description: Setting version to 7...\n    key: Version\n    name: set_regedit\n    path: HKEY_CURRENT_USER\\Software\\Wine\n    prefix: $GAMEDIR\n    value: win7\n- task:\n    name: winekill\n    prefix: $GAMEDIR\n- task:\n    arch: win32\n    description: Installing the ModAPI\n    executable: modApiInstaller\n    name: wineexec\n    prefix: $GAMEDIR\nrequires: spore-origin | spore-origin-w-d9vk | spore-gog | spore-gog-w-d9vk | spore-steam\n  | spore-steam-w-d9vk\n"
}