{
  "name": "Broomball",
  "slug": "broomball",
  "year": null,
  "description": "",
  "banner_url": "https://lutris.net/games/banner/broomball.jpg",
  "icon_url": "https://lutris.net/games/icon/broomball.png",
  "is_public": true,
  "updated": "2020-10-08T10:07:17.926278Z",
  "provider_games": [
    {
      "name": "Broomball",
      "slug": "504630",
      "service": "steam"
    }
  ],
  "steamid": 504630,
  "gogid": null,
  "gogslug": "",
  "humblestoreid": "",
  "id": 9545
}