{
  "id": 14990,
  "game_id": 11620,
  "game_slug": "kana-little-sister",
  "name": "Kana ~Little Sister~",
  "year": 1999,
  "user": "lightking813",
  "runner": "wine",
  "slug": "kana-little-sister-jast-usa",
  "version": "JAST USA",
  "description": null,
  "notes": "",
  "created_at": "2019-08-13T13:13:46.688000Z",
  "updated_at": "2019-08-14T01:31:19.352029Z",
  "draft": false,
  "published": true,
  "published_by": 1,
  "rating": "",
  "steamid": null,
  "gogid": null,
  "gogslug": "",
  "humbleid": "",
  "humblestoreid": "",
  "humblestoreid_real": "",
  "script": {
    "files": [
      {
        "file1": "N/A:Please select the JAST USA archive"
      },
      {
        "CCCP": "http://www.cccp-project.net/public/Combined-Community-Codec-Pack-2015-10-18.exe"
      }
    ],
    "game": {
      "arch": "win32",
      "exe": "drive_c/Program Files/DO/Kana Little Sister/kanaus.exe",
      "prefix": "$GAMEDIR"
    },
    "installer": [
      {
        "extract": {
          "dst": "$CACHE",
          "file": "$file1"
        }
      },
      {
        "task": {
          "arch": "win32",
          "executable": "$CACHE/kana-install-0.2.exe",
          "name": "wineexec",
          "prefix": "$GAMEDIR"
        }
      }
    ],
    "wine": {
      "Desktop": true
    }
  },
  "content": "files:\n- file1: N/A:Please select the JAST USA archive\n- CCCP: http://www.cccp-project.net/public/Combined-Community-Codec-Pack-2015-10-18.exe\ngame:\n  arch: win32\n  exe: drive_c/Program Files/DO/Kana Little Sister/kanaus.exe\n  prefix: $GAMEDIR\ninstaller:\n- extract:\n    dst: $CACHE\n    file: $file1\n- task:\n    arch: win32\n    executable: $CACHE/kana-install-0.2.exe\n    name: wineexec\n    prefix: $GAMEDIR\nwine:\n  Desktop: true\n"
}