{
  "name": "Influent",
  "slug": "influent",
  "year": 2014,
  "description": "Andrew Cross is infuriated! \r\n\r\nFor three long years, he sat confined to his work, developing a device that he firmly believed to be a technological breakthrough in the way people would interact with the world around them. A device that could scan any object in the real world and then provide its name in any language! Duly dubbing his fancy new invention the \"SanjigenJiten,\" Andrew arranged an appointment to demonstrate the device's amazing capabilities at the world's largest technology corporation, Technoglobe International. \r\n\r\n\r\nBut while on his visit, he fell for a girl he met in the lab, and while she stole his heart, someone else silently stepped in and stole his device! Now, Technoglobe has gone and swiftly marketed the SanjigenJiten as their own, even laying claim to the very name he had so cleverly concocted! \r\n\r\n\r\nBut Andrew Cross has a plan. He's made an even better version of his SanjigenJiten and launched an online campaign, swearing to learn 300 words in a foreign language to raise awareness of Technoglobe's blatant theft and prove his device really works! But does the SanjigenJiten really work? Can Andrew actually pull it off?! Play Influent and find out!!! ",
  "banner_url": "https://lutris.net/games/banner/influent.jpg",
  "icon_url": "https://lutris.net/games/icon/influent.png",
  "is_public": true,
  "updated": "2020-08-15T23:50:35.210712Z",
  "provider_games": [
    {
      "name": "Influent",
      "slug": "influent",
      "service": "humblebundle"
    },
    {
      "name": "Influent",
      "slug": "274980",
      "service": "steam"
    }
  ],
  "steamid": 274980,
  "gogid": null,
  "gogslug": "",
  "humblestoreid": "influent",
  "id": 3076
}