{
  "name": "Fuse 1.3",
  "slug": "fuse-13",
  "year": null,
  "description": "",
  "banner_url": "https://lutris.net/games/banner/fuse-13.jpg",
  "icon_url": "",
  "is_public": true,
  "updated": "2019-03-17T19:12:42.758605Z",
  "provider_games": [],
  "steamid": null,
  "gogid": null,
  "gogslug": "",
  "humblestoreid": "",
  "id": 25298
}