{
  "name": "Knights of Hearts",
  "slug": "knights-of-hearts",
  "year": null,
  "description": "",
  "banner_url": "https://lutris.net/games/banner/knights-of-hearts.jpg",
  "icon_url": "https://lutris.net/games/icon/knights-of-hearts.png",
  "is_public": true,
  "updated": "2020-10-08T09:58:13.501809Z",
  "provider_games": [
    {
      "name": "Knights of Hearts",
      "slug": "778830",
      "service": "steam"
    }
  ],
  "steamid": 778830,
  "gogid": null,
  "gogslug": "",
  "humblestoreid": "",
  "id": 24694
}