{
  "name": "Learn to Drive on Moto Wars",
  "slug": "learn-to-drive-on-moto-wars",
  "year": null,
  "description": "",
  "banner_url": "https://lutris.net/games/banner/learn-to-drive-on-moto-wars.jpg",
  "icon_url": "https://lutris.net/games/icon/learn-to-drive-on-moto-wars.png",
  "is_public": false,
  "updated": "2019-01-23T08:30:08.574431Z",
  "provider_games": [],
  "steamid": 873360,
  "gogid": null,
  "gogslug": "",
  "humblestoreid": "",
  "id": 22889
}