{
  "name": "Door To Door",
  "slug": "door-to-door",
  "year": null,
  "description": "",
  "banner_url": "https://lutris.net/games/banner/door-to-door.jpg",
  "icon_url": "https://lutris.net/games/icon/door-to-door.png",
  "is_public": true,
  "updated": "2020-10-08T10:14:40.017578Z",
  "provider_games": [
    {
      "name": "Door To Door",
      "slug": "416200",
      "service": "steam"
    }
  ],
  "steamid": 416200,
  "gogid": null,
  "gogslug": "",
  "humblestoreid": "",
  "id": 8759
}