{
  "name": "Devil World",
  "slug": "devil-world",
  "year": 1987,
  "description": "",
  "banner_url": "",
  "icon_url": "https://lutris.net/games/icon/devil-world.png",
  "is_public": true,
  "updated": "2020-05-26T03:33:13.833981Z",
  "provider_games": [
    {
      "name": "Devil World",
      "slug": "devilw",
      "service": "mame"
    }
  ],
  "steamid": null,
  "gogid": null,
  "gogslug": "",
  "humblestoreid": "",
  "id": 33883
}