{
  "name": "kakusankibou / 扩散希望",
  "slug": "kakusankibou",
  "year": null,
  "description": "",
  "banner_url": "https://lutris.net/games/banner/kakusankibou.jpg",
  "icon_url": "https://lutris.net/games/icon/kakusankibou.png",
  "is_public": true,
  "updated": "2020-10-08T09:58:37.724469Z",
  "provider_games": [
    {
      "name": "kakusankibou / 扩散希望",
      "slug": "760550",
      "service": "steam"
    }
  ],
  "steamid": 760550,
  "gogid": null,
  "gogslug": "",
  "humblestoreid": "",
  "id": 25482
}