{
  "name": "Cards and Castles",
  "slug": "cards-and-castles",
  "year": null,
  "description": "",
  "banner_url": "https://lutris.net/games/banner/cards-and-castles.jpg",
  "icon_url": "https://lutris.net/games/icon/cards-and-castles.png",
  "is_public": true,
  "updated": "2019-01-23T08:28:46.143825Z",
  "provider_games": [
    {
      "name": "Cards and Castles",
      "slug": "360730",
      "service": "steam"
    }
  ],
  "steamid": 360730,
  "gogid": null,
  "gogslug": "",
  "humblestoreid": "",
  "id": 7058
}