{
  "name": "Eternal Lands",
  "slug": "eternal-lands",
  "year": 2003,
  "description": "Eternal Lands (EL) is a free, multiplayer, online role-playing game (MMORPG) created by Radu Privantu in 2002. A pre-alpha version was made public on February 13, 2003. The game client is written in C using OpenGL and SDL.",
  "banner_url": "https://lutris.net/games/banner/eternal-lands.jpg",
  "icon_url": "",
  "is_public": true,
  "updated": "2019-01-23T08:29:25.479841Z",
  "provider_games": [],
  "steamid": null,
  "gogid": null,
  "gogslug": "",
  "humblestoreid": "",
  "id": 23431
}