{
  "id": 4445,
  "game_id": 269,
  "game_slug": "offspring-fling",
  "name": "Offspring Fling!",
  "year": null,
  "user": "FakeShemp",
  "runner": "web",
  "slug": "offspring-fling-humble-deb",
  "version": "Humble (deb)",
  "description": "",
  "notes": "",
  "created_at": "2017-06-17T21:22:09.391000Z",
  "updated_at": "2017-06-18T23:07:46.612117Z",
  "draft": false,
  "published": true,
  "published_by": null,
  "rating": "",
  "steamid": 211360,
  "gogid": null,
  "gogslug": "",
  "humbleid": "offspringfling",
  "humblestoreid": "offspringfling",
  "humblestoreid_real": "offspringfling",
  "script": {
    "files": [
      {
        "file1": "N/A:Please select the Humble installer"
      }
    ],
    "game": {
      "main_file": "$GAMEDIR/offspring-fling.html"
    },
    "installer": [
      {
        "extract": {
          "dst": "$CACHE",
          "file": "$file1",
          "format": "ar"
        }
      },
      {
        "extract": {
          "dst": "$CACHE",
          "file": "$CACHE/data.tar.gz"
        }
      },
      {
        "move": {
          "dst": "$GAMEDIR",
          "src": "$CACHE/opt/offspring-fling/offspring-fling.html"
        }
      },
      {
        "move": {
          "dst": "$GAMEDIR",
          "src": "$CACHE/opt/offspring-fling/OffspringFling.swf"
        }
      }
    ],
    "web": {
      "disable_scrolling": true,
      "enable_flash": true,
      "window_size": "640x480"
    }
  },
  "content": "files:\n- file1: N/A:Please select the Humble installer\ngame:\n  main_file: $GAMEDIR/offspring-fling.html\ninstaller:\n- extract:\n    dst: $CACHE\n    file: $file1\n    format: ar\n- extract:\n    dst: $CACHE\n    file: $CACHE/data.tar.gz\n- move:\n    dst: $GAMEDIR\n    src: $CACHE/opt/offspring-fling/offspring-fling.html\n- move:\n    dst: $GAMEDIR\n    src: $CACHE/opt/offspring-fling/OffspringFling.swf\nweb:\n  disable_scrolling: true\n  enable_flash: true\n  window_size: 640x480\n"
}