{
  "name": "AoF Chess Club",
  "slug": "aof-chess-club",
  "year": null,
  "description": "",
  "banner_url": "https://lutris.net/games/banner/aof-chess-club.jpg",
  "icon_url": "https://lutris.net/games/icon/aof-chess-club.png",
  "is_public": true,
  "updated": "2020-10-08T10:15:34.984790Z",
  "provider_games": [
    {
      "name": "AoF Chess Club 2.0",
      "slug": "385020",
      "service": "steam"
    }
  ],
  "steamid": 385020,
  "gogid": null,
  "gogslug": "",
  "humblestoreid": "",
  "id": 5729
}