{
  "name": "Football Manager 2017",
  "slug": "football-manager-2017",
  "year": null,
  "description": "",
  "banner_url": "https://lutris.net/games/banner/football-manager-2017.jpg",
  "icon_url": "https://lutris.net/games/icon/football-manager-2017.png",
  "is_public": true,
  "updated": "2019-01-23T08:29:33.217186Z",
  "provider_games": [],
  "steamid": 482730,
  "gogid": null,
  "gogslug": "",
  "humblestoreid": "",
  "id": 9744
}