{
  "id": 24322,
  "game_id": 882,
  "game_slug": "war-thunder",
  "name": "War Thunder",
  "year": 2012,
  "user": "il_vendicatore",
  "runner": "wine",
  "slug": "war-thunder-change-me",
  "version": "Change Me",
  "description": "This is the windows standalone version with DXVK. Try this if you have problems with the linux version of the game.",
  "notes": "Instructions for DXVK support: <a href=\"https://github.com/lutris/lutris/wiki/How-to:-DXVK\">https://github.com/lutris/lutris/wiki/How-to:-DXVK</a>\r\n\r\nChange to \"full screen (window mode)\" If you have multiple monitors and the mouse doesn't stay in the game window.\r\n\r\nSometimes the game doesn't quit completely. You need to close it with a right click on the wine system tray icon or by stopping the game with lutris.",
  "created_at": "2020-11-05T04:18:27.367597Z",
  "updated_at": "2020-11-05T04:18:27.367628Z",
  "draft": false,
  "published": false,
  "published_by": 19464,
  "rating": "",
  "steamid": 236390,
  "gogid": null,
  "gogslug": "",
  "humbleid": "",
  "humblestoreid": "",
  "humblestoreid_real": "",
  "script": {
    "files": [
      {
        "game": {
          "filename": "wt_launcher.exe",
          "url": "https://yupmaster.gaijinent.com/launcher/current.php?id=WarThunderLauncher"
        }
      }
    ],
    "game": {
      "arch": "win32",
      "exe": "drive_c/users/$USER/Local Settings/Application Data/WarThunder/launcher.exe",
      "prefix": "$GAMEDIR"
    },
    "installer": [
      {
        "task": {
          "arch": "win32",
          "description": "Creating 32bit Wine prefix.",
          "name": "create_prefix",
          "prefix": "$GAMEDIR"
        }
      },
      {
        "task": {
          "app": "arial",
          "arch": "win32",
          "description": "Installing Arial font",
          "name": "winetricks",
          "prefix": "$GAMEDIR"
        }
      },
      {
        "task": {
          "description": "Installing the game.\n------------------------------\nLet Lutris installer finish first. UNCHECK launch WarThunder before you close the installer!",
          "executable": "game",
          "name": "wineexec",
          "prefix": "$GAMEDIR"
        }
      }
    ],
    "system": {
      "env": {
        "DXVK_HUD": 0
      }
    },
    "wine": {
      "dxvk": true
    }
  },
  "content": "files:\n- game:\n    filename: wt_launcher.exe\n    url: https://yupmaster.gaijinent.com/launcher/current.php?id=WarThunderLauncher\ngame:\n  arch: win32\n  exe: drive_c/users/$USER/Local Settings/Application Data/WarThunder/launcher.exe\n  prefix: $GAMEDIR\ninstaller:\n- task:\n    arch: win32\n    description: Creating 32bit Wine prefix.\n    name: create_prefix\n    prefix: $GAMEDIR\n- task:\n    app: arial\n    arch: win32\n    description: Installing Arial font\n    name: winetricks\n    prefix: $GAMEDIR\n- task:\n    description: 'Installing the game.\n\n      ------------------------------\n\n      Let Lutris installer finish first. UNCHECK launch WarThunder before you close\n      the installer!'\n    executable: game\n    name: wineexec\n    prefix: $GAMEDIR\nsystem:\n  env:\n    DXVK_HUD: 0\nwine:\n  dxvk: true\n"
}