{
  "name": "Conan the mighty pig",
  "slug": "conan-the-mighty-pig",
  "year": null,
  "description": "",
  "banner_url": "https://lutris.net/games/banner/conan-the-mighty-pig.jpg",
  "icon_url": "https://lutris.net/games/icon/conan-the-mighty-pig.png",
  "is_public": true,
  "updated": "2020-10-08T10:07:46.691985Z",
  "provider_games": [
    {
      "name": "Conan the mighty pig",
      "slug": "487700",
      "service": "steam"
    }
  ],
  "steamid": 487700,
  "gogid": null,
  "gogslug": "",
  "humblestoreid": "",
  "id": 11113
}