{
  "name": "Journal",
  "slug": "journal",
  "year": null,
  "description": "",
  "banner_url": "https://lutris.net/games/banner/journal.jpg",
  "icon_url": "https://lutris.net/games/icon/journal.png",
  "is_public": true,
  "updated": "2019-01-23T08:30:01.108128Z",
  "provider_games": [
    {
      "name": "Journal",
      "slug": "261680",
      "service": "steam"
    }
  ],
  "steamid": 261680,
  "gogid": null,
  "gogslug": "",
  "humblestoreid": "",
  "id": 2894
}