{
  "name": "Dragon Crystal",
  "slug": "dragon-crystal",
  "year": 1990,
  "description": "",
  "banner_url": "https://lutris.net/games/banner/dragon-crystal.jpg",
  "icon_url": "",
  "is_public": true,
  "updated": "2019-01-23T08:29:16.453747Z",
  "provider_games": [],
  "steamid": null,
  "gogid": null,
  "gogslug": "",
  "humblestoreid": "",
  "id": 13735
}