{
  "name": "Archangel™: Hellfire",
  "slug": "archangeltm-hellfire",
  "year": null,
  "description": "",
  "banner_url": "https://lutris.net/games/banner/archangeltm-hellfire.jpg",
  "icon_url": "https://lutris.net/games/icon/archangeltm-hellfire.png",
  "is_public": true,
  "updated": "2020-10-08T10:05:40.684253Z",
  "provider_games": [
    {
      "name": "Archangel™: Hellfire",
      "slug": "553880",
      "service": "steam"
    }
  ],
  "steamid": 553880,
  "gogid": null,
  "gogslug": "",
  "humblestoreid": "",
  "id": 21663
}