{
  "name": "Auralux: Constellations",
  "slug": "auralux-constellations",
  "year": null,
  "description": "",
  "banner_url": "https://lutris.net/games/banner/auralux-constellations.jpg",
  "icon_url": "https://lutris.net/games/icon/auralux-constellations.png",
  "is_public": true,
  "updated": "2020-10-08T10:13:53.261547Z",
  "provider_games": [
    {
      "name": "Auralux: Constellations",
      "slug": "444130",
      "service": "steam"
    }
  ],
  "steamid": 444130,
  "gogid": null,
  "gogslug": "",
  "humblestoreid": "",
  "id": 9099
}