{
  "id": 21880,
  "game_id": 3552,
  "game_slug": "omikron-the-nomad-soul",
  "name": "Omikron - The Nomad Soul",
  "year": null,
  "user": "megavolt",
  "runner": "wine",
  "slug": "omikron-the-nomad-soul-gog",
  "version": "GOG",
  "description": null,
  "notes": "",
  "created_at": "2020-06-23T14:54:41.893046Z",
  "updated_at": "2020-06-27T01:38:53.539352Z",
  "draft": true,
  "published": false,
  "published_by": null,
  "rating": "",
  "steamid": 243000,
  "gogid": 1207659190,
  "gogslug": "omikron_the_nomad_soul",
  "humbleid": "",
  "humblestoreid": "",
  "humblestoreid_real": "",
  "script": {
    "files": [
      {
        "install": "N/A:Select the Windows setup file downloaded from GOG"
      }
    ],
    "game": {
      "arch": "win32",
      "exe": "$GAMEDIR/drive_c/game/game.exe",
      "prefix": "$GAMEDIR"
    },
    "installer": [
      {
        "task": {
          "arch": "win32",
          "name": "create_prefix",
          "prefix": "$GAMEDIR"
        }
      },
      {
        "task": {
          "arch": "win32",
          "args": "/SILENT /LANG=en /SP- /NOCANCEL /SUPPRESSMSGBOXES /NOGUI /DIR=\"C:/game/\"",
          "description": "Installing Game .........%",
          "executable": "install",
          "name": "wineexec",
          "prefix": "$GAMEDIR"
        }
      }
    ],
    "wine": {
      "Desktop": true,
      "WineDesktop": "1920x1200"
    }
  },
  "content": "files:\r\n- install: N/A:Select the Windows setup file downloaded from GOG\r\ngame:\r\n  arch: win32\r\n  exe: $GAMEDIR/drive_c/game/game.exe\r\n  prefix: $GAMEDIR\r\ninstaller:\r\n- task:\r\n    arch: win32\r\n    name: create_prefix\r\n    prefix: $GAMEDIR\r\n- task:\r\n    arch: win32\r\n    args: /SILENT /LANG=en /SP- /NOCANCEL /SUPPRESSMSGBOXES /NOGUI /DIR=\"C:/game/\"\r\n    description: Installing Game .........%\r\n    executable: install\r\n    name: wineexec\r\n    prefix: $GAMEDIR\r\nwine:\r\n  Desktop: true\r\n  WineDesktop: 1920x1200"
}