{
  "name": "He Beat Her",
  "slug": "he-beat-her",
  "year": 2017,
  "description": "You’re a lawyer, and your client is being accused of abuse. You only have 5 minutes until the verdict.\r\n\r\nYou’re practically powerless.\r\n\r\nWhat will you do in those minutes? And can your actions make a difference?\r\n\r\nFind the truth. Serve justice.",
  "banner_url": "https://lutris.net/games/banner/he-beat-her.jpg",
  "icon_url": "",
  "is_public": true,
  "updated": "2019-01-23T08:29:48.392196Z",
  "provider_games": [],
  "steamid": null,
  "gogid": null,
  "gogslug": "",
  "humblestoreid": "",
  "id": 14754
}