{
  "name": "Daytona USA Deluxe",
  "slug": "daytona-usa-deluxe",
  "year": 1997,
  "description": "Daytona USA Deluxe drives home the excitement of speedway racing more like ever before! slick full screen graphics and 3 brand new circuits await you as you select any of 8 customised turbo-charged cars to race in.",
  "banner_url": "https://lutris.net/games/banner/daytona-usa-deluxe.jpg",
  "icon_url": "",
  "is_public": true,
  "updated": "2019-01-23T08:29:05.815018Z",
  "provider_games": [],
  "steamid": null,
  "gogid": null,
  "gogslug": "",
  "humblestoreid": "",
  "id": 6098
}