{
  "id": 2014,
  "game_id": 1113,
  "game_slug": "skullgirls",
  "name": "Skullgirls",
  "year": 2013,
  "user": "Juan",
  "runner": "linux",
  "slug": "skullgirls-humble-bundle",
  "version": "Humble Bundle",
  "description": null,
  "notes": "",
  "created_at": "2016-03-06T00:58:41.915000Z",
  "updated_at": "2020-04-19T19:16:57.959949Z",
  "draft": false,
  "published": true,
  "published_by": 1,
  "rating": "",
  "steamid": 245170,
  "gogid": null,
  "gogslug": "skullgirls",
  "humbleid": "",
  "humblestoreid": "",
  "humblestoreid_real": "",
  "script": {
    "files": [
      {
        "game": "N/A: Select the .sh archive downloaded from Humble Bundle"
      }
    ],
    "game": {
      "exe": "SkullGirls.x86_64-pc-linux-gnu",
      "humbleid": "skullgirls_alldlc"
    },
    "installer": [
      {
        "extract": {
          "dst": "$GAMEDIR",
          "file": "game",
          "format": "tar"
        }
      }
    ]
  },
  "content": "files:\n- game: 'N/A: Select the .sh archive downloaded from Humble Bundle'\ngame:\n  exe: SkullGirls.x86_64-pc-linux-gnu\n  humbleid: skullgirls_alldlc\ninstaller:\n- extract:\n    dst: $GAMEDIR\n    file: game\n    format: tar\n"
}