{
  "name": "Chocolatier: Decadence by Design",
  "slug": "chocolatier-decadence-by-design",
  "year": null,
  "description": "",
  "banner_url": "https://lutris.net/games/banner/chocolatier-decadence-by-design.jpg",
  "icon_url": "https://lutris.net/games/icon/chocolatier-decadence-by-design.png",
  "is_public": true,
  "updated": "2020-10-08T10:02:13.139027Z",
  "provider_games": [
    {
      "name": "Chocolatier: Decadence by Design",
      "slug": "37210",
      "service": "steam"
    }
  ],
  "steamid": 37210,
  "gogid": null,
  "gogslug": "",
  "humblestoreid": "",
  "id": 5192
}