{
  "name": "Champion Super III",
  "slug": "champion-super-iii",
  "year": 1999,
  "description": "A poker Based arcade game",
  "banner_url": "https://lutris.net/games/banner/champion-super-iii.jpg",
  "icon_url": "",
  "is_public": true,
  "updated": "2019-08-04T17:59:01.724848Z",
  "provider_games": [],
  "steamid": null,
  "gogid": null,
  "gogslug": "",
  "humblestoreid": "",
  "id": 28687
}