{
  "name": "Injured by space",
  "slug": "injured-by-space",
  "year": null,
  "description": "",
  "banner_url": "https://lutris.net/games/banner/injured-by-space.jpg",
  "icon_url": "https://lutris.net/games/icon/injured-by-space.png",
  "is_public": false,
  "updated": "2019-01-23T08:29:56.895409Z",
  "provider_games": [],
  "steamid": 804940,
  "gogid": null,
  "gogslug": "",
  "humblestoreid": "",
  "id": 20429
}