{
  "name": "Battlezone: Combat Commander MP",
  "slug": "battlezone-combat-commander-mp",
  "year": null,
  "description": "",
  "banner_url": "https://lutris.net/games/banner/battlezone-combat-commander-mp.jpg",
  "icon_url": "https://lutris.net/games/icon/battlezone-combat-commander-mp.png",
  "is_public": true,
  "updated": "2020-10-08T09:57:43.234097Z",
  "provider_games": [
    {
      "name": "Battlezone: Combat Commander MP",
      "slug": "803860",
      "service": "steam"
    }
  ],
  "steamid": 803860,
  "gogid": null,
  "gogslug": "",
  "humblestoreid": "",
  "id": 20305
}