{
  "name": "Chocolate makes you happy 4",
  "slug": "chocolate-makes-you-happy-4",
  "year": null,
  "description": "",
  "banner_url": "https://lutris.net/games/banner/chocolate-makes-you-happy-4.jpg",
  "icon_url": "https://lutris.net/games/icon/chocolate-makes-you-happy-4.png",
  "is_public": true,
  "updated": "2020-10-08T10:08:48.169606Z",
  "provider_games": [
    {
      "name": "Chocolate makes you happy 4",
      "slug": "815950",
      "service": "steam"
    }
  ],
  "steamid": 815950,
  "gogid": null,
  "gogslug": "",
  "humblestoreid": "",
  "id": 25494
}