{
  "name": "Keep in Mind: Remastered",
  "slug": "keep-in-mind-remastered",
  "year": null,
  "description": "",
  "banner_url": "https://lutris.net/games/banner/keep-in-mind-remastered.jpg",
  "icon_url": "https://lutris.net/games/icon/keep-in-mind-remastered.png",
  "is_public": true,
  "updated": "2020-10-08T10:09:49.094383Z",
  "provider_games": [
    {
      "name": "Keep in Mind: Remastered",
      "slug": "643200",
      "service": "steam"
    }
  ],
  "steamid": 643200,
  "gogid": null,
  "gogslug": "",
  "humblestoreid": "",
  "id": 22451
}