{
  "name": "Blood Bowl: Legendary Edition",
  "slug": "blood-bowl-legendary-edition",
  "year": 2010,
  "description": "",
  "banner_url": "https://lutris.net/games/banner/blood-bowl-legendary-edition.jpg",
  "icon_url": "https://lutris.net/games/icon/blood-bowl-legendary-edition.png",
  "is_public": true,
  "updated": "2020-10-08T10:17:12.358802Z",
  "provider_games": [
    {
      "name": "Blood Bowl: Legendary Edition",
      "slug": "58520",
      "service": "steam"
    }
  ],
  "steamid": 58520,
  "gogid": null,
  "gogslug": "",
  "humblestoreid": "",
  "id": 734
}