{
  "name": "Furious Angels",
  "slug": "furious-angels",
  "year": null,
  "description": "",
  "banner_url": "https://lutris.net/games/banner/furious-angels.jpg",
  "icon_url": "https://lutris.net/games/icon/furious-angels.png",
  "is_public": true,
  "updated": "2019-01-23T08:29:36.419149Z",
  "provider_games": [
    {
      "name": "Furious Angels",
      "slug": "551450",
      "service": "steam"
    }
  ],
  "steamid": 551450,
  "gogid": null,
  "gogslug": "",
  "humblestoreid": "",
  "id": 11984
}