{
  "id": 24615,
  "game_id": 17525,
  "game_slug": "garden-of-oblivion",
  "name": "Garden of Oblivion",
  "year": null,
  "user": "vanstaveren",
  "runner": "steam",
  "slug": "garden-of-oblivion-proton",
  "version": "proton",
  "description": null,
  "notes": "",
  "created_at": "2020-11-19T21:18:06.727379Z",
  "updated_at": "2020-11-19T21:18:06.727405Z",
  "draft": false,
  "published": false,
  "published_by": null,
  "rating": "",
  "steamid": 761070,
  "gogid": null,
  "gogslug": "",
  "humbleid": "",
  "humblestoreid": "",
  "humblestoreid_real": "",
  "script": {
    "game": {
      "appid": 761070
    }
  },
  "content": "game:\n  appid: 761070\n"
}