{
  "name": "Goblins of Elderstone",
  "slug": "goblins-of-elderstone",
  "year": null,
  "description": "",
  "banner_url": "https://lutris.net/games/banner/goblins-of-elderstone.jpg",
  "icon_url": "https://lutris.net/games/icon/goblins-of-elderstone.png",
  "is_public": true,
  "updated": "2020-10-08T10:01:07.381411Z",
  "provider_games": [
    {
      "name": "Goblins of Elderstone",
      "slug": "693580",
      "service": "steam"
    }
  ],
  "steamid": 693580,
  "gogid": null,
  "gogslug": "",
  "humblestoreid": "",
  "id": 18960
}