{
  "name": "Bulletstorm Demo",
  "slug": "bulletstorm-demo",
  "year": null,
  "description": "",
  "banner_url": "https://lutris.net/games/banner/bulletstorm-demo.jpg",
  "icon_url": "https://lutris.net/games/icon/bulletstorm-demo.png",
  "is_public": true,
  "updated": "2020-10-08T10:01:22.552312Z",
  "provider_games": [
    {
      "name": "Bulletstorm Demo",
      "slug": "99870",
      "service": "steam"
    }
  ],
  "steamid": 99870,
  "gogid": null,
  "gogslug": "",
  "humblestoreid": "",
  "id": 1773
}