{
  "id": 16569,
  "game_id": 24110,
  "game_slug": "world-in-conflict-complete-edition",
  "name": "World in Conflict: Complete Edition",
  "year": 2007,
  "user": "Eisi",
  "runner": "wine",
  "slug": "world-in-conflict-complete-ed-gog-w-dxvk",
  "version": "GOG w/ DXVK",
  "description": null,
  "notes": "- Install \"unar\" package before running the installer otherwise the installation process will fail\r\n- The game might hang on the very first run but should work from the second run on",
  "created_at": "2019-11-02T18:26:57.215000Z",
  "updated_at": "2020-06-28T23:52:39.164337Z",
  "draft": false,
  "published": true,
  "published_by": 20548,
  "rating": "",
  "steamid": null,
  "gogid": 1438332414,
  "gogslug": "world_in_conflict_complete_edition",
  "humbleid": "",
  "humblestoreid": "",
  "humblestoreid_real": "",
  "script": {
    "files": [
      {
        "installer": "N/A:Please select the GOG.com Windows installer"
      },
      {
        "innoextract": "https://lutris.nyc3.digitaloceanspaces.com/tools/innoextract/innoextract-1.8-dev-2019-01-13-linux.tar.xz"
      }
    ],
    "game": {
      "arch": "win32",
      "exe": "$GAMEDIR/drive_c/GOG Games/World in Conflict/wic.exe",
      "prefix": "$GAMEDIR"
    },
    "installer": [
      {
        "extract": {
          "dst": "$CACHE/tmp/innoextract",
          "file": "innoextract"
        }
      },
      {
        "execute": {
          "args": "--extract $installer --gog --exclude-temp --output-dir $CACHE/tmp/wic/",
          "file": "$CACHE/tmp/innoextract/innoextract"
        }
      },
      {
        "move": {
          "dst": "$GAMEDIR/drive_c/GOG Games/World in Conflict/",
          "src": "$CACHE/tmp/wic/game/"
        }
      },
      {
        "task": {
          "app": "d3dx9",
          "arch": "win32",
          "description": "Installing d3dx9",
          "name": "winetricks",
          "prefix": "$GAMEDIR"
        }
      }
    ],
    "system": {
      "env": {
        "DXVK_HUD": 0
      }
    },
    "wine": {
      "dxvk": true
    }
  },
  "content": "files:\n- installer: N/A:Please select the GOG.com Windows installer\n- innoextract: https://lutris.nyc3.digitaloceanspaces.com/tools/innoextract/innoextract-1.8-dev-2019-01-13-linux.tar.xz\ngame:\n  arch: win32\n  exe: $GAMEDIR/drive_c/GOG Games/World in Conflict/wic.exe\n  prefix: $GAMEDIR\ninstaller:\n- extract:\n    dst: $CACHE/tmp/innoextract\n    file: innoextract\n- execute:\n    args: --extract $installer --gog --exclude-temp --output-dir $CACHE/tmp/wic/\n    file: $CACHE/tmp/innoextract/innoextract\n- move:\n    dst: $GAMEDIR/drive_c/GOG Games/World in Conflict/\n    src: $CACHE/tmp/wic/game/\n- task:\n    app: d3dx9\n    arch: win32\n    description: Installing d3dx9\n    name: winetricks\n    prefix: $GAMEDIR\nsystem:\n  env:\n    DXVK_HUD: 0\nwine:\n  dxvk: true\n"
}