{
  "name": "Arizona Rose and the Pirates' Riddles",
  "slug": "arizona-rose-and-the-pirates-riddles",
  "year": null,
  "description": "",
  "banner_url": "https://lutris.net/games/banner/arizona-rose-and-the-pirates-riddles.jpg",
  "icon_url": "https://lutris.net/games/icon/arizona-rose-and-the-pirates-riddles.png",
  "is_public": true,
  "updated": "2020-10-08T10:06:10.247714Z",
  "provider_games": [
    {
      "name": "Arizona Rose and the Pirates' Riddles",
      "slug": "537760",
      "service": "steam"
    }
  ],
  "steamid": 537760,
  "gogid": null,
  "gogslug": "",
  "humblestoreid": "",
  "id": 22342
}