{
  "name": "CTU: Counter Terrorism Unit",
  "slug": "ctu-counter-terrorism-unit",
  "year": null,
  "description": "",
  "banner_url": "https://lutris.net/games/banner/ctu-counter-terrorism-unit.jpg",
  "icon_url": "https://lutris.net/games/icon/ctu-counter-terrorism-unit.png",
  "is_public": true,
  "updated": "2020-10-08T10:15:13.116210Z",
  "provider_games": [
    {
      "name": "CTU: Counter Terrorism Unit",
      "slug": "397320",
      "service": "steam"
    }
  ],
  "steamid": 397320,
  "gogid": null,
  "gogslug": "",
  "humblestoreid": "",
  "id": 11656
}