{
  "name": "Endless Space 2",
  "slug": "endless-space-2",
  "year": null,
  "description": "",
  "banner_url": "https://lutris.net/games/banner/endless-space-2.jpg",
  "icon_url": "https://lutris.net/games/icon/endless-space-2.png",
  "is_public": true,
  "updated": "2019-01-23T08:29:23.312543Z",
  "provider_games": [
    {
      "name": "Endless Space® 2 - Digital Deluxe Edition",
      "slug": "392110",
      "service": "steam"
    }
  ],
  "steamid": 392110,
  "gogid": null,
  "gogslug": "",
  "humblestoreid": "",
  "id": 9734
}