{
  "name": "Jackal",
  "slug": "jackal",
  "year": null,
  "description": "",
  "banner_url": "https://lutris.net/games/banner/jackal.jpg",
  "icon_url": "https://lutris.net/games/icon/jackal.png",
  "is_public": false,
  "updated": "2019-01-23T08:29:59.396731Z",
  "provider_games": [],
  "steamid": 454040,
  "gogid": null,
  "gogslug": "",
  "humblestoreid": "",
  "id": 8812
}