{
  "name": "Der einzig wahre Auserwählte",
  "slug": "der-einzig-wahre-auserwahlte",
  "year": null,
  "description": "",
  "banner_url": "https://lutris.net/games/banner/der-einzig-wahre-auserwahlte.jpg",
  "icon_url": "https://lutris.net/games/icon/der-einzig-wahre-auserwahlte.png",
  "is_public": true,
  "updated": "2020-10-08T10:09:30.289862Z",
  "provider_games": [
    {
      "name": "Der einzig wahre Auserwählte",
      "slug": "654080",
      "service": "steam"
    }
  ],
  "steamid": 654080,
  "gogid": null,
  "gogslug": "",
  "humblestoreid": "",
  "id": 23217
}