{
  "id": 5778,
  "game_id": 8279,
  "game_slug": "lakeview-cabin-collection",
  "name": "Lakeview Cabin Collection",
  "year": null,
  "user": "FakeShemp",
  "runner": "wine",
  "slug": "lakeview-cabin-collection-humble",
  "version": "Humble",
  "description": "",
  "notes": "",
  "created_at": "2017-09-17T19:32:29.141758Z",
  "updated_at": "2018-05-19T03:41:57.878671Z",
  "draft": false,
  "published": true,
  "published_by": null,
  "rating": "",
  "steamid": 361990,
  "gogid": null,
  "gogslug": "",
  "humbleid": "",
  "humblestoreid": "",
  "humblestoreid_real": "",
  "script": {
    "files": [
      {
        "file1": "N/A:Please select the Humble archive"
      }
    ],
    "game": {
      "arch": "win32",
      "exe": "drive_c/Program Files/Lakeview Cabin Collection/Lakeview Cabin Collection.exe",
      "prefix": "$GAMEDIR"
    },
    "installer": [
      {
        "extract": {
          "dst": "$GAMEDIR/drive_c/Program Files/Lakeview Cabin Collection",
          "file": "$file1"
        }
      }
    ]
  },
  "content": "files:\n- file1: N/A:Please select the Humble archive\ngame:\n  arch: win32\n  exe: drive_c/Program Files/Lakeview Cabin Collection/Lakeview Cabin Collection.exe\n  prefix: $GAMEDIR\ninstaller:\n- extract:\n    dst: $GAMEDIR/drive_c/Program Files/Lakeview Cabin Collection\n    file: $file1\n"
}