{
  "name": "Cosmic Express",
  "slug": "cosmic-express",
  "year": null,
  "description": "",
  "banner_url": "https://lutris.net/games/banner/cosmic-express.jpg",
  "icon_url": "https://lutris.net/games/icon/cosmic-express.png",
  "is_public": true,
  "updated": "2020-10-08T10:04:48.989978Z",
  "provider_games": [
    {
      "name": "Cosmic Express",
      "slug": "583270",
      "service": "steam"
    }
  ],
  "steamid": 583270,
  "gogid": null,
  "gogslug": "",
  "humblestoreid": "",
  "id": 16806
}