{
  "name": "Last Knight: Rogue Rider Edition",
  "slug": "last-knight-rogue-rider-edition",
  "year": null,
  "description": "",
  "banner_url": "https://lutris.net/games/banner/last-knight-rogue-rider-edition.jpg",
  "icon_url": "https://lutris.net/games/icon/last-knight-rogue-rider-edition.png",
  "is_public": true,
  "updated": "2020-10-08T09:21:03.791042Z",
  "provider_games": [
    {
      "name": "Last Knight: Rogue Rider Edition",
      "slug": "262210",
      "service": "steam"
    }
  ],
  "steamid": 262210,
  "gogid": null,
  "gogslug": "",
  "humblestoreid": "",
  "id": 3275
}