{
  "name": "APE OUT",
  "slug": "ape-out",
  "year": null,
  "description": "",
  "banner_url": "https://lutris.net/games/banner/ape-out.jpg",
  "icon_url": "https://lutris.net/games/icon/ape-out.png",
  "is_public": true,
  "updated": "2020-10-08T10:13:48.575504Z",
  "provider_games": [
    {
      "name": "Ape Out",
      "slug": "1517967052",
      "service": "gog"
    },
    {
      "name": "APE OUT",
      "slug": "447150",
      "service": "steam"
    }
  ],
  "steamid": 447150,
  "gogid": 1517967052,
  "gogslug": "ape_out",
  "humblestoreid": "",
  "id": 26660
}