{
  "name": "Endless ATC",
  "slug": "endless-atc",
  "year": null,
  "description": "",
  "banner_url": "https://lutris.net/games/banner/endless-atc.jpg",
  "icon_url": "https://lutris.net/games/icon/endless-atc.png",
  "is_public": true,
  "updated": "2020-10-08T10:09:24.863566Z",
  "provider_games": [
    {
      "name": "Endless ATC",
      "slug": "666610",
      "service": "steam"
    }
  ],
  "steamid": 666610,
  "gogid": null,
  "gogslug": "",
  "humblestoreid": "",
  "id": 25096
}