{
  "name": "Lifted Dreams",
  "slug": "lifted-dreams",
  "year": 2016,
  "description": "A chill rips away the warm, summer sun, stripping away the dreams of three ambitious youngsters: Jeff, Faye, and Chelsea. Each has lost their previously budding talents in some unknown mishap. Bound by the bond of their youth, the trio face their struggles in this short tale of ambition and romance.\r\n\r\nJeff: An aspiring artist who would meet any set challenge to make his dream come true.\r\n\r\nFaye: An aspiring author who writes extremely cute, overly accurate short stories.\r\n\r\nChelsea: A cheerful and shy singer; her dream is to perform in front of a large audience.\r\n\r\nJeff has had a crush on Faye for as long as he's known her… Though one day she suddenly changed; it's been years since then, and she has arranged a strange meet-up with Jeff and Chelsea. Following this meeting, the two lose the talents essential to achieving their dreams. Their abilities have been replaced with something out of this world.\r\n\r\nWill this summer break them, or will they survive the mysterious trial until the fall?\r\n\r\nFeatures:\r\n* Full female voiceovers!\r\n* A video opener!\r\n* 3 endings!\r\n* 1-2 hours gameplay!\r\n* 12 adorable CGs!\r\n* CG gallery!\r\n* It's free!",
  "banner_url": "https://lutris.net/games/banner/lifted-dreams.jpg",
  "icon_url": "",
  "is_public": true,
  "updated": "2019-01-23T08:30:10.776265Z",
  "provider_games": [],
  "steamid": null,
  "gogid": null,
  "gogslug": "",
  "humblestoreid": "",
  "id": 15015
}