{
  "id": 20976,
  "game_id": 11167,
  "game_slug": "quest-for-glory-iii-wages-of-war",
  "name": "Quest For Glory III: Wages of War",
  "year": 1992,
  "user": "appoloin",
  "runner": "scummvm",
  "slug": "quest-for-glory-iii-wages-of-ms-dos",
  "version": "MS-DOS",
  "description": null,
  "notes": "",
  "created_at": "2020-05-29T09:23:38.084128Z",
  "updated_at": "2020-05-29T09:23:38.084157Z",
  "draft": true,
  "published": false,
  "published_by": null,
  "rating": "",
  "steamid": null,
  "gogid": null,
  "gogslug": "",
  "humbleid": "",
  "humblestoreid": "",
  "humblestoreid_real": "",
  "script": {
    "files": [
      {
        "game": "N/A:Select the file INSTALL.EXE"
      }
    ],
    "game": {
      "game_id": "sci",
      "path": "$GAMEDIR"
    },
    "installer": [
      {
        "write_file": {
          "content": "#!/bin/bash\nsrc=$1\ndst=$2\nsrc_path=$(echo \"$1\" | sed -r \"s/(.+)\\/.+/\\1/\")\ncp -avr \"$src_path/.\"  \"$dst\"",
          "file": "$CACHE/bulkcopy.sh"
        }
      },
      {
        "chmodx": "$CACHE/bulkcopy.sh"
      },
      {
        "execute": {
          "args": "$game $GAMEDIR",
          "file": "$CACHE/bulkcopy.sh"
        }
      }
    ],
    "scummvm": {
      "fullscreen": true
    }
  },
  "content": "files:\n- game: N/A:Select the file INSTALL.EXE\ngame:\n  game_id: sci\n  path: $GAMEDIR\ninstaller:\n- write_file:\n    content: '#!/bin/bash\n\n      src=$1\n\n      dst=$2\n\n      src_path=$(echo \"$1\" | sed -r \"s/(.+)\\/.+/\\1/\")\n\n      cp -avr \"$src_path/.\"  \"$dst\"'\n    file: $CACHE/bulkcopy.sh\n- chmodx: $CACHE/bulkcopy.sh\n- execute:\n    args: $game $GAMEDIR\n    file: $CACHE/bulkcopy.sh\nscummvm:\n  fullscreen: true\n"
}