{
  "name": "Earth Boys Are Easy",
  "slug": "earth-boys-are-easy",
  "year": 2018,
  "description": "Earth Boys Are Easy is the story of Luke, a lonely eggplant farmer whose life is changed by some out-of-this-world visitors.",
  "banner_url": "https://lutris.net/games/banner/earth-boys-are-easy.jpg",
  "icon_url": "",
  "is_public": true,
  "updated": "2019-04-19T03:39:54.541985Z",
  "provider_games": [],
  "steamid": null,
  "gogid": null,
  "gogslug": "",
  "humblestoreid": "",
  "id": 25145
}