{
  "name": "Brigador: Up-Armored Edition",
  "slug": "brigador-up-armored-edition",
  "year": 2016,
  "description": "Brigador is an isometric roguelite of intense tactical combat. Play as mercenary pilots betraying their planet, looking for the big payout and a ticket off this planet. Everything you destroy earns the pilots money that can be used to unlock even more destructive vehicles, guns, and challenges. Find the right loadout for your playstyle and wreak havoc on the city of Solo Nobre.",
  "banner_url": "https://lutris.net/games/banner/brigador-up-armored-edition.jpg",
  "icon_url": "",
  "is_public": true,
  "updated": "2020-05-31T00:17:36.716666Z",
  "provider_games": [
    {
      "name": "Brigador: Up-Armored Edition",
      "slug": "1356485086",
      "service": "gog"
    }
  ],
  "steamid": null,
  "gogid": 1356485086,
  "gogslug": "brigador",
  "humblestoreid": "",
  "id": 23166
}