{
  "name": "Blast-off",
  "slug": "blast-off",
  "year": null,
  "description": "",
  "banner_url": "https://lutris.net/games/banner/blast-off.jpg",
  "icon_url": "https://lutris.net/games/icon/blast-off.png",
  "is_public": true,
  "updated": "2020-10-08T10:15:22.898023Z",
  "provider_games": [
    {
      "name": "Blast-off",
      "slug": "391140",
      "service": "steam"
    }
  ],
  "steamid": 391140,
  "gogid": null,
  "gogslug": "",
  "humblestoreid": "",
  "id": 10701
}