{
  "id": 12673,
  "game_id": 687,
  "game_slug": "hitman-2-silent-assassin",
  "name": "Hitman 2: Silent Assassin",
  "year": 2002,
  "user": "Logeater",
  "runner": "wine",
  "slug": "hitman-2-silent-assassin-gog",
  "version": "GOG",
  "description": null,
  "notes": "",
  "created_at": "2019-04-08T05:10:00.647000Z",
  "updated_at": "2020-04-11T09:08:14.663933Z",
  "draft": false,
  "published": true,
  "published_by": 20548,
  "rating": "",
  "steamid": 6850,
  "gogid": 1207659002,
  "gogslug": "hitman_2_silent_assassin",
  "humbleid": "",
  "humblestoreid": "",
  "humblestoreid_real": "",
  "script": {
    "files": [
      {
        "game": "N/A:Please select the GOG.com Windows installer."
      }
    ],
    "game": {
      "arch": "win32",
      "exe": "drive_c/GOG Games/Hitman 2 Silent Assassin/hitman2.exe",
      "prefix": "$GAMEDIR"
    },
    "installer": [
      {
        "task": {
          "arch": "win32",
          "description": "Creating Wine prefix",
          "name": "create_prefix",
          "prefix": "$GAMEDIR"
        }
      },
      {
        "task": {
          "app": "vcrun6",
          "arch": "win32",
          "name": "winetricks",
          "prefix": "$GAMEDIR"
        }
      },
      {
        "task": {
          "arch": "win32",
          "args": "/SP- /SUPPRESSMSGBOXES /SILENT",
          "executable": "game",
          "name": "wineexec",
          "prefix": "$GAMEDIR"
        }
      }
    ]
  },
  "content": "files:\n- game: N/A:Please select the GOG.com Windows installer.\ngame:\n  arch: win32\n  exe: drive_c/GOG Games/Hitman 2 Silent Assassin/hitman2.exe\n  prefix: $GAMEDIR\ninstaller:\n- task:\n    arch: win32\n    description: Creating Wine prefix\n    name: create_prefix\n    prefix: $GAMEDIR\n- task:\n    app: vcrun6\n    arch: win32\n    name: winetricks\n    prefix: $GAMEDIR\n- task:\n    arch: win32\n    args: /SP- /SUPPRESSMSGBOXES /SILENT\n    executable: game\n    name: wineexec\n    prefix: $GAMEDIR\n"
}