{
  "name": "Breach",
  "slug": "breach",
  "year": 2019,
  "description": "Breach is a fast-paced third person co-op action RPG. Create your own character, customize your appearance, and choose from dozens of classes with gameplay inspired by multiple genres. Launch your enemies in the air and juggle them with rapid attacks. Play as a classic support healer. Sit on the edge of the action and snipe your enemies from a distance. Endlessly customize your character and class to find your own unique playstyle.\r\n\r\nIn addition to playing as a Hero, you can also play as the Veil Demon in Solo or Versus modes! Breach also has a Custom mode where you can play with any number of friends (up to 5), playing as either a Hero or Veil Demon.",
  "banner_url": "https://lutris.net/games/banner/breach.jpg",
  "icon_url": "https://lutris.net/games/icon/breach.png",
  "is_public": true,
  "updated": "2020-10-08T10:14:30.804228Z",
  "provider_games": [
    {
      "name": "Breach",
      "slug": "421650",
      "service": "steam"
    }
  ],
  "steamid": 421650,
  "gogid": null,
  "gogslug": "",
  "humblestoreid": "",
  "id": 3163
}