{
  "name": "Ghosthunter",
  "slug": "ghosthunter",
  "year": 2003,
  "description": "Ghosthunter is a 2003 third-person shooter action video game for the PlayStation 2. Developed by SCE Cambridge Studio, it was published in Europe by SCEE in December 2003, and in North America by Namco in August 2004. The game is based primarily around ghost hunting, and tells the story of Lazarus Jones, a rookie detective with the Detroit Police Department, who accidentally releases a group of imprisoned ghosts from their confinement. When one of the ghosts kidnaps his partner, Jones must enter the ghost realm to track her down. The game received mixed reviews upon release, with critics praising its graphics but criticizing its brevity and linearity.",
  "banner_url": "https://lutris.net/games/banner/ghosthunter.jpg",
  "icon_url": "",
  "is_public": true,
  "updated": "2019-12-15T18:49:37.162559Z",
  "provider_games": [],
  "steamid": null,
  "gogid": null,
  "gogslug": "",
  "humblestoreid": "",
  "id": 30557
}