{
  "name": "Heroes of Hexaluga ❂",
  "slug": "heroes-of-hexaluga",
  "year": null,
  "description": "",
  "banner_url": "https://lutris.net/games/banner/heroes-of-hexaluga.jpg",
  "icon_url": "https://lutris.net/games/icon/heroes-of-hexaluga.png",
  "is_public": true,
  "updated": "2020-10-08T10:00:14.662005Z",
  "provider_games": [
    {
      "name": "❂ Heroes of Hexaluga ❂",
      "slug": "728050",
      "service": "steam"
    }
  ],
  "steamid": 728050,
  "gogid": null,
  "gogslug": "",
  "humblestoreid": "",
  "id": 17249
}