{
  "name": "Dovetail Games Flight School",
  "slug": "dovetail-games-flight-school",
  "year": null,
  "description": "",
  "banner_url": "https://lutris.net/games/banner/dovetail-games-flight-school.jpg",
  "icon_url": "https://lutris.net/games/icon/dovetail-games-flight-school.png",
  "is_public": true,
  "updated": "2020-10-08T10:13:56.100216Z",
  "provider_games": [
    {
      "name": "Dovetail Games Flight School",
      "slug": "441920",
      "service": "steam"
    }
  ],
  "steamid": 441920,
  "gogid": null,
  "gogslug": "",
  "humblestoreid": "",
  "id": 7094
}