{
  "name": "Big Twin",
  "slug": "big-twin",
  "year": 1995,
  "description": "Big Twin is a simple arcade puzzle game in which different coloured spheres continually drop down into the playfield and must be removed as quickly as possible. This is achieved by aligning three or more of the same colour, either vertically, horizontally or diagonally.\r\n\r\nOnce a sphere has completed its drop into the playfield - and providing it's not blocked in by another sphere - it can be highlighted and dragged to another position.\r\n\r\nAs with several other Playmark games, Big Twin is of an adult nature and as the player removes the spheres, a picture of a naked woman is gradually revealed. The game ends if the stacked spheres reach the top of the playfield",
  "banner_url": "https://lutris.net/games/banner/big-twin.jpg",
  "icon_url": "https://lutris.net/games/icon/big-twin.png",
  "is_public": true,
  "updated": "2020-05-26T03:32:12.811025Z",
  "provider_games": [
    {
      "name": "Big Twin",
      "slug": "bigtwin",
      "service": "mame"
    }
  ],
  "steamid": null,
  "gogid": null,
  "gogslug": "",
  "humblestoreid": "",
  "id": 27775
}