{
  "name": "Hunting Unlimited 2010",
  "slug": "hunting-unlimited-2010",
  "year": null,
  "description": "",
  "banner_url": "https://lutris.net/games/banner/hunting-unlimited-2010.jpg",
  "icon_url": "https://lutris.net/games/icon/hunting-unlimited-2010.png",
  "is_public": true,
  "updated": "2020-10-08T10:02:37.105783Z",
  "provider_games": [
    {
      "name": "Hunting Unlimited 2010",
      "slug": "12690",
      "service": "steam"
    }
  ],
  "steamid": 12690,
  "gogid": null,
  "gogslug": "",
  "humblestoreid": "",
  "id": 2735
}