{
  "name": "Hunt Down The Freeman",
  "slug": "hunt-down-the-freeman",
  "year": null,
  "description": "",
  "banner_url": "https://lutris.net/games/banner/hunt-down-the-freeman.jpg",
  "icon_url": "https://lutris.net/games/icon/hunt-down-the-freeman.png",
  "is_public": true,
  "updated": "2020-10-08T10:00:23.113325Z",
  "provider_games": [
    {
      "name": "Hunt Down The Freeman",
      "slug": "723390",
      "service": "steam"
    }
  ],
  "steamid": 723390,
  "gogid": null,
  "gogslug": "",
  "humblestoreid": "",
  "id": 17555
}