{
  "name": "Depths of Limbo",
  "slug": "depths-of-limbo",
  "year": null,
  "description": "",
  "banner_url": "https://lutris.net/games/banner/depths-of-limbo.jpg",
  "icon_url": "https://lutris.net/games/icon/depths-of-limbo.png",
  "is_public": true,
  "updated": "2020-10-08T10:05:12.085000Z",
  "provider_games": [
    {
      "name": "Depths of Limbo",
      "slug": "568400",
      "service": "steam"
    }
  ],
  "steamid": 568400,
  "gogid": null,
  "gogslug": "",
  "humblestoreid": "",
  "id": 16897
}