{
  "name": "Caveblazers",
  "slug": "caveblazers",
  "year": null,
  "description": "",
  "banner_url": "https://lutris.net/games/banner/caveblazers.jpg",
  "icon_url": "https://lutris.net/games/icon/caveblazers.png",
  "is_public": true,
  "updated": "2020-05-31T00:17:37.314548Z",
  "provider_games": [
    {
      "name": "Caveblazers",
      "slug": "1600722961",
      "service": "gog"
    },
    {
      "name": "Caveblazers",
      "slug": "452060",
      "service": "steam"
    }
  ],
  "steamid": 452060,
  "gogid": 1600722961,
  "gogslug": "caveblazers",
  "humblestoreid": "",
  "id": 13858
}