{
  "name": "Golf 2D",
  "slug": "golf-2d",
  "year": null,
  "description": "",
  "banner_url": "https://lutris.net/games/banner/golf-2d.jpg",
  "icon_url": "https://lutris.net/games/icon/golf-2d.png",
  "is_public": true,
  "updated": "2020-10-08T10:00:19.656967Z",
  "provider_games": [
    {
      "name": "Golf 2D",
      "slug": "725680",
      "service": "steam"
    }
  ],
  "steamid": 725680,
  "gogid": null,
  "gogslug": "",
  "humblestoreid": "",
  "id": 18869
}