{
  "name": "Heldric - The legend of the shoemaker",
  "slug": "heldric-the-legend-of-the-shoemaker",
  "year": null,
  "description": "",
  "banner_url": "https://lutris.net/games/banner/heldric-the-legend-of-the-shoemaker.jpg",
  "icon_url": "https://lutris.net/games/icon/heldric-the-legend-of-the-shoemaker.png",
  "is_public": true,
  "updated": "2019-01-23T08:29:48.574446Z",
  "provider_games": [
    {
      "name": "Heldric - The legend of the shoemaker",
      "slug": "293420",
      "service": "steam"
    }
  ],
  "steamid": 293420,
  "gogid": null,
  "gogslug": "",
  "humblestoreid": "",
  "id": 4208
}