{
  "name": "ARCADE GAME SERIES: DIG DUG",
  "slug": "arcade-game-series-dig-dug",
  "year": null,
  "description": "",
  "banner_url": "https://lutris.net/games/banner/arcade-game-series-dig-dug.jpg",
  "icon_url": "https://lutris.net/games/icon/arcade-game-series-dig-dug.png",
  "is_public": true,
  "updated": "2020-10-08T10:15:02.914465Z",
  "provider_games": [
    {
      "name": "ARCADE GAME SERIES: DIG DUG",
      "slug": "403400",
      "service": "steam"
    }
  ],
  "steamid": 403400,
  "gogid": null,
  "gogslug": "",
  "humblestoreid": "",
  "id": 10092
}