{
  "id": 5057,
  "game_id": 12244,
  "game_slug": "aselia-the-eternal-the-spirit-of-eternity-sword-",
  "name": "Aselia the Eternal -The Spirit of Eternity Sword-",
  "year": 2004,
  "user": "FakeShemp",
  "runner": "wine",
  "slug": "aselia-the-eternal-the-spirit-jast-usa",
  "version": "JAST USA",
  "description": "",
  "notes": "",
  "created_at": "2017-07-14T16:35:07.069000Z",
  "updated_at": "2018-05-19T03:41:56.654626Z",
  "draft": false,
  "published": true,
  "published_by": null,
  "rating": "",
  "steamid": 445420,
  "gogid": null,
  "gogslug": "",
  "humbleid": "",
  "humblestoreid": "",
  "humblestoreid_real": "",
  "script": {
    "files": [
      {
        "file1": "N/A:Please select the JAST USA archive"
      }
    ],
    "game": {
      "arch": "win32",
      "exe": "drive_c/Program Files/Aselia The Eternal/Aseliacs_english.exe",
      "prefix": "$GAMEDIR"
    },
    "installer": [
      {
        "extract": {
          "dst": "$CACHE",
          "file": "$file1"
        }
      },
      {
        "task": {
          "args": "/sp- /silent /norestart",
          "executable": "$CACHE/Aselia Setup.exe",
          "name": "wineexec",
          "prefix": "$GAMEDIR"
        }
      },
      {
        "task": {
          "app": "mfc42",
          "name": "winetricks",
          "prefix": "$GAMEDIR"
        }
      }
    ]
  },
  "content": "files:\n- file1: N/A:Please select the JAST USA archive\ngame:\n  arch: win32\n  exe: drive_c/Program Files/Aselia The Eternal/Aseliacs_english.exe\n  prefix: $GAMEDIR\ninstaller:\n- extract:\n    dst: $CACHE\n    file: $file1\n- task:\n    args: /sp- /silent /norestart\n    executable: $CACHE/Aselia Setup.exe\n    name: wineexec\n    prefix: $GAMEDIR\n- task:\n    app: mfc42\n    name: winetricks\n    prefix: $GAMEDIR\n"
}