{
  "name": "Conte Enegy",
  "slug": "conte-enegy",
  "year": 2015,
  "description": "Conte Enegy is a graphics hack of Lode Runner.\r\n\r\nThanks to Famicom Yarou Volume 1 7-in-1, now the graphics in the game is Hacked. Enjoy new look with Conte Enegy.",
  "banner_url": "https://lutris.net/games/banner/conte-enegy.jpg",
  "icon_url": "",
  "is_public": true,
  "updated": "2019-01-23T08:28:57.798407Z",
  "provider_games": [],
  "steamid": null,
  "gogid": null,
  "gogslug": "",
  "humblestoreid": "",
  "id": 24441
}