{
  "name": "Lego Star Wars The Complete Saga",
  "slug": "lego-star-wars-the-complete-saga",
  "year": 2009,
  "description": "The beloved and critically acclaimed LEGO® Star Wars™ franchise is back. LEGO Star Wars III:The Clone Wars, combines the epic stories and iconic characters from the Star Wars universe and hit animated TV series Star Wars: The Clone Wars™ with all new gameplay features.\r\n\r\nPlayers will enjoy brand new game mechanics allowing them to create, control and explore in a galaxy far, far away like never before. Promising breathtaking visuals as well as new characters and levels, the game also features the signature tongue-in-cheek humor from the LEGO universe. With over 20 story-based missions and 40 bonus levels spanning the entire Clone Wars era, LEGO Star Wars III: The Clone Wars will allow fans to explore endlessly and laugh their way through the Star Wars galaxy in the most humorous, accessible and action-packed LEGO game to date.",
  "banner_url": "https://lutris.net/games/banner/lego-star-wars-the-complete-saga.jpg",
  "icon_url": "https://lutris.net/games/icon/lego-star-wars-the-complete-saga.png",
  "is_public": true,
  "updated": "2020-05-31T00:17:47.279376Z",
  "provider_games": [
    {
      "name": "LEGO® Star Wars™ - The Complete Saga",
      "slug": "1731318270",
      "service": "gog"
    },
    {
      "name": "LEGO® Star Wars™: The Complete Saga",
      "slug": "32440",
      "service": "steam"
    }
  ],
  "steamid": 32440,
  "gogid": 1731318270,
  "gogslug": "lego_star_wars_the_complete_saga",
  "humblestoreid": "",
  "id": 696
}