{
  "name": "Bacchikoi!",
  "slug": "bacchikoi",
  "year": 2014,
  "description": "The young transfer student, Toshu Kanada, gets himself recruited in a nearly-falling apart baseball club. His once small world opens up as he gets to know his teammates Ichiru and Masaru. Lead Toshu with his choices and take teamwork and friendship to a whole new level!",
  "banner_url": "https://lutris.net/games/banner/bacchikoi.jpg",
  "icon_url": "",
  "is_public": true,
  "updated": "2019-04-19T03:38:46.203010Z",
  "provider_games": [],
  "steamid": null,
  "gogid": null,
  "gogslug": "",
  "humblestoreid": "",
  "id": 20522
}