{
  "id": 15092,
  "game_id": 28500,
  "game_slug": "alderon-games-launcher",
  "name": "Alderon Games Launcher",
  "year": 2019,
  "user": "TheLimeyDragon",
  "runner": "linux",
  "slug": "alderon-games-launcher-linux-appimage",
  "version": "Linux Appimage",
  "description": null,
  "notes": "",
  "created_at": "2019-08-22T01:50:52.128000Z",
  "updated_at": "2020-03-26T08:57:49.239207Z",
  "draft": false,
  "published": true,
  "published_by": 20548,
  "rating": "",
  "steamid": null,
  "gogid": null,
  "gogslug": "",
  "humbleid": "",
  "humblestoreid": "",
  "humblestoreid_real": "",
  "script": {
    "files": [
      {
        "launcher": "https://launcher-cdn.alderongames.com/AlderonGamesLauncher-1.1.27.AppImage"
      }
    ],
    "game": {
      "exe": "$GAMEDIR/AlderonGamesLauncher.sh"
    },
    "installer": [
      {
        "chmodx": "launcher"
      },
      {
        "move": {
          "dst": "$GAMEDIR",
          "src": "launcher"
        }
      },
      {
        "write_file": {
          "content": "#!/bin/bash\n./AlderonGamesLauncher-*.AppImage",
          "file": "$GAMEDIR/AlderonGamesLauncher.sh"
        }
      },
      {
        "chmodx": "$GAMEDIR/AlderonGamesLauncher.sh"
      }
    ]
  },
  "content": "files:\n- launcher: https://launcher-cdn.alderongames.com/AlderonGamesLauncher-1.1.27.AppImage\ngame:\n  exe: $GAMEDIR/AlderonGamesLauncher.sh\ninstaller:\n- chmodx: launcher\n- move:\n    dst: $GAMEDIR\n    src: launcher\n- write_file:\n    content: '#!/bin/bash\n\n      ./AlderonGamesLauncher-*.AppImage'\n    file: $GAMEDIR/AlderonGamesLauncher.sh\n- chmodx: $GAMEDIR/AlderonGamesLauncher.sh\n"
}