{
  "name": "Fuse character creation",
  "slug": "fuse-character-creation",
  "year": null,
  "description": "",
  "banner_url": "https://lutris.net/games/banner/fuse-character-creation.jpg",
  "icon_url": "",
  "is_public": true,
  "updated": "2019-03-17T19:12:39.650802Z",
  "provider_games": [],
  "steamid": null,
  "gogid": null,
  "gogslug": "",
  "humblestoreid": "",
  "id": 25299
}