{
  "name": "Blood of the Werewolf",
  "slug": "blood-of-the-werewolf",
  "year": null,
  "description": "",
  "banner_url": "https://lutris.net/games/banner/blood-of-the-werewolf.jpg",
  "icon_url": "https://lutris.net/games/icon/blood-of-the-werewolf.png",
  "is_public": true,
  "updated": "2019-01-23T08:28:39.113820Z",
  "provider_games": [
    {
      "name": "Blood of the Werewolf",
      "slug": "260250",
      "service": "steam"
    }
  ],
  "steamid": 260250,
  "gogid": null,
  "gogslug": "",
  "humblestoreid": "",
  "id": 1661
}