{
  "name": "Eliosi's Hunt",
  "slug": "eliosis-hunt",
  "year": null,
  "description": "",
  "banner_url": "https://lutris.net/games/banner/eliosis-hunt.jpg",
  "icon_url": "https://lutris.net/games/icon/eliosis-hunt.png",
  "is_public": true,
  "updated": "2020-10-08T10:07:34.013177Z",
  "provider_games": [
    {
      "name": "Eliosi's Hunt",
      "slug": "494700",
      "service": "steam"
    }
  ],
  "steamid": 494700,
  "gogid": null,
  "gogslug": "",
  "humblestoreid": "",
  "id": 27608
}