{
  "name": "Final Cut: Death on the Silver Screen Collector's Edition",
  "slug": "final-cut-death-on-the-silver-screen-collectors-ed",
  "year": 2012,
  "description": "Unravel the mystery of your father’s death and brother’s bizarre disappearance in Final Cut: Death on the Silver Screen! Your father was a famous movie director who liked to invent elaborate locks and devices. A mysterious villain demands you track down the pieces to his greatest – and perhaps most deadly – invention of all time! If you don’t, your brother will suffer the same fate as your father.\r\n\r\nReturn to the family Art Deco mansion and golden era movie backlots to look for clues about a past you never knew your father had – and the dark secrets behind the villain’s quest for his deadly invention.\r\n\r\nIn this Collector’s Edition, play the bonus game to see how far the villain is willing to go – and how deep your father’s secrets are – as you explore the sets of some of his greatest movies of all time.\r\n\r\nCan you find out who the villain is and stop her before the final cut?",
  "banner_url": "https://lutris.net/games/banner/final-cut-death-on-the-silver-screen-collectors-ed.jpg",
  "icon_url": "https://lutris.net/games/icon/final-cut-death-on-the-silver-screen-collectors-ed.png",
  "is_public": true,
  "updated": "2019-11-04T03:31:32.781853Z",
  "provider_games": [
    {
      "name": "Final Cut: Death on the Silver Screen Collector's Edition",
      "slug": "514740",
      "service": "steam"
    }
  ],
  "steamid": 514740,
  "gogid": null,
  "gogslug": "",
  "humblestoreid": "",
  "id": 30034
}