{
  "name": "Daily Espada",
  "slug": "daily-espada",
  "year": null,
  "description": "",
  "banner_url": "https://lutris.net/games/banner/daily-espada.jpg",
  "icon_url": "https://lutris.net/games/icon/daily-espada.png",
  "is_public": true,
  "updated": "2020-10-08T10:15:20.850777Z",
  "provider_games": [
    {
      "name": "Daily Espada",
      "slug": "392720",
      "service": "steam"
    }
  ],
  "steamid": 392720,
  "gogid": null,
  "gogslug": "",
  "humblestoreid": "",
  "id": 7471
}