{
  "name": "Disney's The Little Mermaid",
  "slug": "disneys-the-little-mermaid",
  "year": 1991,
  "description": "Ariel has already met Eric, and they plan to wed, but the sea-witch Ursala has taken control of the ocean! So Ariel (After explaining what's going on to Eric) becomes a mermaid once more and sets off to rescue the sea.\r\n\r\nThe game takes place from a side view and Ariel (Swimming most of the time, but hopping around on the land occasionally) can shoot bubbles to trap her foes and can then throw them at each other. She can also dig through sand to find treasure and pick up sea shells to help her break chests open.\r\n\r\nThe treasure she finds in the sand is usually just bonus points, but the treasure you find in chests will increase your bubble's power and range.",
  "banner_url": "https://lutris.net/games/banner/disneys-the-little-mermaid.jpg",
  "icon_url": "",
  "is_public": true,
  "updated": "2019-01-23T08:29:13.085711Z",
  "provider_games": [],
  "steamid": null,
  "gogid": null,
  "gogslug": "",
  "humblestoreid": "",
  "id": 16343
}