{
  "id": 4992,
  "game_id": 11102,
  "game_slug": "stage-presence",
  "name": "Stage Presence",
  "year": null,
  "user": "FakeShemp",
  "runner": "wine",
  "slug": "stage-presence-groupees",
  "version": "Groupees",
  "description": "",
  "notes": "",
  "created_at": "2017-07-12T18:18:43.268000Z",
  "updated_at": "2018-05-19T03:41:56.371854Z",
  "draft": false,
  "published": true,
  "published_by": null,
  "rating": "",
  "steamid": 391640,
  "gogid": null,
  "gogslug": "",
  "humbleid": "",
  "humblestoreid": "",
  "humblestoreid_real": "",
  "script": {
    "files": [
      {
        "file1": "N/A:Please select the Groupees archive"
      }
    ],
    "game": {
      "arch": "win32",
      "exe": "drive_c/Program Files/Stage Presence/StagePresence.exe",
      "prefix": "$GAMEDIR"
    },
    "installer": [
      {
        "task": {
          "arch": "win64",
          "name": "create_prefix",
          "prefix": "$GAMEDIR"
        }
      },
      {
        "extract": {
          "dst": "$GAMEDIR/drive_c/Program Files/Stage Presence",
          "file": "$file1"
        }
      }
    ]
  },
  "content": "files:\n- file1: N/A:Please select the Groupees archive\ngame:\n  arch: win32\n  exe: drive_c/Program Files/Stage Presence/StagePresence.exe\n  prefix: $GAMEDIR\ninstaller:\n- task:\n    arch: win64\n    name: create_prefix\n    prefix: $GAMEDIR\n- extract:\n    dst: $GAMEDIR/drive_c/Program Files/Stage Presence\n    file: $file1\n"
}