{
  "name": "Interstellar Space: Genesis",
  "slug": "interstellar-space-genesis",
  "year": null,
  "description": "",
  "banner_url": "https://lutris.net/games/banner/interstellar-space-genesis.jpg",
  "icon_url": "https://lutris.net/games/icon/interstellar-space-genesis.png",
  "is_public": true,
  "updated": "2020-10-08T09:16:35.026793Z",
  "provider_games": [
    {
      "name": "Interstellar Space: Genesis",
      "slug": "984680",
      "service": "steam"
    }
  ],
  "steamid": 984680,
  "gogid": null,
  "gogslug": "",
  "humblestoreid": "",
  "id": 32241
}