{
  "name": "Harvest Moon: Sunshine Islands",
  "slug": "harvest-moon-sunshine-islands",
  "year": 2009,
  "description": "Raise Crops, Livestock and… Islands?!\r\n\r\n\r\nThe islands are in peril! Years ago, many islands in the Sunshine Islands chain sank when a powerful earthquake struck. In Harvest Moon: Sunshine Islands, it's up to you to raise the sunken islands by finding the magical Sun Stones. With a little luck, you may even find true love and start a family along the way.\r\n\r\nFeatures\r\n\r\n• Raise the sunken islands to unlock new characters, crops and animals!• Befriend a variety of animals including sparrows, rabbits and monkeys!• Find Harvest Sprites who help you care for your farm and enchant villagers!",
  "banner_url": "https://lutris.net/games/banner/harvest-moon-sunshine-islands.jpg",
  "icon_url": "",
  "is_public": true,
  "updated": "2019-08-08T19:44:56.524151Z",
  "provider_games": [],
  "steamid": null,
  "gogid": null,
  "gogslug": "",
  "humblestoreid": "",
  "id": 28744
}