{
  "name": "500 MILES",
  "slug": "500-miles",
  "year": null,
  "description": "",
  "banner_url": "https://lutris.net/games/banner/500-miles.jpg",
  "icon_url": "https://lutris.net/games/icon/500-miles.png",
  "is_public": true,
  "updated": "2020-10-08T10:15:30.943141Z",
  "provider_games": [
    {
      "name": "500 MILES",
      "slug": "387660",
      "service": "steam"
    }
  ],
  "steamid": 387660,
  "gogid": null,
  "gogslug": "",
  "humblestoreid": "",
  "id": 22251
}