{
  "name": "Bike of the Wild",
  "slug": "bike-of-the-wild",
  "year": null,
  "description": "",
  "banner_url": "https://lutris.net/games/banner/bike-of-the-wild.jpg",
  "icon_url": "https://lutris.net/games/icon/bike-of-the-wild.png",
  "is_public": true,
  "updated": "2020-10-08T09:59:02.031320Z",
  "provider_games": [
    {
      "name": "Bike of the Wild",
      "slug": "745180",
      "service": "steam"
    }
  ],
  "steamid": 745180,
  "gogid": null,
  "gogslug": "",
  "humblestoreid": "",
  "id": 22610
}