{
  "name": "Artifact Quest 2",
  "slug": "artifact-quest-2",
  "year": null,
  "description": "",
  "banner_url": "https://lutris.net/games/banner/artifact-quest-2.jpg",
  "icon_url": "https://lutris.net/games/icon/artifact-quest-2.png",
  "is_public": true,
  "updated": "2020-10-08T10:00:31.933920Z",
  "provider_games": [
    {
      "name": "Artifact Quest 2",
      "slug": "718080",
      "service": "steam"
    }
  ],
  "steamid": 718080,
  "gogid": null,
  "gogslug": "",
  "humblestoreid": "",
  "id": 22567
}