{
  "id": 4607,
  "game_id": 3779,
  "game_slug": "command-hq",
  "name": "Command H.Q.",
  "year": null,
  "user": "FakeShemp",
  "runner": "dosbox",
  "slug": "command-hq-humble",
  "version": "Humble",
  "description": "Uses the files from the Windows installer from Humble.",
  "notes": "",
  "created_at": "2017-06-25T21:00:32.360000Z",
  "updated_at": "2017-07-04T18:10:05.913145Z",
  "draft": false,
  "published": true,
  "published_by": null,
  "rating": "",
  "steamid": 329630,
  "gogid": 1699056346,
  "gogslug": "command_hq",
  "humbleid": "",
  "humblestoreid": "",
  "humblestoreid_real": "",
  "script": {
    "files": [
      {
        "file1": "N/A:Please select the Humble installer"
      }
    ],
    "game": {
      "config_file": "$GAMEDIR/dosbox_commandhq.conf"
    },
    "installer": [
      {
        "task": {
          "args": "/S",
          "executable": "$file1",
          "name": "wine.wineexec",
          "prefix": "$CACHE"
        }
      },
      {
        "merge": {
          "dst": "$GAMEDIR",
          "src": "$CACHE/drive_c/Games/Retroism/Command HQ"
        }
      },
      {
        "write_config": {
          "file": "$GAMEDIR/dosbox_commandhq.conf",
          "key": "aspect",
          "section": "render",
          "value": true
        }
      },
      {
        "write_config": {
          "file": "$GAMEDIR/dosbox_commandhq.conf",
          "key": "fullscreen",
          "section": "sdl",
          "value": false
        }
      }
    ],
    "main_file": "dosbox_commandhq_launch_windows.conf"
  },
  "content": "files:\n- file1: N/A:Please select the Humble installer\ngame:\n  config_file: $GAMEDIR/dosbox_commandhq.conf\ninstaller:\n- task:\n    args: /S\n    executable: $file1\n    name: wine.wineexec\n    prefix: $CACHE\n- merge:\n    dst: $GAMEDIR\n    src: $CACHE/drive_c/Games/Retroism/Command HQ\n- write_config:\n    file: $GAMEDIR/dosbox_commandhq.conf\n    key: aspect\n    section: render\n    value: true\n- write_config:\n    file: $GAMEDIR/dosbox_commandhq.conf\n    key: fullscreen\n    section: sdl\n    value: false\nmain_file: dosbox_commandhq_launch_windows.conf\n"
}