{
  "name": "Antenna",
  "slug": "antenna",
  "year": null,
  "description": "",
  "banner_url": "https://lutris.net/games/banner/antenna.jpg",
  "icon_url": "https://lutris.net/games/icon/antenna.png",
  "is_public": true,
  "updated": "2020-10-08T10:13:53.677730Z",
  "provider_games": [
    {
      "name": "Antenna",
      "slug": "443580",
      "service": "steam"
    }
  ],
  "steamid": 443580,
  "gogid": null,
  "gogslug": "",
  "humblestoreid": "",
  "id": 6210
}