{
  "name": "Audio Arena",
  "slug": "audio-arena",
  "year": null,
  "description": "",
  "banner_url": "https://lutris.net/games/banner/audio-arena.jpg",
  "icon_url": "https://lutris.net/games/icon/audio-arena.png",
  "is_public": true,
  "updated": "2020-10-08T10:13:30.523369Z",
  "provider_games": [
    {
      "name": "Audio Arena",
      "slug": "457770",
      "service": "steam"
    }
  ],
  "steamid": 457770,
  "gogid": null,
  "gogslug": "",
  "humblestoreid": "",
  "id": 12551
}