{
  "name": "3D Earth Time Lapse PC Live Wallpaper",
  "slug": "3d-earth-time-lapse-pc-live-wallpaper",
  "year": null,
  "description": "",
  "banner_url": "https://lutris.net/games/banner/3d-earth-time-lapse-pc-live-wallpaper.jpg",
  "icon_url": "https://lutris.net/games/icon/3d-earth-time-lapse-pc-live-wallpaper.png",
  "is_public": true,
  "updated": "2020-10-08T09:17:34.492719Z",
  "provider_games": [
    {
      "name": "3D Earth Time Lapse PC Live Wallpaper",
      "slug": "927730",
      "service": "steam"
    }
  ],
  "steamid": 927730,
  "gogid": null,
  "gogslug": "",
  "humblestoreid": "",
  "id": 38230
}