{
  "name": "Hypnagogia",
  "slug": "hypnagogia",
  "year": 2020,
  "description": "Hypnagogia is an exploration in themes involving deep dreams, liminal spaces, sleep paralysis demons, and much more. Can you collect all 8 dream crystals and finally wake up?",
  "banner_url": "https://lutris.net/games/banner/hypnagogia.jpg",
  "icon_url": "",
  "is_public": false,
  "updated": "2020-11-29T06:39:57.122901Z",
  "provider_games": [],
  "steamid": null,
  "gogid": null,
  "gogslug": "",
  "humblestoreid": "",
  "id": 40423
}