{
  "name": "Kebab it Up!",
  "slug": "kebab-it-up",
  "year": null,
  "description": "",
  "banner_url": "https://lutris.net/games/banner/kebab-it-up.jpg",
  "icon_url": "https://lutris.net/games/icon/kebab-it-up.png",
  "is_public": true,
  "updated": "2020-10-08T09:59:01.057420Z",
  "provider_games": [
    {
      "name": "Kebab it Up!",
      "slug": "745400",
      "service": "steam"
    }
  ],
  "steamid": 745400,
  "gogid": null,
  "gogslug": "",
  "humblestoreid": "",
  "id": 22611
}