{
  "name": "Dementium II HD",
  "slug": "dementium-ii-hd",
  "year": null,
  "description": "",
  "banner_url": "https://lutris.net/games/banner/dementium-ii-hd.jpg",
  "icon_url": "https://lutris.net/games/icon/dementium-ii-hd.png",
  "is_public": true,
  "updated": "2020-10-08T09:54:31.567925Z",
  "provider_games": [
    {
      "name": "Dementium II HD",
      "slug": "217100",
      "service": "steam"
    }
  ],
  "steamid": 217100,
  "gogid": null,
  "gogslug": "",
  "humblestoreid": "",
  "id": 3487
}