{
  "name": "Bighead Runner",
  "slug": "bighead-runner",
  "year": null,
  "description": "",
  "banner_url": "https://lutris.net/games/banner/bighead-runner.jpg",
  "icon_url": "https://lutris.net/games/icon/bighead-runner.png",
  "is_public": true,
  "updated": "2020-10-08T09:56:54.624714Z",
  "provider_games": [
    {
      "name": "Bighead Runner",
      "slug": "863490",
      "service": "steam"
    }
  ],
  "steamid": 863490,
  "gogid": null,
  "gogslug": "",
  "humblestoreid": "",
  "id": 23335
}