{
  "name": "Geo",
  "slug": "geo",
  "year": null,
  "description": "",
  "banner_url": "https://lutris.net/games/banner/geo.jpg",
  "icon_url": "https://lutris.net/games/icon/geo.png",
  "is_public": true,
  "updated": "2020-10-08T10:07:01.745779Z",
  "provider_games": [
    {
      "name": "Geo",
      "slug": "513480",
      "service": "steam"
    }
  ],
  "steamid": 513480,
  "gogid": null,
  "gogslug": "",
  "humblestoreid": "",
  "id": 18094
}