{
  "name": "Inevitable Path",
  "slug": "inevitable-path",
  "year": null,
  "description": "",
  "banner_url": "https://lutris.net/games/banner/inevitable-path.jpg",
  "icon_url": "https://lutris.net/games/icon/inevitable-path.png",
  "is_public": false,
  "updated": "2019-01-23T08:29:56.378515Z",
  "provider_games": [],
  "steamid": 526390,
  "gogid": null,
  "gogslug": "",
  "humblestoreid": "",
  "id": 12733
}