{
  "name": "Don't Die Dateless, Dummy!",
  "slug": "dont-die-dateless-dummy",
  "year": 2016,
  "description": "Choose your route carefully and win the heart of a special girl or you might end up a level 30 wizard! Will you walk the path of a changed man or will your magical powers be unleashed? Inspired by the plights of members from various internet communities, will the outcome of this tale prove to be a fantasy or an all-too-famiiliar harsh reality?!",
  "banner_url": "https://lutris.net/games/banner/dont-die-dateless-dummy.jpg",
  "icon_url": "https://lutris.net/games/icon/dont-die-dateless-dummy.png",
  "is_public": true,
  "updated": "2020-10-08T10:13:33.552415Z",
  "provider_games": [
    {
      "name": "Don't Die Dateless, Dummy!",
      "slug": "455490",
      "service": "steam"
    }
  ],
  "steamid": 455490,
  "gogid": null,
  "gogslug": "",
  "humblestoreid": "",
  "id": 15953
}