{
  "name": "Bear With Me - Collector's Edition",
  "slug": "bear-with-me-collectors-edition",
  "year": null,
  "description": "",
  "banner_url": "https://lutris.net/games/banner/bear-with-me-collectors-edition.jpg",
  "icon_url": "https://lutris.net/games/icon/bear-with-me-collectors-edition.png",
  "is_public": true,
  "updated": "2020-10-08T09:58:08.786069Z",
  "provider_games": [
    {
      "name": "Bear With Me - Collector's Edition",
      "slug": "783050",
      "service": "steam"
    }
  ],
  "steamid": 783050,
  "gogid": null,
  "gogslug": "",
  "humblestoreid": "",
  "id": 19170
}