{
  "name": "Fated Kingdom",
  "slug": "fated-kingdom",
  "year": null,
  "description": "",
  "banner_url": "https://lutris.net/games/banner/fated-kingdom.jpg",
  "icon_url": "https://lutris.net/games/icon/fated-kingdom.png",
  "is_public": true,
  "updated": "2020-10-08T09:57:28.789731Z",
  "provider_games": [
    {
      "name": "Fated Kingdom",
      "slug": "837400",
      "service": "steam"
    }
  ],
  "steamid": 837400,
  "gogid": null,
  "gogslug": "",
  "humblestoreid": "",
  "id": 31652
}