{
  "name": "INFERNIUM",
  "slug": "infernium",
  "year": null,
  "description": "",
  "banner_url": "https://lutris.net/games/banner/infernium.jpg",
  "icon_url": "https://lutris.net/games/icon/infernium.png",
  "is_public": true,
  "updated": "2020-10-08T09:58:00.370095Z",
  "provider_games": [
    {
      "name": "INFERNIUM",
      "slug": "789950",
      "service": "steam"
    }
  ],
  "steamid": 789950,
  "gogid": null,
  "gogslug": "",
  "humblestoreid": "",
  "id": 24295
}