{
  "name": "Azur Lane: Crosswave",
  "slug": "azur-lane-crosswave",
  "year": null,
  "description": "",
  "banner_url": "https://lutris.net/games/banner/azur-lane-crosswave.jpg",
  "icon_url": "https://lutris.net/games/icon/azur-lane-crosswave.png",
  "is_public": true,
  "updated": "2020-10-08T10:17:48.363644Z",
  "provider_games": [
    {
      "name": "Azur Lane: Crosswave",
      "slug": "1150080",
      "service": "steam"
    }
  ],
  "steamid": 1150080,
  "gogid": null,
  "gogslug": "",
  "humblestoreid": "",
  "id": 32744
}