{
  "name": "Lifeforce Tenka",
  "slug": "lifeforce-tenka",
  "year": 1997,
  "description": "",
  "banner_url": "https://lutris.net/games/banner/lifeforce-tenka.jpg",
  "icon_url": "",
  "is_public": true,
  "updated": "2019-12-17T19:54:50.970220Z",
  "provider_games": [],
  "steamid": null,
  "gogid": null,
  "gogslug": "",
  "humblestoreid": "",
  "id": 30156
}