{
  "name": "Death's Hangover",
  "slug": "deaths-hangover",
  "year": null,
  "description": "",
  "banner_url": "https://lutris.net/games/banner/deaths-hangover.jpg",
  "icon_url": "https://lutris.net/games/icon/deaths-hangover.png",
  "is_public": true,
  "updated": "2020-10-08T10:06:41.654859Z",
  "provider_games": [
    {
      "name": "Death's Hangover",
      "slug": "521920",
      "service": "steam"
    }
  ],
  "steamid": 521920,
  "gogid": null,
  "gogslug": "",
  "humblestoreid": "",
  "id": 11983
}