{
  "name": "Frontlines: Fuel of War",
  "slug": "frontlines-fuel-of-war",
  "year": null,
  "description": "",
  "banner_url": "https://lutris.net/games/banner/frontlines-fuel-of-war.jpg",
  "icon_url": "https://lutris.net/games/icon/frontlines-fuel-of-war.png",
  "is_public": true,
  "updated": "2020-10-08T10:02:42.221099Z",
  "provider_games": [
    {
      "name": "Frontlines: Fuel of War",
      "slug": "9460",
      "service": "steam"
    }
  ],
  "steamid": 9460,
  "gogid": null,
  "gogslug": "",
  "humblestoreid": "",
  "id": 1445
}