{
  "name": "Dice Tower Defense",
  "slug": "dice-tower-defense",
  "year": 2017,
  "description": "",
  "banner_url": "https://lutris.net/games/banner/dice-tower-defense.jpg",
  "icon_url": "https://lutris.net/games/icon/dice-tower-defense.png",
  "is_public": true,
  "updated": "2019-01-23T08:29:11.418176Z",
  "provider_games": [
    {
      "name": "Dice Tower Defense",
      "slug": "700660",
      "service": "steam"
    }
  ],
  "steamid": 700660,
  "gogid": null,
  "gogslug": "",
  "humblestoreid": "",
  "id": 15794
}