{
  "name": "Cadaver",
  "slug": "cadaver",
  "year": 1990,
  "description": "A complex interactive game environment with hundreds of different rooms and locations – Mind-bending puzzles – A wide variety of available weapons – An array of spells and mysterious magic points – A vast menagerie of monsters, including mutated rats, man-size water lizards and gigantic fire-breathing dragons.",
  "banner_url": "https://lutris.net/games/banner/cadaver.jpg",
  "icon_url": "",
  "is_public": true,
  "updated": "2019-01-23T08:28:44.116683Z",
  "provider_games": [],
  "steamid": null,
  "gogid": null,
  "gogslug": "",
  "humblestoreid": "",
  "id": 11319
}