{
  "name": "Croc's World Construction Kit",
  "slug": "crocs-world-construction-kit",
  "year": null,
  "description": "",
  "banner_url": "https://lutris.net/games/banner/crocs-world-construction-kit.jpg",
  "icon_url": "https://lutris.net/games/icon/crocs-world-construction-kit.png",
  "is_public": true,
  "updated": "2020-10-08T10:08:26.358538Z",
  "provider_games": [
    {
      "name": "Croc's World Construction Kit",
      "slug": "831910",
      "service": "steam"
    }
  ],
  "steamid": 831910,
  "gogid": null,
  "gogslug": "",
  "humblestoreid": "",
  "id": 26275
}