{
  "name": "Catmouth Island",
  "slug": "catmouth-island",
  "year": null,
  "description": "",
  "banner_url": "https://lutris.net/games/banner/catmouth-island.jpg",
  "icon_url": "",
  "is_public": true,
  "updated": "2019-01-23T08:28:48.545878Z",
  "provider_games": [
    {
      "name": "Catmouth Island",
      "slug": "336380",
      "service": "steam"
    }
  ],
  "steamid": 336380,
  "gogid": null,
  "gogslug": "",
  "humblestoreid": "",
  "id": 3797
}