{
  "name": "Light Bringer",
  "slug": "light-bringer",
  "year": 1993,
  "description": "",
  "banner_url": "",
  "icon_url": "https://lutris.net/games/icon/light-bringer.png",
  "is_public": true,
  "updated": "2020-05-26T03:35:16.246132Z",
  "provider_games": [
    {
      "name": "Light Bringer",
      "slug": "lightbr",
      "service": "mame"
    }
  ],
  "steamid": null,
  "gogid": null,
  "gogslug": "",
  "humblestoreid": "",
  "id": 34726
}