{
  "id": 9295,
  "game_id": 20104,
  "game_slug": "tears-of-yggdrasil",
  "name": "Tears of Yggdrasil",
  "year": 2017,
  "user": "kimchitea",
  "runner": "linux",
  "slug": "tears-of-yggdrasil-nutaku",
  "version": "Nutaku",
  "description": null,
  "notes": "",
  "created_at": "2018-07-20T09:32:28.929000Z",
  "updated_at": "2018-07-20T13:57:23.338550Z",
  "draft": false,
  "published": true,
  "published_by": null,
  "rating": "",
  "steamid": null,
  "gogid": null,
  "gogslug": "",
  "humbleid": "",
  "humblestoreid": "",
  "humblestoreid_real": "",
  "script": {
    "exe": "Tears of Yggdrasil.sh",
    "files": [
      {
        "file1": "N/A:Please select the Nutaku archive"
      }
    ],
    "installer": [
      {
        "extract": {
          "file": "$file1"
        }
      },
      {
        "chmodx": "$GAMEDIR/Tears of Yggdrasil.sh"
      },
      {
        "chmodx": "$GAMEDIR/lib/linux-i686/Tears of Yggdrasil"
      },
      {
        "chmodx": "$GAMEDIR/lib/linux-x86_64/Tears of Yggdrasil"
      }
    ]
  },
  "content": "exe: Tears of Yggdrasil.sh\nfiles:\n- file1: N/A:Please select the Nutaku archive\ninstaller:\n- extract:\n    file: $file1\n- chmodx: $GAMEDIR/Tears of Yggdrasil.sh\n- chmodx: $GAMEDIR/lib/linux-i686/Tears of Yggdrasil\n- chmodx: $GAMEDIR/lib/linux-x86_64/Tears of Yggdrasil\n"
}