{
  "name": "FamicomBox",
  "slug": "famicombox",
  "year": 1986,
  "description": "",
  "banner_url": "",
  "icon_url": "https://lutris.net/games/icon/famicombox.png",
  "is_public": true,
  "updated": "2020-05-26T03:33:41.675578Z",
  "provider_games": [
    {
      "name": "FamicomBox",
      "slug": "famibox",
      "service": "mame"
    }
  ],
  "steamid": null,
  "gogid": null,
  "gogslug": "",
  "humblestoreid": "",
  "id": 34056
}