{
  "name": "Cricket 96",
  "slug": "cricket-96",
  "year": 1996,
  "description": "One of the first realistic cricket games in the market, Cricket 96 wowed people with its options, commentary and video options.\r\n\r\nYou can play either test or one-day matches with a choice of 8 teams, and you can set your field, bowlers and batsmen. It has a good control system and decent graphics for its time.",
  "banner_url": "https://lutris.net/games/banner/cricket-96.jpg",
  "icon_url": "",
  "is_public": true,
  "updated": "2019-01-23T08:29:00.541773Z",
  "provider_games": [],
  "steamid": null,
  "gogid": null,
  "gogslug": "",
  "humblestoreid": "",
  "id": 6524
}