{
  "name": "In Exilium",
  "slug": "in-exilium",
  "year": null,
  "description": "",
  "banner_url": "https://lutris.net/games/banner/in-exilium.jpg",
  "icon_url": "https://lutris.net/games/icon/in-exilium.png",
  "is_public": false,
  "updated": "2019-01-23T08:29:56.387129Z",
  "provider_games": [],
  "steamid": 344880,
  "gogid": null,
  "gogslug": "",
  "humblestoreid": "",
  "id": 5047
}