{
  "name": "Chasm",
  "slug": "chasm",
  "year": 2013,
  "description": "Chasm is a 2D Action-RPG Platformer currently in development for Windows, Mac, & Linux. Taking equal inspiration from hack ‘n slash dungeon crawlers (procedurally generated dungeons, loot drops, etc) and Metroidvania-style platformers, the game aims to immerse you in its 2D fantasy world full of exciting treasure, deadly enemies, and abundant secrets.\r\n\r\nFeatures:\r\n* Explore six massive procedurally-assembled areas from hand-crafted rooms\r\n* Enjoy challenging retro gameplay and authentic pixel art (384x216 native res.)\r\n* Battle massive bosses and discover new abilities to reach previously inaccessible areas\r\n* Customize your character by equipping armor to your body and weapons, shields, or spells to either hand\r\n* Includes Normal, Arena, Time Trial & Hardcore Modes\r\n* Leaderboards for Hardcore playthroughs featuring quickest time and more\r\n* Windows, Mac, & Linux versions with Gamepad support\r\n",
  "banner_url": "https://lutris.net/games/banner/chasm.jpg",
  "icon_url": "",
  "is_public": true,
  "updated": "2020-05-31T00:17:37.453285Z",
  "provider_games": [
    {
      "name": "Chasm",
      "slug": "1114021228",
      "service": "gog"
    },
    {
      "name": "Chasm",
      "slug": "312200",
      "service": "steam"
    }
  ],
  "steamid": 312200,
  "gogid": 1114021228,
  "gogslug": "chasm",
  "humblestoreid": "",
  "id": 14
}