{
  "name": "Formula Fusion",
  "slug": "formula-fusion",
  "year": null,
  "description": "",
  "banner_url": "https://lutris.net/games/banner/formula-fusion.jpg",
  "icon_url": "https://lutris.net/games/icon/formula-fusion.png",
  "is_public": true,
  "updated": "2020-10-08T10:16:53.733889Z",
  "provider_games": [
    {
      "name": "Pacer",
      "slug": "389670",
      "service": "steam"
    }
  ],
  "steamid": 389670,
  "gogid": null,
  "gogslug": "",
  "humblestoreid": "",
  "id": 12321
}