{
  "name": "Beyond the Sunset 斜阳下的彼岸",
  "slug": "beyond-the-sunset",
  "year": null,
  "description": "",
  "banner_url": "https://lutris.net/games/banner/beyond-the-sunset.jpg",
  "icon_url": "https://lutris.net/games/icon/beyond-the-sunset.png",
  "is_public": true,
  "updated": "2020-10-08T10:00:38.819077Z",
  "provider_games": [
    {
      "name": "Beyond the Sunset 斜阳下的彼岸",
      "slug": "713260",
      "service": "steam"
    }
  ],
  "steamid": 713260,
  "gogid": null,
  "gogslug": "",
  "humblestoreid": "",
  "id": 26187
}