{
  "name": "Ding Dong XL",
  "slug": "ding-dong-xl",
  "year": null,
  "description": "Ding Dong XL is a neon-infused one button arcade game. It is an addictive 'just-one-more-round' score chaser, perfect for playing while waiting in queue for another game.",
  "banner_url": "https://lutris.net/games/banner/ding-dong-xl.jpg",
  "icon_url": "",
  "is_public": true,
  "updated": "2019-01-23T08:29:11.892441Z",
  "provider_games": [
    {
      "name": "Ding Dong XL",
      "slug": "862570",
      "service": "steam"
    }
  ],
  "steamid": 862570,
  "gogid": null,
  "gogslug": "",
  "humblestoreid": "",
  "id": 23783
}