{
  "name": "Idle Adventure",
  "slug": "idle-adventure",
  "year": null,
  "description": "",
  "banner_url": "https://lutris.net/games/banner/idle-adventure.jpg",
  "icon_url": "https://lutris.net/games/icon/idle-adventure.png",
  "is_public": true,
  "updated": "2020-10-08T10:00:37.036627Z",
  "provider_games": [
    {
      "name": "Idle Adventure",
      "slug": "714020",
      "service": "steam"
    }
  ],
  "steamid": 714020,
  "gogid": null,
  "gogslug": "",
  "humblestoreid": "",
  "id": 18820
}