{
  "name": "Barony: Cursed Edition",
  "slug": "barony",
  "year": 2015,
  "description": "Barony is a 3D, first-person roguelike with cooperative multiplayer that brings back the cryptic and intricate designs of classic roguelikes such as Nethack and melds them with RPGs like Ultima Underworld, System Shock, and Daggerfall. Challenge is the calling card of this hard-boiled dungeon-crawler.\r\n\r\nFeatures:\r\n* Gameplay inspired by RPG classics like Ultima Underworld, System Shock, & Daggerfall \r\n* Roguelike mechanics such as perma-death, random dungeons, cryptic messages, and more \r\n* Meticulously narrated action that mimics the insane events one could expect to find in games like Nethack \r\n* A complex yet intuitive drag & drop interface to manage items and character stats \r\n* Cooperative multiplayer for up to 4 players over internet or LAN (includes Steam and direct-IP connections) \r\n* Hundreds of unique collectible items and loot, including several rare and mystical artifacts\r\n* Chock-full of secret areas, special levels, developer easter eggs, and more \r\n* Bundled level editor, exposed assets, and simple file formats for easy hacking, modding & tinkering\r\n\r\nCursed Edition Features:\r\n* Total art overhaul courtesy of Josiah Colborn\r\n* New and improved levels and game mechanics\r\n* Customizable server flags: hunger, minotaurs, friendly fire, and more",
  "banner_url": "https://lutris.net/games/banner/barony.jpg",
  "icon_url": "https://lutris.net/games/icon/barony.png",
  "is_public": true,
  "updated": "2020-05-31T00:17:35.448811Z",
  "provider_games": [
    {
      "name": "Barony: Blessed Addition",
      "slug": "1797331296",
      "service": "gog"
    },
    {
      "name": "Barony",
      "slug": "371970",
      "service": "steam"
    }
  ],
  "steamid": 371970,
  "gogid": 1797331296,
  "gogslug": "barony_cursed_edition",
  "humblestoreid": "barony-cursed-edition",
  "id": 5062
}