{
  "name": "C2H6O",
  "slug": "c2h6o",
  "year": null,
  "description": "",
  "banner_url": "https://lutris.net/games/banner/c2h6o.jpg",
  "icon_url": "https://lutris.net/games/icon/c2h6o.png",
  "is_public": false,
  "updated": "2019-01-23T08:28:43.964951Z",
  "provider_games": [],
  "steamid": 714350,
  "gogid": null,
  "gogslug": "",
  "humblestoreid": "",
  "id": 18824
}