{
  "id": 23214,
  "game_id": 13966,
  "game_slug": "gothic-ii",
  "name": "Gothic II",
  "year": 2003,
  "user": "gto",
  "runner": "wine",
  "slug": "gothic-ii-patch-vdfs",
  "version": "[Patch] VDFS",
  "description": "This installer downloads and installs the VDFS patch",
  "notes": "",
  "created_at": "2020-09-05T22:18:51.672658Z",
  "updated_at": "2020-09-05T22:18:51.672685Z",
  "draft": true,
  "published": false,
  "published_by": null,
  "rating": "",
  "steamid": 39510,
  "gogid": 1207658718,
  "gogslug": "gothic_2_gold_edition",
  "humbleid": "",
  "humblestoreid": "",
  "humblestoreid_real": "",
  "script": {
    "files": [
      {
        "patch": "https://www.worldofgothic.de/download.php?id=270"
      }
    ],
    "game": {
      "arch": "win32",
      "prefix": "$GAMEDIR"
    },
    "installer": [
      {
        "move": {
          "description": "Moving the Patch",
          "dst": "$GAMEDIR/drive_c/gothic2_vdfs-patch.exe",
          "src": "patch"
        }
      },
      {
        "task": {
          "description": "Running the Patch",
          "executable": "$GAMEDIR/drive_c/gothic2_vdfs-patch.exe",
          "name": "wineexec",
          "prefix": "$GAMEDIR"
        }
      }
    ],
    "requires": "gothic-ii"
  },
  "content": "files:\n- patch: https://www.worldofgothic.de/download.php?id=270\ngame:\n  arch: win32\n  prefix: $GAMEDIR\ninstaller:\n- move:\n    description: Moving the Patch\n    dst: $GAMEDIR/drive_c/gothic2_vdfs-patch.exe\n    src: patch\n- task:\n    description: Running the Patch\n    executable: $GAMEDIR/drive_c/gothic2_vdfs-patch.exe\n    name: wineexec\n    prefix: $GAMEDIR\nrequires: gothic-ii\n"
}