{
  "name": "Holodance",
  "slug": "holodance",
  "year": null,
  "description": "",
  "banner_url": "https://lutris.net/games/banner/holodance.jpg",
  "icon_url": "https://lutris.net/games/icon/holodance.png",
  "is_public": true,
  "updated": "2020-10-08T10:14:29.799517Z",
  "provider_games": [
    {
      "name": "Holodance",
      "slug": "422860",
      "service": "steam"
    }
  ],
  "steamid": 422860,
  "gogid": null,
  "gogslug": "",
  "humblestoreid": "",
  "id": 11531
}