{
  "name": "Eryi's Action",
  "slug": "eryis-action",
  "year": 2013,
  "description": "One fine day, Eryi went to eat the melon that she had been SO looking forward to... but it was nowhere to be found! Then she noticed a note on the table. She picked it up and read: \"Your melon looked delicious, so I took it. From Farta X\"\r\nFuming with rage, Eryi set out from her house to get her melon back from Farta.\r\n\r\nEryi's Action is a 2D ‘trapformer’ by developer Xtal Sword that is visually inspired by Super Mario, but has gameplay akin to games like I Wanna Be the Guy. Don’t be fooled by its adorably charming looks – this game abounds in traps and wants you to die! However, where IWBTG was murderously difficult, Eryi's Action is additively challenging and FUN!\r\nTrap placement is often laugh-out-loud funny and seriously engaging. Some traps simply need to be learned to avoided, but others are puzzles that will require your skill and wits to beat. Either way, Eryi’s action delivers laughs, frustrating and satisfaction!",
  "banner_url": "https://lutris.net/games/banner/eryis-action.jpg",
  "icon_url": "https://lutris.net/games/icon/eryis-action.png",
  "is_public": true,
  "updated": "2019-01-23T08:29:24.397055Z",
  "provider_games": [
    {
      "name": "Eryi's Action",
      "slug": "261700",
      "service": "steam"
    }
  ],
  "steamid": 261700,
  "gogid": null,
  "gogslug": "",
  "humblestoreid": "",
  "id": 1662
}