{
  "name": "Burgers",
  "slug": "burgers",
  "year": null,
  "description": "",
  "banner_url": "https://lutris.net/games/banner/burgers.jpg",
  "icon_url": "https://lutris.net/games/icon/burgers.png",
  "is_public": true,
  "updated": "2019-01-23T08:28:43.400861Z",
  "provider_games": [
    {
      "name": "Burgers",
      "slug": "385830",
      "service": "steam"
    }
  ],
  "steamid": 385830,
  "gogid": null,
  "gogslug": "",
  "humblestoreid": "",
  "id": 4784
}