{
  "name": "Achievement Clicker 2019",
  "slug": "achievement-clicker-2019",
  "year": null,
  "description": "",
  "banner_url": "https://lutris.net/games/banner/achievement-clicker-2019.jpg",
  "icon_url": "https://lutris.net/games/icon/achievement-clicker-2019.png",
  "is_public": true,
  "updated": "2020-10-08T10:08:38.006505Z",
  "provider_games": [
    {
      "name": "Achievement Clicker 2019",
      "slug": "824190",
      "service": "steam"
    }
  ],
  "steamid": 824190,
  "gogid": null,
  "gogslug": "",
  "humblestoreid": "",
  "id": 20138
}