{
  "name": "Jamsouls",
  "slug": "jamsouls",
  "year": null,
  "description": "",
  "banner_url": "https://lutris.net/games/banner/jamsouls.jpg",
  "icon_url": "https://lutris.net/games/icon/jamsouls.png",
  "is_public": true,
  "updated": "2020-10-08T09:20:00.021425Z",
  "provider_games": [
    {
      "name": "Jamsouls",
      "slug": "314460",
      "service": "steam"
    }
  ],
  "steamid": 314460,
  "gogid": null,
  "gogslug": "",
  "humblestoreid": "",
  "id": 3339
}