{
  "name": "Jack*Bot",
  "slug": "jackbot",
  "year": 1995,
  "description": "",
  "banner_url": "",
  "icon_url": "https://lutris.net/games/icon/jackbot.png",
  "is_public": true,
  "updated": "2020-05-26T03:34:47.003338Z",
  "provider_games": [
    {
      "name": "Jack*Bot",
      "slug": "jb_10r",
      "service": "mame"
    }
  ],
  "steamid": null,
  "gogid": null,
  "gogslug": "",
  "humblestoreid": "",
  "id": 34535
}