{
  "name": "Crimson Shift",
  "slug": "crimson-shift",
  "year": null,
  "description": "",
  "banner_url": "https://lutris.net/games/banner/crimson-shift.jpg",
  "icon_url": "https://lutris.net/games/icon/crimson-shift.png",
  "is_public": true,
  "updated": "2020-10-08T09:57:28.673350Z",
  "provider_games": [
    {
      "name": "Crimson Shift",
      "slug": "837330",
      "service": "steam"
    }
  ],
  "steamid": 837330,
  "gogid": null,
  "gogslug": "",
  "humblestoreid": "",
  "id": 24957
}