{
  "name": "Dog Fight",
  "slug": "dog-fight-1",
  "year": 1983,
  "description": "",
  "banner_url": "",
  "icon_url": "https://lutris.net/games/icon/dog-fight-1.png",
  "is_public": true,
  "updated": "2020-05-26T03:33:18.236124Z",
  "provider_games": [
    {
      "name": "Dog Fight",
      "slug": "dogfight",
      "service": "mame"
    }
  ],
  "steamid": null,
  "gogid": null,
  "gogslug": "",
  "humblestoreid": "",
  "id": 33916
}