{
  "name": "Flowerdrops",
  "slug": "flowerdrops",
  "year": 2019,
  "description": "Flowerdrops is a simple & peaceful game about growing flowers with bouncy drops of water!",
  "banner_url": "https://lutris.net/games/banner/flowerdrops.jpg",
  "icon_url": "",
  "is_public": true,
  "updated": "2020-09-30T05:34:47.424250Z",
  "provider_games": [],
  "steamid": null,
  "gogid": null,
  "gogslug": "",
  "humblestoreid": "",
  "id": 39394
}