{
  "name": "Magical Error wo Sagase",
  "slug": "magical-error-wo-sagase",
  "year": 1994,
  "description": "",
  "banner_url": "",
  "icon_url": "https://lutris.net/games/icon/magical-error-wo-sagase.png",
  "is_public": true,
  "updated": "2020-05-26T03:35:25.958859Z",
  "provider_games": [
    {
      "name": "Magical Error wo Sagase",
      "slug": "magerror",
      "service": "mame"
    }
  ],
  "steamid": null,
  "gogid": null,
  "gogslug": "",
  "humblestoreid": "",
  "id": 34788
}