{
  "name": "Driving Force",
  "slug": "driving-force",
  "year": 1984,
  "description": "",
  "banner_url": "https://lutris.net/games/banner/driving-force.jpg",
  "icon_url": "https://lutris.net/games/icon/driving-force.png",
  "is_public": true,
  "updated": "2020-05-26T03:33:28.486668Z",
  "provider_games": [
    {
      "name": "Driving Force",
      "slug": "drivfrcp",
      "service": "mame"
    }
  ],
  "steamid": null,
  "gogid": null,
  "gogslug": "",
  "humblestoreid": "",
  "id": 33961
}