{
  "name": "Backspace Bouken",
  "slug": "backspace-bouken",
  "year": 2019,
  "description": "Backspace Bouken is a Japanese-inspired old-school dungeon crawler with a fast-paced typing battle system and ridiculous storyline. Fight monsters by typing their dialogue as you progress through the game and climb the tower. Fast and accurate typing will be rewarded, and maybe you'll even become a better typer!",
  "banner_url": "https://lutris.net/games/banner/backspace-bouken.jpg",
  "icon_url": "",
  "is_public": false,
  "updated": "2020-09-23T13:11:15.316940Z",
  "provider_games": [],
  "steamid": null,
  "gogid": null,
  "gogslug": "",
  "humblestoreid": "",
  "id": 39185
}