{
  "name": "Broadside",
  "slug": "broadside",
  "year": null,
  "description": "",
  "banner_url": "https://lutris.net/games/banner/broadside.jpg",
  "icon_url": "https://lutris.net/games/icon/broadside.png",
  "is_public": true,
  "updated": "2020-10-08T10:15:05.128838Z",
  "provider_games": [
    {
      "name": "Broadside",
      "slug": "401560",
      "service": "steam"
    }
  ],
  "steamid": 401560,
  "gogid": null,
  "gogslug": "",
  "humblestoreid": "",
  "id": 8744
}