{
  "name": "Mad Arkanoid",
  "slug": "mad-arkanoid",
  "year": null,
  "description": "",
  "banner_url": "https://lutris.net/games/banner/mad-arkanoid.jpg",
  "icon_url": "https://lutris.net/games/icon/mad-arkanoid.png",
  "is_public": false,
  "updated": "2019-01-23T08:30:14.893431Z",
  "provider_games": [],
  "steamid": 673780,
  "gogid": null,
  "gogslug": "",
  "humblestoreid": "",
  "id": 18674
}