{
  "name": "Earthfall",
  "slug": "earthfall",
  "year": null,
  "description": "",
  "banner_url": "https://lutris.net/games/banner/earthfall.jpg",
  "icon_url": "https://lutris.net/games/icon/earthfall.png",
  "is_public": true,
  "updated": "2020-10-08T10:14:40.827847Z",
  "provider_games": [
    {
      "name": "Earthfall",
      "slug": "415590",
      "service": "steam"
    }
  ],
  "steamid": 415590,
  "gogid": null,
  "gogslug": "",
  "humblestoreid": "",
  "id": 16848
}