{
  "name": "Cal Omega - Game 8.0",
  "slug": "cal-omega-game-80",
  "year": 1981,
  "description": "",
  "banner_url": "",
  "icon_url": "https://lutris.net/games/icon/cal-omega-game-80.png",
  "is_public": true,
  "updated": "2020-05-26T03:32:33.922857Z",
  "provider_games": [
    {
      "name": "Cal Omega - Game 8.0",
      "slug": "comg080",
      "service": "mame"
    }
  ],
  "steamid": null,
  "gogid": null,
  "gogslug": "",
  "humblestoreid": "",
  "id": 33718
}