{
  "name": "LooWarVR",
  "slug": "loowarvr",
  "year": null,
  "description": "",
  "banner_url": "https://lutris.net/games/banner/loowarvr.jpg",
  "icon_url": "https://lutris.net/games/icon/loowarvr.png",
  "is_public": true,
  "updated": "2020-10-08T10:07:06.544996Z",
  "provider_games": [
    {
      "name": "LooWarVR",
      "slug": "510990",
      "service": "steam"
    }
  ],
  "steamid": 510990,
  "gogid": null,
  "gogslug": "",
  "humblestoreid": "",
  "id": 37728
}