{
  "name": "Blackwater Bayou VR",
  "slug": "blackwater-bayou-vr",
  "year": null,
  "description": "",
  "banner_url": "https://lutris.net/games/banner/blackwater-bayou-vr.jpg",
  "icon_url": "https://lutris.net/games/icon/blackwater-bayou-vr.png",
  "is_public": false,
  "updated": "2019-01-23T08:28:37.577267Z",
  "provider_games": [],
  "steamid": 576880,
  "gogid": null,
  "gogslug": "",
  "humblestoreid": "",
  "id": 12958
}