{
  "name": "FIGHTING SPACE",
  "slug": "fighting-space",
  "year": null,
  "description": "",
  "banner_url": "https://lutris.net/games/banner/fighting-space.jpg",
  "icon_url": "https://lutris.net/games/icon/fighting-space.png",
  "is_public": true,
  "updated": "2020-10-08T10:05:36.814472Z",
  "provider_games": [
    {
      "name": "FIGHTING SPACE",
      "slug": "556090",
      "service": "steam"
    }
  ],
  "steamid": 556090,
  "gogid": null,
  "gogslug": "",
  "humblestoreid": "",
  "id": 10979
}