{
  "name": "Conjuntalia",
  "slug": "conjuntalia",
  "year": null,
  "description": "",
  "banner_url": "https://lutris.net/games/banner/conjuntalia.jpg",
  "icon_url": "https://lutris.net/games/icon/conjuntalia.png",
  "is_public": true,
  "updated": "2019-01-23T08:28:57.465427Z",
  "provider_games": [
    {
      "name": "Conjuntalia",
      "slug": "619340",
      "service": "steam"
    }
  ],
  "steamid": 619340,
  "gogid": null,
  "gogslug": "",
  "humblestoreid": "",
  "id": 15789
}