{
  "id": 3908,
  "game_id": 11454,
  "game_slug": "king-of-the-monsters",
  "name": "King of the Monsters",
  "year": 1991,
  "user": "FakeShemp",
  "runner": "linux",
  "slug": "king-of-the-monsters-humble",
  "version": "Humble",
  "description": "",
  "notes": "",
  "created_at": "2017-05-26T16:15:20.119578Z",
  "updated_at": "2017-05-27T21:20:52.521985Z",
  "draft": false,
  "published": true,
  "published_by": null,
  "rating": "",
  "steamid": null,
  "gogid": 1652749096,
  "gogslug": "king_of_the_monsters",
  "humbleid": "kingofthemonsters",
  "humblestoreid": "kingofthemonsters",
  "humblestoreid_real": "kingofthemonsters",
  "script": {
    "exe": "NeogeoEmu.bin.x86",
    "exe64": "NeogeoEmu.bin.x86_64",
    "files": [
      {
        "file1": "N/A:Please select the Humble installer"
      }
    ],
    "installer": [
      {
        "extract": {
          "dst": "$CACHE",
          "file": "$file1",
          "format": "zip"
        }
      },
      {
        "merge": {
          "dst": "$GAMEDIR",
          "src": "$CACHE/data/noarch"
        }
      },
      {
        "merge": {
          "dst": "$GAMEDIR",
          "src": "$CACHE/data/x86"
        }
      },
      {
        "merge": {
          "dst": "$GAMEDIR",
          "src": "$CACHE/data/x86_64"
        }
      }
    ]
  },
  "content": "exe: NeogeoEmu.bin.x86\nexe64: NeogeoEmu.bin.x86_64\nfiles:\n- file1: N/A:Please select the Humble installer\ninstaller:\n- extract:\n    dst: $CACHE\n    file: $file1\n    format: zip\n- merge:\n    dst: $GAMEDIR\n    src: $CACHE/data/noarch\n- merge:\n    dst: $GAMEDIR\n    src: $CACHE/data/x86\n- merge:\n    dst: $GAMEDIR\n    src: $CACHE/data/x86_64\n"
}