{
  "name": "Grey Plague",
  "slug": "grey-plague",
  "year": 2017,
  "description": "Year 2020.\r\n\r\n A mysterious disease has broken out. The disease is suspected to be a mutation of tuberculosis, which had been eliminated years ago. \r\n\r\nWith the power to see peoples' internal organs, can you save everyone from Grey Plague?",
  "banner_url": "https://lutris.net/games/banner/grey-plague.jpg",
  "icon_url": "",
  "is_public": true,
  "updated": "2019-01-23T08:29:43.331460Z",
  "provider_games": [],
  "steamid": null,
  "gogid": null,
  "gogslug": "",
  "humblestoreid": "",
  "id": 14269
}