{
  "name": "Castlevania: Aria of Sorrow",
  "slug": "castlevania-aria-of-sorrow",
  "year": 2003,
  "description": "Normally a solar eclipse isn't a dangerous event, but for Soma Cruz being sucked through a portal and into Dracula's castle during one will turn his day into a total nightmare. As Soma you must venture through the castle and find a way out. As you do so, you will discover the true meaning behind the event, and why Dracula has risen yet again.\r\n\r\nAlthough set in the future, all of the weapons and hazards are the same or similar to those seen in past Castlevania titles. Soma can find or buy weapons of all types such as swords, spears, and axes. Through his mysterious power of Dominance Soma can take the souls of his enemies and use their powers as his own, providing passive stat boosts, powerful magic, or even summoning them forth to fight on his behalf. Dracula's castle is a single continuous building, and as Soma's power of Dominance grows and he acquires more monster souls to power abilities he can bypass obstacles that were previously insurmountable. Players can link up with a friend's copy of Castlevania: Aria of Sorrow to trade souls between them.",
  "banner_url": "https://lutris.net/games/banner/castlevania-aria-of-sorrow.jpg",
  "icon_url": "",
  "is_public": true,
  "updated": "2019-05-17T13:04:43.038766Z",
  "provider_games": [],
  "steamid": null,
  "gogid": null,
  "gogslug": "",
  "humblestoreid": "",
  "id": 14019
}