{
  "id": 4861,
  "game_id": 12090,
  "game_slug": "bundle-clicker",
  "name": "Bundle Clicker",
  "year": 2016,
  "user": "FakeShemp",
  "runner": "linux",
  "slug": "bundle-clicker-groupees",
  "version": "Groupees",
  "description": "",
  "notes": "",
  "created_at": "2017-07-06T19:01:05.246827Z",
  "updated_at": "2017-07-09T20:14:49.878910Z",
  "draft": false,
  "published": true,
  "published_by": null,
  "rating": "",
  "steamid": null,
  "gogid": null,
  "gogslug": "",
  "humbleid": "",
  "humblestoreid": "",
  "humblestoreid_real": "",
  "script": {
    "exe": "Bundle Clicker.x86",
    "exe64": "Bundle Clicker.x86_64",
    "files": [
      {
        "file1": "N/A:Please select the Groupees archive"
      }
    ],
    "installer": [
      {
        "extract": {
          "file": "$file1"
        }
      },
      {
        "chmodx": "$GAMEDIR/Bundle Clicker.x86"
      },
      {
        "chmodx": "$GAMEDIR/Bundle Clicker.x86_64"
      }
    ]
  },
  "content": "exe: Bundle Clicker.x86\nexe64: Bundle Clicker.x86_64\nfiles:\n- file1: N/A:Please select the Groupees archive\ninstaller:\n- extract:\n    file: $file1\n- chmodx: $GAMEDIR/Bundle Clicker.x86\n- chmodx: $GAMEDIR/Bundle Clicker.x86_64\n"
}