{
  "name": "Killer Instinct Gold",
  "slug": "killer-instinct-gold",
  "year": 1996,
  "description": "",
  "banner_url": "https://lutris.net/games/banner/killer-instinct-gold.jpg",
  "icon_url": "",
  "is_public": true,
  "updated": "2019-01-23T08:30:03.214603Z",
  "provider_games": [],
  "steamid": null,
  "gogid": null,
  "gogslug": "",
  "humblestoreid": "",
  "id": 13769
}