{
  "name": "Blazing Core (beta)",
  "slug": "blazing-core-beta",
  "year": null,
  "description": "",
  "banner_url": "https://lutris.net/games/banner/blazing-core-beta.jpg",
  "icon_url": "https://lutris.net/games/icon/blazing-core-beta.png",
  "is_public": true,
  "updated": "2020-10-08T09:58:03.323305Z",
  "provider_games": [
    {
      "name": "Blazing Core (beta)",
      "slug": "787750",
      "service": "steam"
    }
  ],
  "steamid": 787750,
  "gogid": null,
  "gogslug": "",
  "humblestoreid": "",
  "id": 18377
}