{
  "name": "Into the Breach",
  "slug": "into-the-breach",
  "year": 2018,
  "description": "In Into the Breach the remnants of human civilization are threatened by gigantic creatures breeding beneath the earth. You must control powerful mechs from the future to hold off this alien threat. Each attempt to save the world presents a new randomly generated challenge in this turn-based strategy game.\r\n\r\nInto the Breach\r\nDefend the Cities: Civilian buildings power your mechs. Defend them from the Vek and watch your fire!\r\n\r\nPerfect Your Strategy: All enemy attacks are telegraphed in minimalistic, turn-based combat. Analyze your opponent’s attack and come up with the perfect counter every turn.\r\n\r\nBuild the Ultimate Mech: Find powerful new weapons and unique pilots as you battle the Vek infestation across Corporate-Nation islands.\r\n\r\nAnother Chance: Failure is not an option. When you are defeated, send help back through time to save another timeline!",
  "banner_url": "https://lutris.net/games/banner/into-the-breach.jpg",
  "icon_url": "https://lutris.net/games/icon/into-the-breach.png",
  "is_public": true,
  "updated": "2020-05-31T00:17:45.821934Z",
  "provider_games": [
    {
      "name": "Into the Breach",
      "slug": "2004253604",
      "service": "gog"
    },
    {
      "name": "Into the Breach",
      "slug": "590380",
      "service": "steam"
    }
  ],
  "steamid": 590380,
  "gogid": 2004253604,
  "gogslug": "into_the_breach",
  "humblestoreid": "into-the-breach",
  "id": 16830
}