{
  "name": "Downfall",
  "slug": "downfall",
  "year": null,
  "description": "",
  "banner_url": "https://lutris.net/games/banner/downfall.jpg",
  "icon_url": "https://lutris.net/games/icon/downfall.png",
  "is_public": true,
  "updated": "2020-05-31T00:17:40.428738Z",
  "provider_games": [
    {
      "name": "Downfall",
      "slug": "1207660723",
      "service": "gog"
    },
    {
      "name": "Downfall",
      "slug": "364390",
      "service": "steam"
    }
  ],
  "steamid": 364390,
  "gogid": 1207660723,
  "gogslug": "downfall",
  "humblestoreid": "",
  "id": 11893
}