{
  "name": "12 Labours of Hercules III: Girl Power",
  "slug": "12-labours-of-hercules-iii-girl-power",
  "year": 2015,
  "description": "A hero from Ancient Greece, Hercules, is fighting the great beast Scylla, when lurking Charybdis captures his friend Cerberus! Then, unseen by Hercules, takes the hero himself. The only chance for Hercules is his wife Megara. Help Megara free the hero and then accompany him in all of his adventures, including the forest of the Amazons and Mount Olympus in 12 Labours of Hercules III: Girl Power!",
  "banner_url": "https://lutris.net/games/banner/12-labours-of-hercules-iii-girl-power.jpg",
  "icon_url": "https://lutris.net/games/icon/12-labours-of-hercules-iii-girl-power.png",
  "is_public": true,
  "updated": "2019-01-23T08:28:07.698519Z",
  "provider_games": [
    {
      "name": "12 Labours of Hercules III: Girl Power",
      "slug": "360650",
      "service": "steam"
    }
  ],
  "steamid": 360650,
  "gogid": null,
  "gogslug": "",
  "humblestoreid": "",
  "id": 5653
}