{
  "name": "Conquer Online",
  "slug": "conquer-online",
  "year": 2004,
  "description": "Conquer Online, set in the word of ancient China, is a free-to-play 2.5D MMORPG. Within the beautiful and opulent world of fantasies, you will control a strong and gallant hero, slaying outrageous monsters, completing dangerous quests and having the most fun in your life.",
  "banner_url": "https://lutris.net/games/banner/conquer-online.jpg",
  "icon_url": "",
  "is_public": true,
  "updated": "2019-01-23T08:28:57.523418Z",
  "provider_games": [],
  "steamid": null,
  "gogid": null,
  "gogslug": "",
  "humblestoreid": "",
  "id": 22066
}