{
  "name": "Ballad of Solar",
  "slug": "ballad-of-solar",
  "year": null,
  "description": "",
  "banner_url": "https://lutris.net/games/banner/ballad-of-solar.jpg",
  "icon_url": "https://lutris.net/games/icon/ballad-of-solar.png",
  "is_public": true,
  "updated": "2020-10-08T09:20:13.605418Z",
  "provider_games": [
    {
      "name": "Ballad of Solar",
      "slug": "302490",
      "service": "steam"
    }
  ],
  "steamid": 302490,
  "gogid": null,
  "gogslug": "",
  "humblestoreid": "",
  "id": 9992
}