{
  "name": "Crazy Taxi Mobile",
  "slug": "crazy-taxi-mobile",
  "year": 2009,
  "description": "One of the greatest arcade driving games is now on a crash course for mobile! Pick up passengers and rack up tips for speed & for making the ride as insane as possible! Don't let anyone get in your way as you plow through a big city in 3D, finding shortcuts & jumping traffic to drop off your passengers in one piece before time runs out! It’s not how you get them there that matters, it’s how fast you get them there! Speed, fun, accessibility, plus the addictive score-attack formula provide a “crazy driving” arcade experience unique to its genre.",
  "banner_url": "https://lutris.net/games/banner/crazy-taxi-mobile.jpg",
  "icon_url": "",
  "is_public": true,
  "updated": "2019-01-23T08:29:00.284414Z",
  "provider_games": [],
  "steamid": null,
  "gogid": null,
  "gogslug": "",
  "humblestoreid": "",
  "id": 24577
}