{
  "name": "Broken Ground",
  "slug": "broken-ground",
  "year": null,
  "description": "",
  "banner_url": "https://lutris.net/games/banner/broken-ground.jpg",
  "icon_url": "https://lutris.net/games/icon/broken-ground.png",
  "is_public": true,
  "updated": "2020-10-08T10:00:46.178676Z",
  "provider_games": [
    {
      "name": "Broken Ground",
      "slug": "708420",
      "service": "steam"
    }
  ],
  "steamid": 708420,
  "gogid": null,
  "gogslug": "",
  "humblestoreid": "",
  "id": 18187
}