{
  "name": "Barro 2020",
  "slug": "barro-2020",
  "year": null,
  "description": "",
  "banner_url": "https://lutris.net/games/banner/barro-2020.jpg",
  "icon_url": "https://lutris.net/games/icon/barro-2020.png",
  "is_public": false,
  "updated": "2020-11-08T11:38:42.667676Z",
  "provider_games": [],
  "steamid": 1168660,
  "gogid": null,
  "gogslug": "",
  "humblestoreid": "",
  "id": 40178
}