{
  "name": "Fault",
  "slug": "fault",
  "year": null,
  "description": "",
  "banner_url": "https://lutris.net/games/banner/fault.jpg",
  "icon_url": "https://lutris.net/games/icon/fault.png",
  "is_public": true,
  "updated": "2020-10-08T10:11:26.804019Z",
  "provider_games": [
    {
      "name": "Fault",
      "slug": "1106750",
      "service": "steam"
    }
  ],
  "steamid": 1106750,
  "gogid": null,
  "gogslug": "",
  "humblestoreid": "",
  "id": 38682
}