{
  "name": "Bad Mojo Redux",
  "slug": "bad-mojo-redux",
  "year": 2004,
  "description": "Roger was about to do something bad. Unfortunately, he can't remember what it was because he has been transformed into a cockroach. In this Kafkaesque graphic adventure game, Roger (you) must scurry through the walls of a run down San Francisco bar trying to restore his memory and his human form while avoiding spiders, a roach eating cat, and other creatures that live in the bar. \r\n\r\nBad Mojo Redux is a re-issue of Bad Mojo, originally released in 1996, updated for newer computer systems. The core game has not been changed, but technical issues have been eliminated and the FMV sequences have been enhanced. This version contains a making-of documentary, concept art and storyboards.",
  "banner_url": "https://lutris.net/games/banner/bad-mojo-redux.jpg",
  "icon_url": "https://lutris.net/games/icon/bad-mojo-redux.png",
  "is_public": true,
  "updated": "2020-05-31T00:17:35.300820Z",
  "provider_games": [
    {
      "name": "Bad Mojo Redux ",
      "slug": "1207664623",
      "service": "gog"
    },
    {
      "name": "Bad Mojo Redux",
      "slug": "255960",
      "service": "steam"
    }
  ],
  "steamid": 255960,
  "gogid": 1207664623,
  "gogslug": "bad_mojo_redux",
  "humblestoreid": "",
  "id": 3392
}