{
  "id": 8265,
  "game_id": 17880,
  "game_slug": "her-lie-i-tried-to-believe",
  "name": "Her Lie I Tried To Believe",
  "year": 2018,
  "user": "oscararg",
  "runner": "linux",
  "slug": "her-lie-i-tried-to-believe-itchio",
  "version": "Itchio",
  "description": null,
  "notes": "",
  "created_at": "2018-05-10T16:07:56.997647Z",
  "updated_at": "2018-05-11T02:55:22.851028Z",
  "draft": false,
  "published": true,
  "published_by": null,
  "rating": "",
  "steamid": 806510,
  "gogid": null,
  "gogslug": "",
  "humbleid": "",
  "humblestoreid": "",
  "humblestoreid_real": "",
  "script": {
    "exe": "HerLieITriedToBelieve.sh",
    "files": [
      {
        "file1": "N/A:Please select the itch.io archive"
      }
    ],
    "installer": [
      {
        "extract": {
          "file": "$file1"
        }
      }
    ]
  },
  "content": "exe: HerLieITriedToBelieve.sh\nfiles:\n- file1: N/A:Please select the itch.io archive\ninstaller:\n- extract:\n    file: $file1\n"
}