{
  "name": "Cyberhunt",
  "slug": "cyberhunt",
  "year": null,
  "description": "",
  "banner_url": "https://lutris.net/games/banner/cyberhunt.jpg",
  "icon_url": "https://lutris.net/games/icon/cyberhunt.png",
  "is_public": true,
  "updated": "2020-10-08T10:17:52.612737Z",
  "provider_games": [
    {
      "name": "Cyberhunt",
      "slug": "636150",
      "service": "steam"
    }
  ],
  "steamid": 636150,
  "gogid": null,
  "gogslug": "",
  "humblestoreid": "",
  "id": 11925
}