{
  "name": "Legion - Spinner-87",
  "slug": "legion-spinner-87",
  "year": 1987,
  "description": "",
  "banner_url": "https://lutris.net/games/banner/legion-spinner-87.jpg",
  "icon_url": "https://lutris.net/games/icon/legion-spinner-87.png",
  "is_public": true,
  "updated": "2020-05-26T03:35:14.463431Z",
  "provider_games": [
    {
      "name": "Legion - Spinner-87",
      "slug": "legion",
      "service": "mame"
    }
  ],
  "steamid": null,
  "gogid": null,
  "gogslug": "",
  "humblestoreid": "",
  "id": 34710
}