{
  "name": "Battlefield 2",
  "slug": "battlefield-2",
  "year": 2005,
  "description": "In Battlefield 2, players chose to fight for one of three military superpowers: the United States, the Chinese, or the newly formed Middle East Coalition. Armed with the latest modern weaponry, players took control of any of the game’s 30+ vehicles to engage in major conflicts with over 64 players in some of the largest online battles on the PC.\r\n\r\nWith millions of copies sold, this proven classic brought the intensity and excitement of Battlefield 1942 into the modern era with enhanced team play and the latest, most technologically advanced vehicles and weapons systems available to man.",
  "banner_url": "https://lutris.net/games/banner/battlefield-2.jpg",
  "icon_url": "https://lutris.net/games/icon/battlefield-2.png",
  "is_public": true,
  "updated": "2019-06-05T05:28:00.011185Z",
  "provider_games": [
    {
      "name": "Battlefield 2",
      "slug": "24860",
      "service": "steam"
    }
  ],
  "steamid": 24860,
  "gogid": null,
  "gogslug": "",
  "humblestoreid": "",
  "id": 1337
}