{
  "id": 18689,
  "game_id": 31897,
  "game_slug": "al-qaeda-hunting-3d",
  "name": "Al Qaeda Hunting 3D",
  "year": null,
  "user": "soredake",
  "runner": "wine",
  "slug": "al-qaeda-hunting-3d-installer",
  "version": "Installer",
  "description": null,
  "notes": "",
  "created_at": "2020-03-04T19:28:22.773102Z",
  "updated_at": "2020-03-04T19:28:26.822089Z",
  "draft": false,
  "published": true,
  "published_by": null,
  "rating": "",
  "steamid": null,
  "gogid": null,
  "gogslug": "",
  "humbleid": "",
  "humblestoreid": "",
  "humblestoreid_real": "",
  "script": {
    "files": [
      {
        "installer": "N/A:Select the game's setup.exe file"
      }
    ],
    "game": {
      "exe": "drive_c/Program Files (x86)/Al Qaeda Hunting 3D FULL/Al Qaeda Hunting 3D FULL.exe",
      "prefix": "$GAMEDIR"
    },
    "installer": [
      {
        "task": {
          "description": "Setting up wine prefix",
          "name": "create_prefix",
          "prefix": "$GAMEDIR"
        }
      },
      {
        "task": {
          "description": "Install to default location",
          "executable": "$installer",
          "name": "wineexec",
          "prefix": "$GAMEDIR"
        }
      }
    ]
  },
  "content": "files:\n- installer: N/A:Select the game's setup.exe file\ngame:\n  exe: drive_c/Program Files (x86)/Al Qaeda Hunting 3D FULL/Al Qaeda Hunting 3D FULL.exe\n  prefix: $GAMEDIR\ninstaller:\n- task:\n    description: Setting up wine prefix\n    name: create_prefix\n    prefix: $GAMEDIR\n- task:\n    description: Install to default location\n    executable: $installer\n    name: wineexec\n    prefix: $GAMEDIR\n"
}