{
  "name": "Farm Mania: Hot Vacation",
  "slug": "farm-mania-hot-vacation",
  "year": null,
  "description": "",
  "banner_url": "https://lutris.net/games/banner/farm-mania-hot-vacation.jpg",
  "icon_url": "https://lutris.net/games/icon/farm-mania-hot-vacation.png",
  "is_public": true,
  "updated": "2020-10-08T10:14:45.671673Z",
  "provider_games": [
    {
      "name": "Farm Mania: Hot Vacation",
      "slug": "412930",
      "service": "steam"
    }
  ],
  "steamid": 412930,
  "gogid": null,
  "gogslug": "",
  "humblestoreid": "",
  "id": 19088
}