{
  "name": "Atelier Rorona ~The Alchemist of Arland~ DX",
  "slug": "atelier-rorona-the-alchemist-of-arland-dx",
  "year": null,
  "description": "",
  "banner_url": "https://lutris.net/games/banner/atelier-rorona-the-alchemist-of-arland-dx.jpg",
  "icon_url": "https://lutris.net/games/icon/atelier-rorona-the-alchemist-of-arland-dx.png",
  "is_public": true,
  "updated": "2020-10-08T09:17:25.516654Z",
  "provider_games": [
    {
      "name": "Atelier Rorona ~The Alchemist of Arland~ DX",
      "slug": "936160",
      "service": "steam"
    }
  ],
  "steamid": 936160,
  "gogid": null,
  "gogslug": "",
  "humblestoreid": "",
  "id": 28115
}