{
  "name": "F.E.A.R. 2: Project Origin + Reborn",
  "slug": "fear-2-project-origin-reborn",
  "year": 2009,
  "description": "",
  "banner_url": "https://lutris.net/games/banner/fear-2-project-origin-reborn.jpg",
  "icon_url": "",
  "is_public": true,
  "updated": "2020-05-31T00:17:42.390785Z",
  "provider_games": [
    {
      "name": "F.E.A.R. 2: Project Origin + Reborn",
      "slug": "1425479123",
      "service": "gog"
    }
  ],
  "steamid": null,
  "gogid": 1425479123,
  "gogslug": "fear_2_project_origin_reborn",
  "humblestoreid": "",
  "id": 24079
}