{
  "name": "Deathtrap Dungeon",
  "slug": "deathtrap-dungeon",
  "year": null,
  "description": "",
  "banner_url": "https://lutris.net/games/banner/deathtrap-dungeon.jpg",
  "icon_url": "https://lutris.net/games/icon/deathtrap-dungeon.png",
  "is_public": true,
  "updated": "2020-05-31T00:17:39.416143Z",
  "provider_games": [
    {
      "name": "Deathtrap Dungeon",
      "slug": "1207659222",
      "service": "gog"
    },
    {
      "name": "Deathtrap Dungeon",
      "slug": "245010",
      "service": "steam"
    }
  ],
  "steamid": 245010,
  "gogid": 1207659222,
  "gogslug": "deathtrap_dungeon",
  "humblestoreid": "",
  "id": 10165
}