{
  "name": "Little Pink Best Buds Prototype",
  "slug": "little-pink-best-buds-prototype",
  "year": null,
  "description": "",
  "banner_url": "https://lutris.net/games/banner/little-pink-best-buds-prototype.jpg",
  "icon_url": "https://lutris.net/games/icon/little-pink-best-buds-prototype.png",
  "is_public": true,
  "updated": "2020-10-08T09:20:38.218919Z",
  "provider_games": [
    {
      "name": "Little Pink Best Buds Prototype",
      "slug": "285290",
      "service": "steam"
    }
  ],
  "steamid": 285290,
  "gogid": null,
  "gogslug": "",
  "humblestoreid": "",
  "id": 14025
}