{
  "name": "Hardspace: Shipbreaker",
  "slug": "hardspace-shipbreaker",
  "year": null,
  "description": "",
  "banner_url": "https://lutris.net/games/banner/hardspace-shipbreaker.jpg",
  "icon_url": "https://lutris.net/games/icon/hardspace-shipbreaker.png",
  "is_public": true,
  "updated": "2020-10-08T10:17:13.043826Z",
  "provider_games": [
    {
      "name": "Hardspace: Shipbreaker",
      "slug": "1161580",
      "service": "steam"
    }
  ],
  "steamid": 1161580,
  "gogid": null,
  "gogslug": "",
  "humblestoreid": "",
  "id": 37347
}