{
  "name": "Light Fairytale Episode 1",
  "slug": "light-fairytale-episode-1",
  "year": null,
  "description": "",
  "banner_url": "https://lutris.net/games/banner/light-fairytale-episode-1.jpg",
  "icon_url": "https://lutris.net/games/icon/light-fairytale-episode-1.png",
  "is_public": true,
  "updated": "2020-10-08T10:06:07.947032Z",
  "provider_games": [
    {
      "name": "Light Fairytale Episode 1",
      "slug": "539330",
      "service": "steam"
    }
  ],
  "steamid": 539330,
  "gogid": null,
  "gogslug": "",
  "humblestoreid": "",
  "id": 28508
}