{
  "id": 4624,
  "game_id": 2788,
  "game_slug": "freddi-fish-and-luthers-maze-madness",
  "name": "Freddi Fish and Luther's Maze Madness",
  "year": 1996,
  "user": "FakeShemp",
  "runner": "scummvm",
  "slug": "freddi-fish-and-luthers-maze-humble",
  "version": "Humble",
  "description": "Uses the files from the Windows installer from Humble.",
  "notes": "",
  "created_at": "2017-06-26T09:23:57.787000Z",
  "updated_at": "2017-07-04T18:05:39.685125Z",
  "draft": false,
  "published": true,
  "published_by": null,
  "rating": "",
  "steamid": 284020,
  "gogid": null,
  "gogslug": "",
  "humbleid": "",
  "humblestoreid": "",
  "humblestoreid_real": "",
  "script": {
    "files": [
      {
        "file1": "N/A:Please select the Humble installer"
      }
    ],
    "game": {
      "game_id": "maze",
      "path": "$GAMEDIR",
      "subtitles": true
    },
    "installer": [
      {
        "task": {
          "args": "/S",
          "executable": "$file1",
          "name": "wine.wineexec",
          "prefix": "$CACHE"
        }
      },
      {
        "merge": {
          "dst": "$GAMEDIR",
          "src": "$CACHE/drive_c/Games/Humongous Entertainment/Freddi Fish and Luther's Maze Madness"
        }
      }
    ],
    "scummvm": {
      "gfx-mode": "2x"
    }
  },
  "content": "files:\n- file1: N/A:Please select the Humble installer\ngame:\n  game_id: maze\n  path: $GAMEDIR\n  subtitles: true\ninstaller:\n- task:\n    args: /S\n    executable: $file1\n    name: wine.wineexec\n    prefix: $CACHE\n- merge:\n    dst: $GAMEDIR\n    src: $CACHE/drive_c/Games/Humongous Entertainment/Freddi Fish and Luther's Maze\n      Madness\nscummvm:\n  gfx-mode: 2x\n"
}