{
  "name": "Buggy Ranger",
  "slug": "buggy-ranger",
  "year": 1990,
  "description": "Year 2019, in a post-apocalyptic world, we must fight versus the evil machines that destroy our planet... This is the plot of Buggy Ranger, a side-scrolling shoot'em up, very similar to the \"jeep stage\" of one of the most famous titles of Dinamic, Army Moves. The main difference, is that in this case, the turret of our vehicle, can fly and shoot in the air at the enemies.",
  "banner_url": "https://lutris.net/games/banner/buggy-ranger.jpg",
  "icon_url": "",
  "is_public": true,
  "updated": "2019-08-04T14:33:36.032356Z",
  "provider_games": [],
  "steamid": null,
  "gogid": null,
  "gogslug": "",
  "humblestoreid": "",
  "id": 28677
}