{
  "name": "Let's Go Nuts!",
  "slug": "lets-go-nuts",
  "year": null,
  "description": "",
  "banner_url": "https://lutris.net/games/banner/lets-go-nuts.jpg",
  "icon_url": "https://lutris.net/games/icon/lets-go-nuts.png",
  "is_public": true,
  "updated": "2020-10-08T09:57:13.595528Z",
  "provider_games": [
    {
      "name": "Let's Go Nuts!",
      "slug": "848230",
      "service": "steam"
    }
  ],
  "steamid": 848230,
  "gogid": null,
  "gogslug": "",
  "humblestoreid": "",
  "id": 22833
}