{
  "name": "Hanse - The Hanseatic League",
  "slug": "hanse-the-hanseatic-league",
  "year": null,
  "description": "",
  "banner_url": "https://lutris.net/games/banner/hanse-the-hanseatic-league.jpg",
  "icon_url": "https://lutris.net/games/icon/hanse-the-hanseatic-league.png",
  "is_public": false,
  "updated": "2019-01-23T08:29:46.897613Z",
  "provider_games": [],
  "steamid": 599010,
  "gogid": null,
  "gogslug": "",
  "humblestoreid": "",
  "id": 21192
}