{
  "name": "Dollhouse",
  "slug": "dollhouse",
  "year": null,
  "description": "",
  "banner_url": "https://lutris.net/games/banner/dollhouse.jpg",
  "icon_url": "https://lutris.net/games/icon/dollhouse.png",
  "is_public": true,
  "updated": "2020-10-08T09:20:43.756667Z",
  "provider_games": [
    {
      "name": "Dollhouse",
      "slug": "280850",
      "service": "steam"
    }
  ],
  "steamid": 280850,
  "gogid": null,
  "gogslug": "",
  "humblestoreid": "",
  "id": 29495
}