{
  "name": "Dominions 3",
  "slug": "dominions-3",
  "year": null,
  "description": "",
  "banner_url": "https://lutris.net/games/banner/dominions-3.jpg",
  "icon_url": "",
  "is_public": true,
  "updated": "2019-01-23T08:29:14.569655Z",
  "provider_games": [
    {
      "name": "Dominions 3",
      "slug": "248510",
      "service": "steam"
    }
  ],
  "steamid": 248510,
  "gogid": null,
  "gogslug": "",
  "humblestoreid": "",
  "id": 3734
}