{
  "name": "Jeskola Buzz",
  "slug": "jeskola-buzz",
  "year": 1997,
  "description": "Jeskola Buzz is a freeware modular software music studio environment designed to run on Microsoft Windows using MFC. It is centered on a modular plugin-based machine view and a multiple pattern sequencer tracker.[1]\r\n\r\nBuzz consists of a plugin architecture that allows the audio to be routed from one plugin to another in many ways, similar to how cables carry an audio signal between physical pieces of hardware. All aspects of signal synthesis and manipulation are handled entirely by the plugin system. Signal synthesis is performed by \"generators\" such as synthesizers, noise generator functions, samplers, and trackers. The signal can then be manipulated further by \"effects\" such as distortions, filters, delays, and mastering plugins. Buzz also provides support through adapters to use VST/VSTi, DirectX/DXi, and DirectX Media Objects as generators and effects.\r\n\r\nA few new classes of plugins do not fall under the normal generator and effect types. These include peer machines (signal and event automated controllers), recorders, wavetable editors, scripting engines, etc. Buzz signal output also uses a plugin system; the most practical drivers include ASIO, DirectSound, and MME. Buzz supports MIDI both internally and through several enhancements. Some MIDI features are limited or hacked together such as MIDI clock sync.",
  "banner_url": "https://lutris.net/games/banner/jeskola-buzz.jpg",
  "icon_url": "",
  "is_public": true,
  "updated": "2020-08-29T22:36:47.288038Z",
  "provider_games": [],
  "steamid": null,
  "gogid": null,
  "gogslug": "",
  "humblestoreid": "",
  "id": 37886
}