{
  "name": "Everyday Shooter",
  "slug": "everyday-shooter",
  "year": null,
  "description": "",
  "banner_url": "https://lutris.net/games/banner/everyday-shooter.jpg",
  "icon_url": "https://lutris.net/games/icon/everyday-shooter.png",
  "is_public": true,
  "updated": "2020-10-08T10:02:35.679144Z",
  "provider_games": [
    {
      "name": "Everyday Shooter",
      "slug": "16300",
      "service": "steam"
    }
  ],
  "steamid": 16300,
  "gogid": null,
  "gogslug": "",
  "humblestoreid": "",
  "id": 2840
}