{
  "name": "Driftmoon",
  "slug": "driftmoon",
  "year": null,
  "description": "",
  "banner_url": "https://lutris.net/games/banner/driftmoon.jpg",
  "icon_url": "https://lutris.net/games/icon/driftmoon.png",
  "is_public": true,
  "updated": "2020-10-08T09:21:01.046179Z",
  "provider_games": [
    {
      "name": "Driftmoon Enchanted Edition",
      "slug": "1207659177",
      "service": "gog"
    },
    {
      "name": "Driftmoon",
      "slug": "263380",
      "service": "steam"
    }
  ],
  "steamid": 263380,
  "gogid": 1207659177,
  "gogslug": "driftmoon",
  "humblestoreid": "",
  "id": 1665
}