{
  "id": 4428,
  "game_id": 291,
  "game_slug": "closure",
  "name": "Closure",
  "year": null,
  "user": "FakeShemp",
  "runner": "linux",
  "slug": "closure-humble",
  "version": "Humble",
  "description": "",
  "notes": "",
  "created_at": "2017-06-17T18:21:06.785000Z",
  "updated_at": "2017-06-17T19:08:10.360724Z",
  "draft": false,
  "published": true,
  "published_by": null,
  "rating": "",
  "steamid": 72000,
  "gogid": null,
  "gogslug": "",
  "humbleid": "closure",
  "humblestoreid": "closure",
  "humblestoreid_real": "closure",
  "script": {
    "exe": "Closure.bin.x86",
    "exe64": "Closure.bin.x86_64",
    "files": [
      {
        "file1": "N/A:Please select the Humble installer"
      }
    ],
    "installer": [
      {
        "chmodx": "$file1"
      },
      {
        "execute": {
          "args": "--tar -xf -C $CACHE",
          "file": "$file1"
        }
      },
      {
        "extract": {
          "dst": "$CACHE",
          "file": "$CACHE/instarchive_linux_x86",
          "format": "lzma"
        }
      },
      {
        "extract": {
          "dst": "$CACHE",
          "file": "$CACHE/instarchive_linux_x86_64",
          "format": "lzma"
        }
      },
      {
        "extract": {
          "dst": "$CACHE",
          "file": "$CACHE/instarchive_all",
          "format": "lzma"
        }
      },
      {
        "extract": {
          "dst": "$GAMEDIR",
          "file": "$CACHE/instarchive_linux_x86~",
          "format": "tar"
        }
      },
      {
        "extract": {
          "dst": "$GAMEDIR",
          "file": "$CACHE/instarchive_linux_x86_64~",
          "format": "tar"
        }
      },
      {
        "extract": {
          "dst": "$GAMEDIR",
          "file": "$CACHE/instarchive_all~",
          "format": "tar"
        }
      },
      {
        "extract": {
          "dst": "$CACHE",
          "file": "$CACHE/subarch",
          "format": "lzma"
        }
      },
      {
        "extract": {
          "dst": "$CACHE/sa",
          "file": "$CACHE/subarch~",
          "format": "tar"
        }
      },
      {
        "extract": {
          "dst": "$CACHE",
          "file": "$CACHE/sa/deps/alut/alut_files_linux_x86_64",
          "format": "lzma"
        }
      },
      {
        "extract": {
          "dst": "$GAMEDIR",
          "file": "$CACHE/alut_files_linux_x86_64~",
          "format": "tar"
        }
      },
      {
        "extract": {
          "dst": "$CACHE",
          "file": "$CACHE/sa/deps/Cg/Cg_files_linux_x86_64",
          "format": "lzma"
        }
      },
      {
        "extract": {
          "dst": "$GAMEDIR/lib64",
          "file": "$CACHE/Cg_files_linux_x86_64~",
          "format": "tar"
        }
      },
      {
        "extract": {
          "dst": "$CACHE",
          "file": "$CACHE/sa/deps/openal/openal_files_linux_x86_64",
          "format": "lzma"
        }
      },
      {
        "extract": {
          "dst": "$GAMEDIR/lib64",
          "file": "$CACHE/openal_files_linux_x86_64~",
          "format": "tar"
        }
      },
      {
        "extract": {
          "dst": "$CACHE",
          "file": "$CACHE/sa/deps/SDL-1.2/SDL-1.2_files_linux_x86_64",
          "format": "lzma"
        }
      },
      {
        "extract": {
          "dst": "$GAMEDIR/lib64",
          "file": "$CACHE/SDL-1",
          "format": "tar"
        }
      },
      {
        "move": {
          "dst": "$CACHE/SDL-1_x64",
          "src": "$CACHE/SDL-1"
        }
      },
      {
        "extract": {
          "dst": "$CACHE",
          "file": "$CACHE/sa/deps/alut/alut_files_linux_x86",
          "format": "lzma"
        }
      },
      {
        "extract": {
          "dst": "$GAMEDIR/lib",
          "file": "$CACHE/alut_files_linux_x86~",
          "format": "tar"
        }
      },
      {
        "extract": {
          "dst": "$CACHE",
          "file": "$CACHE/sa/deps/Cg/Cg_files_linux_x86",
          "format": "lzma"
        }
      },
      {
        "extract": {
          "dst": "$GAMEDIR/lib",
          "file": "$CACHE/Cg_files_linux_x86~",
          "format": "tar"
        }
      },
      {
        "extract": {
          "dst": "$CACHE",
          "file": "$CACHE/sa/deps/openal/openal_files_linux_x86",
          "format": "lzma"
        }
      },
      {
        "extract": {
          "dst": "$GAMEDIR/lib",
          "file": "$CACHE/openal_files_linux_x86~",
          "format": "tar"
        }
      },
      {
        "extract": {
          "dst": "$CACHE",
          "file": "$CACHE/sa/deps/SDL-1.2/SDL-1.2_files_linux_x86",
          "format": "lzma"
        }
      },
      {
        "extract": {
          "dst": "$GAMEDIR/lib",
          "file": "$CACHE/SDL-1",
          "format": "tar"
        }
      }
    ]
  },
  "content": "exe: Closure.bin.x86\nexe64: Closure.bin.x86_64\nfiles:\n- file1: N/A:Please select the Humble installer\ninstaller:\n- chmodx: $file1\n- execute:\n    args: --tar -xf -C $CACHE\n    file: $file1\n- extract:\n    dst: $CACHE\n    file: $CACHE/instarchive_linux_x86\n    format: lzma\n- extract:\n    dst: $CACHE\n    file: $CACHE/instarchive_linux_x86_64\n    format: lzma\n- extract:\n    dst: $CACHE\n    file: $CACHE/instarchive_all\n    format: lzma\n- extract:\n    dst: $GAMEDIR\n    file: $CACHE/instarchive_linux_x86~\n    format: tar\n- extract:\n    dst: $GAMEDIR\n    file: $CACHE/instarchive_linux_x86_64~\n    format: tar\n- extract:\n    dst: $GAMEDIR\n    file: $CACHE/instarchive_all~\n    format: tar\n- extract:\n    dst: $CACHE\n    file: $CACHE/subarch\n    format: lzma\n- extract:\n    dst: $CACHE/sa\n    file: $CACHE/subarch~\n    format: tar\n- extract:\n    dst: $CACHE\n    file: $CACHE/sa/deps/alut/alut_files_linux_x86_64\n    format: lzma\n- extract:\n    dst: $GAMEDIR\n    file: $CACHE/alut_files_linux_x86_64~\n    format: tar\n- extract:\n    dst: $CACHE\n    file: $CACHE/sa/deps/Cg/Cg_files_linux_x86_64\n    format: lzma\n- extract:\n    dst: $GAMEDIR/lib64\n    file: $CACHE/Cg_files_linux_x86_64~\n    format: tar\n- extract:\n    dst: $CACHE\n    file: $CACHE/sa/deps/openal/openal_files_linux_x86_64\n    format: lzma\n- extract:\n    dst: $GAMEDIR/lib64\n    file: $CACHE/openal_files_linux_x86_64~\n    format: tar\n- extract:\n    dst: $CACHE\n    file: $CACHE/sa/deps/SDL-1.2/SDL-1.2_files_linux_x86_64\n    format: lzma\n- extract:\n    dst: $GAMEDIR/lib64\n    file: $CACHE/SDL-1\n    format: tar\n- move:\n    dst: $CACHE/SDL-1_x64\n    src: $CACHE/SDL-1\n- extract:\n    dst: $CACHE\n    file: $CACHE/sa/deps/alut/alut_files_linux_x86\n    format: lzma\n- extract:\n    dst: $GAMEDIR/lib\n    file: $CACHE/alut_files_linux_x86~\n    format: tar\n- extract:\n    dst: $CACHE\n    file: $CACHE/sa/deps/Cg/Cg_files_linux_x86\n    format: lzma\n- extract:\n    dst: $GAMEDIR/lib\n    file: $CACHE/Cg_files_linux_x86~\n    format: tar\n- extract:\n    dst: $CACHE\n    file: $CACHE/sa/deps/openal/openal_files_linux_x86\n    format: lzma\n- extract:\n    dst: $GAMEDIR/lib\n    file: $CACHE/openal_files_linux_x86~\n    format: tar\n- extract:\n    dst: $CACHE\n    file: $CACHE/sa/deps/SDL-1.2/SDL-1.2_files_linux_x86\n    format: lzma\n- extract:\n    dst: $GAMEDIR/lib\n    file: $CACHE/SDL-1\n    format: tar\n"
}