{
  "name": "Fire Fox",
  "slug": "fire-fox",
  "year": 1984,
  "description": "",
  "banner_url": "https://lutris.net/games/banner/fire-fox.jpg",
  "icon_url": "https://lutris.net/games/icon/fire-fox.png",
  "is_public": true,
  "updated": "2020-05-26T03:33:48.037088Z",
  "provider_games": [
    {
      "name": "Fire Fox",
      "slug": "firefox",
      "service": "mame"
    }
  ],
  "steamid": null,
  "gogid": null,
  "gogslug": "",
  "humblestoreid": "",
  "id": 34106
}