{
  "name": "Dude Simulator",
  "slug": "dude-simulator",
  "year": null,
  "description": "",
  "banner_url": "https://lutris.net/games/banner/dude-simulator.jpg",
  "icon_url": "https://lutris.net/games/icon/dude-simulator.png",
  "is_public": true,
  "updated": "2020-10-08T10:10:23.740322Z",
  "provider_games": [
    {
      "name": "Dude Simulator",
      "slug": "654990",
      "service": "steam"
    }
  ],
  "steamid": 654990,
  "gogid": null,
  "gogslug": "",
  "humblestoreid": "",
  "id": 26447
}