{
  "name": "Cat Quest II",
  "slug": "cat-quest-ii",
  "year": null,
  "description": "",
  "banner_url": "https://lutris.net/games/banner/cat-quest-ii.jpg",
  "icon_url": "https://lutris.net/games/icon/cat-quest-ii.png",
  "is_public": true,
  "updated": "2020-10-08T09:56:01.013046Z",
  "provider_games": [
    {
      "name": "Cat Quest II",
      "slug": "1958338581",
      "service": "gog"
    },
    {
      "name": "Cat Quest II",
      "slug": "914710",
      "service": "steam"
    }
  ],
  "steamid": 914710,
  "gogid": 1958338581,
  "gogslug": "cat_quest_ii",
  "humblestoreid": "",
  "id": 30490
}