{
  "name": "Disposable Heroes Soundtrack",
  "slug": "disposable-heroes-soundtrack",
  "year": null,
  "description": "",
  "banner_url": "https://lutris.net/games/banner/disposable-heroes-soundtrack.jpg",
  "icon_url": "https://lutris.net/games/icon/disposable-heroes-soundtrack.png",
  "is_public": true,
  "updated": "2020-10-08T10:15:27.413635Z",
  "provider_games": [
    {
      "name": "Disposable Heroes Soundtrack",
      "slug": "389610",
      "service": "steam"
    }
  ],
  "steamid": 389610,
  "gogid": null,
  "gogslug": "",
  "humblestoreid": "",
  "id": 18494
}