{
  "name": "Cyber Surf",
  "slug": "cyber-surf",
  "year": null,
  "description": "",
  "banner_url": "https://lutris.net/games/banner/cyber-surf.jpg",
  "icon_url": "https://lutris.net/games/icon/cyber-surf.png",
  "is_public": true,
  "updated": "2020-10-08T10:00:03.562208Z",
  "provider_games": [
    {
      "name": "Cyber Surf",
      "slug": "735810",
      "service": "steam"
    }
  ],
  "steamid": 735810,
  "gogid": null,
  "gogslug": "",
  "humblestoreid": "",
  "id": 18913
}