{
  "name": "Life Beetle",
  "slug": "life-beetle",
  "year": null,
  "description": "",
  "banner_url": "https://lutris.net/games/banner/life-beetle.jpg",
  "icon_url": "https://lutris.net/games/icon/life-beetle.png",
  "is_public": false,
  "updated": "2019-01-23T08:30:10.516436Z",
  "provider_games": [],
  "steamid": 527480,
  "gogid": null,
  "gogslug": "",
  "humblestoreid": "",
  "id": 11188
}