{
  "name": "Ashes of Creation",
  "slug": "ashes-of-creation",
  "year": 2019,
  "description": "Ashes of Creation takes place within a medieval fantasy setting, blending imagination with cutting-edge graphics. We are putting the word massive back into massively multiplayer with unique and novel mechanics that will bring meaning to player action.\r\n\r\nAshes of Creation will incorporate the best parts of traditional MMORPGs with innovative sandbox concepts.\r\n\r\nYou will choose your fate at every opportunity. Questlines will open and close based on the interations of the players with their world, because this is a world where choice is consequential.\r\n\r\nMonsters will roam and grow in ferocity as civilization disrupts the natural order of things.\r\n\r\nFrom the location of towns to the size of cities, you will determine the landcsape of your world. It will be unique in culture, ecology, and economy.\r\n\r\nNo two servers will experience Ashes of Creation in the same way!",
  "banner_url": "https://lutris.net/games/banner/ashes-of-creation.jpg",
  "icon_url": "",
  "is_public": true,
  "updated": "2019-01-23T08:28:26.913804Z",
  "provider_games": [],
  "steamid": null,
  "gogid": null,
  "gogslug": "",
  "humblestoreid": "",
  "id": 24354
}