{
  "name": "Infinite Vector",
  "slug": "infinite-vector",
  "year": null,
  "description": "",
  "banner_url": "https://lutris.net/games/banner/infinite-vector.jpg",
  "icon_url": "https://lutris.net/games/icon/infinite-vector.png",
  "is_public": true,
  "updated": "2020-10-08T10:08:28.431509Z",
  "provider_games": [
    {
      "name": "Infinite Vector",
      "slug": "830890",
      "service": "steam"
    }
  ],
  "steamid": 830890,
  "gogid": null,
  "gogslug": "",
  "humblestoreid": "",
  "id": 30498
}