{
  "id": 1978,
  "game_id": 4936,
  "game_slug": "wasteland-2-directors-cut",
  "name": "Wasteland 2: Director's Cut",
  "year": 2014,
  "user": "Xodetaetl",
  "runner": "linux",
  "slug": "wasteland-2-directors-cut-gog",
  "version": "GOG",
  "description": null,
  "notes": "Requires the latest version of GOG's Linux installer.",
  "created_at": "2016-02-11T23:19:18.697000Z",
  "updated_at": "2019-12-20T17:58:35.594805Z",
  "draft": false,
  "published": true,
  "published_by": 20548,
  "rating": "",
  "steamid": 404730,
  "gogid": 1444386007,
  "gogslug": "wasteland_2_directors_cut_digital_classic_edition",
  "humbleid": "",
  "humblestoreid": "",
  "humblestoreid_real": "wasteland-2-directors-cut-classic-edition",
  "script": {
    "files": [
      {
        "goginstaller": "N/A:Please select the GOG.com Linux installer"
      }
    ],
    "game": {
      "exe": "start.sh"
    },
    "installer": [
      {
        "extract": {
          "dst": "$CACHE/GOG",
          "file": "goginstaller",
          "format": "zip"
        }
      },
      {
        "merge": {
          "dst": "$GAMEDIR",
          "src": "$CACHE/GOG/data/noarch/"
        }
      }
    ]
  },
  "content": "files:\n- goginstaller: N/A:Please select the GOG.com Linux installer\ngame:\n  exe: start.sh\ninstaller:\n- extract:\n    dst: $CACHE/GOG\n    file: goginstaller\n    format: zip\n- merge:\n    dst: $GAMEDIR\n    src: $CACHE/GOG/data/noarch/\n"
}