{
  "name": "Adventure Apes and the Mayan Mystery",
  "slug": "adventure-apes-and-the-mayan-mystery",
  "year": null,
  "description": "",
  "banner_url": "https://lutris.net/games/banner/adventure-apes-and-the-mayan-mystery.jpg",
  "icon_url": "https://lutris.net/games/icon/adventure-apes-and-the-mayan-mystery.png",
  "is_public": true,
  "updated": "2020-10-08T10:13:23.670199Z",
  "provider_games": [
    {
      "name": "Adventure Apes and the Mayan Mystery",
      "slug": "461830",
      "service": "steam"
    }
  ],
  "steamid": 461830,
  "gogid": null,
  "gogslug": "",
  "humblestoreid": "",
  "id": 7041
}