{
  "name": "F355 Challenge: Passione Rossa",
  "slug": "f355-challenge-passione-rossa",
  "year": 1999,
  "description": "Licensed by Ferrari, with praise for it's fine quality as a complete work of art. Under the supervision of numerous top race drivers, the highest level of realistic control feeling has been achieved.\r\n\r\n  *  Equipped with Assist Functions using an AI, with 6 popular existing circuits.\r\n  *  Connect to the internet, register your driving data, and get a replay of an 8 player time-attack!\r\n  *  Full of Dreamcast original features such as the 2 player battle with screen division.",
  "banner_url": "https://lutris.net/games/banner/f355-challenge-passione-rossa.jpg",
  "icon_url": "",
  "is_public": true,
  "updated": "2019-01-23T08:29:27.289410Z",
  "provider_games": [],
  "steamid": null,
  "gogid": null,
  "gogslug": "",
  "humblestoreid": "",
  "id": 19940
}