{
  "name": "Galaxy 5000",
  "slug": "galaxy-5000",
  "year": 1990,
  "description": "his video game takes place in the future using an outer space atmosphere. It features the racing of futuristic craft that can battle each other for finishing spots in the race. Each craft is also upgradeable and with each upgrade comes better shielding and weapons. This video game would become the inspiration for the Super NES video game Rock n' Roll Racing.[citation needed] Primitive voice effects are used when the ships collide with each other; three of the phrases are: \"Hey!,\" \"Excuse me!,\" and \"Watch it.[1]\"",
  "banner_url": "https://lutris.net/games/banner/galaxy-5000.jpg",
  "icon_url": "",
  "is_public": true,
  "updated": "2019-01-23T08:29:37.028501Z",
  "provider_games": [],
  "steamid": null,
  "gogid": null,
  "gogslug": "",
  "humblestoreid": "",
  "id": 13725
}