{
  "name": "Argos",
  "slug": "argos",
  "year": null,
  "description": "",
  "banner_url": "https://lutris.net/games/banner/argos.jpg",
  "icon_url": "https://lutris.net/games/icon/argos.png",
  "is_public": true,
  "updated": "2020-10-08T09:56:56.741179Z",
  "provider_games": [
    {
      "name": "Argos",
      "slug": "861160",
      "service": "steam"
    }
  ],
  "steamid": 861160,
  "gogid": null,
  "gogslug": "",
  "humblestoreid": "",
  "id": 22869
}