{
  "name": "Hello Kitty and Sanrio Friends Racing",
  "slug": "hello-kitty-and-sanrio-friends-racing",
  "year": null,
  "description": "",
  "banner_url": "https://lutris.net/games/banner/hello-kitty-and-sanrio-friends-racing.jpg",
  "icon_url": "https://lutris.net/games/icon/hello-kitty-and-sanrio-friends-racing.png",
  "is_public": true,
  "updated": "2020-10-08T10:16:00.207807Z",
  "provider_games": [
    {
      "name": "Hello Kitty and Sanrio Friends Racing",
      "slug": "370600",
      "service": "steam"
    }
  ],
  "steamid": 370600,
  "gogid": null,
  "gogslug": "",
  "humblestoreid": "",
  "id": 7432
}