{
  "name": "Grapple Force Rena",
  "slug": "grapple-force-rena",
  "year": null,
  "description": "",
  "banner_url": "https://lutris.net/games/banner/grapple-force-rena.jpg",
  "icon_url": "https://lutris.net/games/icon/grapple-force-rena.png",
  "is_public": true,
  "updated": "2020-10-08T09:57:54.325103Z",
  "provider_games": [
    {
      "name": "Grapple Force Rena",
      "slug": "794550",
      "service": "steam"
    }
  ],
  "steamid": 794550,
  "gogid": null,
  "gogslug": "",
  "humblestoreid": "",
  "id": 29164
}