{
  "name": "Flow DJ Software",
  "slug": "flow-dj-software",
  "year": null,
  "description": "",
  "banner_url": "https://lutris.net/games/banner/flow-dj-software.jpg",
  "icon_url": "https://lutris.net/games/icon/flow-dj-software.png",
  "is_public": true,
  "updated": "2020-10-08T09:20:59.984375Z",
  "provider_games": [
    {
      "name": "Flow DJ Software",
      "slug": "264970",
      "service": "steam"
    }
  ],
  "steamid": 264970,
  "gogid": null,
  "gogslug": "",
  "humblestoreid": "",
  "id": 20243
}