{
  "name": "bOllO",
  "slug": "bollo",
  "year": null,
  "description": "",
  "banner_url": "https://lutris.net/games/banner/bollo.jpg",
  "icon_url": "https://lutris.net/games/icon/bollo.png",
  "is_public": false,
  "updated": "2019-01-23T08:28:39.887685Z",
  "provider_games": [],
  "steamid": 521190,
  "gogid": null,
  "gogslug": "",
  "humblestoreid": "",
  "id": 9305
}