{
  "name": "Belle II in Virtual Reality",
  "slug": "belle-ii-in-virtual-reality",
  "year": null,
  "description": "",
  "banner_url": "https://lutris.net/games/banner/belle-ii-in-virtual-reality.jpg",
  "icon_url": "https://lutris.net/games/icon/belle-ii-in-virtual-reality.png",
  "is_public": true,
  "updated": "2020-10-08T09:57:36.488494Z",
  "provider_games": [
    {
      "name": "Belle II in Virtual Reality",
      "slug": "810020",
      "service": "steam"
    }
  ],
  "steamid": 810020,
  "gogid": null,
  "gogslug": "",
  "humblestoreid": "",
  "id": 20601
}