{
  "name": "A Druid's Duel",
  "slug": "a-druids-duel",
  "year": 2015,
  "description": "A Druid's Duel is a fast paced turn-based strategy game set in a world of Celtic lore where players can create and destroy the board by harnessing the power of nature.",
  "banner_url": "https://lutris.net/games/banner/a-druids-duel.jpg",
  "icon_url": "https://lutris.net/games/icon/a-druids-duel.png",
  "is_public": true,
  "updated": "2019-01-23T08:28:12.059955Z",
  "provider_games": [
    {
      "name": "A Druid's Duel",
      "slug": "333970",
      "service": "steam"
    }
  ],
  "steamid": 333970,
  "gogid": null,
  "gogslug": "",
  "humblestoreid": "",
  "id": 4330
}