{
  "name": "Grid Masters",
  "slug": "grid-masters",
  "year": null,
  "description": "",
  "banner_url": "https://lutris.net/games/banner/grid-masters.jpg",
  "icon_url": "https://lutris.net/games/icon/grid-masters.png",
  "is_public": true,
  "updated": "2020-10-08T10:13:44.891654Z",
  "provider_games": [
    {
      "name": "Grid Masters",
      "slug": "449330",
      "service": "steam"
    }
  ],
  "steamid": 449330,
  "gogid": null,
  "gogslug": "",
  "humblestoreid": "",
  "id": 6910
}