{
  "name": "Child Of Ault",
  "slug": "child-of-ault",
  "year": null,
  "description": "",
  "banner_url": "https://lutris.net/games/banner/child-of-ault.jpg",
  "icon_url": "https://lutris.net/games/icon/child-of-ault.png",
  "is_public": true,
  "updated": "2020-10-08T10:05:19.570424Z",
  "provider_games": [
    {
      "name": "Child Of Ault",
      "slug": "566270",
      "service": "steam"
    }
  ],
  "steamid": 566270,
  "gogid": null,
  "gogslug": "",
  "humblestoreid": "",
  "id": 10242
}