{
  "name": "Dark Deception",
  "slug": "dark-deception",
  "year": null,
  "description": "",
  "banner_url": "https://lutris.net/games/banner/dark-deception.jpg",
  "icon_url": "https://lutris.net/games/icon/dark-deception.png",
  "is_public": true,
  "updated": "2020-10-08T09:19:30.684257Z",
  "provider_games": [
    {
      "name": "Dark Deception",
      "slug": "332950",
      "service": "steam"
    }
  ],
  "steamid": 332950,
  "gogid": null,
  "gogslug": "",
  "humblestoreid": "",
  "id": 25695
}