{
  "name": "Eleusis",
  "slug": "eleusis",
  "year": null,
  "description": "",
  "banner_url": "https://lutris.net/games/banner/eleusis.jpg",
  "icon_url": "https://lutris.net/games/icon/eleusis.png",
  "is_public": true,
  "updated": "2019-01-23T08:29:22.178643Z",
  "provider_games": [
    {
      "name": "Eleusis",
      "slug": "251310",
      "service": "steam"
    }
  ],
  "steamid": 251310,
  "gogid": null,
  "gogslug": "",
  "humblestoreid": "",
  "id": 1573
}