{
  "name": "Infernax",
  "slug": "infernax",
  "year": null,
  "description": "",
  "banner_url": "https://lutris.net/games/banner/infernax.jpg",
  "icon_url": "https://lutris.net/games/icon/infernax.png",
  "is_public": true,
  "updated": "2020-10-08T10:15:53.985200Z",
  "provider_games": [
    {
      "name": "Infernax",
      "slug": "374190",
      "service": "steam"
    }
  ],
  "steamid": 374190,
  "gogid": null,
  "gogslug": "",
  "humblestoreid": "",
  "id": 32955
}