{
  "name": "Contrast",
  "slug": "contrast",
  "year": null,
  "description": "",
  "banner_url": "https://lutris.net/games/banner/contrast.jpg",
  "icon_url": "https://lutris.net/games/icon/contrast.png",
  "is_public": true,
  "updated": "2019-01-23T08:28:57.924675Z",
  "provider_games": [
    {
      "name": "Contrast",
      "slug": "224460",
      "service": "steam"
    }
  ],
  "steamid": 224460,
  "gogid": null,
  "gogslug": "",
  "humblestoreid": "",
  "id": 1578
}