{
  "name": "Cross Love - Episode 1",
  "slug": "cross-love-episode-1",
  "year": 2018,
  "description": "Charming, pretty, and…a guy?! Yuu may have a bit of experience crossdressing, but when a mix up leaves him wearing his sister’s clothes to school one day, he finds himself catching eyes – and hearts too! What happens next? Find out in this funny and lewd yaoi visual novel!",
  "banner_url": "https://lutris.net/games/banner/cross-love-episode-1.jpg",
  "icon_url": "",
  "is_public": true,
  "updated": "2019-04-15T06:01:58.089257Z",
  "provider_games": [],
  "steamid": null,
  "gogid": null,
  "gogslug": "",
  "humblestoreid": "",
  "id": 24835
}