{
  "name": "Mad Max: Fury Road (Theatrical)",
  "slug": "mad-max-fury-road-theatrical",
  "year": null,
  "description": "",
  "banner_url": "https://lutris.net/games/banner/mad-max-fury-road-theatrical.jpg",
  "icon_url": "https://lutris.net/games/icon/mad-max-fury-road-theatrical.png",
  "is_public": false,
  "updated": "2019-01-23T08:30:15.152203Z",
  "provider_games": [],
  "steamid": 396120,
  "gogid": null,
  "gogslug": "",
  "humblestoreid": "",
  "id": 5620
}