{
  "id": 2794,
  "game_id": 7754,
  "game_slug": "that-dam-level",
  "name": "That Dam Level",
  "year": 2015,
  "user": "Lulu",
  "runner": "linux",
  "slug": "that-dam-level-itchio",
  "version": "itch.io",
  "description": "",
  "notes": "",
  "created_at": "2016-09-28T19:42:15.429675Z",
  "updated_at": "2016-09-28T20:36:54.306661Z",
  "draft": false,
  "published": true,
  "published_by": null,
  "rating": "",
  "steamid": null,
  "gogid": null,
  "gogslug": "",
  "humbleid": "",
  "humblestoreid": "",
  "humblestoreid_real": "",
  "script": {
    "exe": "Game/runner",
    "files": [
      {
        "game": "N/A:Please select the .zip install file downloaded from itch.io"
      },
      {
        "unzip": "http://lutris.net/files/tools/unzip.tar.gz"
      }
    ],
    "installer": [
      {
        "extract": {
          "dst": "$CACHE",
          "file": "$unzip"
        }
      },
      {
        "execute": {
          "args": "$game -d \"$GAMEDIR\" \"ThatDamLevel/*\"",
          "description": "Extracting game data, it will take a while...",
          "file": "$CACHE/unzip"
        }
      },
      {
        "rename": {
          "dst": "$GAMEDIR/Game",
          "src": "$GAMEDIR/ThatDamLevel"
        }
      },
      {
        "chmodx": "$GAMEDIR/Game/runner"
      }
    ]
  },
  "content": "exe: Game/runner\nfiles:\n- game: N/A:Please select the .zip install file downloaded from itch.io\n- unzip: http://lutris.net/files/tools/unzip.tar.gz\ninstaller:\n- extract:\n    dst: $CACHE\n    file: $unzip\n- execute:\n    args: $game -d \"$GAMEDIR\" \"ThatDamLevel/*\"\n    description: Extracting game data, it will take a while...\n    file: $CACHE/unzip\n- rename:\n    dst: $GAMEDIR/Game\n    src: $GAMEDIR/ThatDamLevel\n- chmodx: $GAMEDIR/Game/runner\n"
}