{
  "name": "Cyberia 2: Resurrection",
  "slug": "cyberia-2-resurrection",
  "year": 1994,
  "description": "",
  "banner_url": "https://lutris.net/games/banner/cyberia-2-resurrection.jpg",
  "icon_url": "",
  "is_public": true,
  "updated": "2020-05-31T00:17:38.751455Z",
  "provider_games": [
    {
      "name": "Cyberia 2: Resurrection",
      "slug": "1430388542",
      "service": "gog"
    }
  ],
  "steamid": null,
  "gogid": 1430388542,
  "gogslug": "cyberia_2_resurrection",
  "humblestoreid": "",
  "id": 24090
}