{
  "name": "Guns, Gore and Cannoli 2",
  "slug": "guns-gore-and-cannoli-2",
  "year": null,
  "description": "",
  "banner_url": "https://lutris.net/games/banner/guns-gore-and-cannoli-2.jpg",
  "icon_url": "https://lutris.net/games/icon/guns-gore-and-cannoli-2.png",
  "is_public": true,
  "updated": "2020-10-08T10:06:34.532005Z",
  "provider_games": [
    {
      "name": "Guns, Gore and Cannoli 2",
      "slug": "525510",
      "service": "steam"
    }
  ],
  "steamid": 525510,
  "gogid": null,
  "gogslug": "",
  "humblestoreid": "",
  "id": 19034
}