{
  "name": "Farm Frenzy 3",
  "slug": "farm-frenzy-3",
  "year": null,
  "description": "",
  "banner_url": "https://lutris.net/games/banner/farm-frenzy-3.jpg",
  "icon_url": "https://lutris.net/games/icon/farm-frenzy-3.png",
  "is_public": true,
  "updated": "2020-10-08T10:02:12.277256Z",
  "provider_games": [
    {
      "name": "Farm Frenzy 3",
      "slug": "38150",
      "service": "steam"
    }
  ],
  "steamid": 38150,
  "gogid": null,
  "gogslug": "",
  "humblestoreid": "",
  "id": 26488
}