{
  "id": 4996,
  "game_id": 7945,
  "game_slug": "legends-of-solitaire-curse-of-the-dragons",
  "name": "Legends of Solitaire: Curse of the Dragons",
  "year": null,
  "user": "FakeShemp",
  "runner": "wine",
  "slug": "legends-of-solitaire-curse-of-groupees",
  "version": "Groupees",
  "description": "",
  "notes": "",
  "created_at": "2017-07-12T19:39:39.622313Z",
  "updated_at": "2018-05-19T03:41:56.272086Z",
  "draft": false,
  "published": true,
  "published_by": null,
  "rating": "",
  "steamid": 399040,
  "gogid": null,
  "gogslug": "",
  "humbleid": "",
  "humblestoreid": "",
  "humblestoreid_real": "",
  "script": {
    "files": [
      {
        "file1": "N/A:Please select the Groupees archive"
      }
    ],
    "game": {
      "arch": "win32",
      "exe": "drive_c/Program Files/Legends of Solitaire Curse of the Dragons/LoS2.exe",
      "prefix": "$GAMEDIR"
    },
    "installer": [
      {
        "extract": {
          "dst": "$GAMEDIR/drive_c/Program Files/Legends of Solitaire Curse of the Dragons",
          "file": "$file1"
        }
      }
    ]
  },
  "content": "files:\n- file1: N/A:Please select the Groupees archive\ngame:\n  arch: win32\n  exe: drive_c/Program Files/Legends of Solitaire Curse of the Dragons/LoS2.exe\n  prefix: $GAMEDIR\ninstaller:\n- extract:\n    dst: $GAMEDIR/drive_c/Program Files/Legends of Solitaire Curse of the Dragons\n    file: $file1\n"
}