{
  "name": "Finder",
  "slug": "finder",
  "year": null,
  "description": "",
  "banner_url": "https://lutris.net/games/banner/finder.jpg",
  "icon_url": "https://lutris.net/games/icon/finder.png",
  "is_public": false,
  "updated": "2019-01-23T08:29:31.165538Z",
  "provider_games": [],
  "steamid": 816960,
  "gogid": null,
  "gogslug": "",
  "humblestoreid": "",
  "id": 18394
}