{
  "name": "Four In One Poker",
  "slug": "four-in-one-poker",
  "year": 1983,
  "description": "",
  "banner_url": "",
  "icon_url": "https://lutris.net/games/icon/four-in-one-poker.png",
  "is_public": true,
  "updated": "2020-05-26T03:33:52.420073Z",
  "provider_games": [
    {
      "name": "Four In One Poker",
      "slug": "poker41",
      "service": "mame"
    }
  ],
  "steamid": null,
  "gogid": null,
  "gogslug": "",
  "humblestoreid": "",
  "id": 35310
}