{
  "name": "Alchemy of Castle",
  "slug": "alchemy-of-castle",
  "year": null,
  "description": "",
  "banner_url": "https://lutris.net/games/banner/alchemy-of-castle.jpg",
  "icon_url": "https://lutris.net/games/icon/alchemy-of-castle.png",
  "is_public": false,
  "updated": "2019-03-10T01:34:48.502668Z",
  "provider_games": [],
  "steamid": 832490,
  "gogid": null,
  "gogslug": "",
  "humblestoreid": "",
  "id": 26203
}