{
  "name": "Dominions 4: Thrones of Ascension",
  "slug": "dominions-4-thrones-of-ascension",
  "year": 2013,
  "description": "The ultimate turn-based strategic game is in its fourth iteration with more nations, more spells, more monsters, and more and more!",
  "banner_url": "https://lutris.net/games/banner/dominions-4-thrones-of-ascension.jpg",
  "icon_url": "",
  "is_public": false,
  "updated": "2019-01-23T08:29:14.592698Z",
  "provider_games": [],
  "steamid": null,
  "gogid": null,
  "gogslug": "",
  "humblestoreid": "",
  "id": 883
}