{
  "name": "Deja Vu: MacVenture Series",
  "slug": "deja-vu-macventure-series",
  "year": null,
  "description": "",
  "banner_url": "https://lutris.net/games/banner/deja-vu-macventure-series.jpg",
  "icon_url": "https://lutris.net/games/icon/deja-vu-macventure-series.png",
  "is_public": true,
  "updated": "2020-10-08T10:16:48.150053Z",
  "provider_games": [
    {
      "name": "Deja Vu: MacVenture Series",
      "slug": "343820",
      "service": "steam"
    }
  ],
  "steamid": 343820,
  "gogid": null,
  "gogslug": "",
  "humblestoreid": "",
  "id": 3983
}