{
  "name": "Chameleon",
  "slug": "chameleon",
  "year": 1983,
  "description": "",
  "banner_url": "",
  "icon_url": "https://lutris.net/games/icon/chameleon.png",
  "is_public": true,
  "updated": "2020-05-26T03:32:41.415292Z",
  "provider_games": [
    {
      "name": "Chameleon",
      "slug": "chameleo",
      "service": "mame"
    }
  ],
  "steamid": null,
  "gogid": null,
  "gogslug": "",
  "humblestoreid": "",
  "id": 33645
}