{
  "name": "Fast & Furious: Showdown",
  "slug": "fast-furious-showdown",
  "year": null,
  "description": "",
  "banner_url": "https://lutris.net/games/banner/fast-furious-showdown.jpg",
  "icon_url": "https://lutris.net/games/icon/fast-furious-showdown.png",
  "is_public": true,
  "updated": "2020-10-08T09:54:23.634384Z",
  "provider_games": [
    {
      "name": "Fast & Furious: Showdown",
      "slug": "224340",
      "service": "steam"
    }
  ],
  "steamid": 224340,
  "gogid": null,
  "gogslug": "",
  "humblestoreid": "",
  "id": 3374
}