{
  "name": "Filthy, Stinking, Orcs!",
  "slug": "filthy-stinking-orcs",
  "year": null,
  "description": "",
  "banner_url": "https://lutris.net/games/banner/filthy-stinking-orcs.jpg",
  "icon_url": "https://lutris.net/games/icon/filthy-stinking-orcs.png",
  "is_public": true,
  "updated": "2020-10-08T10:04:34.327944Z",
  "provider_games": [
    {
      "name": "Filthy, Stinking, Orcs!",
      "slug": "590560",
      "service": "steam"
    }
  ],
  "steamid": 590560,
  "gogid": null,
  "gogslug": "",
  "humblestoreid": "",
  "id": 15660
}