{
  "name": "Fish's Trip",
  "slug": "fishs-trip",
  "year": null,
  "description": "",
  "banner_url": "https://lutris.net/games/banner/fishs-trip.jpg",
  "icon_url": "https://lutris.net/games/icon/fishs-trip.png",
  "is_public": true,
  "updated": "2020-10-08T10:00:55.374921Z",
  "provider_games": [
    {
      "name": "Fish's Trip",
      "slug": "701960",
      "service": "steam"
    }
  ],
  "steamid": 701960,
  "gogid": null,
  "gogslug": "",
  "humblestoreid": "",
  "id": 26515
}