{
  "name": "Frenzy",
  "slug": "frenzy",
  "year": 1981,
  "description": "",
  "banner_url": "https://lutris.net/games/banner/frenzy.jpg",
  "icon_url": "https://lutris.net/games/icon/frenzy.png",
  "is_public": true,
  "updated": "2020-05-26T03:33:53.438888Z",
  "provider_games": [
    {
      "name": "Frenzy",
      "slug": "frenzy",
      "service": "mame"
    }
  ],
  "steamid": null,
  "gogid": null,
  "gogslug": "",
  "humblestoreid": "",
  "id": 34140
}