{
  "name": "Cubicolor",
  "slug": "cubicolor",
  "year": null,
  "description": "",
  "banner_url": "https://lutris.net/games/banner/cubicolor.jpg",
  "icon_url": "https://lutris.net/games/icon/cubicolor.png",
  "is_public": true,
  "updated": "2020-10-08T10:13:36.467494Z",
  "provider_games": [
    {
      "name": "Cubicolor",
      "slug": "454190",
      "service": "steam"
    }
  ],
  "steamid": 454190,
  "gogid": null,
  "gogslug": "",
  "humblestoreid": "",
  "id": 8502
}