{
  "name": "Fist Slash: Of Ultimate Fury",
  "slug": "fist-slash-of-ultimate-fury",
  "year": null,
  "description": "",
  "banner_url": "https://lutris.net/games/banner/fist-slash-of-ultimate-fury.jpg",
  "icon_url": "https://lutris.net/games/icon/fist-slash-of-ultimate-fury.png",
  "is_public": true,
  "updated": "2020-10-08T10:14:52.133957Z",
  "provider_games": [
    {
      "name": "Fist Slash: Of Ultimate Fury",
      "slug": "409070",
      "service": "steam"
    }
  ],
  "steamid": 409070,
  "gogid": null,
  "gogslug": "",
  "humblestoreid": "",
  "id": 12503
}