{
  "name": "Last Fighting",
  "slug": "last-fighting",
  "year": 2000,
  "description": "",
  "banner_url": "",
  "icon_url": "https://lutris.net/games/icon/last-fighting.png",
  "is_public": true,
  "updated": "2020-05-26T03:35:12.015576Z",
  "provider_games": [
    {
      "name": "Last Fighting",
      "slug": "lastfght",
      "service": "mame"
    }
  ],
  "steamid": null,
  "gogid": null,
  "gogslug": "",
  "humblestoreid": "",
  "id": 34696
}