{
  "name": "Expelled",
  "slug": "expelled",
  "year": null,
  "description": "",
  "banner_url": "https://lutris.net/games/banner/expelled.jpg",
  "icon_url": "https://lutris.net/games/icon/expelled.png",
  "is_public": true,
  "updated": "2020-10-08T10:00:16.553856Z",
  "provider_games": [
    {
      "name": "Expelled",
      "slug": "727530",
      "service": "steam"
    }
  ],
  "steamid": 727530,
  "gogid": null,
  "gogslug": "",
  "humblestoreid": "",
  "id": 17130
}