{
  "name": "Chris Sawyer's Locomotion",
  "slug": "chris-sawyers-locomotion",
  "year": null,
  "description": "",
  "banner_url": "https://lutris.net/games/banner/chris-sawyers-locomotion.jpg",
  "icon_url": "https://lutris.net/games/icon/chris-sawyers-locomotion.png",
  "is_public": true,
  "updated": "2020-05-31T00:17:37.527610Z",
  "provider_games": [
    {
      "name": "Locomotion, Chris Sawyer's",
      "slug": "1207658955",
      "service": "gog"
    },
    {
      "name": "Chris Sawyer's Locomotion",
      "slug": "356430",
      "service": "steam"
    }
  ],
  "steamid": 356430,
  "gogid": 1207658955,
  "gogslug": "chris_sawyers_locomotion",
  "humblestoreid": "",
  "id": 12405
}