{
  "name": "Honey Rose: Underdog Fighter Extraordinaire",
  "slug": "honey-rose-underdog-fighter-extraordinaire",
  "year": null,
  "description": "",
  "banner_url": "https://lutris.net/games/banner/honey-rose-underdog-fighter-extraordinaire.jpg",
  "icon_url": "https://lutris.net/games/icon/honey-rose-underdog-fighter-extraordinaire.png",
  "is_public": true,
  "updated": "2020-10-08T10:06:36.854047Z",
  "provider_games": [
    {
      "name": "Honey Rose: Underdog Fighter Extraordinaire",
      "slug": "523680",
      "service": "steam"
    }
  ],
  "steamid": 523680,
  "gogid": null,
  "gogslug": "",
  "humblestoreid": "",
  "id": 9597
}