{
  "id": 22083,
  "game_id": 1791,
  "game_slug": "star-wars-force-unleashed-2",
  "name": "Star Wars: The Force Unleashed II",
  "year": 2010,
  "user": "galross",
  "runner": "steam",
  "slug": "star-wars-the-force-unleashed-proton",
  "version": "Proton",
  "description": "Installs the game through Steam Play and applies the recommended launch arg from ProtonDB.",
  "notes": "Cutscenes do not work and framerate is capped to 30FPS. You can download a custom exe to uncap it here: https://community.pcgamingwiki.com/files/file/506-star-wars-the-force-unleashed-12-fps-cap-fix-60-fps-unlock",
  "created_at": "2020-07-02T04:14:49.980255Z",
  "updated_at": "2020-07-02T04:14:49.980299Z",
  "draft": false,
  "published": false,
  "published_by": null,
  "rating": "",
  "steamid": 32500,
  "gogid": 1174280500,
  "gogslug": "star_wars_the_force_unleashed_ii",
  "humbleid": "",
  "humblestoreid": "",
  "humblestoreid_real": "star-wars-the-force-unleashed-ii",
  "script": {
    "game": {
      "appid": 32500,
      "args": "PROTON_FORCE_LARGE_ADDRES_AWARE=1"
    }
  },
  "content": "game:\n  appid: 32500\n  args: PROTON_FORCE_LARGE_ADDRES_AWARE=1\n"
}