{
  "name": "Disney Infinity 3.0: Gold Edition",
  "slug": "disney-infinity-30-gold-edition",
  "year": null,
  "description": "",
  "banner_url": "https://lutris.net/games/banner/disney-infinity-30-gold-edition.jpg",
  "icon_url": "https://lutris.net/games/icon/disney-infinity-30-gold-edition.png",
  "is_public": true,
  "updated": "2020-10-08T10:06:04.668850Z",
  "provider_games": [
    {
      "name": "Disney Infinity 3.0: Gold Edition",
      "slug": "541670",
      "service": "steam"
    }
  ],
  "steamid": 541670,
  "gogid": null,
  "gogslug": "",
  "humblestoreid": "",
  "id": 13454
}