{
  "name": "Hard to Be a God",
  "slug": "hard-to-be-a-god",
  "year": null,
  "description": "",
  "banner_url": "https://lutris.net/games/banner/hard-to-be-a-god.jpg",
  "icon_url": "https://lutris.net/games/icon/hard-to-be-a-god.png",
  "is_public": true,
  "updated": "2020-10-08T10:15:24.466985Z",
  "provider_games": [
    {
      "name": "Hard to Be a God",
      "slug": "391030",
      "service": "steam"
    }
  ],
  "steamid": 391030,
  "gogid": null,
  "gogslug": "",
  "humblestoreid": "",
  "id": 14610
}