{
  "name": "Fake Happy End",
  "slug": "fake-happy-end",
  "year": null,
  "description": "",
  "banner_url": "https://lutris.net/games/banner/fake-happy-end.jpg",
  "icon_url": "https://lutris.net/games/icon/fake-happy-end.png",
  "is_public": true,
  "updated": "2020-10-08T10:05:08.496313Z",
  "provider_games": [
    {
      "name": "Fake Happy End",
      "slug": "572640",
      "service": "steam"
    }
  ],
  "steamid": 572640,
  "gogid": null,
  "gogslug": "",
  "humblestoreid": "",
  "id": 16039
}