{
  "name": "City of Rott: Streets of Rott",
  "slug": "city-of-rott-streets-of-rott",
  "year": null,
  "description": "",
  "banner_url": "https://lutris.net/games/banner/city-of-rott-streets-of-rott.jpg",
  "icon_url": "https://lutris.net/games/icon/city-of-rott-streets-of-rott.png",
  "is_public": true,
  "updated": "2020-10-08T10:04:53.196878Z",
  "provider_games": [
    {
      "name": "City of Rott: Streets of Rott",
      "slug": "580880",
      "service": "steam"
    }
  ],
  "steamid": 580880,
  "gogid": null,
  "gogslug": "",
  "humblestoreid": "",
  "id": 24618
}