{
  "id": 4067,
  "game_id": 2912,
  "game_slug": "unrest",
  "name": "Unrest",
  "year": null,
  "user": "FakeShemp",
  "runner": "linux",
  "slug": "unrest-humble",
  "version": "Humble",
  "description": "",
  "notes": "",
  "created_at": "2017-06-02T19:42:31.659000Z",
  "updated_at": "2017-06-04T21:54:30.383557Z",
  "draft": false,
  "published": true,
  "published_by": null,
  "rating": "",
  "steamid": 292400,
  "gogid": 1207665053,
  "gogslug": "unrest",
  "humbleid": "",
  "humblestoreid": "",
  "humblestoreid_real": "",
  "script": {
    "exe": "bin/Unrest",
    "files": [
      {
        "file1": "N/A:Please select the Humble archive"
      }
    ],
    "game": {
      "ld_library_path": "$GAMEDIR/lib",
      "working_dir": "$GAMEDIR"
    },
    "installer": [
      {
        "extract": {
          "file": "$file1"
        }
      },
      {
        "chmodx": "$GAMEDIR/bin/Unrest"
      }
    ]
  },
  "content": "exe: bin/Unrest\nfiles:\n- file1: N/A:Please select the Humble archive\ngame:\n  ld_library_path: $GAMEDIR/lib\n  working_dir: $GAMEDIR\ninstaller:\n- extract:\n    file: $file1\n- chmodx: $GAMEDIR/bin/Unrest\n"
}