{
  "name": "Gentlemen!",
  "slug": "gentlemen",
  "year": null,
  "description": "",
  "banner_url": "https://lutris.net/games/banner/gentlemen.jpg",
  "icon_url": "https://lutris.net/games/icon/gentlemen.png",
  "is_public": true,
  "updated": "2019-01-23T08:29:39.037623Z",
  "provider_games": [
    {
      "name": "Gentlemen!",
      "slug": "253570",
      "service": "steam"
    }
  ],
  "steamid": 253570,
  "gogid": null,
  "gogslug": "",
  "humblestoreid": "",
  "id": 1655
}