{
  "name": "Evil Night",
  "slug": "evil-night",
  "year": 1998,
  "description": "",
  "banner_url": "https://lutris.net/games/banner/evil-night.jpg",
  "icon_url": "https://lutris.net/games/icon/evil-night.png",
  "is_public": true,
  "updated": "2020-05-26T03:33:37.436597Z",
  "provider_games": [
    {
      "name": "Evil Night",
      "slug": "evilngt",
      "service": "mame"
    }
  ],
  "steamid": null,
  "gogid": null,
  "gogslug": "",
  "humblestoreid": "",
  "id": 34028
}