{
  "name": "El Grande - 5 Card Draw",
  "slug": "el-grande-5-card-draw",
  "year": 1982,
  "description": "",
  "banner_url": "",
  "icon_url": "https://lutris.net/games/icon/el-grande-5-card-draw.png",
  "is_public": true,
  "updated": "2020-05-26T03:33:34.126013Z",
  "provider_games": [
    {
      "name": "El Grande - 5 Card Draw",
      "slug": "elgrande",
      "service": "mame"
    }
  ],
  "steamid": null,
  "gogid": null,
  "gogslug": "",
  "humblestoreid": "",
  "id": 34006
}