{
  "name": "Department 42: The Mystery of the Nine",
  "slug": "department-42-the-mystery-of-the-nine",
  "year": 2009,
  "description": "Prevent a paranormal catastrophe in Department 42 – The Mystery of the Nine, and save humanity from a nightmarish future!\r\n\r\nJoin Department 42, a secret organization devoted to the paranormal, and protect the world! Help Agent Alice Wright track down nine mysterious and evil artifacts that have gone missing. Use your Hidden Object skills to protect the planet from the nightmare that has been unleashed and restore order! Travel across the country and piece together the enigma that is Department 42: The Mystery of the Nine!",
  "banner_url": "https://lutris.net/games/banner/department-42-the-mystery-of-the-nine.jpg",
  "icon_url": "",
  "is_public": true,
  "updated": "2019-01-23T08:29:09.675362Z",
  "provider_games": [],
  "steamid": null,
  "gogid": null,
  "gogslug": "",
  "humblestoreid": "",
  "id": 11935
}