{
  "name": "DEMIAN",
  "slug": "demian",
  "year": null,
  "description": "",
  "banner_url": "https://lutris.net/games/banner/demian.jpg",
  "icon_url": "https://lutris.net/games/icon/demian.png",
  "is_public": true,
  "updated": "2020-10-08T10:13:09.747708Z",
  "provider_games": [
    {
      "name": "DEMIAN",
      "slug": "470240",
      "service": "steam"
    }
  ],
  "steamid": 470240,
  "gogid": null,
  "gogslug": "",
  "humblestoreid": "",
  "id": 16209
}