{
  "name": "F-1 Dream",
  "slug": "f-1-dream",
  "year": 1988,
  "description": "",
  "banner_url": "https://lutris.net/games/banner/f-1-dream.jpg",
  "icon_url": "https://lutris.net/games/icon/f-1-dream.png",
  "is_public": true,
  "updated": "2020-05-26T03:33:40.524415Z",
  "provider_games": [
    {
      "name": "F-1 Dream",
      "slug": "f1dream",
      "service": "mame"
    }
  ],
  "steamid": null,
  "gogid": null,
  "gogslug": "",
  "humblestoreid": "",
  "id": 34047
}