{
  "name": "Escape Kids",
  "slug": "escape-kids",
  "year": 1991,
  "description": "",
  "banner_url": "",
  "icon_url": "https://lutris.net/games/icon/escape-kids.png",
  "is_public": true,
  "updated": "2020-05-26T03:33:36.187046Z",
  "provider_games": [
    {
      "name": "Escape Kids",
      "slug": "esckids",
      "service": "mame"
    }
  ],
  "steamid": null,
  "gogid": null,
  "gogslug": "",
  "humblestoreid": "",
  "id": 34019
}