{
  "name": "Fire Truck / Smokey Joe",
  "slug": "fire-truck-smokey-joe",
  "year": 1978,
  "description": "",
  "banner_url": "https://lutris.net/games/banner/fire-truck-smokey-joe.jpg",
  "icon_url": "https://lutris.net/games/icon/fire-truck-smokey-joe.png",
  "is_public": true,
  "updated": "2020-05-26T03:33:48.611061Z",
  "provider_games": [
    {
      "name": "Fire Truck / Smokey Joe",
      "slug": "firetrk",
      "service": "mame"
    }
  ],
  "steamid": null,
  "gogid": null,
  "gogslug": "",
  "humblestoreid": "",
  "id": 34110
}