{
  "id": 22061,
  "game_id": 379,
  "game_slug": "magicka",
  "name": "Magicka",
  "year": null,
  "user": "galross",
  "runner": "steam",
  "slug": "magicka-proton",
  "version": "Proton",
  "description": "Before running this installer you must manually download Magicka through steam play and run the first time setup. After the first time setup completes it will likely immediately crash, then you can run the installer. Follow the installation prompts on any windows that pop up and launch when complete.",
  "notes": "If the XNA installer says its already installed just click repair instead. May take a few seconds to launch on the first run, be patient and restart Steam and Lutris if necessary. If you run into any other issues check out the ProtonDB page for more info: https://www.protondb.com/app/42910",
  "created_at": "2020-07-01T05:22:13.338243Z",
  "updated_at": "2020-07-01T05:22:13.338270Z",
  "draft": false,
  "published": false,
  "published_by": null,
  "rating": "",
  "steamid": 42910,
  "gogid": null,
  "gogslug": "",
  "humbleid": "",
  "humblestoreid": "",
  "humblestoreid_real": "",
  "script": {
    "game": {
      "appid": 42910
    },
    "installer": [
      {
        "execute": {
          "command": "ln -s ~/.steam/bin/steam-runtime/run.sh ~/.local/share/lutris/runtime/steam/"
        }
      },
      {
        "execute": {
          "command": "protontricks 42910 dotnet35sp1",
          "description": "Installing Microsoft .NET Framework 3.5 Service Pack 1..."
        }
      },
      {
        "execute": {
          "command": "protontricks 42910 xna31",
          "description": "Installing Microsoft XNA Framework..."
        }
      }
    ]
  },
  "content": "game:\n  appid: 42910\ninstaller:\n- execute:\n    command: ln -s ~/.steam/bin/steam-runtime/run.sh ~/.local/share/lutris/runtime/steam/\n- execute:\n    command: protontricks 42910 dotnet35sp1\n    description: Installing Microsoft .NET Framework 3.5 Service Pack 1...\n- execute:\n    command: protontricks 42910 xna31\n    description: Installing Microsoft XNA Framework...\n"
}