{
  "name": "Mahjong Gorgeous Night [BET]",
  "slug": "mahjong-gorgeous-night-bet",
  "year": 2000,
  "description": "",
  "banner_url": "",
  "icon_url": "https://lutris.net/games/icon/mahjong-gorgeous-night-bet.png",
  "is_public": true,
  "updated": "2020-05-26T03:35:35.163126Z",
  "provider_games": [
    {
      "name": "Mahjong Gorgeous Night [BET]",
      "slug": "mjgnight",
      "service": "mame"
    }
  ],
  "steamid": null,
  "gogid": null,
  "gogslug": "",
  "humblestoreid": "",
  "id": 34943
}