{
  "name": "Iesabel",
  "slug": "iesabel",
  "year": 2013,
  "description": "In the times of darkness, only the mightiest of heroes can save the world. Stand out against the evil all by yourself in epic single player mode. Swarms of bloodthirsty monsters, loads of epic gear to collect, dozens of skills to obtain. Grab your sword and fling yourself into action now!",
  "banner_url": "https://lutris.net/games/banner/iesabel.jpg",
  "icon_url": "https://lutris.net/games/icon/iesabel.png",
  "is_public": true,
  "updated": "2019-01-23T08:29:54.765300Z",
  "provider_games": [
    {
      "name": "Iesabel",
      "slug": "248710",
      "service": "steam"
    }
  ],
  "steamid": 248710,
  "gogid": null,
  "gogslug": "",
  "humblestoreid": "",
  "id": 1541
}