{
  "name": "BOXVR",
  "slug": "boxvr",
  "year": null,
  "description": "",
  "banner_url": "https://lutris.net/games/banner/boxvr.jpg",
  "icon_url": "https://lutris.net/games/icon/boxvr.png",
  "is_public": true,
  "updated": "2020-10-08T10:09:53.498415Z",
  "provider_games": [
    {
      "name": "BOXVR",
      "slug": "641960",
      "service": "steam"
    }
  ],
  "steamid": 641960,
  "gogid": null,
  "gogslug": "",
  "humblestoreid": "",
  "id": 18082
}