{
  "name": "MadOut2 BigCityOnline",
  "slug": "madout2-bigcityonline",
  "year": 2017,
  "description": "There are no rules - only the need to win, you can create any chaos.\r\n\r\n* Online Mode - play with your friends\r\n* Open world - explore it\r\n* Over 30 different cars available\r\n* Many racing with weapons\r\n* Bonuses - rockets, mines, bullet\r\n* Different weather conditions\r\n* Advanced car destruction\r\n* Angry bots\r\n* Crazy Russian cars\r\n\r\nGame still in development! New features coming soon.",
  "banner_url": "https://lutris.net/games/banner/madout2-bigcityonline.jpg",
  "icon_url": "https://lutris.net/games/icon/madout2-bigcityonline.png",
  "is_public": true,
  "updated": "2019-10-06T20:31:47.418341Z",
  "provider_games": [
    {
      "name": "MadOut2 BigCityOnline",
      "slug": "586980",
      "service": "steam"
    }
  ],
  "steamid": 586980,
  "gogid": null,
  "gogslug": "",
  "humblestoreid": "",
  "id": 29282
}