{
  "id": 4776,
  "game_id": 3933,
  "game_slug": "alltynex-second",
  "name": "ALLTYNEX Second",
  "year": null,
  "user": "FakeShemp",
  "runner": "wine",
  "slug": "alltynex-second-humble",
  "version": "Humble",
  "description": "From \"The Tale of ALLTYNEX\"",
  "notes": "",
  "created_at": "2017-07-03T16:05:10.363000Z",
  "updated_at": "2018-05-19T03:41:54.881218Z",
  "draft": false,
  "published": true,
  "published_by": null,
  "rating": "",
  "steamid": 283840,
  "gogid": null,
  "gogslug": "",
  "humbleid": "",
  "humblestoreid": "",
  "humblestoreid_real": "",
  "script": {
    "files": [
      {
        "file1": "N/A:Please select the Humble archive"
      }
    ],
    "game": {
      "arch": "win32",
      "exe": "drive_c/Program Files/ALLTYNEX Second/config.exe",
      "prefix": "$GAMEDIR"
    },
    "installer": [
      {
        "extract": {
          "dst": "$CACHE",
          "file": "$file1"
        }
      },
      {
        "move": {
          "dst": "$GAMEDIR/drive_c/Program Files/ALLTYNEX Second",
          "src": "$CACHE/ALLTYNEX Second"
        }
      },
      {
        "task": {
          "app": "d3dx9",
          "name": "winetricks",
          "prefix": "$GAMEDIR"
        }
      }
    ]
  },
  "content": "files:\n- file1: N/A:Please select the Humble archive\ngame:\n  arch: win32\n  exe: drive_c/Program Files/ALLTYNEX Second/config.exe\n  prefix: $GAMEDIR\ninstaller:\n- extract:\n    dst: $CACHE\n    file: $file1\n- move:\n    dst: $GAMEDIR/drive_c/Program Files/ALLTYNEX Second\n    src: $CACHE/ALLTYNEX Second\n- task:\n    app: d3dx9\n    name: winetricks\n    prefix: $GAMEDIR\n"
}