{
  "name": "Crazy Science Long Run",
  "slug": "crazy-science-long-run",
  "year": null,
  "description": "",
  "banner_url": "https://lutris.net/games/banner/crazy-science-long-run.jpg",
  "icon_url": "https://lutris.net/games/icon/crazy-science-long-run.png",
  "is_public": true,
  "updated": "2020-10-08T10:08:36.407539Z",
  "provider_games": [
    {
      "name": "Crazy Science Long Run",
      "slug": "825490",
      "service": "steam"
    }
  ],
  "steamid": 825490,
  "gogid": null,
  "gogslug": "",
  "humblestoreid": "",
  "id": 25365
}