{
  "name": "FrightShow Fighter",
  "slug": "frightshow-fighter",
  "year": null,
  "description": "",
  "banner_url": "https://lutris.net/games/banner/frightshow-fighter.jpg",
  "icon_url": "https://lutris.net/games/icon/frightshow-fighter.png",
  "is_public": true,
  "updated": "2020-10-08T10:13:32.812712Z",
  "provider_games": [
    {
      "name": "FrightShow Fighter",
      "slug": "455830",
      "service": "steam"
    }
  ],
  "steamid": 455830,
  "gogid": null,
  "gogslug": "",
  "humblestoreid": "",
  "id": 12546
}