{
  "name": "Futanari Quest",
  "slug": "futanari-quest",
  "year": 2018,
  "description": "Futanari Quest is an ecchi RPG with yuri themes. You take the role of Yui, a young woman who is blessed/cursed with a surprise genital-change! You’re given the challenging task of ensuring your genetics are passed down to future generations. Alongside your bubbly fairy companion, you’ll meet plenty of charming characters along the way: strong warrior women, shy princesses, cold-hearted killers and so many more.\r\n\r\nSome of the girls you choose to breed with are cis females... But chances are high that you'll run into a few futanari girls, just like yourself!\r\nFutanari Quest features 4 - 5 hours of gameplay, with plenty of replayability. Challenge yourself to unlock all the scenes in the gallery or seduce all of the monster girls!",
  "banner_url": "https://lutris.net/games/banner/futanari-quest.jpg",
  "icon_url": "",
  "is_public": true,
  "updated": "2019-01-23T08:29:36.485528Z",
  "provider_games": [],
  "steamid": null,
  "gogid": null,
  "gogslug": "",
  "humblestoreid": "",
  "id": 19757
}