{
  "name": "Comedy Night",
  "slug": "comedy-night",
  "year": null,
  "description": "",
  "banner_url": "https://lutris.net/games/banner/comedy-night.jpg",
  "icon_url": "https://lutris.net/games/icon/comedy-night.png",
  "is_public": true,
  "updated": "2020-10-08T10:09:25.874977Z",
  "provider_games": [
    {
      "name": "Comedy Night",
      "slug": "665360",
      "service": "steam"
    }
  ],
  "steamid": 665360,
  "gogid": null,
  "gogslug": "",
  "humblestoreid": "",
  "id": 14169
}