{
  "name": "BioMech",
  "slug": "biomech",
  "year": null,
  "description": "",
  "banner_url": "https://lutris.net/games/banner/biomech.jpg",
  "icon_url": "https://lutris.net/games/icon/biomech.png",
  "is_public": true,
  "updated": "2020-10-08T10:10:54.898671Z",
  "provider_games": [
    {
      "name": "BioMech",
      "slug": "1139130",
      "service": "steam"
    }
  ],
  "steamid": 1139130,
  "gogid": null,
  "gogslug": "",
  "humblestoreid": "",
  "id": 30998
}