{
  "name": "Grand Touring",
  "slug": "grand-touring",
  "year": 1998,
  "description": "Slip into a flame-proof racing suit, pull on your driving gloves and buckle up for a sensational, power sliding, rubber burning, ride of a lifetime. Grand Touring's unique AI system pits you against real thinking opponents in an arcade-quality motor-racing simulation that boasts the fastest, most beautiful PC graphics technology on the planet.\r\n\r\nFeaturing over 20 cars including all the major production race car categories and some of the world's fastest road cars, Grand Touring is the ultimate mix of motor-racing intelligence and adrenaline.",
  "banner_url": "https://lutris.net/games/banner/grand-touring.jpg",
  "icon_url": "",
  "is_public": true,
  "updated": "2019-01-23T08:29:42.546208Z",
  "provider_games": [],
  "steamid": null,
  "gogid": null,
  "gogslug": "",
  "humblestoreid": "",
  "id": 10528
}