{
  "name": "Aaru's Awakening",
  "slug": "aarus-awakening",
  "year": 2015,
  "description": "Aaru's Awakening is a hand-drawn, fast-paced 2D action platformer. The game puts players in charge of Aaru, a mythical creature with two unique abilities teleportation and charging. He uses these abilities as he travels through the dangerous world of Lumenox to defeat an evil entity. These two abilities are at the heart of every level design throughout the game, to make for a challenging and fluid experience. The levels require players to make split second decisions whilst completing fast-paced puzzles.",
  "banner_url": "https://lutris.net/games/banner/aarus-awakening.jpg",
  "icon_url": "https://lutris.net/games/icon/aarus-awakening.png",
  "is_public": true,
  "updated": "2019-01-23T08:28:10.134038Z",
  "provider_games": [
    {
      "name": "Aaru's Awakening",
      "slug": "294060",
      "service": "steam"
    }
  ],
  "steamid": 294060,
  "gogid": null,
  "gogslug": "",
  "humblestoreid": "",
  "id": 4466
}