{
  "name": "American Conquest",
  "slug": "american-conquest",
  "year": 2003,
  "description": "AMERICAN CONQUEST\r\nPlay with fire! Conquer America!\r\n\r\nIn the year 1492, travel to America as Christopher Columbus and ignite the fire that will fan 300 years of heated battles for land, riches and freedom. In eight historical campaigns spanning 42 missions, you will play the role of great legends such as Pizarro and Washington, commanding epic real-time battles containing up to 16,000 soldiers on 3D landscapes.\r\n\r\n    Epic real-time strategy with historical background\r\n    Captivating battles with up to 16,000 units in America between 1492 and 1813\r\n    Eight campaigns with 42 missions, nine separate single player missions\r\n    12 different nations and tribes\r\n    Realistic artillery with gunner squadrons\r\n    Huge maps (30x20 screens, 1024x768 pixels)\r\n    Multiplayer mode for up to seven players via LAN or Internet: Deathmatch, historical battles, automatic championship system, War For America",
  "banner_url": "https://lutris.net/games/banner/american-conquest.jpg",
  "icon_url": "https://lutris.net/games/icon/american-conquest.png",
  "is_public": true,
  "updated": "2020-10-08T10:01:18.576353Z",
  "provider_games": [
    {
      "name": "American Conquest",
      "slug": "1207662803",
      "service": "gog"
    },
    {
      "name": "American Conquest",
      "slug": "115210",
      "service": "steam"
    }
  ],
  "steamid": 115210,
  "gogid": 1207659004,
  "gogslug": "american_conquest",
  "humblestoreid": "",
  "id": 2317
}