{
  "name": "macdows 95",
  "slug": "macdows-95",
  "year": null,
  "description": "",
  "banner_url": "https://lutris.net/games/banner/macdows-95.jpg",
  "icon_url": "https://lutris.net/games/icon/macdows-95.png",
  "is_public": true,
  "updated": "2020-10-08T09:17:12.985215Z",
  "provider_games": [
    {
      "name": "macdows 95",
      "slug": "948900",
      "service": "steam"
    }
  ],
  "steamid": 948900,
  "gogid": null,
  "gogslug": "",
  "humblestoreid": "",
  "id": 39686
}