{
  "id": 3992,
  "game_id": 3910,
  "game_slug": "another-star",
  "name": "Another Star",
  "year": 2014,
  "user": "FakeShemp",
  "runner": "linux",
  "slug": "another-star-humble",
  "version": "Humble",
  "description": "",
  "notes": "",
  "created_at": "2017-05-31T13:23:55.767598Z",
  "updated_at": "2017-05-31T16:28:14.309781Z",
  "draft": false,
  "published": true,
  "published_by": null,
  "rating": "",
  "steamid": 358030,
  "gogid": null,
  "gogslug": "",
  "humbleid": "",
  "humblestoreid": "",
  "humblestoreid_real": "",
  "script": {
    "exe": "AnotherStar",
    "files": [
      {
        "file1": "N/A:Please select the Humble archive"
      }
    ],
    "installer": [
      {
        "extract": {
          "file": "$file1"
        }
      }
    ]
  },
  "content": "exe: AnotherStar\nfiles:\n- file1: N/A:Please select the Humble archive\ninstaller:\n- extract:\n    file: $file1\n"
}