{
  "name": "Estiman",
  "slug": "estiman",
  "year": null,
  "description": "",
  "banner_url": "https://lutris.net/games/banner/estiman.jpg",
  "icon_url": "https://lutris.net/games/icon/estiman.png",
  "is_public": true,
  "updated": "2020-10-08T10:05:30.676097Z",
  "provider_games": [
    {
      "name": "Estiman",
      "slug": "560220",
      "service": "steam"
    }
  ],
  "steamid": 560220,
  "gogid": null,
  "gogslug": "",
  "humblestoreid": "",
  "id": 12869
}