{
  "name": "Circus / Acrobat TV",
  "slug": "circus-acrobat-tv",
  "year": 1977,
  "description": "",
  "banner_url": "",
  "icon_url": "https://lutris.net/games/icon/circus-acrobat-tv.png",
  "is_public": true,
  "updated": "2020-05-26T03:32:48.500265Z",
  "provider_games": [
    {
      "name": "Circus / Acrobat TV",
      "slug": "circus",
      "service": "mame"
    }
  ],
  "steamid": null,
  "gogid": null,
  "gogslug": "",
  "humblestoreid": "",
  "id": 33682
}