{
  "name": "Into the Rhythm VR",
  "slug": "into-the-rhythm-vr",
  "year": null,
  "description": "",
  "banner_url": "https://lutris.net/games/banner/into-the-rhythm-vr.jpg",
  "icon_url": "https://lutris.net/games/icon/into-the-rhythm-vr.png",
  "is_public": true,
  "updated": "2020-10-08T10:09:08.885671Z",
  "provider_games": [
    {
      "name": "Into the Rhythm VR",
      "slug": "677060",
      "service": "steam"
    }
  ],
  "steamid": 677060,
  "gogid": null,
  "gogslug": "",
  "humblestoreid": "",
  "id": 21463
}