{
  "name": "Chewy: Esc from F5",
  "slug": "chewy-escape-from-f5",
  "year": 1995,
  "description": "Welcome to the adventures and hilarious world of Chewy, the outrageous alien. This comical game puts you in amusing situations in an effort to help the prank-playing Chewy find the \"Red Glump\". Go ghost hunting, solve fascinating puzzles, shoot slime balls, fly space ships and get shrunk!",
  "banner_url": "https://lutris.net/games/banner/chewy-escape-from-f5.jpg",
  "icon_url": "",
  "is_public": true,
  "updated": "2019-01-23T08:28:50.911670Z",
  "provider_games": [],
  "steamid": null,
  "gogid": null,
  "gogslug": "",
  "humblestoreid": "",
  "id": 21148
}