{
  "name": "Exodus from the Earth",
  "slug": "exodus-from-the-earth",
  "year": null,
  "description": "",
  "banner_url": "https://lutris.net/games/banner/exodus-from-the-earth.jpg",
  "icon_url": "https://lutris.net/games/icon/exodus-from-the-earth.png",
  "is_public": true,
  "updated": "2020-10-08T10:02:38.512506Z",
  "provider_games": [
    {
      "name": "Exodus from the Earth",
      "slug": "12390",
      "service": "steam"
    }
  ],
  "steamid": 12390,
  "gogid": null,
  "gogslug": "",
  "humblestoreid": "",
  "id": 4838
}