{
  "name": "Airport Simulator 2015",
  "slug": "airport-simulator-2015",
  "year": null,
  "description": "",
  "banner_url": "https://lutris.net/games/banner/airport-simulator-2015.jpg",
  "icon_url": "https://lutris.net/games/icon/airport-simulator-2015.png",
  "is_public": true,
  "updated": "2020-10-08T09:19:51.333509Z",
  "provider_games": [
    {
      "name": "Airport Simulator 2015",
      "slug": "319780",
      "service": "steam"
    }
  ],
  "steamid": 319780,
  "gogid": null,
  "gogslug": "",
  "humblestoreid": "",
  "id": 32037
}