{
  "id": 3558,
  "game_id": 127,
  "game_slug": "doom-ii-hell-on-earth",
  "name": "Doom II: Hell on Earth",
  "year": 1994,
  "user": "tyo100",
  "runner": "zdoom",
  "slug": "doom-ii-hell-on-earth-doom-ii-wad-required",
  "version": "Doom II Wad Required",
  "description": "",
  "notes": "",
  "created_at": "2017-04-24T04:56:03.025000Z",
  "updated_at": "2017-05-02T00:34:06.454065Z",
  "draft": false,
  "published": true,
  "published_by": null,
  "rating": "",
  "steamid": 2300,
  "gogid": 1440161275,
  "gogslug": "doom_ii_final_doom",
  "humbleid": "",
  "humblestoreid": "",
  "humblestoreid_real": "",
  "script": {
    "files": [
      {
        "wad-data": "N/A:Select a Doom 2 WAD file"
      },
      {
        "music": "http://www.doom2.net/doomdepot/wads/musicwads/D2-pcmus.WAD"
      }
    ],
    "game": {
      "files": [
        "D2-pcmus.WAD"
      ],
      "main_file": "DOOM2.WAD"
    },
    "installer": [
      {
        "merge": {
          "dst": "$GAMEDIR",
          "src": "wad-data"
        }
      },
      {
        "move": {
          "dst": "$GAMEDIR",
          "src": "$music"
        }
      }
    ]
  },
  "content": "files:\n- wad-data: N/A:Select a Doom 2 WAD file\n- music: http://www.doom2.net/doomdepot/wads/musicwads/D2-pcmus.WAD\ngame:\n  files:\n  - D2-pcmus.WAD\n  main_file: DOOM2.WAD\ninstaller:\n- merge:\n    dst: $GAMEDIR\n    src: wad-data\n- move:\n    dst: $GAMEDIR\n    src: $music\n"
}