{
  "id": 3557,
  "game_id": 127,
  "game_slug": "doom-ii-hell-on-earth",
  "name": "Doom II: Hell on Earth",
  "year": 1994,
  "user": "tyo100",
  "runner": "linux",
  "slug": "doom-ii-hell-on-earth-doom-ii-zdoom-wad-re-1",
  "version": "Doom II + zdoom + WAD Required",
  "description": "Doom II: Hell on Earth + zdoom + Require original DOOM2.WAD",
  "notes": "",
  "created_at": "2017-04-24T04:54:26.926000Z",
  "updated_at": "2017-04-24T17:43:59.553789Z",
  "draft": false,
  "published": true,
  "published_by": null,
  "rating": "",
  "steamid": 2300,
  "gogid": 1440161275,
  "gogslug": "doom_ii_final_doom",
  "humbleid": "",
  "humblestoreid": "",
  "humblestoreid_real": "",
  "script": {
    "exe": "zdoom",
    "files": [
      {
        "wad-data": "N/A:Select a Doom 2 WAD file"
      },
      {
        "zdoom64": "https://lutris.net/files/games/zdoom/zdoom-2.8pre-1887-g1070bd9-x86_64.tar.gz"
      }
    ],
    "installer": [
      {
        "merge": {
          "dst": "$GAMEDIR",
          "src": "wad-data"
        }
      },
      {
        "extract": {
          "dst": "$GAMEDIR",
          "file": "zdoom64"
        }
      }
    ]
  },
  "content": "exe: zdoom\nfiles:\n- wad-data: N/A:Select a Doom 2 WAD file\n- zdoom64: https://lutris.net/files/games/zdoom/zdoom-2.8pre-1887-g1070bd9-x86_64.tar.gz\ninstaller:\n- merge:\n    dst: $GAMEDIR\n    src: wad-data\n- extract:\n    dst: $GAMEDIR\n    file: zdoom64\n"
}