{
  "id": 23636,
  "game_id": 39074,
  "game_slug": "genshin-impact",
  "name": "Genshin Impact",
  "year": 2020,
  "user": "scrufulufugus",
  "runner": "wine",
  "slug": "genshin-impact-20200911204035",
  "version": "20200911204035",
  "description": null,
  "notes": "",
  "created_at": "2020-10-02T03:55:41.678345Z",
  "updated_at": "2020-10-02T03:55:41.678381Z",
  "draft": true,
  "published": false,
  "published_by": null,
  "rating": "",
  "steamid": null,
  "gogid": null,
  "gogslug": "",
  "humbleid": "",
  "humblestoreid": "",
  "humblestoreid_real": "",
  "script": {
    "files": [
      {
        "client": "https://ys-api-os.mihoyo.com/event/download_porter/link/ys_global/genshinimpactpc/default"
      }
    ],
    "game": {
      "arch": "win64",
      "exe": "drive_c/Program Files/Test.exe",
      "prefix": "$GAMEDIR"
    },
    "installer": [
      {
        "task": {
          "arch": "win64",
          "description": "Creating Wine prefix",
          "name": "create_prefix",
          "prefix": "$GAMEDIR"
        }
      },
      {
        "task": {
          "app": "corefonts",
          "arch": "win64",
          "name": "winetricks",
          "prefix": "$GAMEDIR"
        }
      },
      {
        "task": {
          "arch": "win64",
          "args": "/S",
          "description": "Installing client",
          "executable": "client",
          "name": "wineexec",
          "prefix": "$GAMEDIR"
        }
      }
    ],
    "system": {
      "env": {
        "DXVK_HUD": "0"
      }
    },
    "wine": {
      "dxvk": true,
      "esync": true,
      "overrides": {
        "nvapi,nvapi64": "disabled"
      },
      "version": "lutris-5.5-2-x86_64"
    }
  },
  "content": "files:\n- client: https://ys-api-os.mihoyo.com/event/download_porter/link/ys_global/genshinimpactpc/default\ngame:\n  arch: win64\n  exe: drive_c/Program Files/Test.exe\n  prefix: $GAMEDIR\ninstaller:\n- task:\n    arch: win64\n    description: Creating Wine prefix\n    name: create_prefix\n    prefix: $GAMEDIR\n- task:\n    app: corefonts\n    arch: win64\n    name: winetricks\n    prefix: $GAMEDIR\n- task:\n    arch: win64\n    args: /S\n    description: Installing client\n    executable: client\n    name: wineexec\n    prefix: $GAMEDIR\nsystem:\n  env:\n    DXVK_HUD: '0'\nwine:\n  dxvk: true\n  esync: true\n  overrides:\n    nvapi,nvapi64: disabled\n  version: lutris-5.5-2-x86_64\n"
}