{
  "name": "Alien Breed 3D",
  "slug": "alien-breed-3d",
  "year": 1995,
  "description": "Transported to a spectacular 3D environment, you must outwit the ferocious breed once more, but this time the added dimension of \"being there\" brings you even closer to the disgusting creatures than ever before! Featuring 16 huge game levels with a serial link option - play as a team or against each other!",
  "banner_url": "https://lutris.net/games/banner/alien-breed-3d.jpg",
  "icon_url": "",
  "is_public": true,
  "updated": "2019-01-23T08:28:18.483184Z",
  "provider_games": [],
  "steamid": null,
  "gogid": null,
  "gogslug": "",
  "humblestoreid": "",
  "id": 7647
}