{
  "name": "Guilty Gear X2 #Reload",
  "slug": "guilty-gear-x2-reload",
  "year": null,
  "description": "",
  "banner_url": "https://lutris.net/games/banner/guilty-gear-x2-reload.jpg",
  "icon_url": "https://lutris.net/games/icon/guilty-gear-x2-reload.png",
  "is_public": true,
  "updated": "2020-10-08T09:20:00.830996Z",
  "provider_games": [
    {
      "name": "Guilty Gear X2 #Reload",
      "slug": "1207658922",
      "service": "gog"
    },
    {
      "name": "Guilty Gear X2 #Reload",
      "slug": "314030",
      "service": "steam"
    }
  ],
  "steamid": 314030,
  "gogid": 1207658922,
  "gogslug": "guilty_gear_x2_reload",
  "humblestoreid": "",
  "id": 5999
}