{
  "name": "Exodus",
  "slug": "exodus",
  "year": null,
  "description": "",
  "banner_url": "https://lutris.net/games/banner/exodus.jpg",
  "icon_url": "https://lutris.net/games/icon/exodus.png",
  "is_public": true,
  "updated": "2020-10-08T09:20:00.660212Z",
  "provider_games": [
    {
      "name": "Exodus",
      "slug": "313960",
      "service": "steam"
    }
  ],
  "steamid": 313960,
  "gogid": null,
  "gogslug": "",
  "humblestoreid": "",
  "id": 8596
}