{
  "name": "HITMAN™: Sniper Assassin",
  "slug": "hitmantm-sniper-assassin",
  "year": null,
  "description": "",
  "banner_url": "https://lutris.net/games/banner/hitmantm-sniper-assassin.jpg",
  "icon_url": "https://lutris.net/games/icon/hitmantm-sniper-assassin.png",
  "is_public": true,
  "updated": "2020-10-08T09:58:07.711958Z",
  "provider_games": [
    {
      "name": "HITMAN™: Sniper Assassin",
      "slug": "783780",
      "service": "steam"
    }
  ],
  "steamid": 783780,
  "gogid": null,
  "gogslug": "",
  "humblestoreid": "",
  "id": 21137
}