{
  "name": "M.A.C.E.",
  "slug": "mace",
  "year": null,
  "description": "",
  "banner_url": "https://lutris.net/games/banner/mace.jpg",
  "icon_url": "https://lutris.net/games/icon/mace.png",
  "is_public": true,
  "updated": "2020-10-08T10:05:38.441145Z",
  "provider_games": [
    {
      "name": "M.A.C.E.",
      "slug": "555280",
      "service": "steam"
    }
  ],
  "steamid": 555280,
  "gogid": null,
  "gogslug": "",
  "humblestoreid": "",
  "id": 12409
}