{
  "name": "Blackjack In Space",
  "slug": "blackjack-in-space",
  "year": null,
  "description": "",
  "banner_url": "https://lutris.net/games/banner/blackjack-in-space.jpg",
  "icon_url": "https://lutris.net/games/icon/blackjack-in-space.png",
  "is_public": true,
  "updated": "2020-10-08T09:57:42.432481Z",
  "provider_games": [
    {
      "name": "Blackjack In Space",
      "slug": "805090",
      "service": "steam"
    }
  ],
  "steamid": 805090,
  "gogid": null,
  "gogslug": "",
  "humblestoreid": "",
  "id": 22731
}