{
  "name": "Bloodsports.TV",
  "slug": "bloodsportstv",
  "year": null,
  "description": "",
  "banner_url": "https://lutris.net/games/banner/bloodsportstv.jpg",
  "icon_url": "https://lutris.net/games/icon/bloodsportstv.png",
  "is_public": true,
  "updated": "2020-10-08T09:19:25.255123Z",
  "provider_games": [
    {
      "name": "Bloodsports.TV",
      "slug": "336420",
      "service": "steam"
    }
  ],
  "steamid": 336420,
  "gogid": null,
  "gogslug": "",
  "humblestoreid": "",
  "id": 4424
}