{
  "name": "Bloons Monkey City",
  "slug": "bloons-monkey-city",
  "year": null,
  "description": "",
  "banner_url": "https://lutris.net/games/banner/bloons-monkey-city.jpg",
  "icon_url": "https://lutris.net/games/icon/bloons-monkey-city.png",
  "is_public": true,
  "updated": "2020-10-08T09:55:50.688487Z",
  "provider_games": [
    {
      "name": "Bloons Monkey City",
      "slug": "1252780",
      "service": "steam"
    }
  ],
  "steamid": 1252780,
  "gogid": null,
  "gogslug": "",
  "humblestoreid": "",
  "id": 32719
}