{
  "name": "Equalizer",
  "slug": "equalizer",
  "year": null,
  "description": "",
  "banner_url": "https://lutris.net/games/banner/equalizer.jpg",
  "icon_url": "https://lutris.net/games/icon/equalizer.png",
  "is_public": true,
  "updated": "2020-10-08T10:09:24.347062Z",
  "provider_games": [
    {
      "name": "Equalizer",
      "slug": "666250",
      "service": "steam"
    }
  ],
  "steamid": 666250,
  "gogid": null,
  "gogslug": "",
  "humblestoreid": "",
  "id": 16996
}