{
  "name": "Galaxy Girls",
  "slug": "galaxy-girls",
  "year": null,
  "description": "",
  "banner_url": "https://lutris.net/games/banner/galaxy-girls.jpg",
  "icon_url": "https://lutris.net/games/icon/galaxy-girls.png",
  "is_public": true,
  "updated": "2019-01-23T08:29:37.111902Z",
  "provider_games": [
    {
      "name": "Galaxy Girls",
      "slug": "560250",
      "service": "steam"
    }
  ],
  "steamid": 560250,
  "gogid": null,
  "gogslug": "",
  "humblestoreid": "",
  "id": 18969
}