{
  "name": "Devil and the Fairy",
  "slug": "devil-and-the-fairy",
  "year": null,
  "description": "",
  "banner_url": "https://lutris.net/games/banner/devil-and-the-fairy.jpg",
  "icon_url": "https://lutris.net/games/icon/devil-and-the-fairy.png",
  "is_public": true,
  "updated": "2020-10-08T09:59:02.553186Z",
  "provider_games": [
    {
      "name": "Devil and the Fairy",
      "slug": "744750",
      "service": "steam"
    }
  ],
  "steamid": 744750,
  "gogid": null,
  "gogslug": "",
  "humblestoreid": "",
  "id": 22607
}