{
  "id": 21113,
  "game_id": 3509,
  "game_slug": "rex-nebular-and-the-cosmic-gender-bender",
  "name": "Rex Nebular and the Cosmic Gender Bender",
  "year": null,
  "user": "strider",
  "runner": "scummvm",
  "slug": "rex-nebular-and-the-cosmic-ge-gog",
  "version": "GOG",
  "description": "conditions.",
  "notes": "",
  "created_at": "2020-06-01T01:35:17.565000Z",
  "updated_at": "2020-06-01T01:36:56.659866Z",
  "draft": false,
  "published": true,
  "published_by": 1,
  "rating": "",
  "steamid": 328430,
  "gogid": 1207662113,
  "gogslug": "rex_nebular_and_the_cosmic_gender_bender",
  "humbleid": "",
  "humblestoreid": "",
  "humblestoreid_real": "",
  "script": {
    "files": [
      {
        "inno": "http://constexpr.org/innoextract/files/snapshots/innoextract-1.8-dev-2019-01-13/innoextract-1.8-dev-2019-01-13-linux.tar.xz"
      },
      {
        "gog": "N/A: Plese select the GOG.com installer"
      }
    ],
    "game": {
      "game_id": "nebular",
      "path": "$GAMEDIR"
    },
    "installer": [
      {
        "extract": {
          "dst": "$CACHE/innoextract",
          "file": "inno"
        }
      },
      {
        "execute": {
          "args": "--extract $gog --output-dir \"$GAMEDIR\"",
          "file": "$CACHE/innoextract/innoextract"
        }
      }
    ]
  },
  "content": "files:\n- inno: http://constexpr.org/innoextract/files/snapshots/innoextract-1.8-dev-2019-01-13/innoextract-1.8-dev-2019-01-13-linux.tar.xz\n- gog: 'N/A: Plese select the GOG.com installer'\ngame:\n  game_id: nebular\n  path: $GAMEDIR\ninstaller:\n- extract:\n    dst: $CACHE/innoextract\n    file: inno\n- execute:\n    args: --extract $gog --output-dir \"$GAMEDIR\"\n    file: $CACHE/innoextract/innoextract\n"
}