{
  "name": "5089: The Action RPG",
  "slug": "5089-the-action-rpg",
  "year": null,
  "description": "",
  "banner_url": "https://lutris.net/games/banner/5089-the-action-rpg.jpg",
  "icon_url": "https://lutris.net/games/icon/5089-the-action-rpg.png",
  "is_public": true,
  "updated": "2020-10-08T10:14:43.028378Z",
  "provider_games": [
    {
      "name": "5089: The Action RPG",
      "slug": "414510",
      "service": "steam"
    }
  ],
  "steamid": 414510,
  "gogid": null,
  "gogslug": "",
  "humblestoreid": "",
  "id": 7694
}