{
  "name": "Hatsune Miku VR / 初音ミク VR",
  "slug": "hatsune-miku-vr-vr",
  "year": null,
  "description": "",
  "banner_url": "https://lutris.net/games/banner/hatsune-miku-vr-vr.jpg",
  "icon_url": "https://lutris.net/games/icon/hatsune-miku-vr-vr.png",
  "is_public": true,
  "updated": "2020-10-08T10:00:47.906570Z",
  "provider_games": [
    {
      "name": "Hatsune Miku VR / 初音ミク VR",
      "slug": "707300",
      "service": "steam"
    }
  ],
  "steamid": 707300,
  "gogid": null,
  "gogslug": "",
  "humblestoreid": "",
  "id": 20792
}