{
  "name": "BrainPower",
  "slug": "brainpower",
  "year": null,
  "description": "",
  "banner_url": "https://lutris.net/games/banner/brainpower.jpg",
  "icon_url": "https://lutris.net/games/icon/brainpower.png",
  "is_public": true,
  "updated": "2020-10-08T10:08:35.841421Z",
  "provider_games": [
    {
      "name": "BrainPower",
      "slug": "826030",
      "service": "steam"
    }
  ],
  "steamid": 826030,
  "gogid": null,
  "gogslug": "",
  "humblestoreid": "",
  "id": 20089
}