{
  "name": "Iron Front : Liberation 1944",
  "slug": "iron-front-liberation-1944",
  "year": null,
  "description": "",
  "banner_url": "https://lutris.net/games/banner/iron-front-liberation-1944.jpg",
  "icon_url": "https://lutris.net/games/icon/iron-front-liberation-1944.png",
  "is_public": true,
  "updated": "2020-10-08T10:01:26.955451Z",
  "provider_games": [
    {
      "name": "Iron Front : Liberation 1944",
      "slug": "91330",
      "service": "steam"
    }
  ],
  "steamid": 91330,
  "gogid": null,
  "gogslug": "",
  "humblestoreid": "",
  "id": 4429
}