{
  "id": 17583,
  "game_id": 27728,
  "game_slug": "a-plague-tale-innocence",
  "name": "A Plague Tale: Innocence",
  "year": 2019,
  "user": "ludicoulus",
  "runner": "wine",
  "slug": "a-plague-tale-innocence-gog",
  "version": "GOG",
  "description": null,
  "notes": "",
  "created_at": "2019-12-26T18:36:37.247000Z",
  "updated_at": "2020-01-23T02:57:10.167772Z",
  "draft": false,
  "published": true,
  "published_by": 20548,
  "rating": "",
  "steamid": 752590,
  "gogid": 1901367087,
  "gogslug": "a_plague_tale_innocence",
  "humbleid": "",
  "humblestoreid": "",
  "humblestoreid_real": "",
  "script": {
    "files": [
      {
        "game": "N/A:Please select the GOG.com Windows installer."
      }
    ],
    "game": {
      "arch": "win64",
      "exe": "drive_c/GOG Games/A Plague Tale Innocence/Launch A Plague Tale - Innocence.lnk",
      "prefix": "$GAMEDIR"
    },
    "installer": [
      {
        "task": {
          "arch": "win64",
          "name": "create_prefix",
          "prefix": "$GAMEDIR"
        }
      },
      {
        "task": {
          "arch": "win64",
          "args": "/SP- /NOCANCEL /SILENT /SUPPRESSMSGBOXES /DIR=\"C:/GOG Games/A Plague Tale Innocence\"",
          "executable": "game",
          "name": "wineexec",
          "prefix": "$GAMEDIR"
        }
      }
    ],
    "wine": {
      "dxvk": true
    }
  },
  "content": "files:\n- game: N/A:Please select the GOG.com Windows installer.\ngame:\n  arch: win64\n  exe: drive_c/GOG Games/A Plague Tale Innocence/Launch A Plague Tale - Innocence.lnk\n  prefix: $GAMEDIR\ninstaller:\n- task:\n    arch: win64\n    name: create_prefix\n    prefix: $GAMEDIR\n- task:\n    arch: win64\n    args: /SP- /NOCANCEL /SILENT /SUPPRESSMSGBOXES /DIR=\"C:/GOG Games/A Plague Tale\n      Innocence\"\n    executable: game\n    name: wineexec\n    prefix: $GAMEDIR\nwine:\n  dxvk: true\n"
}