{
  "name": "Mahjong Gal 10-renpatsu",
  "slug": "mahjong-gal-10-renpatsu",
  "year": 1993,
  "description": "",
  "banner_url": "",
  "icon_url": "https://lutris.net/games/icon/mahjong-gal-10-renpatsu.png",
  "is_public": true,
  "updated": "2020-05-26T03:35:34.437503Z",
  "provider_games": [
    {
      "name": "Mahjong Gal 10-renpatsu",
      "slug": "gal10ren",
      "service": "mame"
    }
  ],
  "steamid": null,
  "gogid": null,
  "gogslug": "",
  "humblestoreid": "",
  "id": 34181
}