{
  "name": "Achievement Hunter: Overdose",
  "slug": "achievement-hunter-overdose",
  "year": null,
  "description": "",
  "banner_url": "https://lutris.net/games/banner/achievement-hunter-overdose.jpg",
  "icon_url": "https://lutris.net/games/icon/achievement-hunter-overdose.png",
  "is_public": false,
  "updated": "2019-01-23T08:28:11.175086Z",
  "provider_games": [],
  "steamid": 674110,
  "gogid": null,
  "gogslug": "",
  "humblestoreid": "",
  "id": 18324
}