{
  "name": "Atomic 79",
  "slug": "atomic-79",
  "year": null,
  "description": "",
  "banner_url": "https://lutris.net/games/banner/atomic-79.jpg",
  "icon_url": "https://lutris.net/games/icon/atomic-79.png",
  "is_public": true,
  "updated": "2020-10-08T10:05:16.662255Z",
  "provider_games": [
    {
      "name": "Atomic 79",
      "slug": "567370",
      "service": "steam"
    }
  ],
  "steamid": 567370,
  "gogid": null,
  "gogslug": "",
  "humblestoreid": "",
  "id": 13630
}