{
  "name": "Elemental Heroes",
  "slug": "elemental-heroes",
  "year": null,
  "description": "",
  "banner_url": "https://lutris.net/games/banner/elemental-heroes.jpg",
  "icon_url": "https://lutris.net/games/icon/elemental-heroes.png",
  "is_public": true,
  "updated": "2020-10-08T10:14:13.741771Z",
  "provider_games": [
    {
      "name": "Elemental Heroes",
      "slug": "432290",
      "service": "steam"
    }
  ],
  "steamid": 432290,
  "gogid": null,
  "gogslug": "",
  "humblestoreid": "",
  "id": 6029
}