{
  "name": "Jumping Pop",
  "slug": "jumping-pop-1",
  "year": 2001,
  "description": "",
  "banner_url": "",
  "icon_url": "https://lutris.net/games/icon/jumping-pop-1.png",
  "is_public": true,
  "updated": "2020-05-26T03:34:55.045043Z",
  "provider_games": [
    {
      "name": "Jumping Pop",
      "slug": "jumppop",
      "service": "mame"
    }
  ],
  "steamid": null,
  "gogid": null,
  "gogslug": "",
  "humblestoreid": "",
  "id": 34581
}