{
  "name": "ElectricVLab",
  "slug": "electricvlab",
  "year": null,
  "description": "",
  "banner_url": "https://lutris.net/games/banner/electricvlab.jpg",
  "icon_url": "https://lutris.net/games/icon/electricvlab.png",
  "is_public": true,
  "updated": "2020-10-08T09:58:37.022248Z",
  "provider_games": [
    {
      "name": "ElectricVLab",
      "slug": "760920",
      "service": "steam"
    }
  ],
  "steamid": 760920,
  "gogid": null,
  "gogslug": "",
  "humblestoreid": "",
  "id": 39160
}