{
  "id": 5623,
  "game_id": 5782,
  "game_slug": "lsd-dream-emulator",
  "name": "LSD: Dream Emulator",
  "year": 1998,
  "user": "maxlefou",
  "runner": "libretro",
  "slug": "lsd-dream-emulator-iso-bin",
  "version": "ISO .bin",
  "description": "",
  "notes": "",
  "created_at": "2017-09-08T07:45:28.603000Z",
  "updated_at": "2017-09-17T19:28:00.713799Z",
  "draft": false,
  "published": true,
  "published_by": null,
  "rating": "",
  "steamid": null,
  "gogid": null,
  "gogslug": "",
  "humbleid": "",
  "humblestoreid": "",
  "humblestoreid_real": "",
  "script": {
    "files": [
      {
        "cuefile": "N/A:Please select the PlayStation CUE file."
      },
      {
        "binfile": "N/A:Please select the PlayStation BIN file."
      }
    ],
    "game": {
      "core": "pcsx_rearmed",
      "main_file": "cuefile"
    },
    "installer": [
      {
        "merge": {
          "dst": "$GAMEDIR",
          "src": "binfile"
        }
      },
      {
        "merge": {
          "dst": "$GAMEDIR",
          "src": "cuefile"
        }
      }
    ]
  },
  "content": "files:\n- cuefile: N/A:Please select the PlayStation CUE file.\n- binfile: N/A:Please select the PlayStation BIN file.\ngame:\n  core: pcsx_rearmed\n  main_file: cuefile\ninstaller:\n- merge:\n    dst: $GAMEDIR\n    src: binfile\n- merge:\n    dst: $GAMEDIR\n    src: cuefile\n"
}