{
  "name": "Crystal Picnic",
  "slug": "crystal-picnic",
  "year": null,
  "description": "",
  "banner_url": "https://lutris.net/games/banner/crystal-picnic.jpg",
  "icon_url": "https://lutris.net/games/icon/crystal-picnic.png",
  "is_public": true,
  "updated": "2019-01-23T08:29:01.617772Z",
  "provider_games": [],
  "steamid": 415890,
  "gogid": null,
  "gogslug": "",
  "humblestoreid": "",
  "id": 5071
}