{
  "name": "Jade's Journey 2",
  "slug": "jades-journey-2",
  "year": null,
  "description": "",
  "banner_url": "https://lutris.net/games/banner/jades-journey-2.jpg",
  "icon_url": "https://lutris.net/games/icon/jades-journey-2.png",
  "is_public": true,
  "updated": "2020-10-08T10:04:01.916752Z",
  "provider_games": [
    {
      "name": "Jade's Journey 2",
      "slug": "607030",
      "service": "steam"
    }
  ],
  "steamid": 607030,
  "gogid": null,
  "gogslug": "",
  "humblestoreid": "",
  "id": 13104
}