{
  "name": "BalanCity",
  "slug": "balancity",
  "year": null,
  "description": "",
  "banner_url": "https://lutris.net/games/banner/balancity.jpg",
  "icon_url": "https://lutris.net/games/icon/balancity.png",
  "is_public": true,
  "updated": "2020-10-08T10:13:22.175569Z",
  "provider_games": [
    {
      "name": "BalanCity",
      "slug": "462680",
      "service": "steam"
    }
  ],
  "steamid": 462680,
  "gogid": null,
  "gogslug": "",
  "humblestoreid": "",
  "id": 9092
}