{
  "name": "Countless Rooms of Death",
  "slug": "countless-rooms-of-death",
  "year": null,
  "description": "",
  "banner_url": "https://lutris.net/games/banner/countless-rooms-of-death.jpg",
  "icon_url": "https://lutris.net/games/icon/countless-rooms-of-death.png",
  "is_public": true,
  "updated": "2020-10-08T09:19:15.629791Z",
  "provider_games": [
    {
      "name": "Countless Rooms of Death",
      "slug": "341380",
      "service": "steam"
    }
  ],
  "steamid": 341380,
  "gogid": null,
  "gogslug": "",
  "humblestoreid": "",
  "id": 8668
}