{
  "name": "Distant Space 2",
  "slug": "distant-space-2",
  "year": null,
  "description": "",
  "banner_url": "https://lutris.net/games/banner/distant-space-2.jpg",
  "icon_url": "https://lutris.net/games/icon/distant-space-2.png",
  "is_public": true,
  "updated": "2020-10-08T10:00:12.964478Z",
  "provider_games": [
    {
      "name": "Distant Space 2",
      "slug": "729460",
      "service": "steam"
    }
  ],
  "steamid": 729460,
  "gogid": null,
  "gogslug": "",
  "humblestoreid": "",
  "id": 17602
}