{
  "name": "Eador. Masters of the Broken World",
  "slug": "eador-masters-of-the-broken-world",
  "year": null,
  "description": "",
  "banner_url": "https://lutris.net/games/banner/eador-masters-of-the-broken-world.jpg",
  "icon_url": "https://lutris.net/games/icon/eador-masters-of-the-broken-world.png",
  "is_public": true,
  "updated": "2020-05-31T00:17:41.052940Z",
  "provider_games": [
    {
      "name": "Eador. Masters of the Broken World",
      "slug": "1207659194",
      "service": "gog"
    },
    {
      "name": "Eador. Masters of the Broken World",
      "slug": "232050",
      "service": "steam"
    }
  ],
  "steamid": 232050,
  "gogid": 1207659194,
  "gogslug": "eador_masters_of_the_broken_world",
  "humblestoreid": "",
  "id": 495
}