{
  "name": "Age of Gladiators II: Death League",
  "slug": "age-of-gladiators-ii-death-league",
  "year": null,
  "description": "",
  "banner_url": "https://lutris.net/games/banner/age-of-gladiators-ii-death-league.jpg",
  "icon_url": "https://lutris.net/games/icon/age-of-gladiators-ii-death-league.png",
  "is_public": true,
  "updated": "2020-10-08T10:10:29.189682Z",
  "provider_games": [
    {
      "name": "Age of Gladiators II: Death League",
      "slug": "639300",
      "service": "steam"
    }
  ],
  "steamid": 639300,
  "gogid": null,
  "gogslug": "",
  "humblestoreid": "",
  "id": 16645
}