{
  "name": "HENTAI SNIPER: Middle East",
  "slug": "hentai-sniper-middle-east",
  "year": null,
  "description": "",
  "banner_url": "https://lutris.net/games/banner/hentai-sniper-middle-east.jpg",
  "icon_url": "https://lutris.net/games/icon/hentai-sniper-middle-east.png",
  "is_public": true,
  "updated": "2020-10-08T09:18:39.512733Z",
  "provider_games": [
    {
      "name": "HENTAI SNIPER: Middle East",
      "slug": "1190110",
      "service": "steam"
    }
  ],
  "steamid": 1190110,
  "gogid": null,
  "gogslug": "",
  "humblestoreid": "",
  "id": 31901
}