{
  "name": "Law & Order: Legacies",
  "slug": "law-order-legacies",
  "year": null,
  "description": "",
  "banner_url": "https://lutris.net/games/banner/law-order-legacies.jpg",
  "icon_url": "https://lutris.net/games/icon/law-order-legacies.png",
  "is_public": true,
  "updated": "2020-10-08T09:54:48.070077Z",
  "provider_games": [
    {
      "name": "Law & Order: Legacies",
      "slug": "205330",
      "service": "steam"
    }
  ],
  "steamid": 205330,
  "gogid": null,
  "gogslug": "",
  "humblestoreid": "",
  "id": 8662
}