{
  "name": "Delivery From The Pain",
  "slug": "delivery-from-the-pain",
  "year": null,
  "description": "",
  "banner_url": "https://lutris.net/games/banner/delivery-from-the-pain.jpg",
  "icon_url": "https://lutris.net/games/icon/delivery-from-the-pain.png",
  "is_public": true,
  "updated": "2020-10-08T10:08:56.071654Z",
  "provider_games": [
    {
      "name": "Delivery From The Pain",
      "slug": "685340",
      "service": "steam"
    }
  ],
  "steamid": 685340,
  "gogid": null,
  "gogslug": "",
  "humblestoreid": "",
  "id": 31377
}