{
  "name": "Mad Experiments: Escape Room",
  "slug": "mad-experiments-escape-room",
  "year": null,
  "description": "",
  "banner_url": "https://lutris.net/games/banner/mad-experiments-escape-room.jpg",
  "icon_url": "https://lutris.net/games/icon/mad-experiments-escape-room.png",
  "is_public": true,
  "updated": "2020-10-08T09:18:27.233195Z",
  "provider_games": [
    {
      "name": "Mad Experiments: Escape Room",
      "slug": "1201550",
      "service": "steam"
    }
  ],
  "steamid": 1201550,
  "gogid": null,
  "gogslug": "",
  "humblestoreid": "",
  "id": 38393
}