{
  "name": "Alone in the Dark 3",
  "slug": "alone-in-the-dark-3",
  "year": 1994,
  "description": "After surviving through two encounters with the supernatural in Derceto and Hell's Kitchen, detective Edward Carnby is ready for another round of being Alone in the Dark.\r\n\r\nIn the third game in the series, we learn that Emily Hartwood (the other main character from the original game) started a career in Hollywood movies after surviving her ordeal in Derceto. Her latest project is a spaghetti western being filmed in an abandoned western ghost town called Slaughter Gultch, which rests precariously on the edge of the San Andreas fault. Originally a gold town set up rather rudely on ancient Indian sacred ground, Slaughter Gultch was founded by a man named Jebediah Stone and run by his own private army of cold-blooded killers. Stone and his men were killed by angry villagers led by the local Blacksmith, and the town was abandoned soon after. Unfortunately, Emily's crew disturbs the spirits of Stone and his men, who promptly return to the world of the living and proceed to kill off the film crew one by one.\r\n\r\nCarnby is called to Slaughter Gultch after learning of the disappearance of Emily and her crew, and is soon met by Stone's Zombie Cowboy gang. Armed with various western paraphenalia such as colt peacemakers, bullwhips, and even a gatling gun, Carnby must fight his way through Stone's minions and discover Emily's fate. Along the way he learns some surprising things about Stone's origin, as well as a sinister plan interrupted by his death which involved the destruction of the west coast and which Stone can now pursue once again.",
  "banner_url": "https://lutris.net/games/banner/alone-in-the-dark-3.jpg",
  "icon_url": "https://lutris.net/games/icon/alone-in-the-dark-3.png",
  "is_public": true,
  "updated": "2020-05-31T00:17:34.044435Z",
  "provider_games": [
    {
      "name": "Alone in the Dark 3",
      "slug": "1207660973",
      "service": "gog"
    }
  ],
  "steamid": null,
  "gogid": 1207660973,
  "gogslug": "alone_in_the_dark",
  "humblestoreid": "",
  "id": 29152
}