{
  "id": 14427,
  "game_id": 7712,
  "game_slug": "a-hat-in-time",
  "name": "A Hat in Time",
  "year": 2017,
  "user": "Sentry",
  "runner": "steam",
  "slug": "a-hat-in-time-proton",
  "version": "Proton",
  "description": null,
  "notes": "",
  "created_at": "2019-07-05T22:40:50.203671Z",
  "updated_at": "2020-03-12T16:33:24.154134Z",
  "draft": false,
  "published": true,
  "published_by": null,
  "rating": "",
  "steamid": 253230,
  "gogid": 1686426343,
  "gogslug": "a_hat_in_time",
  "humbleid": "",
  "humblestoreid": "",
  "humblestoreid_real": "",
  "script": {
    "game": {
      "appid": 253230
    }
  },
  "content": "game:\r\n  appid: 253230"
}