{
  "name": "Dr. Bulbaceous",
  "slug": "dr-bulbaceous",
  "year": 2013,
  "description": "Descend through 100 levels of challenging puzzle mayhem in a quest to defeat the big bad boss at the bottom of the bottom most well. Fans of Uo Poko, Puzzle Bubble and Bust-a-move will enjoy Dr. B or be prosecutedt to the full extent of the jam.\r\n\r\n As Dr. B, you have the official task of cleaning the wells of Bulbville by matching 3 or more bulbs of the same colour. If you play well, you get Cookies that allow you to \"cheat\" by buying strange balls from the Swap Shop but by using these balls to clear a well, you get less cookies for each level cleared. What do you do?!\r\n\r\n There is, of course, an end of level boss waiting for you down the dankest level of the 100th well but don't tell them I said that!",
  "banner_url": "https://lutris.net/games/banner/dr-bulbaceous.jpg",
  "icon_url": "https://lutris.net/games/icon/dr-bulbaceous.png",
  "is_public": true,
  "updated": "2019-07-01T07:26:21.392734Z",
  "provider_games": [
    {
      "name": "Dr. Bulbaceous",
      "slug": "388540",
      "service": "steam"
    }
  ],
  "steamid": 388540,
  "gogid": null,
  "gogslug": "",
  "humblestoreid": "",
  "id": 7093
}