{
  "id": 5213,
  "game_id": 7941,
  "game_slug": "magicians-apprentice",
  "name": "Magician's Apprentice",
  "year": null,
  "user": "FakeShemp",
  "runner": "wine",
  "slug": "magicians-apprentice-groupees",
  "version": "Groupees",
  "description": "",
  "notes": "",
  "created_at": "2017-07-26T08:28:31.376000Z",
  "updated_at": "2018-05-19T03:41:57.612562Z",
  "draft": false,
  "published": true,
  "published_by": null,
  "rating": "",
  "steamid": 397360,
  "gogid": null,
  "gogslug": "",
  "humbleid": "",
  "humblestoreid": "",
  "humblestoreid_real": "",
  "script": {
    "files": [
      {
        "file1": "N/A:Please select the Groupees installer"
      }
    ],
    "game": {
      "arch": "win32",
      "exe": "drive_c/Program Files/Magician's Apprentice/Magician's Apprentice.exe",
      "prefix": "$GAMEDIR"
    },
    "installer": [
      {
        "task": {
          "args": "/S",
          "executable": "$file1",
          "name": "wineexec",
          "prefix": "$GAMEDIR"
        }
      }
    ]
  },
  "content": "files:\n- file1: N/A:Please select the Groupees installer\ngame:\n  arch: win32\n  exe: drive_c/Program Files/Magician's Apprentice/Magician's Apprentice.exe\n  prefix: $GAMEDIR\ninstaller:\n- task:\n    args: /S\n    executable: $file1\n    name: wineexec\n    prefix: $GAMEDIR\n"
}