{
  "name": "Chaos",
  "slug": "chaos",
  "year": null,
  "description": "",
  "banner_url": "https://lutris.net/games/banner/chaos.jpg",
  "icon_url": "",
  "is_public": true,
  "updated": "2020-08-31T13:19:29.405713Z",
  "provider_games": [],
  "steamid": null,
  "gogid": null,
  "gogslug": "",
  "humblestoreid": "",
  "id": 37385
}