{
  "name": "Chronostorm: Siberian Border",
  "slug": "chronostorm-siberian-border",
  "year": null,
  "description": "",
  "banner_url": "https://lutris.net/games/banner/chronostorm-siberian-border.jpg",
  "icon_url": "https://lutris.net/games/icon/chronostorm-siberian-border.png",
  "is_public": true,
  "updated": "2020-10-08T10:16:16.943280Z",
  "provider_games": [
    {
      "name": "Chronostorm: Siberian Border",
      "slug": "361890",
      "service": "steam"
    }
  ],
  "steamid": 361890,
  "gogid": null,
  "gogslug": "",
  "humblestoreid": "",
  "id": 12473
}