{
  "name": "Battlefield: Bad Company 2",
  "slug": "battlefield-bad-company-2",
  "year": 2010,
  "description": "Battlefield: Bad Company 2™ brings the award-winning Battlefield gameplay to the forefront of PC gaming with best-in-class vehicular combat and unexpected \"Battlefield moments.\"\r\n\r\nNew vehicles like the ATV and a transport helicopter allow for all-new multiplayer tactics on the Battlefield. With the Frostbite-enabled Destruction 2.0 system, you can take down entire buildings and create your own fire points by blasting holes through cover. You can also compete in four-player teams in two squad-only game modes, fighting together to unlock exclusive awards and achievements.\r\n\r\nBattles are set across expansive maps, each with a different tactical focus. The game also sees the return of the B Company squad in a more mature single-player campaign.",
  "banner_url": "https://lutris.net/games/banner/battlefield-bad-company-2.jpg",
  "icon_url": "https://lutris.net/games/icon/battlefield-bad-company-2.png",
  "is_public": true,
  "updated": "2019-01-23T08:28:32.922185Z",
  "provider_games": [
    {
      "name": "Battlefield: Bad Company™ 2",
      "slug": "24960",
      "service": "steam"
    }
  ],
  "steamid": 24960,
  "gogid": null,
  "gogslug": "",
  "humblestoreid": "",
  "id": 617
}