{
  "name": "Hidden & Dangerous",
  "slug": "hidden-dangerous",
  "year": 1999,
  "description": "The year is 1941. Your special forces team has been shot\r\ndown deep inside enemy territory and it's now reliant on\r\nyour cunning and tactical thinking to get them safely\r\nacross the border. The odds are stacked against you.\r\nHave you got what it takes?\r\n\r\nPRODUCT FEATURES\r\n\r\n    Immersive story through 20 diverse missions\r\n    Conduct covert operations behind enemy lines\r\n    Intense 1st person action\r\n    Intelligent AI - carelessness costs lives\r\n    as enemies hear you, see you and even\r\n    chase you!\r\n    Make use of the arsenal of weapons available\r\n    to complete your objectives",
  "banner_url": "https://lutris.net/games/banner/hidden-dangerous.jpg",
  "icon_url": "",
  "is_public": false,
  "updated": "2020-04-28T16:10:16.452295Z",
  "provider_games": [],
  "steamid": null,
  "gogid": null,
  "gogslug": "",
  "humblestoreid": "",
  "id": 32795
}