{
  "name": "Magical Brickout",
  "slug": "magical-brickout",
  "year": null,
  "description": "",
  "banner_url": "https://lutris.net/games/banner/magical-brickout.jpg",
  "icon_url": "https://lutris.net/games/icon/magical-brickout.png",
  "is_public": true,
  "updated": "2019-01-23T08:30:15.512733Z",
  "provider_games": [
    {
      "name": "Magical Brickout",
      "slug": "384940",
      "service": "steam"
    }
  ],
  "steamid": 384940,
  "gogid": null,
  "gogslug": "",
  "humblestoreid": "",
  "id": 6238
}