{
  "name": "Awesome Metal Detecting",
  "slug": "awesome-metal-detecting",
  "year": null,
  "description": "",
  "banner_url": "https://lutris.net/games/banner/awesome-metal-detecting.jpg",
  "icon_url": "https://lutris.net/games/icon/awesome-metal-detecting.png",
  "is_public": true,
  "updated": "2020-10-08T10:04:49.503941Z",
  "provider_games": [
    {
      "name": "Awesome Metal Detecting",
      "slug": "582810",
      "service": "steam"
    }
  ],
  "steamid": 582810,
  "gogid": null,
  "gogslug": "",
  "humblestoreid": "",
  "id": 22394
}