{
  "name": "Buck Rogers: Planet of Zoom",
  "slug": "buck-rogers-planet-of-zoom",
  "year": 1982,
  "description": "It's the 25th Century. You are Buck Rogers fighting the battle of Planet Zoom. Skillfully slip through zapping electron posts. Dodge and destroy deadly space hoppers and alien saucers. Your race against death has just begun! Prepare for battle with your most powerful enemy... the Mother Ship! It's never easy when it's do or die. You must hit the Mother Ship with two deadly shots. Anything less will only waste precious time. Aim steady, but hurry ... your time is dangerously low!",
  "banner_url": "https://lutris.net/games/banner/buck-rogers-planet-of-zoom.jpg",
  "icon_url": "https://lutris.net/games/icon/buck-rogers-planet-of-zoom.png",
  "is_public": true,
  "updated": "2020-05-26T03:32:28.921485Z",
  "provider_games": [
    {
      "name": "Buck Rogers: Planet of Zoom",
      "slug": "buckrog",
      "service": "mame"
    }
  ],
  "steamid": null,
  "gogid": null,
  "gogslug": "",
  "humblestoreid": "",
  "id": 12108
}