{
  "name": "F-Zero GP Legend",
  "slug": "f-zero-gp-legend",
  "year": 2003,
  "description": "The F-Zero series expands another level. The high speed racer has a new set of tracks to master, through Grand Prix, Time Trial and Challenge modes. You can take to the track as the famed Captain Falcon or many other heroes of the series, including a new character naming himself Rick Wheeler. Four players can also compete against each other using one game pak.",
  "banner_url": "https://lutris.net/games/banner/f-zero-gp-legend.jpg",
  "icon_url": "",
  "is_public": false,
  "updated": "2020-09-07T19:40:48.442083Z",
  "provider_games": [],
  "steamid": null,
  "gogid": null,
  "gogslug": "",
  "humblestoreid": "",
  "id": 38700
}