{
  "name": "Bomberman 64",
  "slug": "bomberman-64",
  "year": 1997,
  "description": "",
  "banner_url": "https://lutris.net/games/banner/bomberman-64.jpg",
  "icon_url": "",
  "is_public": true,
  "updated": "2019-01-23T08:28:39.981415Z",
  "provider_games": [],
  "steamid": null,
  "gogid": null,
  "gogslug": "",
  "humblestoreid": "",
  "id": 13763
}