{
  "name": "Do you know de way",
  "slug": "do-you-know-de-way",
  "year": null,
  "description": "",
  "banner_url": "https://lutris.net/games/banner/do-you-know-de-way.jpg",
  "icon_url": "https://lutris.net/games/icon/do-you-know-de-way.png",
  "is_public": true,
  "updated": "2020-10-08T09:57:40.987076Z",
  "provider_games": [
    {
      "name": "Do you know de way",
      "slug": "805870",
      "service": "steam"
    }
  ],
  "steamid": 805870,
  "gogid": null,
  "gogslug": "",
  "humblestoreid": "",
  "id": 25491
}