{
  "name": "Happy Jackie",
  "slug": "happy-jackie",
  "year": 1993,
  "description": "",
  "banner_url": "",
  "icon_url": "https://lutris.net/games/icon/happy-jackie.png",
  "is_public": true,
  "updated": "2020-05-26T03:34:27.480886Z",
  "provider_games": [
    {
      "name": "Happy Jackie",
      "slug": "jackie",
      "service": "mame"
    }
  ],
  "steamid": null,
  "gogid": null,
  "gogslug": "",
  "humblestoreid": "",
  "id": 34519
}