{
  "id": 8379,
  "game_id": 16,
  "game_slug": "unreal-gold",
  "name": "Unreal Gold",
  "year": 1998,
  "user": "parkerlreed",
  "runner": "linux",
  "slug": "unreal-gold-mesa-fixes",
  "version": "Mesa Fixes",
  "description": "Extension script to make Unreal Gold run on up to date Mesa plus fix audio (Works on Arch and possibly others)",
  "notes": "Mesa fix: Removed libgcc* and libstdc++* from the lib/s folder\r\n\r\nAudio fix: Set the ALSA output device and correct the FMod number. \r\n\r\nNote: Rerun this script any time after changing settings (fixes crash from wrong audio device)",
  "created_at": "2018-05-22T17:50:27.500000Z",
  "updated_at": "2019-04-12T17:37:19.589019Z",
  "draft": false,
  "published": true,
  "published_by": 1,
  "rating": "",
  "steamid": 13250,
  "gogid": 1207658679,
  "gogslug": "unreal_gold",
  "humbleid": "",
  "humblestoreid": "",
  "humblestoreid_real": "",
  "script": {
    "extends": "unreal-gold",
    "installer": [
      {
        "write_config": {
          "file": "$GAMEDIR/System/UnrealLinux.ini",
          "key": "ALDevices",
          "section": "ALAudio.ALAudioSubsystem",
          "value": "ALSASoftware"
        }
      },
      {
        "write_config": {
          "file": "$GAMEDIR/System/UnrealLinux.ini",
          "key": "FMODDevices",
          "section": "ALAudio.ALAudioSubsystem",
          "value": 27
        }
      },
      {
        "execute": {
          "command": "rm -f $GAMEDIR/lib/libstdc++.a"
        }
      },
      {
        "execute": {
          "command": "rm -f $GAMEDIR/lib/libstdc++.la"
        }
      },
      {
        "execute": {
          "command": "rm -f $GAMEDIR/lib/libstdc++.so"
        }
      },
      {
        "execute": {
          "command": "rm -f $GAMEDIR/lib/libstdc++.so.6"
        }
      },
      {
        "execute": {
          "command": "rm -f $GAMEDIR/lib/libstdc++.so.6.0.8"
        }
      },
      {
        "execute": {
          "command": "rm -f $GAMEDIR/lib/libgcc_s.so"
        }
      },
      {
        "execute": {
          "command": "rm -f $GAMEDIR/lib/libgcc_s.so.1"
        }
      }
    ]
  },
  "content": "extends: unreal-gold\ninstaller:\n- write_config:\n    file: $GAMEDIR/System/UnrealLinux.ini\n    key: ALDevices\n    section: ALAudio.ALAudioSubsystem\n    value: ALSASoftware\n- write_config:\n    file: $GAMEDIR/System/UnrealLinux.ini\n    key: FMODDevices\n    section: ALAudio.ALAudioSubsystem\n    value: 27\n- execute:\n    command: rm -f $GAMEDIR/lib/libstdc++.a\n- execute:\n    command: rm -f $GAMEDIR/lib/libstdc++.la\n- execute:\n    command: rm -f $GAMEDIR/lib/libstdc++.so\n- execute:\n    command: rm -f $GAMEDIR/lib/libstdc++.so.6\n- execute:\n    command: rm -f $GAMEDIR/lib/libstdc++.so.6.0.8\n- execute:\n    command: rm -f $GAMEDIR/lib/libgcc_s.so\n- execute:\n    command: rm -f $GAMEDIR/lib/libgcc_s.so.1\n"
}