{
  "id": 6461,
  "game_id": 14975,
  "game_slug": "tomba",
  "name": "Tomba!",
  "year": 1997,
  "user": "maxlefou",
  "runner": "libretro",
  "slug": "tomba-iso-bin",
  "version": "iso BIN",
  "description": null,
  "notes": "",
  "created_at": "2017-11-28T21:52:21.571279Z",
  "updated_at": "2017-11-30T20:37:22.081386Z",
  "draft": false,
  "published": true,
  "published_by": null,
  "rating": "",
  "steamid": null,
  "gogid": null,
  "gogslug": "",
  "humbleid": "",
  "humblestoreid": "",
  "humblestoreid_real": "",
  "script": {
    "files": [
      {
        "cuefile": "N/A:Please select the PlayStation CUE file."
      },
      {
        "binfile": "N/A:Please select the PlayStation BIN file."
      }
    ],
    "game": {
      "core": "pcsx_rearmed",
      "main_file": "cuefile"
    },
    "installer": [
      {
        "merge": {
          "dst": "$GAMEDIR",
          "src": "binfile"
        }
      },
      {
        "merge": {
          "dst": "$GAMEDIR",
          "src": "cuefile"
        }
      }
    ]
  },
  "content": "files:\r\n- cuefile: N/A:Please select the PlayStation CUE file.\r\n- binfile: N/A:Please select the PlayStation BIN file.\r\ngame:\r\n  core: pcsx_rearmed\r\n  main_file: cuefile\r\ninstaller:\r\n- merge:\r\n    dst: $GAMEDIR\r\n    src: binfile\r\n- merge:\r\n    dst: $GAMEDIR\r\n    src: cuefile"
}