{
  "name": "Dim: A Light In The Dark",
  "slug": "dim-a-light-in-the-dark",
  "year": 2019,
  "description": "Dim is a atmospheric puzzle game.\r\nExplore your way trough the factory by tricking the machines and solving difficult situations.\r\n\r\nFirst came the dark black clouds, covering the once blue and lightful sky. Then the gray snow started to fall and never ended. It raised into a cold and deadly storm. Darkness and isolation followed.",
  "banner_url": "https://lutris.net/games/banner/dim-a-light-in-the-dark.jpg",
  "icon_url": "",
  "is_public": true,
  "updated": "2020-04-17T08:17:44.060203Z",
  "provider_games": [],
  "steamid": null,
  "gogid": null,
  "gogslug": "",
  "humblestoreid": "",
  "id": 31235
}