{
  "name": "Luckslinger",
  "slug": "luckslinger",
  "year": null,
  "description": "",
  "banner_url": "https://lutris.net/games/banner/luckslinger.jpg",
  "icon_url": "https://lutris.net/games/icon/luckslinger.png",
  "is_public": true,
  "updated": "2020-10-08T10:16:22.304383Z",
  "provider_games": [
    {
      "name": "Luckslinger",
      "slug": "358810",
      "service": "steam"
    }
  ],
  "steamid": 358810,
  "gogid": null,
  "gogslug": "",
  "humblestoreid": "",
  "id": 5872
}