{
  "name": "Battle Mages",
  "slug": "battle-mages",
  "year": null,
  "description": "",
  "banner_url": "https://lutris.net/games/banner/battle-mages.jpg",
  "icon_url": "https://lutris.net/games/icon/battle-mages.png",
  "is_public": true,
  "updated": "2020-10-08T09:20:13.571304Z",
  "provider_games": [
    {
      "name": "Battle Mages",
      "slug": "302470",
      "service": "steam"
    }
  ],
  "steamid": 302470,
  "gogid": null,
  "gogslug": "",
  "humblestoreid": "",
  "id": 11495
}