{
  "name": "Evil Islands - Curse of the Lost Soul",
  "slug": "evil-islands",
  "year": 2001,
  "description": "",
  "banner_url": "https://lutris.net/games/banner/evil-islands.jpg",
  "icon_url": "",
  "is_public": true,
  "updated": "2020-05-31T00:17:41.828084Z",
  "provider_games": [
    {
      "name": "Evil Islands",
      "slug": "1457950224",
      "service": "gog"
    }
  ],
  "steamid": null,
  "gogid": 1457950224,
  "gogslug": "evil_islands",
  "humblestoreid": "",
  "id": 24144
}