{
  "name": "Diamond Dan",
  "slug": "diamond-dan",
  "year": null,
  "description": "",
  "banner_url": "https://lutris.net/games/banner/diamond-dan.jpg",
  "icon_url": "https://lutris.net/games/icon/diamond-dan.png",
  "is_public": true,
  "updated": "2020-10-08T10:01:51.453067Z",
  "provider_games": [
    {
      "name": "Diamond Dan",
      "slug": "70500",
      "service": "steam"
    }
  ],
  "steamid": 70500,
  "gogid": null,
  "gogslug": "",
  "humblestoreid": "",
  "id": 2229
}