{
  "name": "Klang",
  "slug": "klang",
  "year": null,
  "description": "",
  "banner_url": "https://lutris.net/games/banner/klang.jpg",
  "icon_url": "https://lutris.net/games/icon/klang.png",
  "is_public": true,
  "updated": "2020-10-08T10:14:46.800966Z",
  "provider_games": [
    {
      "name": "Klang",
      "slug": "412660",
      "service": "steam"
    }
  ],
  "steamid": 412660,
  "gogid": null,
  "gogslug": "",
  "humblestoreid": "",
  "id": 14905
}