{
  "id": 1785,
  "game_id": 117,
  "game_slug": "hexen-deathkings-of-the-dark-citadel",
  "name": "HeXen: Deathkings of the Dark Citadel",
  "year": 1996,
  "user": "strider",
  "runner": "linux",
  "slug": "hexen-deathkings-of-the-dark-native-steam-data-64",
  "version": "Native + Steam data (64bit)",
  "description": "",
  "notes": "",
  "created_at": "2015-12-29T01:03:26.113980Z",
  "updated_at": "2015-12-29T01:03:56.462441Z",
  "draft": false,
  "published": true,
  "published_by": null,
  "rating": "",
  "steamid": 2370,
  "gogid": null,
  "gogslug": "",
  "humbleid": "",
  "humblestoreid": "",
  "humblestoreid_real": "",
  "script": {
    "exe": "zdoom",
    "files": [
      {
        "wad-data": "$STEAM:2370:base"
      },
      {
        "zdoom64": "https://lutris.net/files/games/zdoom/zdoom-2.8pre-1887-g1070bd9-x86_64.tar.gz"
      }
    ],
    "installer": [
      {
        "merge": {
          "dst": "$GAMEDIR",
          "src": "wad-data"
        }
      },
      {
        "extract": {
          "dst": "$GAMEDIR",
          "file": "zdoom64"
        }
      }
    ]
  },
  "content": "exe: zdoom\nfiles:\n- wad-data: $STEAM:2370:base\n- zdoom64: https://lutris.net/files/games/zdoom/zdoom-2.8pre-1887-g1070bd9-x86_64.tar.gz\ninstaller:\n- merge:\n    dst: $GAMEDIR\n    src: wad-data\n- extract:\n    dst: $GAMEDIR\n    file: zdoom64\n"
}