{
  "name": "Command Ops 2",
  "slug": "command-ops-2",
  "year": null,
  "description": "",
  "banner_url": "https://lutris.net/games/banner/command-ops-2.jpg",
  "icon_url": "https://lutris.net/games/icon/command-ops-2.png",
  "is_public": true,
  "updated": "2020-10-08T10:06:41.399472Z",
  "provider_games": [
    {
      "name": "Command Ops 2",
      "slug": "521800",
      "service": "steam"
    }
  ],
  "steamid": 521800,
  "gogid": null,
  "gogslug": "",
  "humblestoreid": "",
  "id": 12280
}