{
  "name": "Dekaron online",
  "slug": "dekaron-online",
  "year": 2008,
  "description": "Dekaron is a fantasy MMORPG taking place on the fictional planet of Trieste which has two moons. The universe is based on the European culture in the Middle Ages. In a final effort to turn the tides in a war with the gods the humans unleashed creatures from the underworld. These creatures defeated the gods but could ultimately not be controlled and turned on the humans. The game offers several character classes to choose from. The classes are:\r\n\r\n    Aloken: a spear fighter able to cast power raising spells for allies;\r\n    Azure Knight: a knight using either a one-handed weapon and shield or a two-handed weapon;\r\n    Bagi Warrior: a warrior with magic resistance, great stamina and strength;\r\n    Black Wizard: an Incar Magician who specializes in black magic;\r\n    Concerra: a type of summoner;\r\n    Dragon Knight: a melee fighter able to use seal force;\r\n    Half Bagi: a half Bagi half human with great stamina using rage in battle;\r\n    Incar Magician: an elemental mage who uses fire, ice and lighting spells;\r\n    Segeuriper: a class that practices vampirism;\r\n    Segita Hunter: a class using bow, crossbows and daggers;\r\n    Sengale: able to cast healing spells and curses;\r\n    Vicious Summoner: spell casters who summon minions to aid them, and use either a staff or dual sword.\r\n\r\nThe games puts the focus on PvP and has fast-paced battles.",
  "banner_url": "https://lutris.net/games/banner/dekaron-online.jpg",
  "icon_url": "",
  "is_public": false,
  "updated": "2020-10-25T08:39:43.454069Z",
  "provider_games": [],
  "steamid": null,
  "gogid": null,
  "gogslug": "",
  "humblestoreid": "",
  "id": 39996
}