{
  "name": "Cosmic Rochambo",
  "slug": "cosmic-rochambo",
  "year": 2017,
  "description": "A game of cosmic battle. Ram your opponent out of the ring, into oblivion. Attack? Parry? Dodge? Ro-Cham-Bo.",
  "banner_url": "https://lutris.net/games/banner/cosmic-rochambo.jpg",
  "icon_url": "",
  "is_public": false,
  "updated": "2020-09-09T19:37:36.573917Z",
  "provider_games": [],
  "steamid": null,
  "gogid": null,
  "gogslug": "",
  "humblestoreid": "",
  "id": 38738
}