{
  "name": "Dumb Stone",
  "slug": "dumb-stone",
  "year": null,
  "description": "",
  "banner_url": "https://lutris.net/games/banner/dumb-stone.jpg",
  "icon_url": "https://lutris.net/games/icon/dumb-stone.png",
  "is_public": true,
  "updated": "2020-10-08T10:01:09.054861Z",
  "provider_games": [
    {
      "name": "Dumb Stone",
      "slug": "693050",
      "service": "steam"
    }
  ],
  "steamid": 693050,
  "gogid": null,
  "gogslug": "",
  "humblestoreid": "",
  "id": 14645
}