{
  "name": "FINAL TAKE",
  "slug": "final-take",
  "year": null,
  "description": "",
  "banner_url": "https://lutris.net/games/banner/final-take.jpg",
  "icon_url": "https://lutris.net/games/icon/final-take.png",
  "is_public": true,
  "updated": "2020-10-08T10:15:09.500243Z",
  "provider_games": [
    {
      "name": "FINAL TAKE",
      "slug": "400510",
      "service": "steam"
    }
  ],
  "steamid": 400510,
  "gogid": null,
  "gogslug": "",
  "humblestoreid": "",
  "id": 8897
}