{
  "name": "Box Maze - Cubert Friends Skins Pack",
  "slug": "box-maze-cubert-friends-skins-pack",
  "year": null,
  "description": "",
  "banner_url": "https://lutris.net/games/banner/box-maze-cubert-friends-skins-pack.jpg",
  "icon_url": "https://lutris.net/games/icon/box-maze-cubert-friends-skins-pack.png",
  "is_public": true,
  "updated": "2020-10-08T10:06:20.441532Z",
  "provider_games": [
    {
      "name": "Box Maze - Cubert Friends Skins Pack",
      "slug": "532050",
      "service": "steam"
    }
  ],
  "steamid": 532050,
  "gogid": null,
  "gogslug": "",
  "humblestoreid": "",
  "id": 12370
}