{
  "name": "Championship Manager 2008",
  "slug": "championship-manager-2008",
  "year": null,
  "description": "",
  "banner_url": "https://lutris.net/games/banner/championship-manager-2008.jpg",
  "icon_url": "https://lutris.net/games/icon/championship-manager-2008.png",
  "is_public": true,
  "updated": "2020-10-08T10:02:43.678167Z",
  "provider_games": [
    {
      "name": "Championship Manager 2008",
      "slug": "8060",
      "service": "steam"
    }
  ],
  "steamid": 8060,
  "gogid": null,
  "gogslug": "",
  "humblestoreid": "",
  "id": 5183
}