{
  "id": 16130,
  "game_id": 29698,
  "game_slug": "black-mirror-2017",
  "name": "Black Mirror (2017)",
  "year": 2017,
  "user": "cxf",
  "runner": "linux",
  "slug": "black-mirror-2017-gog",
  "version": "GOG",
  "description": null,
  "notes": "",
  "created_at": "2019-10-12T01:34:01.413105Z",
  "updated_at": "2019-10-12T01:34:06.106551Z",
  "draft": false,
  "published": true,
  "published_by": null,
  "rating": "",
  "steamid": 58130,
  "gogid": 1569429547,
  "gogslug": "black_mirror",
  "humbleid": "",
  "humblestoreid": "",
  "humblestoreid_real": "black-mirror",
  "script": {
    "files": [
      {
        "goginstaller": "N/A:Please select the GOG.com Linux installer"
      }
    ],
    "game": {
      "exe": "start.sh"
    },
    "installer": [
      {
        "extract": {
          "dst": "$CACHE/GOG",
          "file": "goginstaller",
          "format": "zip"
        }
      },
      {
        "merge": {
          "dst": "$GAMEDIR",
          "src": "$CACHE/GOG/data/noarch/"
        }
      }
    ]
  },
  "content": "files:\n- goginstaller: N/A:Please select the GOG.com Linux installer\ngame:\n  exe: start.sh\ninstaller:\n- extract:\n    dst: $CACHE/GOG\n    file: goginstaller\n    format: zip\n- merge:\n    dst: $GAMEDIR\n    src: $CACHE/GOG/data/noarch/\n"
}