{
  "name": "Canvas Croquis",
  "slug": "canvas-croquis",
  "year": 1985,
  "description": "",
  "banner_url": "",
  "icon_url": "https://lutris.net/games/icon/canvas-croquis.png",
  "is_public": true,
  "updated": "2020-05-26T03:32:34.966680Z",
  "provider_games": [
    {
      "name": "Canvas Croquis",
      "slug": "canvas",
      "service": "mame"
    }
  ],
  "steamid": null,
  "gogid": null,
  "gogslug": "",
  "humblestoreid": "",
  "id": 33590
}