{
  "id": 11035,
  "game_id": 7804,
  "game_slug": "yandere-simulator",
  "name": "Yandere Simulator",
  "year": 2016,
  "user": "cxf",
  "runner": "wine",
  "slug": "yandere-simulator-latest",
  "version": "Latest",
  "description": null,
  "notes": "Download before using this installer: <a href=\"https://yanderedev.wordpress.com/downloads/\">https://yanderedev.wordpress.com/downloads/</a>\r\n\r\nWe recommend you use the Mega or Mediafire links.",
  "created_at": "2018-11-30T04:46:18.612000Z",
  "updated_at": "2020-05-14T15:41:08.981353Z",
  "draft": false,
  "published": true,
  "published_by": 19464,
  "rating": "",
  "steamid": null,
  "gogid": null,
  "gogslug": "",
  "humbleid": "",
  "humblestoreid": "",
  "humblestoreid_real": "",
  "script": {
    "files": [
      {
        "zip": "N/A:Please select zip archive"
      }
    ],
    "game": {
      "arch": "win64",
      "exe": "drive_c/Program Files (x86)/Yandere Simulator/YandereSimulator.exe",
      "prefix": "$GAMEDIR"
    },
    "installer": [
      {
        "task": {
          "arch": "win64",
          "name": "create_prefix",
          "prefix": "$GAMEDIR"
        }
      },
      {
        "task": {
          "app": "cjkfonts",
          "arch": "win64",
          "name": "winetricks",
          "prefix": "$GAMEDIR"
        }
      },
      {
        "extract": {
          "dst": "$GAMEDIR/drive_c/Program Files (x86)/Yandere Simulator",
          "file": "zip"
        }
      }
    ]
  },
  "content": "files:\r\n- zip: N/A:Please select zip archive\r\ngame:\r\n  arch: win64\r\n  exe: drive_c/Program Files (x86)/Yandere Simulator/YandereSimulator.exe\r\n  prefix: $GAMEDIR\r\ninstaller:\r\n- task:\r\n    arch: win64\r\n    name: create_prefix\r\n    prefix: $GAMEDIR\r\n- task:\r\n    app: cjkfonts\r\n    arch: win64\r\n    name: winetricks\r\n    prefix: $GAMEDIR\r\n- extract:\r\n    dst: $GAMEDIR/drive_c/Program Files (x86)/Yandere Simulator\r\n    file: zip"
}