{
  "id": 22813,
  "game_id": 7804,
  "game_slug": "yandere-simulator",
  "name": "Yandere Simulator",
  "year": 2016,
  "user": "soredake",
  "runner": "wine",
  "slug": "yandere-simulator-launcher",
  "version": "Launcher",
  "description": null,
  "notes": "",
  "created_at": "2020-08-11T08:46:01.040000Z",
  "updated_at": "2020-09-21T08:10:33.450003Z",
  "draft": false,
  "published": true,
  "published_by": 20548,
  "rating": "",
  "steamid": null,
  "gogid": null,
  "gogslug": "",
  "humbleid": "",
  "humblestoreid": "",
  "humblestoreid_real": "",
  "script": {
    "files": [
      {
        "launcher": "https://yanderesimulator.com/YandereSimLauncher.zip"
      }
    ],
    "game": {
      "exe": "drive_c/Program Files (x86)/Yandere Simulator/YandereSimulatorLauncher2.exe",
      "prefix": "$GAMEDIR"
    },
    "installer": [
      {
        "task": {
          "name": "create_prefix",
          "prefix": "$GAMEDIR"
        }
      },
      {
        "task": {
          "app": "cjkfonts dotnet472 vcrun2019",
          "name": "winetricks",
          "prefix": "$GAMEDIR"
        }
      },
      {
        "task": {
          "name": "winekill",
          "prefix": "$GAMEDIR"
        }
      },
      {
        "extract": {
          "dst": "$GAMEDIR/drive_c/Program Files (x86)/Yandere Simulator",
          "file": "launcher"
        }
      }
    ]
  },
  "content": "files:\r\n- launcher: https://yanderesimulator.com/YandereSimLauncher.zip\r\ngame:\r\n  exe: drive_c/Program Files (x86)/Yandere Simulator/YandereSimulatorLauncher2.exe\r\n  prefix: $GAMEDIR\r\ninstaller:\r\n- task:\r\n    name: create_prefix\r\n    prefix: $GAMEDIR\r\n- task:\r\n    app: cjkfonts dotnet472 vcrun2019\r\n    name: winetricks\r\n    prefix: $GAMEDIR\r\n- task:\r\n    name: winekill\r\n    prefix: $GAMEDIR\r\n- extract:\r\n    dst: $GAMEDIR/drive_c/Program Files (x86)/Yandere Simulator\r\n    file: launcher"
}