{
  "name": "Les Fleursword",
  "slug": "les-fleursword",
  "year": null,
  "description": "",
  "banner_url": "https://lutris.net/games/banner/les-fleursword.jpg",
  "icon_url": "https://lutris.net/games/icon/les-fleursword.png",
  "is_public": true,
  "updated": "2019-01-23T08:30:10.035104Z",
  "provider_games": [
    {
      "name": "Les Fleursword",
      "slug": "689650",
      "service": "steam"
    }
  ],
  "steamid": 689650,
  "gogid": null,
  "gogslug": "",
  "humblestoreid": "",
  "id": 19293
}