{
  "name": "B.Rap Boys",
  "slug": "brap-boys",
  "year": 1992,
  "description": "",
  "banner_url": "https://lutris.net/games/banner/brap-boys.jpg",
  "icon_url": "https://lutris.net/games/icon/brap-boys.png",
  "is_public": true,
  "updated": "2020-05-26T03:32:26.975920Z",
  "provider_games": [
    {
      "name": "B.Rap Boys",
      "slug": "brapboys",
      "service": "mame"
    }
  ],
  "steamid": null,
  "gogid": null,
  "gogslug": "",
  "humblestoreid": "",
  "id": 33538
}