{
  "name": "Christmas Stories: Enchanted Express Collector's Edition",
  "slug": "christmas-stories-enchanted-express-collectors-edi",
  "year": null,
  "description": "",
  "banner_url": "https://lutris.net/games/banner/christmas-stories-enchanted-express-collectors-edi.jpg",
  "icon_url": "https://lutris.net/games/icon/christmas-stories-enchanted-express-collectors-edi.png",
  "is_public": true,
  "updated": "2020-10-08T09:18:30.892665Z",
  "provider_games": [
    {
      "name": "Christmas Stories: Enchanted Express Collector's Edition",
      "slug": "1198060",
      "service": "steam"
    }
  ],
  "steamid": 1198060,
  "gogid": null,
  "gogslug": "",
  "humblestoreid": "",
  "id": 37558
}