{
  "name": "CrossCode",
  "slug": "crosscode",
  "year": 2015,
  "description": "This retro-inspired 2D Action RPG might outright surprise you. CrossCode combines 16-bit SNES-style graphics with butter-smooth physics, a fast-paced combat system, and engaging puzzle mechanics, served with a gripping sci-fi story.\r\n\r\nCrossCode is all about how it plays! Take the best out of two popular genres, find a good balance between them and make a great game. That’s what CrossCode does. You get the puzzles of Zelda-esque dungeons and are rewarded with the great variety of equipment you know and love from RPGs. During the fast-paced battles you will use the tools you find on your journey to reveal and exploit the enemies' weaknesses and at the same time will be able to choose equipment and skills for a more in-depth approach in fighting your enemies.\r\n\r\nWhat's included in the full version:\r\n\r\n- Dive into a massive adventure with a playtime of around 30-80 hours\r\n- Explore a large world with 7 unique areas and hidden secrets all over the place\r\n- Fight over 120 enemy types including 30+ boss fights\r\n- Enter 7 expansive dungeons, all with with unique themes and puzzle mechanics\r\n- Master up to 100 combat arts and even more passive skills\r\n- Solve over 100 quests with a great variety of tasks and unique challenges\r\n- 60+ music tracks made by a rice ball (yes)",
  "banner_url": "https://lutris.net/games/banner/crosscode.jpg",
  "icon_url": "https://lutris.net/games/icon/crosscode.png",
  "is_public": true,
  "updated": "2020-05-31T00:17:38.471620Z",
  "provider_games": [
    {
      "name": "CrossCode",
      "slug": "1252295864",
      "service": "gog"
    },
    {
      "name": "CrossCode",
      "slug": "368340",
      "service": "steam"
    }
  ],
  "steamid": 368340,
  "gogid": 1252295864,
  "gogslug": "crosscode",
  "humblestoreid": "",
  "id": 4893
}