{
  "name": "cell",
  "slug": "cell",
  "year": null,
  "description": "",
  "banner_url": "https://lutris.net/games/banner/cell.jpg",
  "icon_url": "https://lutris.net/games/icon/cell.png",
  "is_public": true,
  "updated": "2020-10-08T09:58:12.411640Z",
  "provider_games": [
    {
      "name": "cell",
      "slug": "779790",
      "service": "steam"
    }
  ],
  "steamid": 779790,
  "gogid": null,
  "gogslug": "",
  "humblestoreid": "",
  "id": 23702
}