{
  "name": "Devil May Cry HD Collection",
  "slug": "devil-may-cry-hd-collection",
  "year": null,
  "description": "",
  "banner_url": "https://lutris.net/games/banner/devil-may-cry-hd-collection.jpg",
  "icon_url": "https://lutris.net/games/icon/devil-may-cry-hd-collection.png",
  "is_public": true,
  "updated": "2020-10-08T10:17:22.235368Z",
  "provider_games": [
    {
      "name": "Devil May Cry HD Collection",
      "slug": "631510",
      "service": "steam"
    }
  ],
  "steamid": 631510,
  "gogid": null,
  "gogslug": "",
  "humblestoreid": "",
  "id": 19066
}