{
  "name": "Breakroom",
  "slug": "breakroom",
  "year": null,
  "description": "",
  "banner_url": "https://lutris.net/games/banner/breakroom.jpg",
  "icon_url": "https://lutris.net/games/icon/breakroom.png",
  "is_public": true,
  "updated": "2020-10-08T10:14:14.240736Z",
  "provider_games": [
    {
      "name": "Breakroom",
      "slug": "431570",
      "service": "steam"
    }
  ],
  "steamid": 431570,
  "gogid": null,
  "gogslug": "",
  "humblestoreid": "",
  "id": 21876
}