{
  "name": "Clone Hero",
  "slug": "clone-hero",
  "year": 2017,
  "description": "A Guitar Hero/Rock Band clone for PC that lets you play custom songs. Made by \"Srylain the 2nd\".",
  "banner_url": "https://lutris.net/games/banner/clone-hero.jpg",
  "icon_url": "https://lutris.net/games/icon/clone-hero.png",
  "is_public": true,
  "updated": "2019-10-21T01:58:55.113333Z",
  "provider_games": [],
  "steamid": null,
  "gogid": null,
  "gogslug": "",
  "humblestoreid": "",
  "id": 14217
}