{
  "name": "Exodus of Sol",
  "slug": "exodus-of-sol",
  "year": null,
  "description": "",
  "banner_url": "https://lutris.net/games/banner/exodus-of-sol.jpg",
  "icon_url": "https://lutris.net/games/icon/exodus-of-sol.png",
  "is_public": true,
  "updated": "2020-10-08T09:20:41.321227Z",
  "provider_games": [
    {
      "name": "The Battle of Sol",
      "slug": "282620",
      "service": "steam"
    }
  ],
  "steamid": 282620,
  "gogid": null,
  "gogslug": "",
  "humblestoreid": "",
  "id": 3289
}