{
  "name": "Crossfire: Dungeons",
  "slug": "crossfire-dungeons",
  "year": null,
  "description": "",
  "banner_url": "https://lutris.net/games/banner/crossfire-dungeons.jpg",
  "icon_url": "https://lutris.net/games/icon/crossfire-dungeons.png",
  "is_public": true,
  "updated": "2020-10-08T10:16:04.471653Z",
  "provider_games": [
    {
      "name": "Crossfire: Dungeons",
      "slug": "369370",
      "service": "steam"
    }
  ],
  "steamid": 369370,
  "gogid": null,
  "gogslug": "",
  "humblestoreid": "",
  "id": 9212
}