{
  "name": "3dSen",
  "slug": "3dsen",
  "year": null,
  "description": "",
  "banner_url": "https://lutris.net/games/banner/3dsen.jpg",
  "icon_url": "https://lutris.net/games/icon/3dsen.png",
  "is_public": true,
  "updated": "2020-10-08T10:10:46.221072Z",
  "provider_games": [
    {
      "name": "3dSen",
      "slug": "1147940",
      "service": "steam"
    }
  ],
  "steamid": 1147940,
  "gogid": null,
  "gogslug": "",
  "humblestoreid": "",
  "id": 37357
}