{
  "id": 4444,
  "game_id": 1649,
  "game_slug": "draw-a-stickman-epic",
  "name": "Draw a Stickman: EPIC",
  "year": null,
  "user": "FakeShemp",
  "runner": "linux",
  "slug": "draw-a-stickman-epic-humble",
  "version": "Humble",
  "description": "",
  "notes": "",
  "created_at": "2017-06-17T21:01:47.863266Z",
  "updated_at": "2017-06-18T23:24:39.295373Z",
  "draft": false,
  "published": true,
  "published_by": null,
  "rating": "",
  "steamid": 248650,
  "gogid": null,
  "gogslug": "",
  "humbleid": "drawastickmanepic_bundle",
  "humblestoreid": "drawastickmanepic_bundle",
  "humblestoreid_real": "drawastickmanepic_bundle",
  "script": {
    "exe": "DrawAStickman.Linux.exe",
    "files": [
      {
        "file1": "N/A:Please select the Humble archive"
      }
    ],
    "installer": [
      {
        "extract": {
          "file": "$file1"
        }
      }
    ]
  },
  "content": "exe: DrawAStickman.Linux.exe\nfiles:\n- file1: N/A:Please select the Humble archive\ninstaller:\n- extract:\n    file: $file1\n"
}