{
  "name": "Hot Wired",
  "slug": "hot-wired",
  "year": null,
  "description": "",
  "banner_url": "https://lutris.net/games/banner/hot-wired.jpg",
  "icon_url": "",
  "is_public": true,
  "updated": "2020-01-06T19:37:36.686196Z",
  "provider_games": [],
  "steamid": null,
  "gogid": null,
  "gogslug": "",
  "humblestoreid": "",
  "id": 31067
}