{
  "name": "Home Wars",
  "slug": "home-wars",
  "year": null,
  "description": "",
  "banner_url": "https://lutris.net/games/banner/home-wars.jpg",
  "icon_url": "https://lutris.net/games/icon/home-wars.png",
  "is_public": true,
  "updated": "2020-10-08T10:09:41.626612Z",
  "provider_games": [
    {
      "name": "Home Wars",
      "slug": "645790",
      "service": "steam"
    }
  ],
  "steamid": 645790,
  "gogid": null,
  "gogslug": "",
  "humblestoreid": "",
  "id": 20141
}