{
  "name": "Blacksea Odyssey",
  "slug": "blacksea-odyssey",
  "year": null,
  "description": "",
  "banner_url": "https://lutris.net/games/banner/blacksea-odyssey.jpg",
  "icon_url": "https://lutris.net/games/icon/blacksea-odyssey.png",
  "is_public": true,
  "updated": "2020-10-08T10:16:03.388641Z",
  "provider_games": [
    {
      "name": "Blacksea Odyssey",
      "slug": "369550",
      "service": "steam"
    }
  ],
  "steamid": 369550,
  "gogid": null,
  "gogslug": "",
  "humblestoreid": "",
  "id": 9118
}