{
  "name": "Army Men: World War",
  "slug": "army-men-world-war",
  "year": 2000,
  "description": "",
  "banner_url": "https://lutris.net/games/banner/army-men-world-war.jpg",
  "icon_url": "",
  "is_public": true,
  "updated": "2020-05-31T00:17:34.834673Z",
  "provider_games": [
    {
      "name": "Army Men: World War",
      "slug": "1824112482",
      "service": "gog"
    }
  ],
  "steamid": null,
  "gogid": 1824112482,
  "gogslug": "army_men_world_war",
  "humblestoreid": "",
  "id": 24204
}