{
  "name": "Down Here",
  "slug": "down-here",
  "year": null,
  "description": "",
  "banner_url": "https://lutris.net/games/banner/down-here.jpg",
  "icon_url": "https://lutris.net/games/icon/down-here.png",
  "is_public": true,
  "updated": "2020-10-08T10:15:31.036331Z",
  "provider_games": [
    {
      "name": "Down Here",
      "slug": "387690",
      "service": "steam"
    }
  ],
  "steamid": 387690,
  "gogid": null,
  "gogslug": "",
  "humblestoreid": "",
  "id": 6983
}