{
  "name": "Heroes of Arzar",
  "slug": "heroes-of-arzar",
  "year": null,
  "description": "",
  "banner_url": "https://lutris.net/games/banner/heroes-of-arzar.jpg",
  "icon_url": "https://lutris.net/games/icon/heroes-of-arzar.png",
  "is_public": true,
  "updated": "2020-10-08T10:03:20.324607Z",
  "provider_games": [
    {
      "name": "Heroes of Arzar",
      "slug": "628190",
      "service": "steam"
    }
  ],
  "steamid": 628190,
  "gogid": null,
  "gogslug": "",
  "humblestoreid": "",
  "id": 18591
}