{
  "name": "Flatspace IIk",
  "slug": "flatspace-iik",
  "year": null,
  "description": "",
  "banner_url": "https://lutris.net/games/banner/flatspace-iik.jpg",
  "icon_url": "https://lutris.net/games/icon/flatspace-iik.png",
  "is_public": true,
  "updated": "2020-10-08T10:04:42.856526Z",
  "provider_games": [
    {
      "name": "Flatspace IIk",
      "slug": "585430",
      "service": "steam"
    }
  ],
  "steamid": 585430,
  "gogid": null,
  "gogslug": "",
  "humblestoreid": "",
  "id": 19191
}