{
  "name": "Calcflow",
  "slug": "calcflow",
  "year": null,
  "description": "",
  "banner_url": "https://lutris.net/games/banner/calcflow.jpg",
  "icon_url": "https://lutris.net/games/icon/calcflow.png",
  "is_public": true,
  "updated": "2020-10-08T10:05:54.897730Z",
  "provider_games": [
    {
      "name": "Calcflow",
      "slug": "547280",
      "service": "steam"
    }
  ],
  "steamid": 547280,
  "gogid": null,
  "gogslug": "",
  "humblestoreid": "",
  "id": 21109
}