{
  "name": "Bleed 2",
  "slug": "bleed-2",
  "year": null,
  "description": "",
  "banner_url": "https://lutris.net/games/banner/bleed-2.jpg",
  "icon_url": "https://lutris.net/games/icon/bleed-2.png",
  "is_public": true,
  "updated": "2020-10-08T10:15:15.713955Z",
  "provider_games": [
    {
      "name": "Bleed 2",
      "slug": "396350",
      "service": "steam"
    }
  ],
  "steamid": 396350,
  "gogid": null,
  "gogslug": "",
  "humblestoreid": "",
  "id": 16515
}