{
  "name": "Gluon",
  "slug": "gluon",
  "year": null,
  "description": "",
  "banner_url": "https://lutris.net/games/banner/gluon.jpg",
  "icon_url": "https://lutris.net/games/icon/gluon.png",
  "is_public": true,
  "updated": "2020-10-08T10:04:26.108673Z",
  "provider_games": [
    {
      "name": "Gluon",
      "slug": "593980",
      "service": "steam"
    }
  ],
  "steamid": 593980,
  "gogid": null,
  "gogslug": "",
  "humblestoreid": "",
  "id": 26608
}