{
  "name": "Eschalon: Book 2",
  "slug": "eschalon-book-2",
  "year": 2010,
  "description": "Return to the world of Eschalon in the sequel to 2007's award-winning RPG. The blight of war now threatens all of Eschalon and the only hope for peace lies in the secret of your past. Don't miss this second chapter in the epic Eschalon trilogy given \"5 Stars\" by RPGWatch and called \"immensely appealing\" by The Huffington Post.",
  "banner_url": "https://lutris.net/games/banner/eschalon-book-2.jpg",
  "icon_url": "https://lutris.net/games/icon/eschalon-book-2.png",
  "is_public": true,
  "updated": "2019-01-23T08:29:25.232606Z",
  "provider_games": [
    {
      "name": "Eschalon: Book 2",
      "slug": "25620",
      "service": "steam"
    }
  ],
  "steamid": 25620,
  "gogid": null,
  "gogslug": "",
  "humblestoreid": "",
  "id": 1088
}