{
  "name": "Luna",
  "slug": "luna",
  "year": null,
  "description": "",
  "banner_url": "https://lutris.net/games/banner/luna.jpg",
  "icon_url": "https://lutris.net/games/icon/luna.png",
  "is_public": true,
  "updated": "2020-10-08T10:09:23.820747Z",
  "provider_games": [
    {
      "name": "Luna",
      "slug": "666810",
      "service": "steam"
    }
  ],
  "steamid": 666810,
  "gogid": null,
  "gogslug": "",
  "humblestoreid": "",
  "id": 22483
}