{
  "name": "Infliction",
  "slug": "infliction",
  "year": null,
  "description": "",
  "banner_url": "https://lutris.net/games/banner/infliction.jpg",
  "icon_url": "https://lutris.net/games/icon/infliction.png",
  "is_public": true,
  "updated": "2020-10-08T10:01:09.267568Z",
  "provider_games": [
    {
      "name": "Infliction",
      "slug": "692100",
      "service": "steam"
    }
  ],
  "steamid": 692100,
  "gogid": null,
  "gogslug": "",
  "humblestoreid": "",
  "id": 29080
}