{
  "name": "Devtheism",
  "slug": "devtheism",
  "year": 2014,
  "description": "Devtheism is a short story-driven game made with RPG Maker VX Ace.",
  "banner_url": "https://lutris.net/games/banner/devtheism.jpg",
  "icon_url": "",
  "is_public": false,
  "updated": "2020-10-03T05:02:00.099511Z",
  "provider_games": [],
  "steamid": null,
  "gogid": null,
  "gogslug": "",
  "humblestoreid": "",
  "id": 39604
}