{
  "name": "Andarilho",
  "slug": "andarilho",
  "year": null,
  "description": "",
  "banner_url": "https://lutris.net/games/banner/andarilho.jpg",
  "icon_url": "https://lutris.net/games/icon/andarilho.png",
  "is_public": true,
  "updated": "2020-10-08T10:13:41.192530Z",
  "provider_games": [
    {
      "name": "Andarilho",
      "slug": "450860",
      "service": "steam"
    }
  ],
  "steamid": 450860,
  "gogid": null,
  "gogslug": "",
  "humblestoreid": "",
  "id": 12538
}