{
  "name": "Ant War: Domination",
  "slug": "ant-war-domination",
  "year": null,
  "description": "",
  "banner_url": "https://lutris.net/games/banner/ant-war-domination.jpg",
  "icon_url": "https://lutris.net/games/icon/ant-war-domination.png",
  "is_public": true,
  "updated": "2019-01-23T08:28:23.010828Z",
  "provider_games": [
    {
      "name": "Ant War: Domination",
      "slug": "406080",
      "service": "steam"
    }
  ],
  "steamid": 406080,
  "gogid": null,
  "gogslug": "",
  "humblestoreid": "",
  "id": 5747
}