{
  "name": "Clam Man",
  "slug": "clam-man",
  "year": 2019,
  "description": "Clam Man is the story of the Clam Man. Intriguing, isn't it? Yes, it's true - he is a clam and yet also a man. This is not a topic of debate, it is fact. We've confirmed it while working on this game. Using science.\r\n\r\n\"He certainly is a clam man.\" - Playtester\r\n\r\nThank You, Playtester - we couldn't agree more.",
  "banner_url": "https://lutris.net/games/banner/clam-man.jpg",
  "icon_url": "",
  "is_public": true,
  "updated": "2019-06-13T06:13:44.986231Z",
  "provider_games": [
    {
      "name": "Clam Man",
      "slug": "1000640",
      "service": "steam"
    }
  ],
  "steamid": 1000640,
  "gogid": null,
  "gogslug": "",
  "humblestoreid": "",
  "id": 27402
}