{
  "id": 11614,
  "game_id": 4031,
  "game_slug": "crawl",
  "name": "Crawl",
  "year": null,
  "user": "Nobu",
  "runner": "linux",
  "slug": "crawl-gog",
  "version": "GOG",
  "description": null,
  "notes": "",
  "created_at": "2019-01-16T21:59:11.834000Z",
  "updated_at": "2020-07-26T08:00:18.570525Z",
  "draft": false,
  "published": true,
  "published_by": 20548,
  "rating": "",
  "steamid": 293780,
  "gogid": 1207665263,
  "gogslug": "crawl",
  "humbleid": "crawl",
  "humblestoreid": "crawl",
  "humblestoreid_real": "crawl",
  "script": {
    "files": [
      {
        "goginstaller": "N/A:Please select the GOG.com Linux installer"
      }
    ],
    "game": {
      "exe": "start.sh",
      "gogid": 1207665263
    },
    "installer": [
      {
        "extract": {
          "dst": "$CACHE/GOG",
          "file": "goginstaller",
          "format": "zip"
        }
      },
      {
        "merge": {
          "dst": "$GAMEDIR",
          "src": "$CACHE/GOG/data/noarch/"
        }
      }
    ]
  },
  "content": "files:\n- goginstaller: N/A:Please select the GOG.com Linux installer\ngame:\n  exe: start.sh\n  gogid: 1207665263\ninstaller:\n- extract:\n    dst: $CACHE/GOG\n    file: goginstaller\n    format: zip\n- merge:\n    dst: $GAMEDIR\n    src: $CACHE/GOG/data/noarch/\n"
}