{
  "name": "CometStriker",
  "slug": "cometstriker",
  "year": null,
  "description": "",
  "banner_url": "https://lutris.net/games/banner/cometstriker.jpg",
  "icon_url": "https://lutris.net/games/icon/cometstriker.png",
  "is_public": true,
  "updated": "2020-10-08T10:00:56.773609Z",
  "provider_games": [
    {
      "name": "CometStriker",
      "slug": "701040",
      "service": "steam"
    }
  ],
  "steamid": 701040,
  "gogid": null,
  "gogslug": "",
  "humblestoreid": "",
  "id": 26662
}