{
  "id": 18266,
  "game_id": 4919,
  "game_slug": "let-the-cat-in",
  "name": "Let the Cat In",
  "year": null,
  "user": "soredake",
  "runner": "steam",
  "slug": "let-the-cat-in-proton",
  "version": "Proton",
  "description": null,
  "notes": "",
  "created_at": "2020-02-07T23:46:29.100273Z",
  "updated_at": "2020-02-07T23:46:34.690628Z",
  "draft": false,
  "published": true,
  "published_by": null,
  "rating": "",
  "steamid": 369400,
  "gogid": null,
  "gogslug": "",
  "humbleid": "",
  "humblestoreid": "",
  "humblestoreid_real": "",
  "script": {
    "game": {
      "appid": 369400
    }
  },
  "content": "game:\n  appid: 369400\n"
}