{
  "id": 5446,
  "game_id": 13604,
  "game_slug": "ultima-iv-quest-of-the-avatar",
  "name": "Ultima IV: Quest of the Avatar",
  "year": 1985,
  "user": "FakeShemp",
  "runner": "dosbox",
  "slug": "ultima-iv-quest-of-the-avatar-gog",
  "version": "GOG",
  "description": "This script will facilitate you install of this game on Linux OS:\r\n\"Ultima IV - Quest of the Avatar\" GOG edition with DOSBox runner.\r\nThis script uses Ultima IV Upgrade Patch project: http://www.moongates.com/u4/upgrade/Upgrade.htm\r\nDuring install please let all options by default.\r\nBig thanks to people who gave their time to permit us playing this game in the best conditions on Linux platform.",
  "notes": "- With Ultima IV Upgrade Patch 1.3\r\n- Keys: \"Alt+V\": music on/off - \"Ctrl+F9\" to quit.\r\n- Please report issue concerning this script on my Github page:\r\nhttps://github.com/legluondunet/MyLittleLutrisScripts/",
  "created_at": "2017-08-21T12:25:36.651000Z",
  "updated_at": "2020-05-01T07:45:58.694623Z",
  "draft": false,
  "published": true,
  "published_by": 494,
  "rating": "",
  "steamid": null,
  "gogid": 1207658962,
  "gogslug": "ultima_4",
  "humbleid": "",
  "humblestoreid": "",
  "humblestoreid_real": "",
  "script": {
    "custom-name": "Ultima IV - Quest of the Avatar - GOG - DOSBox",
    "files": [
      {
        "patch": "https://github.com/legluondunet/MyLittleLutrisScripts/raw/master/Ultima%20IV%20-%20Quest%20of%20the%20Avatar/u4upgrad.zip"
      },
      {
        "inno": "http://constexpr.org/innoextract/files/snapshots/innoextract-1.8-dev-2019-01-13/innoextract-1.8-dev-2019-01-13-linux.tar.xz"
      },
      {
        "gamesetup": "N/A:Please select the Windows setup exe file downloaded from your GOG account."
      }
    ],
    "game": {
      "config_file": "$GAMEDIR/dosbox_conf/dosboxULTIMA4.conf",
      "main_file": "dosbox_conf/dosboxULTIMA4_single.conf"
    },
    "installer": [
      {
        "extract": {
          "dst": "$CACHE",
          "file": "inno"
        }
      },
      {
        "execute": {
          "args": "-d \"$GAMEDIR\" \"$gamesetup\"",
          "file": "$CACHE/innoextract"
        }
      },
      {
        "merge": {
          "dst": "$GAMEDIR/",
          "src": "$GAMEDIR/__support/save/"
        }
      },
      {
        "merge": {
          "dst": "$GAMEDIR/dosbox_conf",
          "src": "$GAMEDIR/__support/app"
        }
      },
      {
        "extract": {
          "dst": "$GAMEDIR",
          "src": "patch"
        }
      },
      {
        "task": {
          "executable": "$GAMEDIR/SETUP.BAT",
          "name": "dosexec"
        }
      },
      {
        "execute": {
          "command": "cd \"$GAMEDIR\"; rm -f -r app/ commonappdata/ DOSBOX/ __redist/ __support/ tmp/ goggame-1207658962.*; cd dosbox_conf; sed -i -e 's/fullscreen=true/fullscreen=false/g' -e 's/fulldouble=false/fulldouble=true/g' -e 's/output=overlay/output=opengl/g' -e 's/aspect=.*/aspect=true/g' -e 's/mididevice=default/mididevice=none/g' -e 's/mapperfile=mapper-0.74-2.map/# mapperfile=mapper-0.74-2.map/g' dosboxULTIMA4.conf;"
        }
      }
    ]
  },
  "content": "custom-name: Ultima IV - Quest of the Avatar - GOG - DOSBox\nfiles:\n- patch: https://github.com/legluondunet/MyLittleLutrisScripts/raw/master/Ultima%20IV%20-%20Quest%20of%20the%20Avatar/u4upgrad.zip\n- inno: http://constexpr.org/innoextract/files/snapshots/innoextract-1.8-dev-2019-01-13/innoextract-1.8-dev-2019-01-13-linux.tar.xz\n- gamesetup: N/A:Please select the Windows setup exe file downloaded from your GOG\n    account.\ngame:\n  config_file: $GAMEDIR/dosbox_conf/dosboxULTIMA4.conf\n  main_file: dosbox_conf/dosboxULTIMA4_single.conf\ninstaller:\n- extract:\n    dst: $CACHE\n    file: inno\n- execute:\n    args: -d \"$GAMEDIR\" \"$gamesetup\"\n    file: $CACHE/innoextract\n- merge:\n    dst: $GAMEDIR/\n    src: $GAMEDIR/__support/save/\n- merge:\n    dst: $GAMEDIR/dosbox_conf\n    src: $GAMEDIR/__support/app\n- extract:\n    dst: $GAMEDIR\n    src: patch\n- task:\n    executable: $GAMEDIR/SETUP.BAT\n    name: dosexec\n- execute:\n    command: cd \"$GAMEDIR\"; rm -f -r app/ commonappdata/ DOSBOX/ __redist/ __support/\n      tmp/ goggame-1207658962.*; cd dosbox_conf; sed -i -e 's/fullscreen=true/fullscreen=false/g'\n      -e 's/fulldouble=false/fulldouble=true/g' -e 's/output=overlay/output=opengl/g'\n      -e 's/aspect=.*/aspect=true/g' -e 's/mididevice=default/mididevice=none/g' -e\n      's/mapperfile=mapper-0.74-2.map/# mapperfile=mapper-0.74-2.map/g' dosboxULTIMA4.conf;\n"
}