{
  "name": "Achron",
  "slug": "achron",
  "year": null,
  "description": "",
  "banner_url": "https://lutris.net/games/banner/achron.jpg",
  "icon_url": "https://lutris.net/games/icon/achron.png",
  "is_public": true,
  "updated": "2020-10-08T10:01:20.391194Z",
  "provider_games": [
    {
      "name": "Achron",
      "slug": "109700",
      "service": "steam"
    }
  ],
  "steamid": 109700,
  "gogid": null,
  "gogslug": "",
  "humblestoreid": "",
  "id": 2969
}