{
  "name": "Antistatic",
  "slug": "antistatic",
  "year": 2019,
  "description": "Antistatic is a crisp, uncompromising indie platform fighter, built from the ground up in a custom engine. While simple for beginners, bluehexagon's design philosophy emphasizes depth and variety of play at all levels. Engage in local or online multiplayer matches as teams or as rivals.",
  "banner_url": "https://lutris.net/games/banner/antistatic.jpg",
  "icon_url": "",
  "is_public": false,
  "updated": "2020-09-25T16:52:25.480153Z",
  "provider_games": [],
  "steamid": null,
  "gogid": null,
  "gogslug": "",
  "humblestoreid": "",
  "id": 39269
}