{
  "name": "Enduro",
  "slug": "enduro",
  "year": 1983,
  "description": "Enduro consists of maneuvering a race car in the National Enduro, a long-distance endurance race. The object of the race is to pass a certain number of cars each day. Doing so will allow the player to continue racing for the next day. The driver must avoid other racers and pass 200 cars on the first day, and 300 cars with each following day.\r\n\r\nAs the time in the game passes, visibility changes as well. When it is night in the game the player can only see the oncoming cars' taillights. As the days progress, cars will become more difficult to avoid as well. Weather and time of day are factors in how to play. During the day the player may drive through an icy patch on the road which would limit control of the vehicle, or a patch of fog may reduce visibility.\r\n\r\nIf a player succeeds in racing five days or more, an on-screen racing trophy pop-ups. At the time of release, if the player sent a photograph of this achievement to Activision, they received a patch declaring them an \"Activision Roadbuster.\"",
  "banner_url": "https://lutris.net/games/banner/enduro.jpg",
  "icon_url": "",
  "is_public": true,
  "updated": "2019-12-19T18:04:09.950774Z",
  "provider_games": [],
  "steamid": null,
  "gogid": null,
  "gogslug": "",
  "humblestoreid": "",
  "id": 30733
}