{
  "name": "Colony Survival",
  "slug": "colony-survival",
  "year": null,
  "description": "",
  "banner_url": "https://lutris.net/games/banner/colony-survival.jpg",
  "icon_url": "https://lutris.net/games/icon/colony-survival.png",
  "is_public": true,
  "updated": "2020-10-08T10:16:09.113732Z",
  "provider_games": [
    {
      "name": "Colony Survival",
      "slug": "366090",
      "service": "steam"
    }
  ],
  "steamid": 366090,
  "gogid": null,
  "gogslug": "",
  "humblestoreid": "",
  "id": 11952
}