{
  "name": "GEARGUNS - Tank offensive",
  "slug": "gearguns-tank-offensive",
  "year": null,
  "description": "",
  "banner_url": "https://lutris.net/games/banner/gearguns-tank-offensive.jpg",
  "icon_url": "https://lutris.net/games/icon/gearguns-tank-offensive.png",
  "is_public": false,
  "updated": "2019-01-23T08:29:38.560492Z",
  "provider_games": [],
  "steamid": 526250,
  "gogid": null,
  "gogslug": "",
  "humblestoreid": "",
  "id": 10922
}