{
  "name": "Hot Shocker",
  "slug": "hot-shocker",
  "year": 1982,
  "description": "",
  "banner_url": "",
  "icon_url": "https://lutris.net/games/icon/hot-shocker.png",
  "is_public": true,
  "updated": "2020-05-26T03:34:37.581341Z",
  "provider_games": [
    {
      "name": "Hot Shocker",
      "slug": "hotshock",
      "service": "mame"
    }
  ],
  "steamid": null,
  "gogid": null,
  "gogslug": "",
  "humblestoreid": "",
  "id": 34435
}