{
  "name": "Fluffy Store",
  "slug": "fluffy-store",
  "year": 2019,
  "description": "Lin Yang was unemployed when he graduated from college this summer, so he went back to his hometown, planning to start his own convenience store.\r\n——｢Well, though I don’t have any employees yet, I’m a boss now.｣\r\nThat was what he thought at the beginning...\r\nHowever, a string of mysterious wind chimes changed this situation, maybe even his life. Along with the ringing chimes blown by the summer wind, three strange looking girls, each with a different pair of furry ears, appeared out of nowhere before him. He didn’t know who they were and they seemed to have some sort of secret with them, but Lin Yang decided to accept them anyway, and also hired them in this new convenience store.\r\nWell, no secret can stay a secret forever. Despite working his heart out, Lin has no experience in running anything. What lies ahead on their road of adventure? It’s for you to find out.",
  "banner_url": "https://lutris.net/games/banner/fluffy-store.jpg",
  "icon_url": "https://lutris.net/games/icon/fluffy-store.png",
  "is_public": true,
  "updated": "2019-11-18T04:00:21.249356Z",
  "provider_games": [
    {
      "name": "Fluffy Store",
      "slug": "1038740",
      "service": "steam"
    }
  ],
  "steamid": 1038740,
  "gogid": null,
  "gogslug": "",
  "humblestoreid": "",
  "id": 30329
}