{
  "name": "Hatsune Miku: Project DIVA F 2nd",
  "slug": "hatsune-miku-project-diva-f-2nd",
  "year": 2014,
  "description": "",
  "banner_url": "https://lutris.net/games/banner/hatsune-miku-project-diva-f-2nd.jpg",
  "icon_url": "",
  "is_public": true,
  "updated": "2019-10-07T03:17:43.615630Z",
  "provider_games": [],
  "steamid": null,
  "gogid": null,
  "gogslug": "",
  "humblestoreid": "",
  "id": 19016
}