{
  "name": "Champions Of Chaos 2",
  "slug": "champions-of-chaos-2",
  "year": null,
  "description": "",
  "banner_url": "https://lutris.net/games/banner/champions-of-chaos-2.jpg",
  "icon_url": "https://lutris.net/games/icon/champions-of-chaos-2.png",
  "is_public": true,
  "updated": "2020-10-08T10:16:09.148958Z",
  "provider_games": [
    {
      "name": "Champions Of Chaos 2",
      "slug": "366100",
      "service": "steam"
    }
  ],
  "steamid": 366100,
  "gogid": null,
  "gogslug": "",
  "humblestoreid": "",
  "id": 20728
}