{
  "name": "Breach & Clear",
  "slug": "breach-clear",
  "year": 2014,
  "description": "",
  "banner_url": "https://lutris.net/games/banner/breach-clear.jpg",
  "icon_url": "https://lutris.net/games/icon/breach-clear.png",
  "is_public": true,
  "updated": "2020-08-15T23:50:34.192555Z",
  "provider_games": [
    {
      "name": "Breach & Clear",
      "slug": "1434013541",
      "service": "gog"
    },
    {
      "name": "Breach & Clear",
      "slug": "breachandclear",
      "service": "humblebundle"
    },
    {
      "name": "Breach & Clear",
      "slug": "266130",
      "service": "steam"
    }
  ],
  "steamid": 266130,
  "gogid": 1434013541,
  "gogslug": "breach_and_clear",
  "humblestoreid": "breachandclear",
  "id": 2114
}