{
  "name": "Gaurodan",
  "slug": "gaurodan",
  "year": 2013,
  "description": "Fly around the Canary Islands and destroy cities, armies and colossal creatures in your path through a precision shmup. Controlling Gaurodan requires skill, since its movement is unstoppable and its attack can be oriented to hit ground or air targets.",
  "banner_url": "https://lutris.net/games/banner/gaurodan.jpg",
  "icon_url": "",
  "is_public": true,
  "updated": "2019-01-23T08:29:38.470306Z",
  "provider_games": [],
  "steamid": null,
  "gogid": null,
  "gogslug": "",
  "humblestoreid": "",
  "id": 16122
}