{
  "name": "Machina of the Planet Tree -Planet Ruler-",
  "slug": "machina-of-the-planet-tree-planet-ruler-",
  "year": null,
  "description": "",
  "banner_url": "https://lutris.net/games/banner/machina-of-the-planet-tree-planet-ruler-.jpg",
  "icon_url": "https://lutris.net/games/icon/machina-of-the-planet-tree-planet-ruler-.png",
  "is_public": true,
  "updated": "2020-10-08T10:15:38.504830Z",
  "provider_games": [
    {
      "name": "Machina of the Planet Tree -Planet Ruler-",
      "slug": "383960",
      "service": "steam"
    }
  ],
  "steamid": 383960,
  "gogid": null,
  "gogslug": "",
  "humblestoreid": "",
  "id": 15558
}