{
  "name": "Hotline Miami",
  "slug": "hotline-miami",
  "year": 2012,
  "description": "Hotline Miami is a high-octane action game overflowing with raw brutality, hard-boiled gunplay and skull crushing close combat. Set in an alternative 1989 Miami, you will assume the role of a mysterious antihero on a murderous rampage against the shady underworld at the behest of voices on your answering machine. Soon you'll find yourself struggling to get a grip of what is going on and why you are prone to these acts of violence.\r\n\r\nRely on your wits to choreograph your way through seemingly impossible situations as you constantly find yourself outnumbered by vicious enemies. The action is unrelenting and every shot is deadly so each move must be quick and decisive if you hope to survive and unveil the sinister forces driving the bloodshed. Hotline Miami’s unmistakable visual style, a driving soundtrack, and a surreal chain of events will have you question your own thirst for blood while pushing you to the limits with a brutally unforgiving challenge.",
  "banner_url": "https://lutris.net/games/banner/hotline-miami.jpg",
  "icon_url": "https://lutris.net/games/icon/hotline-miami.png",
  "is_public": true,
  "updated": "2020-05-31T00:17:45.134303Z",
  "provider_games": [
    {
      "name": "Hotline Miami",
      "slug": "1207659118",
      "service": "gog"
    },
    {
      "name": "Hotline Miami",
      "slug": "hotlinemiami",
      "service": "humblebundle"
    },
    {
      "name": "Hotline Miami",
      "slug": "219150",
      "service": "steam"
    }
  ],
  "steamid": 219150,
  "gogid": 1207659118,
  "gogslug": "hotline_miami",
  "humblestoreid": "hotline-miami",
  "id": 37
}