{
  "name": "Kumoon : Ballistic Physics Puzzle",
  "slug": "kumoon-ballistic-physics-puzzle",
  "year": null,
  "description": "",
  "banner_url": "https://lutris.net/games/banner/kumoon-ballistic-physics-puzzle.jpg",
  "icon_url": "https://lutris.net/games/icon/kumoon-ballistic-physics-puzzle.png",
  "is_public": true,
  "updated": "2020-10-08T10:15:33.482325Z",
  "provider_games": [
    {
      "name": "Kumoon : Ballistic Physics Puzzle",
      "slug": "386290",
      "service": "steam"
    }
  ],
  "steamid": 386290,
  "gogid": null,
  "gogslug": "",
  "humblestoreid": "",
  "id": 6979
}