{
  "id": 4762,
  "game_id": 12020,
  "game_slug": "starless-nymphomaniacs-paradise",
  "name": "Starless: Nymphomaniac's Paradise",
  "year": 2011,
  "user": "FakeShemp",
  "runner": "wine",
  "slug": "starless-nymphomaniacs-paradi-jast-usa",
  "version": "JAST USA",
  "description": "",
  "notes": "",
  "created_at": "2017-07-03T10:43:12.086000Z",
  "updated_at": "2018-05-19T03:41:55.162841Z",
  "draft": false,
  "published": true,
  "published_by": null,
  "rating": "",
  "steamid": null,
  "gogid": null,
  "gogslug": "",
  "humbleid": "",
  "humblestoreid": "",
  "humblestoreid_real": "",
  "script": {
    "files": [
      {
        "file1": "N/A:Please select the JAST USA archive"
      },
      {
        "file2": "http://jas.tv/g/patch/starless-patch-1.2.exe.zip"
      }
    ],
    "game": {
      "arch": "win32",
      "exe": "drive_c/Program Files/Starless Nymphomaniacs' Paradise/starless.exe",
      "prefix": "$GAMEDIR"
    },
    "installer": [
      {
        "extract": {
          "dst": "$CACHE",
          "file": "$file1"
        }
      },
      {
        "task": {
          "executable": "$CACHE/setup.exe",
          "name": "wineexec",
          "prefix": "$GAMEDIR"
        }
      },
      {
        "extract": {
          "dst": "$CACHE",
          "file": "$file2"
        }
      },
      {
        "task": {
          "executable": "$CACHE/starless-patch-1.2.exe",
          "name": "wineexec",
          "prefix": "$GAMEDIR"
        }
      }
    ]
  },
  "content": "files:\n- file1: N/A:Please select the JAST USA archive\n- file2: http://jas.tv/g/patch/starless-patch-1.2.exe.zip\ngame:\n  arch: win32\n  exe: drive_c/Program Files/Starless Nymphomaniacs' Paradise/starless.exe\n  prefix: $GAMEDIR\ninstaller:\n- extract:\n    dst: $CACHE\n    file: $file1\n- task:\n    executable: $CACHE/setup.exe\n    name: wineexec\n    prefix: $GAMEDIR\n- extract:\n    dst: $CACHE\n    file: $file2\n- task:\n    executable: $CACHE/starless-patch-1.2.exe\n    name: wineexec\n    prefix: $GAMEDIR\n"
}