{
  "id": 4224,
  "game_id": 1965,
  "game_slug": "the-yawhg",
  "name": "The Yawhg",
  "year": null,
  "user": "FakeShemp",
  "runner": "wine",
  "slug": "the-yawhg-humble",
  "version": "Humble",
  "description": "",
  "notes": "",
  "created_at": "2017-06-08T17:56:27.243003Z",
  "updated_at": "2018-05-19T03:41:50.117705Z",
  "draft": false,
  "published": true,
  "published_by": null,
  "rating": "",
  "steamid": 269030,
  "gogid": null,
  "gogslug": "",
  "humbleid": "",
  "humblestoreid": "",
  "humblestoreid_real": "",
  "script": {
    "files": [
      {
        "file1": "N/A:Please select the Humble archive"
      }
    ],
    "game": {
      "arch": "win32",
      "exe": "drive_c/Program Files/The Yawhg/The Yawhg.exe",
      "prefix": "$GAMEDIR"
    },
    "installer": [
      {
        "extract": {
          "dst": "$GAMEDIR/drive_c/Program Files/The Yawhg",
          "file": "$file1"
        }
      }
    ]
  },
  "content": "files:\n- file1: N/A:Please select the Humble archive\ngame:\n  arch: win32\n  exe: drive_c/Program Files/The Yawhg/The Yawhg.exe\n  prefix: $GAMEDIR\ninstaller:\n- extract:\n    dst: $GAMEDIR/drive_c/Program Files/The Yawhg\n    file: $file1\n"
}