{
  "name": "Back to Dinosaur Island ",
  "slug": "back-to-dinosaur-island",
  "year": null,
  "description": "",
  "banner_url": "https://lutris.net/games/banner/back-to-dinosaur-island.jpg",
  "icon_url": "https://lutris.net/games/icon/back-to-dinosaur-island.png",
  "is_public": true,
  "updated": "2020-10-08T10:14:45.702767Z",
  "provider_games": [
    {
      "name": "Back to Dinosaur Island ",
      "slug": "412940",
      "service": "steam"
    }
  ],
  "steamid": 412940,
  "gogid": null,
  "gogslug": "",
  "humblestoreid": "",
  "id": 5465
}