{
  "name": "Defend Your Crypt",
  "slug": "defend-your-crypt",
  "year": null,
  "description": "",
  "banner_url": "https://lutris.net/games/banner/defend-your-crypt.jpg",
  "icon_url": "https://lutris.net/games/icon/defend-your-crypt.png",
  "is_public": true,
  "updated": "2020-10-08T10:13:29.887568Z",
  "provider_games": [
    {
      "name": "Defend Your Crypt",
      "slug": "457450",
      "service": "steam"
    }
  ],
  "steamid": 457450,
  "gogid": null,
  "gogslug": "",
  "humblestoreid": "",
  "id": 12550
}