{
  "name": "LISA",
  "slug": "lisa",
  "year": null,
  "description": "",
  "banner_url": "https://lutris.net/games/banner/lisa.jpg",
  "icon_url": "https://lutris.net/games/icon/lisa.png",
  "is_public": true,
  "updated": "2019-01-23T08:30:11.536991Z",
  "provider_games": [
    {
      "name": "LISA",
      "slug": "335670",
      "service": "steam"
    }
  ],
  "steamid": 335670,
  "gogid": null,
  "gogslug": "",
  "humblestoreid": "",
  "id": 4063
}