{
  "name": "ATTACK OF THE KILLER FURRIES",
  "slug": "attack-of-the-killer-furries",
  "year": null,
  "description": "",
  "banner_url": "https://lutris.net/games/banner/attack-of-the-killer-furries.jpg",
  "icon_url": "https://lutris.net/games/icon/attack-of-the-killer-furries.png",
  "is_public": false,
  "updated": "2019-01-23T08:28:28.621365Z",
  "provider_games": [],
  "steamid": 846440,
  "gogid": null,
  "gogslug": "",
  "humblestoreid": "",
  "id": 24477
}