{
  "name": "Galaxy Control: 3D Strategy",
  "slug": "galaxy-control-3d-strategy",
  "year": null,
  "description": "",
  "banner_url": "https://lutris.net/games/banner/galaxy-control-3d-strategy.jpg",
  "icon_url": "https://lutris.net/games/icon/galaxy-control-3d-strategy.png",
  "is_public": true,
  "updated": "2020-10-08T10:17:41.183701Z",
  "provider_games": [
    {
      "name": "Galaxy Control: 3D Strategy",
      "slug": "435440",
      "service": "steam"
    }
  ],
  "steamid": 435440,
  "gogid": null,
  "gogslug": "",
  "humblestoreid": "",
  "id": 7757
}