{
  "name": "Flux",
  "slug": "flux",
  "year": 2017,
  "description": "FLUX presents a variety of limited-difficulty experiences: Interactive fiction with a series of mini-games that challenge you to type, hack-n-slash, organize or fidget to earn credits and purchase numerous cosmetic items: hairstyles, helmets, outfits and upgrades! Designed to allow players to alternate between chill and twitch-based game modes, the game provides players with a number of activities to engage with that offer zero consequences.",
  "banner_url": "https://lutris.net/games/banner/flux.jpg",
  "icon_url": "",
  "is_public": false,
  "updated": "2020-09-09T20:31:16.266711Z",
  "provider_games": [],
  "steamid": null,
  "gogid": null,
  "gogslug": "",
  "humblestoreid": "",
  "id": 38748
}