{
  "name": "Larkin building by Frank Lloyd Wright",
  "slug": "larkin-building-by-frank-lloyd-wright",
  "year": null,
  "description": "",
  "banner_url": "https://lutris.net/games/banner/larkin-building-by-frank-lloyd-wright.jpg",
  "icon_url": "https://lutris.net/games/icon/larkin-building-by-frank-lloyd-wright.png",
  "is_public": true,
  "updated": "2020-10-08T10:08:50.377071Z",
  "provider_games": [
    {
      "name": "Larkin building by Frank Lloyd Wright",
      "slug": "814700",
      "service": "steam"
    }
  ],
  "steamid": 814700,
  "gogid": null,
  "gogslug": "",
  "humblestoreid": "",
  "id": 21619
}