{
  "name": "Hover Bots VR",
  "slug": "hover-bots-vr",
  "year": null,
  "description": "",
  "banner_url": "https://lutris.net/games/banner/hover-bots-vr.jpg",
  "icon_url": "https://lutris.net/games/icon/hover-bots-vr.png",
  "is_public": true,
  "updated": "2020-10-08T10:09:16.066236Z",
  "provider_games": [
    {
      "name": "Hover Bots VR",
      "slug": "672670",
      "service": "steam"
    }
  ],
  "steamid": 672670,
  "gogid": null,
  "gogslug": "",
  "humblestoreid": "",
  "id": 31298
}