{
  "name": "Canvas The Gallery",
  "slug": "canvas-the-gallery",
  "year": null,
  "description": "",
  "banner_url": "https://lutris.net/games/banner/canvas-the-gallery.jpg",
  "icon_url": "https://lutris.net/games/icon/canvas-the-gallery.png",
  "is_public": true,
  "updated": "2020-10-08T10:04:35.332812Z",
  "provider_games": [
    {
      "name": "Canvas The Gallery",
      "slug": "590280",
      "service": "steam"
    }
  ],
  "steamid": 590280,
  "gogid": null,
  "gogslug": "",
  "humblestoreid": "",
  "id": 13340
}