{
  "name": "Brutal.io",
  "slug": "brutalio",
  "year": null,
  "description": "Brutal.io is an online game from the creator of Wings.io.\r\nControl your car and throw your flail against other players!\r\nGrab energy from various sources to grow your flail, become number #1 and dominate the arena in this abstract world where you can even be swallowed by a black hole.",
  "banner_url": "https://lutris.net/games/banner/brutalio.jpg",
  "icon_url": "https://lutris.net/games/icon/brutalio.png",
  "is_public": true,
  "updated": "2019-10-07T04:05:58.361914Z",
  "provider_games": [],
  "steamid": null,
  "gogid": null,
  "gogslug": "",
  "humblestoreid": "",
  "id": 23455
}