{
  "name": "Little Nightmares",
  "slug": "little-nightmares",
  "year": null,
  "description": "",
  "banner_url": "https://lutris.net/games/banner/little-nightmares.jpg",
  "icon_url": "https://lutris.net/games/icon/little-nightmares.png",
  "is_public": true,
  "updated": "2020-05-31T00:17:47.675419Z",
  "provider_games": [
    {
      "name": "Little Nightmares",
      "slug": "1433377508",
      "service": "gog"
    },
    {
      "name": "Little Nightmares",
      "slug": "424840",
      "service": "steam"
    }
  ],
  "steamid": 424840,
  "gogid": 1433377508,
  "gogslug": "little_nightmares",
  "humblestoreid": "",
  "id": 11317
}