{
  "name": "Baldur's Gate II: Complete",
  "slug": "baldurs-gate-ii-complete",
  "year": 2000,
  "description": "Every world has conflict. In Baldur's gate II: Shadows of Amn, you'll find yourself playing between these two factions. This epic sequel to the role playing game of the year will immerse you in a world where your ability to discern the difference between these sides determines your fate.\r\n\r\n* Create a new character or import your Baldur's Gate or Tales of the Sword Coast character into Baldur's Gate II and continue the saga.\r\n* Encounter hundreds of different types of monsters, thousands of NPC's and over 130 new spells in a huge and intricate world.\r\n* Richer quests & subquests, including quests based on class, add more realism than ever before seen in an RPG.",
  "banner_url": "https://lutris.net/games/banner/baldurs-gate-ii-complete.jpg",
  "icon_url": "https://lutris.net/games/icon/baldurs-gate-ii-complete.png",
  "is_public": true,
  "updated": "2020-05-31T00:17:35.371009Z",
  "provider_games": [
    {
      "name": "Baldur's Gate II: Enhanced Edition",
      "slug": "1207666373",
      "service": "gog"
    }
  ],
  "steamid": null,
  "gogid": 1207666373,
  "gogslug": "baldurs_gate_2_enhanced_edition",
  "humblestoreid": "",
  "id": 3257
}