{
  "name": "Colorful Logic 3",
  "slug": "colorful-logic-3",
  "year": 2001,
  "description": "Colorful Logic 3 is a Puzzle game, developed and published by Altron, which was released in Japan in 2001.",
  "banner_url": "https://lutris.net/games/banner/colorful-logic-3.jpg",
  "icon_url": "",
  "is_public": true,
  "updated": "2020-08-29T22:37:00.674063Z",
  "provider_games": [],
  "steamid": null,
  "gogid": null,
  "gogslug": "",
  "humblestoreid": "",
  "id": 37841
}