{
  "name": "Flock VR",
  "slug": "flock-vr",
  "year": null,
  "description": "",
  "banner_url": "https://lutris.net/games/banner/flock-vr.jpg",
  "icon_url": "https://lutris.net/games/icon/flock-vr.png",
  "is_public": true,
  "updated": "2020-10-08T10:05:09.174099Z",
  "provider_games": [
    {
      "name": "Flock VR",
      "slug": "572130",
      "service": "steam"
    }
  ],
  "steamid": 572130,
  "gogid": null,
  "gogslug": "",
  "humblestoreid": "",
  "id": 12931
}