{
  "name": "DayZ",
  "slug": "dayz",
  "year": null,
  "description": "",
  "banner_url": "https://lutris.net/games/banner/dayz.jpg",
  "icon_url": "https://lutris.net/games/icon/dayz.png",
  "is_public": true,
  "updated": "2019-01-23T08:29:05.826439Z",
  "provider_games": [
    {
      "name": "DayZ",
      "slug": "221100",
      "service": "steam"
    }
  ],
  "steamid": 221100,
  "gogid": null,
  "gogslug": "",
  "humblestoreid": "",
  "id": 1423
}