{
  "name": "Lilly Knight",
  "slug": "lilly-knight",
  "year": null,
  "description": "",
  "banner_url": "https://lutris.net/games/banner/lilly-knight.jpg",
  "icon_url": "https://lutris.net/games/icon/lilly-knight.png",
  "is_public": true,
  "updated": "2020-10-08T10:17:45.876698Z",
  "provider_games": [
    {
      "name": "Lilly Knight",
      "slug": "1197770",
      "service": "steam"
    }
  ],
  "steamid": 1197770,
  "gogid": null,
  "gogslug": "",
  "humblestoreid": "",
  "id": 32439
}