{
  "name": "Epic PVP Castles",
  "slug": "epic-pvp-castles",
  "year": null,
  "description": "",
  "banner_url": "https://lutris.net/games/banner/epic-pvp-castles.jpg",
  "icon_url": "https://lutris.net/games/icon/epic-pvp-castles.png",
  "is_public": false,
  "updated": "2019-01-23T08:29:24.077953Z",
  "provider_games": [],
  "steamid": 727300,
  "gogid": null,
  "gogslug": "",
  "humblestoreid": "",
  "id": 15050
}