{
  "name": "Frozen Synapse 2",
  "slug": "frozen-synapse-2",
  "year": 2018,
  "description": "",
  "banner_url": "https://lutris.net/games/banner/frozen-synapse-2.jpg",
  "icon_url": "",
  "is_public": true,
  "updated": "2019-01-23T08:29:35.986124Z",
  "provider_games": [
    {
      "name": "Frozen Synapse 2",
      "slug": "445020",
      "service": "steam"
    }
  ],
  "steamid": 445020,
  "gogid": 1504039647,
  "gogslug": "frozen_synapse_2",
  "humblestoreid": "",
  "id": 24158
}