{
  "id": 12215,
  "game_id": 24001,
  "game_slug": "dustforce-dx",
  "name": "Dustforce DX",
  "year": 2012,
  "user": "ephase",
  "runner": "linux",
  "slug": "dustforce-dx-gog",
  "version": "GOG",
  "description": null,
  "notes": "",
  "created_at": "2019-02-28T18:50:56.682000Z",
  "updated_at": "2019-03-30T00:00:56.259912Z",
  "draft": false,
  "published": true,
  "published_by": 19464,
  "rating": "",
  "steamid": 65300,
  "gogid": 1207660253,
  "gogslug": "dustforce_dx",
  "humbleid": "dustforce",
  "humblestoreid": "dustforce",
  "humblestoreid_real": "dustforce",
  "script": {
    "files": [
      {
        "goginstaller": "N/A:Please select the GOG.com Linux installer"
      }
    ],
    "game": {
      "exe": "start.sh"
    },
    "installer": [
      {
        "extract": {
          "dst": "$CACHE/GOG",
          "file": "goginstaller",
          "format": "zip"
        }
      },
      {
        "merge": {
          "dst": "$GAMEDIR",
          "src": "$CACHE/GOG/data/noarch/"
        }
      }
    ]
  },
  "content": "files:\n- goginstaller: N/A:Please select the GOG.com Linux installer\ngame:\n  exe: start.sh\ninstaller:\n- extract:\n    dst: $CACHE/GOG\n    file: goginstaller\n    format: zip\n- merge:\n    dst: $GAMEDIR\n    src: $CACHE/GOG/data/noarch/\n"
}