{
  "id": 4385,
  "game_id": 11753,
  "game_slug": "knytt-stories",
  "name": "Knytt Stories",
  "year": null,
  "user": "FakeShemp",
  "runner": "wine",
  "slug": "knytt-stories-indiegamestand",
  "version": "IndieGameStand",
  "description": "",
  "notes": "",
  "created_at": "2017-06-16T09:54:15.276026Z",
  "updated_at": "2018-05-19T03:41:51.168770Z",
  "draft": false,
  "published": true,
  "published_by": null,
  "rating": "",
  "steamid": null,
  "gogid": null,
  "gogslug": "",
  "humbleid": "",
  "humblestoreid": "",
  "humblestoreid_real": "",
  "script": {
    "files": [
      {
        "file1": "N/A:Please select the IndieGameStand archive"
      }
    ],
    "game": {
      "arch": "win32",
      "exe": "drive_c/Program Files/Knytt Stories/Knytt Stories.exe",
      "prefix": "$GAMEDIR"
    },
    "installer": [
      {
        "extract": {
          "dst": "$GAMEDIR/drive_c/Program Files/Knytt Stories",
          "file": "$file1"
        }
      }
    ]
  },
  "content": "files:\n- file1: N/A:Please select the IndieGameStand archive\ngame:\n  arch: win32\n  exe: drive_c/Program Files/Knytt Stories/Knytt Stories.exe\n  prefix: $GAMEDIR\ninstaller:\n- extract:\n    dst: $GAMEDIR/drive_c/Program Files/Knytt Stories\n    file: $file1\n"
}