{
  "id": 22149,
  "game_id": 36983,
  "game_slug": "curse-of-the-azure-bonds",
  "name": "Curse of the Azure Bonds",
  "year": null,
  "user": "kiriakos",
  "runner": "linux",
  "slug": "curse-of-the-azure-bonds-gog-2",
  "version": "gog-2",
  "description": "The second game from the GOG \"Forgotten Realms: The Archives - Collection Two\" package",
  "notes": "",
  "created_at": "2020-07-05T17:39:10.391000Z",
  "updated_at": "2020-08-04T10:01:06.487499Z",
  "draft": false,
  "published": true,
  "published_by": 20548,
  "rating": "",
  "steamid": null,
  "gogid": 1432642138,
  "gogslug": "curse_of_the_azure_bonds",
  "humbleid": "",
  "humblestoreid": "",
  "humblestoreid_real": "",
  "script": {
    "files": [
      {
        "goginstaller": "N/A:Please select the GOG.com Linux installer"
      }
    ],
    "game": {
      "exe": "start.sh"
    },
    "installer": [
      {
        "extract": {
          "dst": "$CACHE/GOG",
          "file": "goginstaller",
          "format": "zip"
        }
      },
      {
        "merge": {
          "dst": "$GAMEDIR",
          "src": "$CACHE/GOG/data/noarch/"
        }
      }
    ]
  },
  "content": "files:\n- goginstaller: N/A:Please select the GOG.com Linux installer\ngame:\n  exe: start.sh\ninstaller:\n- extract:\n    dst: $CACHE/GOG\n    file: goginstaller\n    format: zip\n- merge:\n    dst: $GAMEDIR\n    src: $CACHE/GOG/data/noarch/\n"
}