{
  "name": "Cube Quest",
  "slug": "cube-quest",
  "year": 1983,
  "description": "",
  "banner_url": "https://lutris.net/games/banner/cube-quest.jpg",
  "icon_url": "https://lutris.net/games/icon/cube-quest.png",
  "is_public": true,
  "updated": "2020-05-26T03:33:02.164070Z",
  "provider_games": [
    {
      "name": "Cube Quest",
      "slug": "cubeqst",
      "service": "mame"
    }
  ],
  "steamid": null,
  "gogid": null,
  "gogslug": "",
  "humblestoreid": "",
  "id": 33778
}