{
  "id": 3905,
  "game_id": 11452,
  "game_slug": "fatal-fury-special",
  "name": "Fatal Fury Special",
  "year": 1993,
  "user": "FakeShemp",
  "runner": "linux",
  "slug": "fatal-fury-special-humble",
  "version": "Humble",
  "description": "",
  "notes": "",
  "created_at": "2017-05-26T15:52:01.754897Z",
  "updated_at": "2017-05-27T23:58:14.551529Z",
  "draft": false,
  "published": true,
  "published_by": null,
  "rating": "",
  "steamid": null,
  "gogid": 1226880572,
  "gogslug": "fatal_fury_special",
  "humbleid": "fatalfury_special",
  "humblestoreid": "fatalfury_special",
  "humblestoreid_real": "fatalfury_special",
  "script": {
    "exe": "NeogeoEmu.bin.x86",
    "exe64": "NeogeoEmu.bin.x86_64",
    "files": [
      {
        "file1": "N/A:Please select the Humble installer"
      }
    ],
    "installer": [
      {
        "extract": {
          "dst": "$CACHE",
          "file": "$file1",
          "format": "zip"
        }
      },
      {
        "merge": {
          "dst": "$GAMEDIR",
          "src": "$CACHE/data/noarch"
        }
      },
      {
        "merge": {
          "dst": "$GAMEDIR",
          "src": "$CACHE/data/x86"
        }
      },
      {
        "merge": {
          "dst": "$GAMEDIR",
          "src": "$CACHE/data/x86_64"
        }
      }
    ]
  },
  "content": "exe: NeogeoEmu.bin.x86\nexe64: NeogeoEmu.bin.x86_64\nfiles:\n- file1: N/A:Please select the Humble installer\ninstaller:\n- extract:\n    dst: $CACHE\n    file: $file1\n    format: zip\n- merge:\n    dst: $GAMEDIR\n    src: $CACHE/data/noarch\n- merge:\n    dst: $GAMEDIR\n    src: $CACHE/data/x86\n- merge:\n    dst: $GAMEDIR\n    src: $CACHE/data/x86_64\n"
}