{
  "name": "Legend of Hand",
  "slug": "legend-of-hand",
  "year": null,
  "description": "",
  "banner_url": "https://lutris.net/games/banner/legend-of-hand.jpg",
  "icon_url": "https://lutris.net/games/icon/legend-of-hand.png",
  "is_public": true,
  "updated": "2020-10-08T10:04:23.838013Z",
  "provider_games": [
    {
      "name": "Legend of Hand",
      "slug": "595560",
      "service": "steam"
    }
  ],
  "steamid": 595560,
  "gogid": null,
  "gogslug": "",
  "humblestoreid": "",
  "id": 14679
}