{
  "id": 5513,
  "game_id": 1642,
  "game_slug": "bleed",
  "name": "Bleed",
  "year": null,
  "user": "FakeShemp",
  "runner": "wine",
  "slug": "bleed-groupees",
  "version": "Groupees",
  "description": "",
  "notes": "",
  "created_at": "2017-08-24T09:15:56.644000Z",
  "updated_at": "2018-05-19T03:41:56.703795Z",
  "draft": false,
  "published": true,
  "published_by": null,
  "rating": "",
  "steamid": 239800,
  "gogid": null,
  "gogslug": "",
  "humbleid": "",
  "humblestoreid": "",
  "humblestoreid_real": "",
  "script": {
    "files": [
      {
        "file1": "N/A:Please select the Groupees archive"
      }
    ],
    "game": {
      "arch": "win32",
      "exe": "drive_c/Program Files/Bleed/Bleed.exe",
      "prefix": "$GAMEDIR"
    },
    "installer": [
      {
        "extract": {
          "dst": "$CACHE",
          "file": "$file1"
        }
      },
      {
        "task": {
          "app": "xna40",
          "name": "winetricks",
          "prefix": "$GAMEDIR"
        }
      },
      {
        "task": {
          "args": "/sp- /verysilent /norestart /suppressmsgboxes /nogui",
          "executable": "$CACHE/windows-bleed-1.7.exe",
          "name": "wineexec",
          "prefix": "$GAMEDIR"
        }
      }
    ]
  },
  "content": "files:\n- file1: N/A:Please select the Groupees archive\ngame:\n  arch: win32\n  exe: drive_c/Program Files/Bleed/Bleed.exe\n  prefix: $GAMEDIR\ninstaller:\n- extract:\n    dst: $CACHE\n    file: $file1\n- task:\n    app: xna40\n    name: winetricks\n    prefix: $GAMEDIR\n- task:\n    args: /sp- /verysilent /norestart /suppressmsgboxes /nogui\n    executable: $CACHE/windows-bleed-1.7.exe\n    name: wineexec\n    prefix: $GAMEDIR\n"
}