{
  "name": "Co-Co CORN MAFIA",
  "slug": "co-co-corn-mafia",
  "year": null,
  "description": "",
  "banner_url": "https://lutris.net/games/banner/co-co-corn-mafia.jpg",
  "icon_url": "https://lutris.net/games/icon/co-co-corn-mafia.png",
  "is_public": false,
  "updated": "2019-01-23T08:28:55.254488Z",
  "provider_games": [],
  "steamid": 604160,
  "gogid": null,
  "gogslug": "",
  "humblestoreid": "",
  "id": 23539
}