{
  "name": "A New World: Kingdoms",
  "slug": "a-new-world-kingdoms",
  "year": null,
  "description": "",
  "banner_url": "https://lutris.net/games/banner/a-new-world-kingdoms.jpg",
  "icon_url": "https://lutris.net/games/icon/a-new-world-kingdoms.png",
  "is_public": true,
  "updated": "2020-10-08T10:03:18.262419Z",
  "provider_games": [
    {
      "name": "A New World: Kingdoms",
      "slug": "628650",
      "service": "steam"
    }
  ],
  "steamid": 628650,
  "gogid": null,
  "gogslug": "",
  "humblestoreid": "",
  "id": 22435
}