{
  "name": "Dawn of Magic 2",
  "slug": "dawn-of-magic-2",
  "year": null,
  "description": "",
  "banner_url": "https://lutris.net/games/banner/dawn-of-magic-2.jpg",
  "icon_url": "https://lutris.net/games/icon/dawn-of-magic-2.png",
  "is_public": true,
  "updated": "2019-01-23T08:29:05.515852Z",
  "provider_games": [
    {
      "name": "Dawn of Magic 2",
      "slug": "33540",
      "service": "steam"
    }
  ],
  "steamid": 33540,
  "gogid": null,
  "gogslug": "",
  "humblestoreid": "",
  "id": 1371
}