{
  "name": "Fright Light",
  "slug": "fright-light",
  "year": null,
  "description": "",
  "banner_url": "https://lutris.net/games/banner/fright-light.jpg",
  "icon_url": "https://lutris.net/games/icon/fright-light.png",
  "is_public": true,
  "updated": "2020-10-08T10:06:44.576202Z",
  "provider_games": [
    {
      "name": "Fright Light",
      "slug": "520290",
      "service": "steam"
    }
  ],
  "steamid": 520290,
  "gogid": null,
  "gogslug": "",
  "humblestoreid": "",
  "id": 30682
}