{
  "name": "Ironsmith Simulator: Prologue",
  "slug": "ironsmith-simulator-prologue",
  "year": null,
  "description": "",
  "banner_url": "https://lutris.net/games/banner/ironsmith-simulator-prologue.jpg",
  "icon_url": "https://lutris.net/games/icon/ironsmith-simulator-prologue.png",
  "is_public": true,
  "updated": "2020-10-08T10:00:00.177870Z",
  "provider_games": [
    {
      "name": "Ironsmith Simulator: Prologue",
      "slug": "1316640",
      "service": "steam"
    }
  ],
  "steamid": 1316640,
  "gogid": null,
  "gogslug": "",
  "humblestoreid": "",
  "id": 37656
}