{
  "name": "BurgerTime",
  "slug": "burgertime",
  "year": 1982,
  "description": "As Chef Peter Pepper, you must fend off the Food Foes while making perfect burgers! Each ingredient is located on a different platform, and you must climb a series of ladders in order to reach them all. Walk across the ingredient to drop it closer to the waiting plate below. Once all the burgers have been completed, you’ll be able to move on to the next level. Use pinches of pepper to stun Mr. Hot Dog, Mr. Egg and Mr. Pickle. You can also lure them onto or under burger buns, lettuce, cheese or tomatoes to escape their clutches! Making perfect burgers gets progressively tougher through the six screens of BurgerTime. It’s the ultimate kitchen confrontation! ",
  "banner_url": "https://lutris.net/games/banner/burgertime.jpg",
  "icon_url": "",
  "is_public": true,
  "updated": "2019-01-23T08:28:43.416376Z",
  "provider_games": [],
  "steamid": null,
  "gogid": null,
  "gogslug": "",
  "humblestoreid": "",
  "id": 4389
}