{
  "name": "John Cena's Sexy Holiday Surprise!",
  "slug": "john-cenas-sexy-holiday-surprise",
  "year": 2015,
  "description": "It's Christmas time with your favorite, coincidentally identical looking boys! Can Fucco-san get a present in time to save Xmas?\r\n\r\nA very, very, very, very, VERY, short story that teaches you love, loyalty, peace and respect!\r\n\r\n* No decisions!\r\n* New Cenas!\r\n* Funny moment(s)!\r\n* Teaches you the true meaning of Xmas*!\r\n\r\n*May or may not teach you the true meaning of Christmas",
  "banner_url": "https://lutris.net/games/banner/john-cenas-sexy-holiday-surprise.jpg",
  "icon_url": "",
  "is_public": true,
  "updated": "2019-01-23T08:30:00.874536Z",
  "provider_games": [],
  "steamid": null,
  "gogid": null,
  "gogslug": "",
  "humblestoreid": "",
  "id": 12249
}