{
  "name": "Crankies Workshop: Grizzbot Assembly",
  "slug": "crankies-workshop-grizzbot-assembly",
  "year": null,
  "description": "",
  "banner_url": "https://lutris.net/games/banner/crankies-workshop-grizzbot-assembly.jpg",
  "icon_url": "https://lutris.net/games/icon/crankies-workshop-grizzbot-assembly.png",
  "is_public": false,
  "updated": "2019-01-23T08:28:59.331647Z",
  "provider_games": [],
  "steamid": 705420,
  "gogid": null,
  "gogslug": "",
  "humblestoreid": "",
  "id": 17596
}