{
  "name": "Cologne",
  "slug": "cologne",
  "year": null,
  "description": "",
  "banner_url": "https://lutris.net/games/banner/cologne.jpg",
  "icon_url": "https://lutris.net/games/icon/cologne.png",
  "is_public": true,
  "updated": "2020-10-08T10:13:51.324840Z",
  "provider_games": [
    {
      "name": "Cologne",
      "slug": "444740",
      "service": "steam"
    }
  ],
  "steamid": 444740,
  "gogid": null,
  "gogslug": "",
  "humblestoreid": "",
  "id": 14916
}