{
  "name": "Gunship!",
  "slug": "gunship",
  "year": null,
  "description": "",
  "banner_url": "https://lutris.net/games/banner/gunship.jpg",
  "icon_url": "https://lutris.net/games/icon/gunship.png",
  "is_public": true,
  "updated": "2020-10-08T09:20:36.839269Z",
  "provider_games": [
    {
      "name": "Gunship!",
      "slug": "1739974125",
      "service": "gog"
    },
    {
      "name": "Gunship!",
      "slug": "286730",
      "service": "steam"
    }
  ],
  "steamid": 286730,
  "gogid": 1739974125,
  "gogslug": "gunship",
  "humblestoreid": "",
  "id": 3491
}