{
  "name": "Heroes of Loot",
  "slug": "heroes-of-loot",
  "year": null,
  "description": "",
  "banner_url": "https://lutris.net/games/banner/heroes-of-loot.jpg",
  "icon_url": "https://lutris.net/games/icon/heroes-of-loot.png",
  "is_public": true,
  "updated": "2020-10-08T10:16:20.810561Z",
  "provider_games": [
    {
      "name": "Heroes of Loot",
      "slug": "359280",
      "service": "steam"
    }
  ],
  "steamid": 359280,
  "gogid": null,
  "gogslug": "",
  "humblestoreid": "",
  "id": 5334
}