{
  "id": 15694,
  "game_id": 26487,
  "game_slug": "growtopia",
  "name": "Growtopia",
  "year": 2013,
  "user": "mrshroomy",
  "runner": "wine",
  "slug": "growtopia-growtopia",
  "version": "Growtopia",
  "description": null,
  "notes": "",
  "created_at": "2019-09-19T08:33:17.974000Z",
  "updated_at": "2020-01-23T02:57:14.925020Z",
  "draft": false,
  "published": true,
  "published_by": 19464,
  "rating": "",
  "steamid": null,
  "gogid": null,
  "gogslug": "",
  "humbleid": "",
  "humblestoreid": "",
  "humblestoreid_real": "",
  "script": {
    "script": {
      "files": [
        {
          "installer": "https://growtopiagame.com/Growtopia-Installer.exe"
        }
      ],
      "game": {
        "exe": "drive_c/users/$USER/Local Settings/Application Data/Growtopia/Growtopia.exe",
        "prefix": "$GAMEDIR"
      },
      "installer": [
        {
          "task": {
            "name": "create_prefix",
            "prefix": "$GAMEDIR"
          }
        },
        {
          "task": {
            "description": "Running installer",
            "executable": "installer",
            "name": "wineexec",
            "prefix": "$GAMEDIR"
          }
        }
      ]
    }
  },
  "content": "script:\n  files:\n  - installer: https://growtopiagame.com/Growtopia-Installer.exe\n  game:\n    exe: drive_c/users/$USER/Local Settings/Application Data/Growtopia/Growtopia.exe\n    prefix: $GAMEDIR\n  installer:\n  - task:\n      name: create_prefix\n      prefix: $GAMEDIR\n  - task:\n      description: Running installer\n      executable: installer\n      name: wineexec\n      prefix: $GAMEDIR\n"
}