{
  "name": "Iron Man",
  "slug": "iron-man",
  "year": null,
  "description": "",
  "banner_url": "https://lutris.net/games/banner/iron-man.jpg",
  "icon_url": "https://lutris.net/games/icon/iron-man.png",
  "is_public": true,
  "updated": "2020-10-08T10:02:41.588283Z",
  "provider_games": [
    {
      "name": "Iron Man",
      "slug": "10490",
      "service": "steam"
    }
  ],
  "steamid": 10490,
  "gogid": null,
  "gogslug": "",
  "humblestoreid": "",
  "id": 18195
}