{
  "name": "Door Kickers",
  "slug": "door-kickers",
  "year": 2014,
  "description": "Door Kickers is an innovative realtime strategy game that puts you in charge of a SWAT team and lets you command them during a tactical intervention.\r\n\r\nAnalyze the situation, plan team routes, choose equipment and breach points and coordinate multiple troopers to reach the hostage room before the bad guys get to press that trigger.\r\n\r\nIt may sound daunting, and like real world CQB combat, it sure is. But most levels can be completed in minutes and on the fly improvisation works. Achieving the perfect planning, getting the mission done with no false steps, that’s a skill harder to master.",
  "banner_url": "https://lutris.net/games/banner/door-kickers.jpg",
  "icon_url": "https://lutris.net/games/icon/door-kickers.png",
  "is_public": true,
  "updated": "2020-05-31T00:17:40.376843Z",
  "provider_games": [
    {
      "name": "Door Kickers",
      "slug": "1207666463",
      "service": "gog"
    },
    {
      "name": "Door Kickers",
      "slug": "doorkickers",
      "service": "humblebundle"
    },
    {
      "name": "Door Kickers",
      "slug": "248610",
      "service": "steam"
    }
  ],
  "steamid": 248610,
  "gogid": 1207666463,
  "gogslug": "door_kickers",
  "humblestoreid": "door-kickers",
  "id": 1045
}