{
  "id": 4441,
  "game_id": 238,
  "game_slug": "spacechem",
  "name": "SpaceChem",
  "year": 2011,
  "user": "FakeShemp",
  "runner": "linux",
  "slug": "spacechem-humble-64bit-deb",
  "version": "Humble (64bit deb)",
  "description": "",
  "notes": "",
  "created_at": "2017-06-17T20:37:00.220101Z",
  "updated_at": "2017-06-18T23:22:09.852020Z",
  "draft": false,
  "published": true,
  "published_by": null,
  "rating": "",
  "steamid": 92800,
  "gogid": 1207659018,
  "gogslug": "spacechem",
  "humbleid": "spacechem_android_pc_soundtrack",
  "humblestoreid": "spacechem_android_pc_soundtrack",
  "humblestoreid_real": "spacechem_android_pc_soundtrack",
  "script": {
    "exe": "spacechem/spacechem-launcher.sh",
    "files": [
      {
        "file1": "N/A:Please select the Humble installer"
      }
    ],
    "installer": [
      {
        "extract": {
          "dst": "$CACHE",
          "file": "$file1",
          "format": "ar"
        }
      },
      {
        "extract": {
          "dst": "$CACHE",
          "file": "$CACHE/data.tar.gz"
        }
      },
      {
        "move": {
          "dst": "$GAMEDIR",
          "src": "$CACHE/opt/zachtronicsindustries/spacechem"
        }
      }
    ]
  },
  "content": "exe: spacechem/spacechem-launcher.sh\nfiles:\n- file1: N/A:Please select the Humble installer\ninstaller:\n- extract:\n    dst: $CACHE\n    file: $file1\n    format: ar\n- extract:\n    dst: $CACHE\n    file: $CACHE/data.tar.gz\n- move:\n    dst: $GAMEDIR\n    src: $CACHE/opt/zachtronicsindustries/spacechem\n"
}