{
  "name": "Enemy",
  "slug": "enemy",
  "year": null,
  "description": "",
  "banner_url": "https://lutris.net/games/banner/enemy.jpg",
  "icon_url": "https://lutris.net/games/icon/enemy.png",
  "is_public": true,
  "updated": "2020-10-08T09:19:19.086406Z",
  "provider_games": [
    {
      "name": "Enemy",
      "slug": "339570",
      "service": "steam"
    }
  ],
  "steamid": 339570,
  "gogid": null,
  "gogslug": "",
  "humblestoreid": "",
  "id": 4522
}