{
  "name": "Legend",
  "slug": "legend",
  "year": null,
  "description": "",
  "banner_url": "https://lutris.net/games/banner/legend.jpg",
  "icon_url": "https://lutris.net/games/icon/legend.png",
  "is_public": true,
  "updated": "2020-10-08T10:14:46.251207Z",
  "provider_games": [
    {
      "name": "Legend",
      "slug": "412380",
      "service": "steam"
    }
  ],
  "steamid": 412380,
  "gogid": null,
  "gogslug": "",
  "humblestoreid": "",
  "id": 7955
}