{
  "name": "Beyond The Wire",
  "slug": "beyond-the-wire",
  "year": null,
  "description": "",
  "banner_url": "https://lutris.net/games/banner/beyond-the-wire.jpg",
  "icon_url": "https://lutris.net/games/icon/beyond-the-wire.png",
  "is_public": true,
  "updated": "2020-10-08T10:17:57.649285Z",
  "provider_games": [
    {
      "name": "Beyond The Wire",
      "slug": "1058650",
      "service": "steam"
    }
  ],
  "steamid": 1058650,
  "gogid": null,
  "gogslug": "",
  "humblestoreid": "",
  "id": 38141
}