{
  "name": "Incredible Dracula: The Ice Kingdom",
  "slug": "incredible-dracula-the-ice-kingdom",
  "year": null,
  "description": "",
  "banner_url": "https://lutris.net/games/banner/incredible-dracula-the-ice-kingdom.jpg",
  "icon_url": "https://lutris.net/games/icon/incredible-dracula-the-ice-kingdom.png",
  "is_public": true,
  "updated": "2020-10-08T09:18:54.667056Z",
  "provider_games": [
    {
      "name": "Incredible Dracula: The Ice Kingdom",
      "slug": "1175170",
      "service": "steam"
    }
  ],
  "steamid": 1175170,
  "gogid": null,
  "gogslug": "",
  "humblestoreid": "",
  "id": 31241
}