{
  "name": "Graviteam Tactics: Operation Star",
  "slug": "graviteam-tactics-operation-star",
  "year": null,
  "description": "",
  "banner_url": "https://lutris.net/games/banner/graviteam-tactics-operation-star.jpg",
  "icon_url": "https://lutris.net/games/icon/graviteam-tactics-operation-star.png",
  "is_public": true,
  "updated": "2020-10-08T09:20:48.596643Z",
  "provider_games": [
    {
      "name": "Graviteam Tactics: Operation Star",
      "slug": "275290",
      "service": "steam"
    }
  ],
  "steamid": 275290,
  "gogid": null,
  "gogslug": "",
  "humblestoreid": "",
  "id": 4749
}