{
  "name": "Beat the Blitz",
  "slug": "beat-the-blitz",
  "year": null,
  "description": "",
  "banner_url": "https://lutris.net/games/banner/beat-the-blitz.jpg",
  "icon_url": "https://lutris.net/games/icon/beat-the-blitz.png",
  "is_public": true,
  "updated": "2020-10-08T09:58:57.373298Z",
  "provider_games": [
    {
      "name": "Beat the Blitz",
      "slug": "748420",
      "service": "steam"
    }
  ],
  "steamid": 748420,
  "gogid": null,
  "gogslug": "",
  "humblestoreid": "",
  "id": 21577
}