{
  "name": "Blasters of the Universe",
  "slug": "blasters-of-the-universe",
  "year": null,
  "description": "",
  "banner_url": "https://lutris.net/games/banner/blasters-of-the-universe.jpg",
  "icon_url": "https://lutris.net/games/icon/blasters-of-the-universe.png",
  "is_public": true,
  "updated": "2020-10-08T10:07:41.726063Z",
  "provider_games": [
    {
      "name": "Blasters of the Universe",
      "slug": "490490",
      "service": "steam"
    }
  ],
  "steamid": 490490,
  "gogid": null,
  "gogslug": "",
  "humblestoreid": "",
  "id": 8851
}