{
  "name": "Homing",
  "slug": "homing",
  "year": 2020,
  "description": "A low-poly epistolary game where you navigate a messenger pigeon through a city. During your journey, you hear the contents of the letter you're delivering.",
  "banner_url": "https://lutris.net/games/banner/homing.jpg",
  "icon_url": "",
  "is_public": true,
  "updated": "2020-09-30T05:34:50.818769Z",
  "provider_games": [],
  "steamid": null,
  "gogid": null,
  "gogslug": "",
  "humblestoreid": "",
  "id": 39387
}