{
  "name": "Front Line",
  "slug": "front-line",
  "year": 1982,
  "description": "",
  "banner_url": "https://lutris.net/games/banner/front-line.jpg",
  "icon_url": "https://lutris.net/games/icon/front-line.png",
  "is_public": true,
  "updated": "2020-05-26T03:33:54.294368Z",
  "provider_games": [
    {
      "name": "Front Line",
      "slug": "frontlin",
      "service": "mame"
    }
  ],
  "steamid": null,
  "gogid": null,
  "gogslug": "",
  "humblestoreid": "",
  "id": 34147
}