{
  "id": 4015,
  "game_id": 2628,
  "game_slug": "loren-the-amazon-princess",
  "name": "Loren The Amazon Princess",
  "year": 2012,
  "user": "FakeShemp",
  "runner": "linux",
  "slug": "loren-the-amazon-princess-demo",
  "version": "Demo",
  "description": "",
  "notes": "",
  "created_at": "2017-05-31T17:21:33.629553Z",
  "updated_at": "2017-06-04T21:48:04.632189Z",
  "draft": false,
  "published": true,
  "published_by": null,
  "rating": "",
  "steamid": 257970,
  "gogid": null,
  "gogslug": "",
  "humbleid": "",
  "humblestoreid": "",
  "humblestoreid_real": "",
  "script": {
    "exe": "LorenRPG.sh",
    "files": [
      {
        "file1": "http://www.winterwolves.com/download.php?game=LorenRPG-1.3.4.tar.bz2"
      }
    ],
    "installer": [
      {
        "extract": {
          "file": "$file1"
        }
      }
    ]
  },
  "content": "exe: LorenRPG.sh\nfiles:\n- file1: http://www.winterwolves.com/download.php?game=LorenRPG-1.3.4.tar.bz2\ninstaller:\n- extract:\n    file: $file1\n"
}