{
  "name": "EvilMorph",
  "slug": "evilmorph",
  "year": null,
  "description": "",
  "banner_url": "https://lutris.net/games/banner/evilmorph.jpg",
  "icon_url": "https://lutris.net/games/icon/evilmorph.png",
  "is_public": true,
  "updated": "2020-10-08T10:05:25.906068Z",
  "provider_games": [
    {
      "name": "EvilMorph",
      "slug": "562490",
      "service": "steam"
    }
  ],
  "steamid": 562490,
  "gogid": null,
  "gogslug": "",
  "humblestoreid": "",
  "id": 12883
}