{
  "id": 19590,
  "game_id": 28954,
  "game_slug": "leather-goddesses-of-phobos",
  "name": "Leather Goddesses of Phobos",
  "year": 1986,
  "user": "appoloin",
  "runner": "frotz",
  "slug": "leather-goddesses-of-phobos-ms-dos",
  "version": "MS-DOS",
  "description": null,
  "notes": "",
  "created_at": "2020-04-10T10:31:27.936037Z",
  "updated_at": "2020-04-10T10:31:27.936063Z",
  "draft": false,
  "published": false,
  "published_by": null,
  "rating": "",
  "steamid": null,
  "gogid": null,
  "gogslug": "",
  "humbleid": "",
  "humblestoreid": "",
  "humblestoreid_real": "",
  "script": {
    "files": [
      {
        "game": "N/A:Select the story file"
      }
    ],
    "game": {
      "story": "$GAMEDIR/leather.z5"
    },
    "installer": [
      {
        "execute": {
          "args": "$game $GAMEDIR/leather.z5",
          "file": "/bin/cp"
        }
      }
    ]
  },
  "content": "files:\n- game: N/A:Select the story file\ngame:\n  story: $GAMEDIR/leather.z5\ninstaller:\n- execute:\n    args: $game $GAMEDIR/leather.z5\n    file: /bin/cp\n"
}