{
  "name": "King Arthur II: The Role-Playing Wargame + Dead Legions",
  "slug": "king-arthur-ii-the-role-playing-wargame-dead-legio",
  "year": 2012,
  "description": "",
  "banner_url": "https://lutris.net/games/banner/king-arthur-ii-the-role-playing-wargame-dead-legio.jpg",
  "icon_url": "",
  "is_public": true,
  "updated": "2020-05-31T00:17:46.555682Z",
  "provider_games": [
    {
      "name": "King Arthur II: The Role-Playing Wargame + Dead Legions",
      "slug": "1442577441",
      "service": "gog"
    }
  ],
  "steamid": null,
  "gogid": 1442577441,
  "gogslug": "king_arthur_ii_the_roleplaying_wargame_dead_legions",
  "humblestoreid": "",
  "id": 24120
}