{
  "name": "City Of Brass",
  "slug": "city-of-brass",
  "year": 2018,
  "description": "Leaping from the pages of the Arabian Nights, adventure awaits in the accursed City of Brass – a place of legend, filled with danger and reward. Infested with mischievous spirits and deadly traps, its shifting streets are brimming with the wealth of a nation.\r\n\r\nAssume the role of a cunning thief, battling to reach a fabled treasure at the city’s heart, wielding weapons & a whip that can be used to disarm, trip or stun enemies, to swing to safety, grab inaccessible objects or even break through flimsy barricades.\r\n\r\nLeap across pits, slide under blades, dodge spears, and sidestep poison gas traps – all the while manipulating hazards to your advantage against diverse spirit foes.",
  "banner_url": "https://lutris.net/games/banner/city-of-brass.jpg",
  "icon_url": "https://lutris.net/games/icon/city-of-brass.png",
  "is_public": true,
  "updated": "2020-10-08T09:20:15.634392Z",
  "provider_games": [
    {
      "name": "City Of Brass",
      "slug": "301840",
      "service": "steam"
    }
  ],
  "steamid": 301840,
  "gogid": null,
  "gogslug": "",
  "humblestoreid": "",
  "id": 20870
}