{
  "name": "dontbegrey",
  "slug": "dontbegrey",
  "year": null,
  "description": "",
  "banner_url": "https://lutris.net/games/banner/dontbegrey.jpg",
  "icon_url": "https://lutris.net/games/icon/dontbegrey.png",
  "is_public": true,
  "updated": "2020-10-08T10:09:02.238035Z",
  "provider_games": [
    {
      "name": "dontbegrey",
      "slug": "681490",
      "service": "steam"
    }
  ],
  "steamid": 681490,
  "gogid": null,
  "gogslug": "",
  "humblestoreid": "",
  "id": 22513
}