{
  "name": "AMID EVIL",
  "slug": "amid-evil",
  "year": null,
  "description": "",
  "banner_url": "https://lutris.net/games/banner/amid-evil.jpg",
  "icon_url": "https://lutris.net/games/icon/amid-evil.png",
  "is_public": true,
  "updated": "2020-05-31T00:17:34.144840Z",
  "provider_games": [
    {
      "name": "AMID EVIL",
      "slug": "2023945788",
      "service": "gog"
    },
    {
      "name": "AMID EVIL",
      "slug": "673130",
      "service": "steam"
    }
  ],
  "steamid": 673130,
  "gogid": 2023945788,
  "gogslug": "amid_evil",
  "humblestoreid": "",
  "id": 19252
}