{
  "name": "Europa Universalis: Rome - Gold Edition",
  "slug": "europa-universalis-rome-gold-edition",
  "year": null,
  "description": "",
  "banner_url": "https://lutris.net/games/banner/europa-universalis-rome-gold-edition.jpg",
  "icon_url": "https://lutris.net/games/icon/europa-universalis-rome-gold-edition.png",
  "is_public": true,
  "updated": "2019-01-23T08:29:25.813646Z",
  "provider_games": [
    {
      "name": "Europa Universalis: Rome - Gold Edition",
      "slug": "23420",
      "service": "steam"
    }
  ],
  "steamid": 23420,
  "gogid": null,
  "gogslug": "",
  "humblestoreid": "",
  "id": 1925
}