{
  "name": "de Blob",
  "slug": "de-blob",
  "year": null,
  "description": "",
  "banner_url": "https://lutris.net/games/banner/de-blob.jpg",
  "icon_url": "https://lutris.net/games/icon/de-blob.png",
  "is_public": true,
  "updated": "2020-10-08T10:06:20.912890Z",
  "provider_games": [
    {
      "name": "de Blob",
      "slug": "1466287699",
      "service": "gog"
    },
    {
      "name": "de Blob",
      "slug": "532320",
      "service": "steam"
    }
  ],
  "steamid": 532320,
  "gogid": 1466287699,
  "gogslug": "de_blob",
  "humblestoreid": "",
  "id": 20907
}