{
  "name": "Dark Romance: Vampire in Love Collector's Edition",
  "slug": "dark-romance-vampire-in-love-collectors-edition",
  "year": 2014,
  "description": "Emily and Enron love each other and want to be together. But Enron is hiding a terrible secret – he is the son of Dracula. And just as Enron wants to tell Emily the whole truth about himself, she is kidnapped. No one knows where she is. But there are all the signs that she was abducted from her apartment against her will.Meanwhile, Emily wakes up in a gloomy room with numerous coffins and the ghost of a little girl tells her that Emily has to hurry in order to be rescued. So Emily and Enron must hurry to find each other. But can they do this? You will learn this from the game Dark Romance: Vampire In Love Collector’s Edition.",
  "banner_url": "https://lutris.net/games/banner/dark-romance-vampire-in-love-collectors-edition.jpg",
  "icon_url": "https://lutris.net/games/icon/dark-romance-vampire-in-love-collectors-edition.png",
  "is_public": true,
  "updated": "2019-01-23T08:29:04.643569Z",
  "provider_games": [
    {
      "name": "Dark Romance: Vampire in Love Collector's Edition",
      "slug": "723930",
      "service": "steam"
    }
  ],
  "steamid": 723930,
  "gogid": null,
  "gogslug": "",
  "humblestoreid": "",
  "id": 19468
}