{
  "name": "Dead Sky",
  "slug": "dead-sky",
  "year": null,
  "description": "",
  "banner_url": "https://lutris.net/games/banner/dead-sky.jpg",
  "icon_url": "https://lutris.net/games/icon/dead-sky.png",
  "is_public": true,
  "updated": "2019-01-23T08:29:06.874855Z",
  "provider_games": [
    {
      "name": "Dead Sky",
      "slug": "259700",
      "service": "steam"
    }
  ],
  "steamid": 259700,
  "gogid": null,
  "gogslug": "",
  "humblestoreid": "",
  "id": 943
}