{
  "name": "Laguna Racer",
  "slug": "laguna-racer",
  "year": 1977,
  "description": "",
  "banner_url": "",
  "icon_url": "https://lutris.net/games/icon/laguna-racer.png",
  "is_public": true,
  "updated": "2020-05-26T03:35:10.565986Z",
  "provider_games": [
    {
      "name": "Laguna Racer",
      "slug": "lagunar",
      "service": "mame"
    }
  ],
  "steamid": null,
  "gogid": null,
  "gogslug": "",
  "humblestoreid": "",
  "id": 34686
}