{
  "name": "F-22 Lightning 3",
  "slug": "f-22-lightning-3",
  "year": null,
  "description": "",
  "banner_url": "https://lutris.net/games/banner/f-22-lightning-3.jpg",
  "icon_url": "https://lutris.net/games/icon/f-22-lightning-3.png",
  "is_public": true,
  "updated": "2020-10-08T10:02:18.627603Z",
  "provider_games": [
    {
      "name": "F-22 Lightning 3",
      "slug": "32730",
      "service": "steam"
    }
  ],
  "steamid": 32730,
  "gogid": null,
  "gogslug": "",
  "humblestoreid": "",
  "id": 2724
}