{
  "name": "Alien Attack in Space",
  "slug": "alien-attack-in-space",
  "year": null,
  "description": "",
  "banner_url": "https://lutris.net/games/banner/alien-attack-in-space.jpg",
  "icon_url": "https://lutris.net/games/icon/alien-attack-in-space.png",
  "is_public": true,
  "updated": "2020-10-08T10:15:23.284847Z",
  "provider_games": [
    {
      "name": "Alien Attack",
      "slug": "391310",
      "service": "steam"
    }
  ],
  "steamid": 391310,
  "gogid": null,
  "gogslug": "",
  "humblestoreid": "",
  "id": 7468
}