{
  "id": 24027,
  "game_id": 13834,
  "game_slug": "aven-colony",
  "name": "Aven Colony",
  "year": 2017,
  "user": "provocun7",
  "runner": "wine",
  "slug": "aven-colony-gog-wine",
  "version": "GOG Wine",
  "description": "platinum - everything works",
  "notes": "If the game starts but then crashes (visuals not loading) manually apply https://github.com/z0z0z/mf-install (this issue is solved in current wine versions).",
  "created_at": "2020-10-22T00:42:56.387000Z",
  "updated_at": "2020-11-10T10:22:19.155531Z",
  "draft": false,
  "published": true,
  "published_by": 494,
  "rating": "",
  "steamid": 484900,
  "gogid": 1824175646,
  "gogslug": "aven_colony",
  "humbleid": "",
  "humblestoreid": "",
  "humblestoreid_real": "",
  "script": {
    "files": [
      {
        "setup": "N/A:Select GOG Aven Colony Windows setup.exe"
      }
    ],
    "game": {
      "arch": "win64",
      "exe": "drive_c/GOG Games/Aven Colony/AvenColony.exe",
      "prefix": "$GAMEDIR"
    },
    "installer": [
      {
        "task": {
          "name": "create_prefix",
          "prefix": "$GAMEDIR"
        }
      },
      {
        "task": {
          "executable": "setup",
          "name": "wineexec",
          "prefix": "$GAMEDIR"
        }
      }
    ],
    "wine": {
      "Desktop": true
    }
  },
  "content": "files:\n- setup: N/A:Select GOG Aven Colony Windows setup.exe\ngame:\n  arch: win64\n  exe: drive_c/GOG Games/Aven Colony/AvenColony.exe\n  prefix: $GAMEDIR\ninstaller:\n- task:\n    name: create_prefix\n    prefix: $GAMEDIR\n- task:\n    executable: setup\n    name: wineexec\n    prefix: $GAMEDIR\nwine:\n  Desktop: true\n"
}