{
  "name": "ESC",
  "slug": "esc",
  "year": 2018,
  "description": "an interactive novel about identity, roleplay, and dreams\r\n\r\nEnter the memories of Raine as she explores the text-based world of VerdaMUCK, a simulation of the old network within the vast cerebrally-interconnected network of the near future. Meanwhile, a mysterious individual known only as The Navigator exposes the truths of the Cerenet as a conspiracy-in-the-making begins to unfold.",
  "banner_url": "https://lutris.net/games/banner/esc.jpg",
  "icon_url": "",
  "is_public": true,
  "updated": "2019-01-23T08:29:24.404927Z",
  "provider_games": [],
  "steamid": null,
  "gogid": null,
  "gogslug": "",
  "humblestoreid": "",
  "id": 22113
}