{
  "name": "Epic Space: Online",
  "slug": "epic-space-online",
  "year": null,
  "description": "",
  "banner_url": "https://lutris.net/games/banner/epic-space-online.jpg",
  "icon_url": "https://lutris.net/games/icon/epic-space-online.png",
  "is_public": true,
  "updated": "2020-10-08T09:20:28.376239Z",
  "provider_games": [
    {
      "name": "Epic Space: Online",
      "slug": "293400",
      "service": "steam"
    }
  ],
  "steamid": 293400,
  "gogid": null,
  "gogslug": "",
  "humblestoreid": "",
  "id": 5349
}