{
  "id": 4717,
  "game_id": 11963,
  "game_slug": "kana-okaeri",
  "name": "Kana... Okaeri!",
  "year": 2004,
  "user": "FakeShemp",
  "runner": "wine",
  "slug": "kana-okaeri-jast-usa",
  "version": "JAST USA",
  "description": "",
  "notes": "",
  "created_at": "2017-06-28T20:20:20.504000Z",
  "updated_at": "2018-05-19T03:41:54.444152Z",
  "draft": false,
  "published": true,
  "published_by": null,
  "rating": "",
  "steamid": null,
  "gogid": null,
  "gogslug": "",
  "humbleid": "",
  "humblestoreid": "",
  "humblestoreid_real": "",
  "script": {
    "files": [
      {
        "file1": "N/A:Please select the JAST USA installer"
      }
    ],
    "game": {
      "arch": "win32",
      "exe": "drive_c/Program Files/Kana Okaeri/KANAOKA.EXE",
      "prefix": "$GAMEDIR"
    },
    "installer": [
      {
        "task": {
          "executable": "$file1",
          "name": "wineexec",
          "prefix": "$GAMEDIR"
        }
      },
      {
        "task": {
          "app": "devenum",
          "name": "winetricks",
          "prefix": "$GAMEDIR"
        }
      },
      {
        "task": {
          "app": "quartz",
          "name": "winetricks",
          "prefix": "$GAMEDIR"
        }
      }
    ]
  },
  "content": "files:\n- file1: N/A:Please select the JAST USA installer\ngame:\n  arch: win32\n  exe: drive_c/Program Files/Kana Okaeri/KANAOKA.EXE\n  prefix: $GAMEDIR\ninstaller:\n- task:\n    executable: $file1\n    name: wineexec\n    prefix: $GAMEDIR\n- task:\n    app: devenum\n    name: winetricks\n    prefix: $GAMEDIR\n- task:\n    app: quartz\n    name: winetricks\n    prefix: $GAMEDIR\n"
}