{
  "name": "Grey Cubes",
  "slug": "grey-cubes",
  "year": null,
  "description": "Grey Cubes is a modern variation on the brick-breaker-type game, based on real-time physics and three-dimensional gameplay (not just 3d look).\r\n\r\nMinimalist in style, with clean graphics and deep, original soundtrack.\r\n\r\nThe game contains 60 levels, each one is unique, each one with new challenges.",
  "banner_url": "https://lutris.net/games/banner/grey-cubes.jpg",
  "icon_url": "https://lutris.net/games/icon/grey-cubes.png",
  "is_public": true,
  "updated": "2019-01-31T02:12:15.761808Z",
  "provider_games": [
    {
      "name": "Grey Cubes",
      "slug": "371500",
      "service": "steam"
    }
  ],
  "steamid": 371500,
  "gogid": null,
  "gogslug": "",
  "humblestoreid": "",
  "id": 4885
}