{
  "id": 4227,
  "game_id": 478,
  "game_slug": "faerie-solitaire",
  "name": "Faerie Solitaire",
  "year": null,
  "user": "FakeShemp",
  "runner": "wine",
  "slug": "faerie-solitaire-humble",
  "version": "Humble",
  "description": "",
  "notes": "",
  "created_at": "2017-06-08T18:32:36.507770Z",
  "updated_at": "2018-05-19T03:41:50.309308Z",
  "draft": false,
  "published": true,
  "published_by": null,
  "rating": "",
  "steamid": 38600,
  "gogid": null,
  "gogslug": "",
  "humbleid": "",
  "humblestoreid": "",
  "humblestoreid_real": "",
  "script": {
    "files": [
      {
        "file1": "N/A:Please select the Humble installer"
      }
    ],
    "game": {
      "arch": "win32",
      "exe": "drive_c/Program Files/Faerie Solitaire/Faerie Solitaire.exe",
      "prefix": "$GAMEDIR"
    },
    "installer": [
      {
        "task": {
          "executable": "$file1",
          "name": "wineexec",
          "prefix": "$GAMEDIR"
        }
      }
    ]
  },
  "content": "files:\n- file1: N/A:Please select the Humble installer\ngame:\n  arch: win32\n  exe: drive_c/Program Files/Faerie Solitaire/Faerie Solitaire.exe\n  prefix: $GAMEDIR\ninstaller:\n- task:\n    executable: $file1\n    name: wineexec\n    prefix: $GAMEDIR\n"
}