{
  "name": "Aura Kingdom 2",
  "slug": "aura-kingdom-2",
  "year": 2020,
  "description": "Medieval fantasy adventure RPG, Mobile sequel to classic PC MMO, 3D anime action gameplay and includes both PVP and PVE modes.",
  "banner_url": "https://lutris.net/games/banner/aura-kingdom-2.jpg",
  "icon_url": "",
  "is_public": true,
  "updated": "2020-04-28T04:45:30.307369Z",
  "provider_games": [],
  "steamid": null,
  "gogid": null,
  "gogslug": "",
  "humblestoreid": "",
  "id": 32710
}