{
  "name": "Future Cop L.A.P.D.",
  "slug": "future-cop-lapd",
  "year": 1998,
  "description": "In the 21st century, gangs have taken over L.A. Hit the streets with your standard issue hovercraft, walker and all-purpose justice dispenser. It's like playing \"good cop/bad cop\". Only without the good cop.",
  "banner_url": "https://lutris.net/games/banner/future-cop-lapd.jpg",
  "icon_url": "",
  "is_public": true,
  "updated": "2019-01-23T08:29:36.502122Z",
  "provider_games": [],
  "steamid": null,
  "gogid": null,
  "gogslug": "",
  "humblestoreid": "",
  "id": 8260
}