{
  "name": "Chosen 2",
  "slug": "chosen-2",
  "year": null,
  "description": "",
  "banner_url": "https://lutris.net/games/banner/chosen-2.jpg",
  "icon_url": "https://lutris.net/games/icon/chosen-2.png",
  "is_public": true,
  "updated": "2020-10-08T10:05:12.947512Z",
  "provider_games": [
    {
      "name": "Chosen 2",
      "slug": "569970",
      "service": "steam"
    }
  ],
  "steamid": 569970,
  "gogid": null,
  "gogslug": "",
  "humblestoreid": "",
  "id": 12924
}