{
  "name": "Hot Pinball",
  "slug": "hot-pinball",
  "year": 1995,
  "description": "",
  "banner_url": "",
  "icon_url": "https://lutris.net/games/icon/hot-pinball.png",
  "is_public": true,
  "updated": "2020-05-26T03:34:37.287029Z",
  "provider_games": [
    {
      "name": "Hot Pinball",
      "slug": "hotpinbl",
      "service": "mame"
    }
  ],
  "steamid": null,
  "gogid": null,
  "gogslug": "",
  "humblestoreid": "",
  "id": 34433
}