{
  "name": "ART SQOOL",
  "slug": "art-sqool",
  "year": null,
  "description": "",
  "banner_url": "https://lutris.net/games/banner/art-sqool.jpg",
  "icon_url": "https://lutris.net/games/icon/art-sqool.png",
  "is_public": false,
  "updated": "2020-01-15T02:34:47.850340Z",
  "provider_games": [],
  "steamid": 953300,
  "gogid": null,
  "gogslug": "",
  "humblestoreid": "",
  "id": 31159
}