{
  "name": "Bendy and the Ink Machine",
  "slug": "bendy-and-the-ink-machine",
  "year": 2017,
  "description": "\"Bendy and the Ink Machine™\" is a first person puzzle action horror game that begins in the far days past of animation and ends in a very dark future.\r\n\r\nPlay as Henry as he revisits the demons of his past by exploring the abandoned animator's workshop of Joey Drew Studios. With twists and turns around every corner, \"Bendy and the Ink Machine\" is sure to thrill you... and decimate your childhood.\r\n\r\nYou'll never look at cartoons the same way again.\r\n\r\nThis first chapter sets the tone for the adventure ahead.\r\nSolve the riddle. Escape the workshop.\r\n\r\nAbove all, fear the machine and survive.",
  "banner_url": "https://lutris.net/games/banner/bendy-and-the-ink-machine.jpg",
  "icon_url": "https://lutris.net/games/icon/bendy-and-the-ink-machine.png",
  "is_public": true,
  "updated": "2019-01-23T08:28:34.745789Z",
  "provider_games": [
    {
      "name": "Bendy and the Ink Machine",
      "slug": "622650",
      "service": "steam"
    }
  ],
  "steamid": 622650,
  "gogid": null,
  "gogslug": "",
  "humblestoreid": "",
  "id": 11135
}