{
  "id": 4798,
  "game_id": 12067,
  "game_slug": "vincere-totus-astrum",
  "name": "Vincere Totus Astrum",
  "year": 2017,
  "user": "FakeShemp",
  "runner": "wine",
  "slug": "vincere-totus-astrum-humble",
  "version": "Humble",
  "description": "",
  "notes": "",
  "created_at": "2017-07-04T16:49:45.871007Z",
  "updated_at": "2018-05-19T03:41:55.193073Z",
  "draft": false,
  "published": true,
  "published_by": null,
  "rating": "",
  "steamid": 314610,
  "gogid": null,
  "gogslug": "",
  "humbleid": "",
  "humblestoreid": "",
  "humblestoreid_real": "",
  "script": {
    "files": [
      {
        "file1": "N/A:Please select the Humble archive"
      }
    ],
    "game": {
      "arch": "win32",
      "exe": "drive_c/Program Files/Vincere Totus Astrum/VTA.exe",
      "prefix": "$GAMEDIR"
    },
    "installer": [
      {
        "extract": {
          "dst": "$GAMEDIR/drive_c/Program Files/Vincere Totus Astrum",
          "file": "$file1"
        }
      }
    ]
  },
  "content": "files:\n- file1: N/A:Please select the Humble archive\ngame:\n  arch: win32\n  exe: drive_c/Program Files/Vincere Totus Astrum/VTA.exe\n  prefix: $GAMEDIR\ninstaller:\n- extract:\n    dst: $GAMEDIR/drive_c/Program Files/Vincere Totus Astrum\n    file: $file1\n"
}