{
  "name": "Drift Into Eternity",
  "slug": "drift-into-eternity",
  "year": null,
  "description": "",
  "banner_url": "https://lutris.net/games/banner/drift-into-eternity.jpg",
  "icon_url": "https://lutris.net/games/icon/drift-into-eternity.png",
  "is_public": true,
  "updated": "2020-10-08T10:14:14.790967Z",
  "provider_games": [
    {
      "name": "Drift Into Eternity",
      "slug": "431830",
      "service": "steam"
    }
  ],
  "steamid": 431830,
  "gogid": null,
  "gogslug": "",
  "humblestoreid": "",
  "id": 20734
}