{
  "name": "Casino Fever 1k",
  "slug": "casino-fever-1k",
  "year": 2000,
  "description": "",
  "banner_url": "",
  "icon_url": "https://lutris.net/games/icon/casino-fever-1k.png",
  "is_public": true,
  "updated": "2020-05-26T03:32:38.699271Z",
  "provider_games": [
    {
      "name": "Casino Fever 1k",
      "slug": "cfever1k",
      "service": "mame"
    }
  ],
  "steamid": null,
  "gogid": null,
  "gogslug": "",
  "humblestoreid": "",
  "id": 33630
}