{
  "name": "Immersion",
  "slug": "immersion",
  "year": null,
  "description": "",
  "banner_url": "https://lutris.net/games/banner/immersion.jpg",
  "icon_url": "https://lutris.net/games/icon/immersion.png",
  "is_public": true,
  "updated": "2020-10-08T10:05:26.278283Z",
  "provider_games": [
    {
      "name": "Immersion",
      "slug": "562690",
      "service": "steam"
    }
  ],
  "steamid": 562690,
  "gogid": null,
  "gogslug": "",
  "humblestoreid": "",
  "id": 10993
}