{
  "id": 2533,
  "game_id": 155,
  "game_slug": "torchlight",
  "name": "Torchlight",
  "year": 2009,
  "user": "ssf",
  "runner": "wine",
  "slug": "torchlight-gogcom",
  "version": "GOG.com",
  "description": "",
  "notes": "",
  "created_at": "2016-08-21T22:23:10.735225Z",
  "updated_at": "2016-08-30T14:46:55.958208Z",
  "draft": false,
  "published": true,
  "published_by": null,
  "rating": "",
  "steamid": 41500,
  "gogid": 1207659069,
  "gogslug": "torchlight",
  "humbleid": "torchlight",
  "humblestoreid": "torchlight",
  "humblestoreid_real": "torchlight",
  "script": {
    "files": [
      {
        "game": "N/A:Please select the GOG.com Windows installer."
      }
    ],
    "game": {
      "arch": "win32",
      "exe": "$GAMEDIR/drive_c/game/Torchlight.exe",
      "prefix": "$GAMEDIR",
      "working_dir": "$GAMEDIR/drive_c/game"
    },
    "gogid": "torchlight",
    "installer": [
      {
        "task": {
          "description": "Creating Wine prefix",
          "name": "create_prefix",
          "prefix": "$GAMEDIR"
        }
      },
      {
        "task": {
          "key": "winemenubuilder.exe",
          "name": "set_regedit",
          "path": "HKEY_CURRENT_USER\\Software\\Wine\\DllOverrides",
          "prefix": "$GAMEDIR",
          "type": "REG_SZ",
          "value": ""
        }
      },
      {
        "task": {
          "args": "/VERYSILENT /SP- /NOCANCEL /SUPPRESSMSGBOXES '/DIR=C:/game'",
          "description": "Installing...",
          "executable": "game",
          "name": "wineexec",
          "prefix": "$GAMEDIR"
        }
      },
      {
        "task": {
          "app": "sandbox",
          "description": "Disabling unused WINE features",
          "name": "winetricks",
          "prefix": "$GAMEDIR",
          "silent": true
        }
      }
    ]
  },
  "content": "files:\n- game: N/A:Please select the GOG.com Windows installer.\ngame:\n  arch: win32\n  exe: $GAMEDIR/drive_c/game/Torchlight.exe\n  prefix: $GAMEDIR\n  working_dir: $GAMEDIR/drive_c/game\ngogid: torchlight\ninstaller:\n- task:\n    description: Creating Wine prefix\n    name: create_prefix\n    prefix: $GAMEDIR\n- task:\n    key: winemenubuilder.exe\n    name: set_regedit\n    path: HKEY_CURRENT_USER\\Software\\Wine\\DllOverrides\n    prefix: $GAMEDIR\n    type: REG_SZ\n    value: ''\n- task:\n    args: /VERYSILENT /SP- /NOCANCEL /SUPPRESSMSGBOXES '/DIR=C:/game'\n    description: Installing...\n    executable: game\n    name: wineexec\n    prefix: $GAMEDIR\n- task:\n    app: sandbox\n    description: Disabling unused WINE features\n    name: winetricks\n    prefix: $GAMEDIR\n    silent: true\n"
}