{
  "name": "K-Shoot MANIA",
  "slug": "k-shoot-mania",
  "year": null,
  "description": "K-Shoot MANIA is an advanced key shooting game inspired by KONAMI's SOUND VOLTEX music arcade series.",
  "banner_url": "https://lutris.net/games/banner/k-shoot-mania.jpg",
  "icon_url": "",
  "is_public": true,
  "updated": "2019-01-23T08:30:06.832165Z",
  "provider_games": [],
  "steamid": null,
  "gogid": null,
  "gogslug": "",
  "humblestoreid": "",
  "id": 24574
}