{
  "name": "Carcassonne: The Official Board Game",
  "slug": "carcassonne-the-official-board-game",
  "year": null,
  "description": "",
  "banner_url": "https://lutris.net/games/banner/carcassonne-the-official-board-game.jpg",
  "icon_url": "https://lutris.net/games/icon/carcassonne-the-official-board-game.png",
  "is_public": true,
  "updated": "2020-02-07T14:52:38.945517Z",
  "provider_games": [
    {
      "name": "Carcassonne: The Official Board Game",
      "slug": "598810",
      "service": "steam"
    }
  ],
  "steamid": 598810,
  "gogid": null,
  "gogslug": "",
  "humblestoreid": "",
  "id": 18946
}