{
  "id": 21115,
  "game_id": 280,
  "game_slug": "tiny-and-big-grandpas-leftovers",
  "name": "Tiny and Big: Grandpa's Leftovers",
  "year": 2012,
  "user": "strider",
  "runner": "linux",
  "slug": "tiny-and-big-grandpas-leftove-gog",
  "version": "GOG",
  "description": null,
  "notes": "",
  "created_at": "2020-06-01T05:11:22.169000Z",
  "updated_at": "2020-06-01T05:12:18.901716Z",
  "draft": false,
  "published": true,
  "published_by": 1,
  "rating": "",
  "steamid": 205910,
  "gogid": 1207659048,
  "gogslug": "tiny_and_big_grandpas_leftovers",
  "humbleid": "",
  "humblestoreid": "",
  "humblestoreid_real": "",
  "script": {
    "files": [
      {
        "gog": "N/A:Please select the GOG installer"
      }
    ],
    "game": {
      "exe": "tinyandbig-launcher"
    },
    "installer": [
      {
        "extract": {
          "file": "gog"
        }
      }
    ]
  },
  "content": "files:\n- gog: N/A:Please select the GOG installer\ngame:\n  exe: tinyandbig-launcher\ninstaller:\n- extract:\n    file: gog\n"
}