{
  "name": "ExZeus 2",
  "slug": "exzeus-2",
  "year": null,
  "description": "",
  "banner_url": "https://lutris.net/games/banner/exzeus-2.jpg",
  "icon_url": "https://lutris.net/games/icon/exzeus-2.png",
  "is_public": true,
  "updated": "2020-10-08T10:09:21.972908Z",
  "provider_games": [
    {
      "name": "ExZeus 2",
      "slug": "668520",
      "service": "steam"
    }
  ],
  "steamid": 668520,
  "gogid": null,
  "gogslug": "",
  "humblestoreid": "",
  "id": 31525
}