{
  "id": 17473,
  "game_id": 7611,
  "game_slug": "the-settlers-iv-gold-edition",
  "name": "The Settlers IV: Gold Edition",
  "year": 2002,
  "user": "Armageddon91",
  "runner": "wine",
  "slug": "the-settlers-iv-gold-edition-gog-version-fix",
  "version": "GOG Version + Fix",
  "description": "This script installs The Settlers 4 - Gold Edition from GOG with some fixes.",
  "notes": "-No flickering when changing the resolution\r\n-No full screen if game resolution is not the same as screen resolution (Menu and Video)\r\n-Widescreen Fix (https://www.siedler-maps.de/forum/Technische-Hilfe/Siedler-4-Widescreen-Patch-18715.htm)\r\n-Music Fix (https://www.youtube.com/watch?v=OQ4Re-6cL9c)\r\n   -Maya music does not stop after a music change\r\n   -The missing Trojan track has been restored\r\n   -Cards on which the Dark People are played can now also play music\r\n   -By modifying the SoundTracks.cfg all playlists can be adjusted",
  "created_at": "2019-12-21T20:12:01.193000Z",
  "updated_at": "2020-03-21T08:31:48.632007Z",
  "draft": false,
  "published": true,
  "published_by": 20548,
  "rating": "",
  "steamid": null,
  "gogid": 1207659254,
  "gogslug": "the_settlers_4_gold_edition",
  "humbleid": "",
  "humblestoreid": "",
  "humblestoreid_real": "",
  "script": {
    "files": [
      {
        "game": "N/A:Select the installer downloaded from GOG."
      },
      {
        "fix": "https://github.com/Armageddon91/Lutris-Script/raw/master/The%20Settlers%20IV/The%20Settler%204%20Fix.zip"
      }
    ],
    "game": {
      "exe": "drive_c/GOG Games/Settlers 4 Gold/S4.exe",
      "prefix": "$GAMEDIR"
    },
    "installer": [
      {
        "task": {
          "description": "Creating WINE prefix",
          "name": "create_prefix",
          "prefix": "$GAMEDIR"
        }
      },
      {
        "extract": {
          "dst": "$CACHE",
          "file": "$fix"
        }
      },
      {
        "task": {
          "args": "/silent /nogui",
          "description": "Installing game",
          "executable": "$game",
          "name": "wineexec",
          "prefix": "$GAMEDIR"
        }
      },
      {
        "move": {
          "dst": "$GAMEDIR/drive_c/GOG Games/Settlers 4 Gold/Config/SoundTracks.cfg",
          "src": "$CACHE/Music Fix/SoundTracks.cfg"
        }
      },
      {
        "move": {
          "dst": "$GAMEDIR/drive_c/GOG Games/Settlers 4 Gold/Snd/Trojans_settle_03.mp3",
          "src": "$CACHE/Music Fix/Trojans_settle_03.mp3"
        }
      },
      {
        "move": {
          "dst": "$GAMEDIR/drive_c/GOG Games/Settlers 4 Gold/Exe/GfxEngine.dll",
          "src": "$CACHE/Widescreen Fix/$RESOLUTION/GfxEngine.dll"
        }
      },
      {
        "move": {
          "dst": "$GAMEDIR/drive_c/GOG Games/Settlers 4 Gold/Config/GameSettings.cfg",
          "src": "$CACHE/GameSettings.cfg"
        }
      }
    ],
    "wine": {
      "Desktop": true,
      "WineDesktop": "$RESOLUTION"
    }
  },
  "content": "files:\n- game: N/A:Select the installer downloaded from GOG.\n- fix: https://github.com/Armageddon91/Lutris-Script/raw/master/The%20Settlers%20IV/The%20Settler%204%20Fix.zip\ngame:\n  exe: drive_c/GOG Games/Settlers 4 Gold/S4.exe\n  prefix: $GAMEDIR\ninstaller:\n- task:\n    description: Creating WINE prefix\n    name: create_prefix\n    prefix: $GAMEDIR\n- extract:\n    dst: $CACHE\n    file: $fix\n- task:\n    args: /silent /nogui\n    description: Installing game\n    executable: $game\n    name: wineexec\n    prefix: $GAMEDIR\n- move:\n    dst: $GAMEDIR/drive_c/GOG Games/Settlers 4 Gold/Config/SoundTracks.cfg\n    src: $CACHE/Music Fix/SoundTracks.cfg\n- move:\n    dst: $GAMEDIR/drive_c/GOG Games/Settlers 4 Gold/Snd/Trojans_settle_03.mp3\n    src: $CACHE/Music Fix/Trojans_settle_03.mp3\n- move:\n    dst: $GAMEDIR/drive_c/GOG Games/Settlers 4 Gold/Exe/GfxEngine.dll\n    src: $CACHE/Widescreen Fix/$RESOLUTION/GfxEngine.dll\n- move:\n    dst: $GAMEDIR/drive_c/GOG Games/Settlers 4 Gold/Config/GameSettings.cfg\n    src: $CACHE/GameSettings.cfg\nwine:\n  Desktop: true\n  WineDesktop: $RESOLUTION\n"
}