{
  "name": "Against the Gradient",
  "slug": "against-the-gradient",
  "year": null,
  "description": "",
  "banner_url": "https://lutris.net/games/banner/against-the-gradient.jpg",
  "icon_url": "https://lutris.net/games/icon/against-the-gradient.png",
  "is_public": true,
  "updated": "2020-10-08T10:09:27.737561Z",
  "provider_games": [
    {
      "name": "Against the Gradient",
      "slug": "664660",
      "service": "steam"
    }
  ],
  "steamid": 664660,
  "gogid": null,
  "gogslug": "",
  "humblestoreid": "",
  "id": 14384
}