{
  "name": "Gump",
  "slug": "gump",
  "year": null,
  "description": "",
  "banner_url": "https://lutris.net/games/banner/gump.jpg",
  "icon_url": "https://lutris.net/games/icon/gump.png",
  "is_public": false,
  "updated": "2019-06-17T03:11:34.411003Z",
  "provider_games": [],
  "steamid": 780220,
  "gogid": null,
  "gogslug": "",
  "humblestoreid": "",
  "id": 28022
}