{
  "name": "Didgery",
  "slug": "didgery",
  "year": null,
  "description": "",
  "banner_url": "https://lutris.net/games/banner/didgery.jpg",
  "icon_url": "https://lutris.net/games/icon/didgery.png",
  "is_public": true,
  "updated": "2019-01-23T08:29:11.451360Z",
  "provider_games": [
    {
      "name": "Didgery",
      "slug": "429270",
      "service": "steam"
    }
  ],
  "steamid": 429270,
  "gogid": null,
  "gogslug": "",
  "humblestoreid": "",
  "id": 10386
}