{
  "name": "Bubbles",
  "slug": "bubbles",
  "year": 1982,
  "description": "",
  "banner_url": "https://lutris.net/games/banner/bubbles.jpg",
  "icon_url": "https://lutris.net/games/icon/bubbles.png",
  "is_public": true,
  "updated": "2020-05-26T03:32:28.477218Z",
  "provider_games": [
    {
      "name": "Bubbles",
      "slug": "bubbles",
      "service": "mame"
    }
  ],
  "steamid": null,
  "gogid": null,
  "gogslug": "",
  "humblestoreid": "",
  "id": 33556
}