{
  "name": "Hunger",
  "slug": "hunger",
  "year": null,
  "description": "",
  "banner_url": "https://lutris.net/games/banner/hunger.jpg",
  "icon_url": "https://lutris.net/games/icon/hunger.png",
  "is_public": true,
  "updated": "2020-10-08T10:14:03.951065Z",
  "provider_games": [
    {
      "name": "Hunger",
      "slug": "436740",
      "service": "steam"
    }
  ],
  "steamid": 436740,
  "gogid": null,
  "gogslug": "",
  "humblestoreid": "",
  "id": 15941
}