{
  "name": "Area 88",
  "slug": "area-88",
  "year": 1988,
  "description": "\"Flying this mission is like shaking hands with the devil..!\"\r\n\r\nBattle against all odds as you join Area 88™, a multi-national peace-keeping force waging war against the evil arms dealer who are threatening to shatter all hopes of world peace.",
  "banner_url": "https://lutris.net/games/banner/area-88.jpg",
  "icon_url": "",
  "is_public": true,
  "updated": "2019-01-23T08:28:24.511993Z",
  "provider_games": [],
  "steamid": null,
  "gogid": null,
  "gogslug": "",
  "humblestoreid": "",
  "id": 21671
}