{
  "name": "Fair Strike",
  "slug": "fair-strike",
  "year": null,
  "description": "",
  "banner_url": "https://lutris.net/games/banner/fair-strike.jpg",
  "icon_url": "https://lutris.net/games/icon/fair-strike.png",
  "is_public": true,
  "updated": "2020-10-08T10:16:32.949303Z",
  "provider_games": [
    {
      "name": "Fair Strike",
      "slug": "352120",
      "service": "steam"
    }
  ],
  "steamid": 352120,
  "gogid": null,
  "gogslug": "",
  "humblestoreid": "",
  "id": 9067
}