{
  "id": 24703,
  "game_id": 40379,
  "game_slug": "haydee-2",
  "name": "Haydee 2",
  "year": null,
  "user": "silentnoodlemaster",
  "runner": "wine",
  "slug": "haydee-2-iso",
  "version": "iso",
  "description": null,
  "notes": "",
  "created_at": "2020-11-24T21:02:18.959467Z",
  "updated_at": "2020-11-24T21:02:18.959505Z",
  "draft": true,
  "published": false,
  "published_by": null,
  "rating": "",
  "steamid": 1444650,
  "gogid": null,
  "gogslug": "",
  "humbleid": "",
  "humblestoreid": "",
  "humblestoreid_real": "",
  "script": {
    "files": [
      {
        "file1": "N/A:select installer"
      }
    ],
    "game": {
      "appid": 1444650
    }
  },
  "content": "files:\n- file1: N/A:select installer\ngame:\n  appid: 1444650\n"
}