{
  "name": "Bishoujo Janshi Pretty Sailor 18-kin",
  "slug": "bishoujo-janshi-pretty-sailor-18-kin",
  "year": 1994,
  "description": "",
  "banner_url": "",
  "icon_url": "https://lutris.net/games/icon/bishoujo-janshi-pretty-sailor-18-kin.png",
  "is_public": true,
  "updated": "2020-05-26T03:32:15.974307Z",
  "provider_games": [
    {
      "name": "Bishoujo Janshi Pretty Sailor 18-kin",
      "slug": "psailor1",
      "service": "mame"
    }
  ],
  "steamid": null,
  "gogid": null,
  "gogslug": "",
  "humblestoreid": "",
  "id": 35370
}