{
  "id": 22877,
  "game_id": 68,
  "game_slug": "beneath-a-steel-sky",
  "name": "Beneath a Steel Sky",
  "year": 1994,
  "user": "94da8e932439cbda73128d961c09bf70",
  "runner": "linux",
  "slug": "beneath-a-steel-sky-gog-linux",
  "version": "GOG Linux",
  "description": null,
  "notes": "",
  "created_at": "2020-08-15T03:37:42.611976Z",
  "updated_at": "2020-08-15T03:37:42.612003Z",
  "draft": true,
  "published": false,
  "published_by": null,
  "rating": "",
  "steamid": 1368340,
  "gogid": 1207658695,
  "gogslug": "beneath_a_steel_sky",
  "humbleid": "",
  "humblestoreid": "",
  "humblestoreid_real": "",
  "script": {
    "exe": "game/start.sh",
    "files": [
      {
        "game": "N/A:Please select the GOG.com Linux installer"
      },
      {
        "unzip": "http://lutris.net/files/tools/unzip.tar.gz"
      }
    ],
    "installer": [
      {
        "extract": {
          "dst": "$CACHE",
          "file": "$unzip"
        }
      },
      {
        "execute": {
          "args": "$game -d \"$GAMEDIR\" \"data/noarch/*\"",
          "description": "Extracting game data, it will take a while...",
          "file": "$CACHE/unzip"
        }
      },
      {
        "rename": {
          "dst": "$GAMEDIR/game",
          "src": "$GAMEDIR/data/noarch"
        }
      }
    ]
  },
  "content": "exe: game/start.sh\nfiles:\n- game: N/A:Please select the GOG.com Linux installer\n- unzip: http://lutris.net/files/tools/unzip.tar.gz\ninstaller:\n- extract:\n    dst: $CACHE\n    file: $unzip\n- execute:\n    args: $game -d \"$GAMEDIR\" \"data/noarch/*\"\n    description: Extracting game data, it will take a while...\n    file: $CACHE/unzip\n- rename:\n    dst: $GAMEDIR/game\n    src: $GAMEDIR/data/noarch\n"
}