{
  "name": "Escape from Paradise",
  "slug": "escape-from-paradise",
  "year": null,
  "description": "",
  "banner_url": "https://lutris.net/games/banner/escape-from-paradise.jpg",
  "icon_url": "https://lutris.net/games/icon/escape-from-paradise.png",
  "is_public": true,
  "updated": "2020-10-08T10:02:03.634867Z",
  "provider_games": [
    {
      "name": "Escape from Paradise",
      "slug": "47110",
      "service": "steam"
    }
  ],
  "steamid": 47110,
  "gogid": null,
  "gogslug": "",
  "humblestoreid": "",
  "id": 37677
}