{
  "name": "Combat Wings",
  "slug": "combat-wings",
  "year": 2005,
  "description": "Combat Wings is a flight simulator which centers around the battle of Midway. You get to play as an American pilot in a variety of missions. Choose from fighter planes, bombers or spotter planes. You can also take the role as a gunner in a bomber or an anti-aircraft gun to defend your base against Japanese planes. Play a campaign, training missions or try free flight. Multiplayer via Internet or LAN is also possible.",
  "banner_url": "https://lutris.net/games/banner/combat-wings.jpg",
  "icon_url": "",
  "is_public": true,
  "updated": "2019-07-23T03:41:27.413567Z",
  "provider_games": [],
  "steamid": null,
  "gogid": null,
  "gogslug": "",
  "humblestoreid": "",
  "id": 28513
}