{
  "name": "Lacrymo Tennis 2016",
  "slug": "lacrymo-tennis-2016",
  "year": 2016,
  "description": "The People has had enough, a big protest is set to unfold today. Pushed by your courage and your love of sport and democracy, you take your tennis racket and go out.\r\n\r\nThrow back every tear gas can that the police sends to disperse the protest, and protect your lungs as well as those of your fellow protesters.",
  "banner_url": "https://lutris.net/games/banner/lacrymo-tennis-2016.jpg",
  "icon_url": "",
  "is_public": false,
  "updated": "2020-10-03T03:42:09.037311Z",
  "provider_games": [],
  "steamid": null,
  "gogid": null,
  "gogslug": "",
  "humblestoreid": "",
  "id": 39581
}