{
  "name": "Hailstorm VR",
  "slug": "hailstorm-vr",
  "year": null,
  "description": "",
  "banner_url": "https://lutris.net/games/banner/hailstorm-vr.jpg",
  "icon_url": "https://lutris.net/games/icon/hailstorm-vr.png",
  "is_public": true,
  "updated": "2020-10-08T10:03:40.427157Z",
  "provider_games": [
    {
      "name": "Hailstorm VR",
      "slug": "618500",
      "service": "steam"
    }
  ],
  "steamid": 618500,
  "gogid": null,
  "gogslug": "",
  "humblestoreid": "",
  "id": 24268
}