{
  "name": "ArcBall",
  "slug": "arcball",
  "year": null,
  "description": "",
  "banner_url": "https://lutris.net/games/banner/arcball.jpg",
  "icon_url": "https://lutris.net/games/icon/arcball.png",
  "is_public": true,
  "updated": "2020-10-08T09:57:46.531062Z",
  "provider_games": [
    {
      "name": "ArcBall",
      "slug": "801060",
      "service": "steam"
    }
  ],
  "steamid": 801060,
  "gogid": null,
  "gogslug": "",
  "humblestoreid": "",
  "id": 21152
}