{
  "name": "Grave Matters",
  "slug": "grave-matters",
  "year": null,
  "description": "",
  "banner_url": "https://lutris.net/games/banner/grave-matters.jpg",
  "icon_url": "https://lutris.net/games/icon/grave-matters.png",
  "is_public": false,
  "updated": "2019-04-21T20:12:49.216958Z",
  "provider_games": [],
  "steamid": 530680,
  "gogid": null,
  "gogslug": "",
  "humblestoreid": "",
  "id": 26921
}