{
  "id": 5169,
  "game_id": 2600,
  "game_slug": "memories-of-a-vagabond",
  "name": "Memories of a Vagabond",
  "year": null,
  "user": "FakeShemp",
  "runner": "wine",
  "slug": "memories-of-a-vagabond-groupees",
  "version": "Groupees",
  "description": "",
  "notes": "",
  "created_at": "2017-07-23T21:17:57.998000Z",
  "updated_at": "2018-05-19T03:41:56.322563Z",
  "draft": false,
  "published": true,
  "published_by": null,
  "rating": "",
  "steamid": 307070,
  "gogid": null,
  "gogslug": "",
  "humbleid": "",
  "humblestoreid": "",
  "humblestoreid_real": "",
  "script": {
    "files": [
      {
        "file1": "N/A:Please select the Groupees installer"
      }
    ],
    "game": {
      "arch": "win32",
      "exe": "drive_c/Program Files/Memories of A Vagabond/GAME.exe",
      "prefix": "$GAMEDIR"
    },
    "installer": [
      {
        "task": {
          "executable": "$file1",
          "name": "wineexec",
          "prefix": "$GAMEDIR"
        }
      }
    ]
  },
  "content": "files:\n- file1: N/A:Please select the Groupees installer\ngame:\n  arch: win32\n  exe: drive_c/Program Files/Memories of A Vagabond/GAME.exe\n  prefix: $GAMEDIR\ninstaller:\n- task:\n    executable: $file1\n    name: wineexec\n    prefix: $GAMEDIR\n"
}