{
  "name": "Arcania: Fall of Setarrif",
  "slug": "arcania-fall-of-setarrif",
  "year": null,
  "description": "",
  "banner_url": "https://lutris.net/games/banner/arcania-fall-of-setarrif.jpg",
  "icon_url": "https://lutris.net/games/icon/arcania-fall-of-setarrif.png",
  "is_public": true,
  "updated": "2020-05-31T00:17:34.663404Z",
  "provider_games": [
    {
      "name": "ArcaniA: Fall of Setarrif",
      "slug": "1282519889",
      "service": "gog"
    },
    {
      "name": "ArcaniA: Fall of Setarrif",
      "slug": "65610",
      "service": "steam"
    }
  ],
  "steamid": 65610,
  "gogid": 1282519889,
  "gogslug": "arcania_fall_of_setarrif",
  "humblestoreid": "",
  "id": 1795
}