{
  "name": "C14 Dating",
  "slug": "c14-dating",
  "year": 2016,
  "description": "C-14 Dating is an otome dating sim that combines archaeology, friendships and love.\r\n\r\nYou play as Melissa Flores, a 3rd year anthropology student participating in a summer archaeological internship. The field school takes place in Belgium, over 5000 miles away from your native California! \r\n\r\nOkay, it’s a little bit out of your comfort zone, and the fact you’ll be staying in an unfamiliar country for two months can be nerve-racking, but you couldn’t pass up such a learning opportunity! You get to excavate at an authentic prehistoric site, which has uncovered Neanderthal remains in the past.\r\n\r\nMaybe you’ll dig up some bones, or even unearth tools that were manufactured by early humans. And of course, you might forge friendships and find romance during your stay…",
  "banner_url": "https://lutris.net/games/banner/c14-dating.jpg",
  "icon_url": "https://lutris.net/games/icon/c14-dating.png",
  "is_public": true,
  "updated": "2020-10-08T10:13:39.928914Z",
  "provider_games": [
    {
      "name": "C14 Dating",
      "slug": "451640",
      "service": "steam"
    }
  ],
  "steamid": 451640,
  "gogid": null,
  "gogslug": "",
  "humblestoreid": "",
  "id": 15951
}