{
  "name": "BEKKOUAME",
  "slug": "bekkouame",
  "year": null,
  "description": "",
  "banner_url": "https://lutris.net/games/banner/bekkouame.jpg",
  "icon_url": "https://lutris.net/games/icon/bekkouame.png",
  "is_public": true,
  "updated": "2020-10-08T09:57:36.765653Z",
  "provider_games": [
    {
      "name": "BEKKOUAME",
      "slug": "809250",
      "service": "steam"
    }
  ],
  "steamid": 809250,
  "gogid": null,
  "gogslug": "",
  "humblestoreid": "",
  "id": 21617
}