{
  "name": "Cowboy Escape",
  "slug": "cowboy-escape",
  "year": null,
  "description": "",
  "banner_url": "https://lutris.net/games/banner/cowboy-escape.jpg",
  "icon_url": "https://lutris.net/games/icon/cowboy-escape.png",
  "is_public": true,
  "updated": "2020-10-08T09:57:46.742098Z",
  "provider_games": [
    {
      "name": "Cowboy Escape",
      "slug": "801280",
      "service": "steam"
    }
  ],
  "steamid": 801280,
  "gogid": null,
  "gogslug": "",
  "humblestoreid": "",
  "id": 18389
}