{
  "name": "Code Lyoko: Quest for Infinity",
  "slug": "code-lyoko-quest-for-infinity",
  "year": null,
  "description": "",
  "banner_url": "https://lutris.net/games/banner/code-lyoko-quest-for-infinity.jpg",
  "icon_url": "",
  "is_public": true,
  "updated": "2020-05-22T08:58:10.008526Z",
  "provider_games": [],
  "steamid": null,
  "gogid": null,
  "gogslug": "",
  "humblestoreid": "",
  "id": 33204
}