{
  "name": "EA Play",
  "slug": "ea-play",
  "year": null,
  "description": "",
  "banner_url": "https://lutris.net/games/banner/ea-play.jpg",
  "icon_url": "https://lutris.net/games/icon/ea-play.png",
  "is_public": true,
  "updated": "2020-10-08T09:55:17.537304Z",
  "provider_games": [
    {
      "name": "EA Play",
      "slug": "1289670",
      "service": "steam"
    }
  ],
  "steamid": 1289670,
  "gogid": null,
  "gogslug": "",
  "humblestoreid": "",
  "id": 38769
}