{
  "name": "Freddy in Space 2",
  "slug": "freddy-in-space-2",
  "year": 2019,
  "description": "Freddy is back... in space! Every good horror series inevitably goes to space, but how many of them go back for a second round?\r\n\r\nWhen Freddy leaves the lunar base on a deep-space mission, the central computer system is hijacked by the newly installed high-tech computer assistant: L.ogarithmic O.nline LAN-compatible Z.ero-error H.ydraulic A.uxiliary X.ylophone(?), otherwise known as L.O.L.Z.H.A.X.\r\n\r\nLolzHax has brainwashed the other resident space warriors, Bonnie, Chica, Foxy, and that weird gangly space puppet, and has locked Freddy's son outside the station with limited air remaining. Can Freddy rescue his friends, defeat LolzHax, and save his son in time?",
  "banner_url": "https://lutris.net/games/banner/freddy-in-space-2.jpg",
  "icon_url": "",
  "is_public": true,
  "updated": "2020-01-01T06:52:43.524304Z",
  "provider_games": [],
  "steamid": null,
  "gogid": null,
  "gogslug": "",
  "humblestoreid": "",
  "id": 30725
}