{
  "name": "Dead Horde",
  "slug": "dead-horde",
  "year": null,
  "description": "",
  "banner_url": "https://lutris.net/games/banner/dead-horde.jpg",
  "icon_url": "https://lutris.net/games/icon/dead-horde.png",
  "is_public": true,
  "updated": "2020-10-08T10:02:18.193299Z",
  "provider_games": [
    {
      "name": "Dead Horde",
      "slug": "27940",
      "service": "steam"
    }
  ],
  "steamid": 27940,
  "gogid": null,
  "gogslug": "",
  "humblestoreid": "",
  "id": 901
}