{
  "name": "Lupin III",
  "slug": "lupin-iii",
  "year": 1980,
  "description": "",
  "banner_url": "",
  "icon_url": "https://lutris.net/games/icon/lupin-iii.png",
  "is_public": true,
  "updated": "2020-05-26T03:35:22.907959Z",
  "provider_games": [
    {
      "name": "Lupin III",
      "slug": "lupin3",
      "service": "mame"
    }
  ],
  "steamid": null,
  "gogid": null,
  "gogslug": "",
  "humblestoreid": "",
  "id": 34761
}