{
  "name": "GunZ 2: The Second Duel",
  "slug": "gunz-2-the-second-duel",
  "year": null,
  "description": "",
  "banner_url": "https://lutris.net/games/banner/gunz-2-the-second-duel.jpg",
  "icon_url": "https://lutris.net/games/icon/gunz-2-the-second-duel.png",
  "is_public": true,
  "updated": "2020-10-08T09:21:23.094149Z",
  "provider_games": [
    {
      "name": "GunZ 2: The Second Duel",
      "slug": "242720",
      "service": "steam"
    }
  ],
  "steamid": 242720,
  "gogid": null,
  "gogslug": "",
  "humblestoreid": "",
  "id": 2332
}