{
  "name": "Crime Cities",
  "slug": "crime-cities",
  "year": 2000,
  "description": "",
  "banner_url": "https://lutris.net/games/banner/crime-cities.jpg",
  "icon_url": "",
  "is_public": true,
  "updated": "2020-05-31T00:17:38.417411Z",
  "provider_games": [
    {
      "name": "Crime Cities",
      "slug": "1485600994",
      "service": "gog"
    }
  ],
  "steamid": null,
  "gogid": 1485600994,
  "gogslug": "crime_cities",
  "humblestoreid": "",
  "id": 24155
}