{
  "name": "Higurashi When They Cry Hou - Ch.8 Matsuribayashi",
  "slug": "higurashi-when-they-cry-hou-ch8-matsuribayashi",
  "year": null,
  "description": "",
  "banner_url": "https://lutris.net/games/banner/higurashi-when-they-cry-hou-ch8-matsuribayashi.jpg",
  "icon_url": "https://lutris.net/games/icon/higurashi-when-they-cry-hou-ch8-matsuribayashi.png",
  "is_public": true,
  "updated": "2020-07-06T07:34:13.950991Z",
  "provider_games": [
    {
      "name": "Higurashi When They Cry Hou - Ch.8 Matsuribayashi",
      "slug": "2052551600",
      "service": "gog"
    },
    {
      "name": "Higurashi When They Cry Hou - Ch.8 Matsuribayashi",
      "slug": "1243670",
      "service": "steam"
    }
  ],
  "steamid": 1243670,
  "gogid": 2052551600,
  "gogslug": "higurashi_when_they_cry_hou_ch8_matsuribayashi",
  "humblestoreid": "",
  "id": 36654
}