{
  "name": "Age of Wonders",
  "slug": "age-of-wonders",
  "year": 1999,
  "description": "Welcome to Age of Wonders, the authentic turn based fantasy strategy classic that started the hit series. Age of Wonders’ intimate atmosphere with painterly graphics still shines today. The game’s fully patched up, start building your fantasy empire today!\r\nThe Age of Wonders, once a time of magic and peace. An age swept into the ravaging gale of chaos by the arrival of a single, uninvited race: the Humans. The fragile balance that existed between the ancient races, Elves, Dwarves, Orcs and others, has changed into a struggle for power and survival in the wake of the turmoil the Humans have brought to the land. Prepare for a strategy adventure where you will uncover wondrous ancient artifacts, awesome magical power, and the secrets of a shattered empire. Ally with the forces of light or darkness to determine the fate of the world in the Age of Wonders!",
  "banner_url": "https://lutris.net/games/banner/age-of-wonders.jpg",
  "icon_url": "https://lutris.net/games/icon/age-of-wonders.png",
  "is_public": true,
  "updated": "2020-05-31T00:17:33.709059Z",
  "provider_games": [
    {
      "name": "Age of Wonders",
      "slug": "1207658883",
      "service": "gog"
    },
    {
      "name": "Age of Wonders",
      "slug": "61500",
      "service": "steam"
    }
  ],
  "steamid": 61500,
  "gogid": 1207658883,
  "gogslug": "age_of_wonders",
  "humblestoreid": "",
  "id": 2411
}