{
  "name": "Deadly Days",
  "slug": "deadly-days",
  "year": null,
  "description": "",
  "banner_url": "https://lutris.net/games/banner/deadly-days.jpg",
  "icon_url": "https://lutris.net/games/icon/deadly-days.png",
  "is_public": true,
  "updated": "2020-10-08T09:59:08.047346Z",
  "provider_games": [
    {
      "name": "Deadly Days",
      "slug": "1181763063",
      "service": "gog"
    },
    {
      "name": "Deadly Days",
      "slug": "740080",
      "service": "steam"
    }
  ],
  "steamid": 740080,
  "gogid": 1181763063,
  "gogslug": "deadly_days",
  "humblestoreid": "",
  "id": 25583
}