{
  "name": "Crazy Machines 1.5 New from the Lab",
  "slug": "crazy-machines-15-new-from-the-lab",
  "year": null,
  "description": "",
  "banner_url": "https://lutris.net/games/banner/crazy-machines-15-new-from-the-lab.jpg",
  "icon_url": "https://lutris.net/games/icon/crazy-machines-15-new-from-the-lab.png",
  "is_public": true,
  "updated": "2020-10-08T10:02:34.549932Z",
  "provider_games": [
    {
      "name": "Crazy Machines 1.5 New from the Lab",
      "slug": "18450",
      "service": "steam"
    }
  ],
  "steamid": 18450,
  "gogid": null,
  "gogslug": "",
  "humblestoreid": "",
  "id": 1429
}