{
  "name": "Downstream Panic",
  "slug": "downstream-panic",
  "year": 2008,
  "description": "A massive cyclone has sucked all of the fish out of the oceans! The player must safely guide them back. Levels start at the top of the area where the fish are contained in a blob of water. They need to reach the ocean safely at the bottom of the screen with guidance of the player.",
  "banner_url": "https://lutris.net/games/banner/downstream-panic.jpg",
  "icon_url": "",
  "is_public": true,
  "updated": "2019-01-23T08:29:16.012250Z",
  "provider_games": [],
  "steamid": null,
  "gogid": null,
  "gogslug": "",
  "humblestoreid": "",
  "id": 20543
}