{
  "name": "Harvest Moon",
  "slug": "harvest-moon",
  "year": 1996,
  "description": "",
  "banner_url": "https://lutris.net/games/banner/harvest-moon.jpg",
  "icon_url": "",
  "is_public": true,
  "updated": "2019-01-23T08:29:47.391200Z",
  "provider_games": [],
  "steamid": null,
  "gogid": null,
  "gogslug": "",
  "humblestoreid": "",
  "id": 10566
}