{
  "id": 4651,
  "game_id": 2783,
  "game_slug": "putt-putt-joins-the-parade",
  "name": "Putt-Putt Joins the Parade",
  "year": null,
  "user": "FakeShemp",
  "runner": "scummvm",
  "slug": "putt-putt-joins-the-parade-humble",
  "version": "Humble",
  "description": "Uses the files from the Windows installer from Humble.",
  "notes": "",
  "created_at": "2017-06-26T20:58:45.230000Z",
  "updated_at": "2017-07-04T18:04:53.133545Z",
  "draft": false,
  "published": true,
  "published_by": null,
  "rating": "",
  "steamid": 283920,
  "gogid": null,
  "gogslug": "",
  "humbleid": "",
  "humblestoreid": "",
  "humblestoreid_real": "",
  "script": {
    "files": [
      {
        "file1": "N/A:Please select the Humble installer"
      }
    ],
    "game": {
      "game_id": "puttputt",
      "path": "$GAMEDIR",
      "subtitles": true
    },
    "installer": [
      {
        "task": {
          "args": "/S",
          "executable": "$file1",
          "name": "wine.wineexec",
          "prefix": "$CACHE"
        }
      },
      {
        "merge": {
          "dst": "$GAMEDIR",
          "src": "$CACHE/drive_c/Games/Humongous Entertainment/Putt-Putt 1"
        }
      }
    ]
  },
  "content": "files:\n- file1: N/A:Please select the Humble installer\ngame:\n  game_id: puttputt\n  path: $GAMEDIR\n  subtitles: true\ninstaller:\n- task:\n    args: /S\n    executable: $file1\n    name: wine.wineexec\n    prefix: $CACHE\n- merge:\n    dst: $GAMEDIR\n    src: $CACHE/drive_c/Games/Humongous Entertainment/Putt-Putt 1\n"
}