{
  "name": "Last Day of June",
  "slug": "last-day-of-june",
  "year": null,
  "description": "",
  "banner_url": "https://lutris.net/games/banner/last-day-of-june.jpg",
  "icon_url": "https://lutris.net/games/icon/last-day-of-june.png",
  "is_public": true,
  "updated": "2020-10-08T10:10:38.713341Z",
  "provider_games": [
    {
      "name": "Last Day of June",
      "slug": "1425609977",
      "service": "gog"
    },
    {
      "name": "Last Day of June",
      "slug": "635320",
      "service": "steam"
    }
  ],
  "steamid": 635320,
  "gogid": 1425609977,
  "gogslug": "last_day_of_june",
  "humblestoreid": "",
  "id": 16737
}