{
  "name": "Etaria | Survival Adventure",
  "slug": "etaria-survival-adventure",
  "year": null,
  "description": "",
  "banner_url": "https://lutris.net/games/banner/etaria-survival-adventure.jpg",
  "icon_url": "https://lutris.net/games/icon/etaria-survival-adventure.png",
  "is_public": false,
  "updated": "2019-01-23T08:29:25.394990Z",
  "provider_games": [],
  "steamid": 423920,
  "gogid": null,
  "gogslug": "",
  "humblestoreid": "",
  "id": 8767
}