{
  "name": "FMatheg",
  "slug": "fmatheg",
  "year": null,
  "description": "",
  "banner_url": "https://lutris.net/games/banner/fmatheg.jpg",
  "icon_url": "https://lutris.net/games/icon/fmatheg.png",
  "is_public": false,
  "updated": "2019-01-23T08:29:32.914533Z",
  "provider_games": [],
  "steamid": 754130,
  "gogid": null,
  "gogslug": "",
  "humblestoreid": "",
  "id": 22634
}