{
  "name": "Influent Language Pack (Spanish)",
  "slug": "influent-language-pack-spanish",
  "year": null,
  "description": "",
  "banner_url": "",
  "icon_url": "",
  "is_public": true,
  "updated": "2020-06-03T05:17:40.346099Z",
  "provider_games": [
    {
      "name": "Influent Language Pack (Spanish)",
      "slug": "influent_spanish",
      "service": "humblebundle"
    }
  ],
  "steamid": null,
  "gogid": null,
  "gogslug": "",
  "humblestoreid": "influent_spanish",
  "id": 37119
}