{
  "name": "Blowhards",
  "slug": "blowhards",
  "year": null,
  "description": "",
  "banner_url": "https://lutris.net/games/banner/blowhards.jpg",
  "icon_url": "https://lutris.net/games/icon/blowhards.png",
  "is_public": true,
  "updated": "2020-10-08T10:05:45.273950Z",
  "provider_games": [
    {
      "name": "Blowhards",
      "slug": "552000",
      "service": "steam"
    }
  ],
  "steamid": 552000,
  "gogid": null,
  "gogslug": "",
  "humblestoreid": "",
  "id": 20740
}