{
  "name": "Gingerbread Story",
  "slug": "gingerbread-story",
  "year": null,
  "description": "",
  "banner_url": "https://lutris.net/games/banner/gingerbread-story.jpg",
  "icon_url": "https://lutris.net/games/icon/gingerbread-story.png",
  "is_public": true,
  "updated": "2020-10-08T10:08:46.484041Z",
  "provider_games": [
    {
      "name": "Gingerbread Story",
      "slug": "817620",
      "service": "steam"
    }
  ],
  "steamid": 817620,
  "gogid": null,
  "gogslug": "",
  "humblestoreid": "",
  "id": 22775
}