{
  "name": "Jupiteration",
  "slug": "jupiteration",
  "year": null,
  "description": "",
  "banner_url": "https://lutris.net/games/banner/jupiteration.jpg",
  "icon_url": "https://lutris.net/games/icon/jupiteration.png",
  "is_public": true,
  "updated": "2020-10-08T10:04:30.505278Z",
  "provider_games": [
    {
      "name": "Jupiteration",
      "slug": "592240",
      "service": "steam"
    }
  ],
  "steamid": 592240,
  "gogid": null,
  "gogslug": "",
  "humblestoreid": "",
  "id": 13032
}