{
  "name": "Dream Dealer",
  "slug": "dream-dealer",
  "year": null,
  "description": "",
  "banner_url": "https://lutris.net/games/banner/dream-dealer.jpg",
  "icon_url": "https://lutris.net/games/icon/dream-dealer.png",
  "is_public": true,
  "updated": "2020-10-08T10:06:20.408553Z",
  "provider_games": [
    {
      "name": "Dream Dealer",
      "slug": "532030",
      "service": "steam"
    }
  ],
  "steamid": 532030,
  "gogid": null,
  "gogslug": "",
  "humblestoreid": "",
  "id": 11577
}