{
  "name": "Lost in the Rift - Reborn",
  "slug": "lost-in-the-rift-reborn",
  "year": null,
  "description": "",
  "banner_url": "https://lutris.net/games/banner/lost-in-the-rift-reborn.jpg",
  "icon_url": "https://lutris.net/games/icon/lost-in-the-rift-reborn.png",
  "is_public": true,
  "updated": "2020-10-08T10:06:02.828934Z",
  "provider_games": [
    {
      "name": "Lost in the Rift - Reborn",
      "slug": "542520",
      "service": "steam"
    }
  ],
  "steamid": 542520,
  "gogid": null,
  "gogslug": "",
  "humblestoreid": "",
  "id": 10951
}