{
  "name": "Brian the Lion",
  "slug": "brian-the-lion",
  "year": 1994,
  "description": "If you can't stand the heat, stay out of the jungle...\r\n\r\nMeet the funkiest feline on two legs, Brian the Lion, starring in the wildest adventure ever to hit the Amiga! Brian's rumble in the jungle boasts hundreds of frames of character animation, megabytes of infectious music and a magnificent menagerie of console-style effects including zooming, sprite scaling, de-resolution and rotation. The scariest sight in Bermuda shorts this side of Baywatch, Brian the Lion pounces into action in a roaring romp that's so hot it's positively tropical.\r\n\r\n\"Brian looks, plays and sounds superb. Definitely one of the best platformers around.\" - Amiga Action. ",
  "banner_url": "https://lutris.net/games/banner/brian-the-lion.jpg",
  "icon_url": "https://lutris.net/games/icon/brian-the-lion.png",
  "is_public": true,
  "updated": "2019-01-23T08:28:41.898451Z",
  "provider_games": [],
  "steamid": null,
  "gogid": null,
  "gogslug": "",
  "humblestoreid": "",
  "id": 1680
}