{
  "name": "Boo Bunny Plague",
  "slug": "boo-bunny-plague",
  "year": null,
  "description": "",
  "banner_url": "https://lutris.net/games/banner/boo-bunny-plague.jpg",
  "icon_url": "https://lutris.net/games/icon/boo-bunny-plague.png",
  "is_public": true,
  "updated": "2020-10-08T09:20:01.332471Z",
  "provider_games": [
    {
      "name": "Boo Bunny Plague",
      "slug": "313590",
      "service": "steam"
    }
  ],
  "steamid": 313590,
  "gogid": null,
  "gogslug": "",
  "humblestoreid": "",
  "id": 3419
}