{
  "name": "Cinderella Phenomenon",
  "slug": "cinderella-phenomenon",
  "year": 2016,
  "description": "Four years after the end of the Great War and the loss of her mother, Crown Princess Lucette of Angielle is still struggling to come to terms with her new life and step-family. Cold-hearted and bitter, Lucette fails to recognize the suffering of those around her as she is consumed by grief and resentment. But Lucette’s life is once again turned upside down when she becomes a victim of the Fairytale Curse.\r\n\r\nJoin Lucette as she goes from riches to rags and journeys to regain her life and break her curse.",
  "banner_url": "https://lutris.net/games/banner/cinderella-phenomenon.jpg",
  "icon_url": "https://lutris.net/games/icon/cinderella-phenomenon.png",
  "is_public": true,
  "updated": "2019-01-23T08:28:52.779382Z",
  "provider_games": [
    {
      "name": "Cinderella Phenomenon",
      "slug": "568770",
      "service": "steam"
    }
  ],
  "steamid": 568770,
  "gogid": null,
  "gogslug": "",
  "humblestoreid": "",
  "id": 11004
}