{
  "name": "Icarus-X: Tides of Fire",
  "slug": "icarus-x-tides-of-fire",
  "year": null,
  "description": "",
  "banner_url": "https://lutris.net/games/banner/icarus-x-tides-of-fire.jpg",
  "icon_url": "https://lutris.net/games/icon/icarus-x-tides-of-fire.png",
  "is_public": true,
  "updated": "2020-10-08T10:15:51.844297Z",
  "provider_games": [
    {
      "name": "Icarus-X: Tides of Fire",
      "slug": "375000",
      "service": "steam"
    }
  ],
  "steamid": 375000,
  "gogid": null,
  "gogslug": "",
  "humblestoreid": "",
  "id": 5441
}