{
  "name": "Hate Free Heroes RPG 2.0",
  "slug": "hate-free-heroes-rpg-20",
  "year": null,
  "description": "",
  "banner_url": "https://lutris.net/games/banner/hate-free-heroes-rpg-20.jpg",
  "icon_url": "https://lutris.net/games/icon/hate-free-heroes-rpg-20.png",
  "is_public": true,
  "updated": "2020-10-08T10:06:59.362078Z",
  "provider_games": [
    {
      "name": "Hate Free Heroes RPG 2.0",
      "slug": "514540",
      "service": "steam"
    }
  ],
  "steamid": 514540,
  "gogid": null,
  "gogslug": "",
  "humblestoreid": "",
  "id": 31453
}