{
  "name": "FORGET THE BRAKES!",
  "slug": "forget-the-brakes",
  "year": 2014,
  "description": "A game about driving a train without brakes by Multi-Track Drifting.",
  "banner_url": "https://lutris.net/games/banner/forget-the-brakes.jpg",
  "icon_url": "",
  "is_public": false,
  "updated": "2020-09-13T23:37:23.164970Z",
  "provider_games": [],
  "steamid": null,
  "gogid": null,
  "gogslug": "",
  "humblestoreid": "",
  "id": 38914
}