{
  "id": 24704,
  "game_id": 3561,
  "game_slug": "the-x-files-game",
  "name": "The X-Files Game",
  "year": 1998,
  "user": "mikey1979",
  "runner": "wine",
  "slug": "the-x-files-game-521",
  "version": "5.21",
  "description": null,
  "notes": "",
  "created_at": "2020-11-24T23:07:09.610180Z",
  "updated_at": "2020-11-24T23:07:09.610207Z",
  "draft": true,
  "published": false,
  "published_by": null,
  "rating": "",
  "steamid": null,
  "gogid": null,
  "gogslug": "",
  "humbleid": "",
  "humblestoreid": "",
  "humblestoreid_real": "",
  "script": {
    "exe": "drive_c/Program Files (x86)/Fox/The X-Files/XFiles.exe",
    "game": {
      "arch": "win32",
      "prefix": "$GAMEDIR"
    },
    "installer": [
      {
        "insert-disc": {
          "requires": "xv/91379.xmv"
        }
      },
      {
        "task": {
          "executable": "$DISC/setup.exe",
          "name": "wineexec",
          "prefix": "$GAMEDIR"
        }
      }
    ]
  },
  "content": "exe: drive_c/Program Files (x86)/Fox/The X-Files/XFiles.exe\ngame:\n  arch: win32\n  prefix: $GAMEDIR\ninstaller:\n- insert-disc:\n    requires: xv/91379.xmv\n- task:\n    executable: $DISC/setup.exe\n    name: wineexec\n    prefix: $GAMEDIR\n"
}