{
  "name": "Bijokko Gakuen",
  "slug": "bijokko-gakuen",
  "year": 1988,
  "description": "",
  "banner_url": "",
  "icon_url": "https://lutris.net/games/icon/bijokko-gakuen.png",
  "is_public": true,
  "updated": "2020-05-26T03:32:12.965228Z",
  "provider_games": [
    {
      "name": "Bijokko Gakuen",
      "slug": "bijokkog",
      "service": "mame"
    }
  ],
  "steamid": null,
  "gogid": null,
  "gogslug": "",
  "humblestoreid": "",
  "id": 33431
}