{
  "name": "JET HERO",
  "slug": "jet-hero",
  "year": null,
  "description": "",
  "banner_url": "https://lutris.net/games/banner/jet-hero.jpg",
  "icon_url": "https://lutris.net/games/icon/jet-hero.png",
  "is_public": true,
  "updated": "2020-10-08T10:04:42.242643Z",
  "provider_games": [
    {
      "name": "JET HERO",
      "slug": "586060",
      "service": "steam"
    }
  ],
  "steamid": 586060,
  "gogid": null,
  "gogslug": "",
  "humblestoreid": "",
  "id": 12997
}