{
  "name": "HELLDIVERS™",
  "slug": "helldiverstm",
  "year": null,
  "description": "",
  "banner_url": "https://lutris.net/games/banner/helldiverstm.jpg",
  "icon_url": "https://lutris.net/games/icon/helldiverstm.png",
  "is_public": true,
  "updated": "2019-01-23T08:29:48.726538Z",
  "provider_games": [
    {
      "name": "HELLDIVERS™",
      "slug": "394510",
      "service": "steam"
    }
  ],
  "steamid": 394510,
  "gogid": null,
  "gogslug": "",
  "humblestoreid": "",
  "id": 8207
}