{
  "name": "FATE",
  "slug": "fate",
  "year": 2005,
  "description": "Hello, traveler. Journey to the outskirts, where the Old Wood meets the Dungeon Gate. Battle vicious creatures, collect unique weaponry, learn powerful spells and glory will be yours.\r\nRise and test your worth! Step forward and determine Your FATE!",
  "banner_url": "https://lutris.net/games/banner/fate.jpg",
  "icon_url": "https://lutris.net/games/icon/fate.png",
  "is_public": true,
  "updated": "2019-06-01T05:44:08.007712Z",
  "provider_games": [
    {
      "name": "FATE",
      "slug": "246840",
      "service": "steam"
    }
  ],
  "steamid": 246840,
  "gogid": null,
  "gogslug": "",
  "humblestoreid": "",
  "id": 2749
}