{
  "name": "Heartbreak High: A Break-Up Simulator",
  "slug": "heartbreak-high-a-break-up-simulator",
  "year": 2018,
  "description": "Heartbreak High is an arcade-style spin on visual novels and dating simulators that asks you to break up with all of your high school sweethearts instead of woo them. A single play-through can be completed in one 20-40 minute sitting, with each break-up featuring a unique branching story path and lovable (or unlovable?) characters for you to crush beneath your feet over and over again.",
  "banner_url": "https://lutris.net/games/banner/heartbreak-high-a-break-up-simulator.jpg",
  "icon_url": "",
  "is_public": false,
  "updated": "2020-09-20T15:38:17.408237Z",
  "provider_games": [],
  "steamid": null,
  "gogid": null,
  "gogslug": "",
  "humblestoreid": "",
  "id": 39152
}