{
  "name": "ESports Club",
  "slug": "esports-club",
  "year": null,
  "description": "",
  "banner_url": "https://lutris.net/games/banner/esports-club.jpg",
  "icon_url": "https://lutris.net/games/icon/esports-club.png",
  "is_public": true,
  "updated": "2019-05-19T13:13:50.313576Z",
  "provider_games": [
    {
      "name": "ESports Club",
      "slug": "656200",
      "service": "steam"
    }
  ],
  "steamid": 656200,
  "gogid": null,
  "gogslug": "",
  "humblestoreid": "",
  "id": 27226
}