{
  "name": "Guilty Gear XX Accent Core Plus",
  "slug": "guilty-gear-xx-accent-core-plus",
  "year": 2009,
  "description": "The fighting franchise that launched an entirely new style of fighting games is celebrating its 10th anniversary with the most complete and definitive version of the game on the PlayStation 2, PlayStation Portable and Nintendo Wii. Follow the stories of the 25 crazy combatants and dish out a mind-numbing amount of insane combos that the series is known for. Discover the back story to all of your favorite characters in the Guilty Gear mythos, with fully voiced dialogue. Accent Core Plus marks the return of fan favorites Kliff Undersn and Justice, rounding out the cast of 25 playable characters. Create a three-man team in Versus Mode to find out which characters are the ultimate Guilty Gear team-up. Level up your character’s abilities and traits in the re-tuned Survival Mode",
  "banner_url": "https://lutris.net/games/banner/guilty-gear-xx-accent-core-plus.jpg",
  "icon_url": "",
  "is_public": true,
  "updated": "2019-03-01T19:10:12.109776Z",
  "provider_games": [],
  "steamid": null,
  "gogid": null,
  "gogslug": "",
  "humblestoreid": "",
  "id": 26089
}