{
  "name": "Harajuku Dating Paradise ~Nakadashi Banzai~",
  "slug": "harajuku-dating-paradise-nakadashi-banzai",
  "year": 2009,
  "description": "The protagonist of Harajuku Dating Paradise - Nakadashi Banzai is an energetic guy who loves sex more than anything!\r\n\r\nAs usual, he sets out in the city of Tokyo trying to pick up someone. What kind of girl will he bump into today?\r\n\r\nWin the hearts of 3 lovely ladies: Your normal average nice girl, a lonely housewife, and a spoiled rich girl!",
  "banner_url": "https://lutris.net/games/banner/harajuku-dating-paradise-nakadashi-banzai.jpg",
  "icon_url": "",
  "is_public": true,
  "updated": "2019-06-13T21:22:38.329466Z",
  "provider_games": [],
  "steamid": null,
  "gogid": null,
  "gogslug": "",
  "humblestoreid": "",
  "id": 11558
}