{
  "name": "CHUCHEL",
  "slug": "chuchel",
  "year": 2018,
  "description": "Join the hairy hero Chuchel and his rival Kekel on their quest to retrieve the precious cherry and face numerous puzzles and challenges! The reward? Cheerful situational humor, wild music and sounds by the band DVA and dozens of hilarious gags that warm up even the coldest of souls. Plus cherries!",
  "banner_url": "https://lutris.net/games/banner/chuchel.jpg",
  "icon_url": "https://lutris.net/games/icon/chuchel.png",
  "is_public": true,
  "updated": "2020-05-31T00:17:37.558128Z",
  "provider_games": [
    {
      "name": "CHUCHEL",
      "slug": "1825910123",
      "service": "gog"
    },
    {
      "name": "CHUCHEL",
      "slug": "711660",
      "service": "steam"
    }
  ],
  "steamid": 711660,
  "gogid": 1825910123,
  "gogslug": "chuchel",
  "humblestoreid": "",
  "id": 17307
}