{
  "name": "Hardware Engineers",
  "slug": "hardware-engineers",
  "year": null,
  "description": "",
  "banner_url": "https://lutris.net/games/banner/hardware-engineers.jpg",
  "icon_url": "https://lutris.net/games/icon/hardware-engineers.png",
  "is_public": true,
  "updated": "2020-10-08T10:07:50.239839Z",
  "provider_games": [
    {
      "name": "Hardware Engineers",
      "slug": "485900",
      "service": "steam"
    }
  ],
  "steamid": 485900,
  "gogid": null,
  "gogslug": "",
  "humblestoreid": "",
  "id": 13458
}