{
  "name": "ASSASSINATION STATION",
  "slug": "assassination-station",
  "year": null,
  "description": "",
  "banner_url": "https://lutris.net/games/banner/assassination-station.jpg",
  "icon_url": "https://lutris.net/games/icon/assassination-station.png",
  "is_public": true,
  "updated": "2020-10-08T10:08:58.205508Z",
  "provider_games": [
    {
      "name": "ASSASSINATION STATION",
      "slug": "683430",
      "service": "steam"
    }
  ],
  "steamid": 683430,
  "gogid": null,
  "gogslug": "",
  "humblestoreid": "",
  "id": 16663
}