{
  "name": "Age of Fear 2: The Chaos Lord",
  "slug": "age-of-fear-2-the-chaos-lord",
  "year": 2015,
  "description": "Age of Fear 2: The Chaos Lord is an indie turn-based strategy with strong fantasy RPG elements. The game features a huge variety of units, a novel hex-free battle system, morale, and flexible multiplayer. Play as a manipulative succubuss or a brutal orc warchief in two story driven campaigns!",
  "banner_url": "https://lutris.net/games/banner/age-of-fear-2-the-chaos-lord.jpg",
  "icon_url": "https://lutris.net/games/icon/age-of-fear-2-the-chaos-lord.png",
  "is_public": true,
  "updated": "2019-01-23T08:28:14.505064Z",
  "provider_games": [
    {
      "name": "Age of Fear 2: The Chaos Lord GOLD",
      "slug": "341150",
      "service": "steam"
    }
  ],
  "steamid": 341150,
  "gogid": null,
  "gogslug": "",
  "humblestoreid": "",
  "id": 4523
}