{
  "name": "Escalation: Gear Up",
  "slug": "escalation-gear-up",
  "year": null,
  "description": "",
  "banner_url": "https://lutris.net/games/banner/escalation-gear-up.jpg",
  "icon_url": "https://lutris.net/games/icon/escalation-gear-up.png",
  "is_public": true,
  "updated": "2020-10-08T09:57:20.937556Z",
  "provider_games": [
    {
      "name": "Escalation: Gear Up",
      "slug": "843102",
      "service": "steam"
    }
  ],
  "steamid": 843102,
  "gogid": null,
  "gogslug": "",
  "humblestoreid": "",
  "id": 22817
}