{
  "id": 6119,
  "game_id": 14412,
  "game_slug": "spyro-the-dragon",
  "name": "Spyro the Dragon",
  "year": 1998,
  "user": "FakeShemp",
  "runner": "libretro",
  "slug": "spyro-the-dragon-playstation",
  "version": "PlayStation",
  "description": "",
  "notes": "",
  "created_at": "2017-10-26T08:44:02.675941Z",
  "updated_at": "2017-10-26T08:52:03.767724Z",
  "draft": false,
  "published": true,
  "published_by": null,
  "rating": "",
  "steamid": null,
  "gogid": null,
  "gogslug": "",
  "humbleid": "",
  "humblestoreid": "",
  "humblestoreid_real": "",
  "script": {
    "files": [
      {
        "file1": "N/A:Please select the PlayStation image file"
      }
    ],
    "game": {
      "core": "mednafen_psx_hw",
      "main_file": "file1"
    },
    "installer": [
      {
        "merge": {
          "dst": "$GAMEDIR",
          "src": "file1"
        }
      }
    ]
  },
  "content": "files:\n- file1: N/A:Please select the PlayStation image file\ngame:\n  core: mednafen_psx_hw\n  main_file: file1\ninstaller:\n- merge:\n    dst: $GAMEDIR\n    src: file1\n"
}