{
  "name": "Holiday Bonus GOLD",
  "slug": "holiday-bonus-gold",
  "year": 2016,
  "description": "The best holiday match-3 game ever made is back! Now with 100% more levels! Holiday Bonus GOLD contains all the original levels from the classic version as well as 55 brand new levels for your delight. Pour yourself a glass of eggnog, grab a mince pie, and get stuck in.\r\n\r\nChill out with this cool winter-themed puzzle game from Grey Alien Games - it's slicker than Santa on an icy roof! Line up the dancing seasonal shapes against stunning snowscape backgrounds with an epic music score and work your way up the decorated tree.\r\n\r\nYou can gather winter scenes in your gallery and even display them on your desktop. Make the right moves and your power gauge will build a bigger, brighter bonus blowout!\r\n\r\nThis one's gonna snowball...so don't miss the festive fun!",
  "banner_url": "https://lutris.net/games/banner/holiday-bonus-gold.jpg",
  "icon_url": "https://lutris.net/games/icon/holiday-bonus-gold.png",
  "is_public": true,
  "updated": "2019-06-13T06:45:59.382635Z",
  "provider_games": [
    {
      "name": "Holiday Bonus GOLD",
      "slug": "572760",
      "service": "steam"
    }
  ],
  "steamid": 572760,
  "gogid": null,
  "gogslug": "",
  "humblestoreid": "",
  "id": 12932
}