{
  "name": "Chronicles of the Witches and Warlocks",
  "slug": "chronicles-of-the-witches-and-warlocks",
  "year": null,
  "description": "",
  "banner_url": "https://lutris.net/games/banner/chronicles-of-the-witches-and-warlocks.jpg",
  "icon_url": "https://lutris.net/games/icon/chronicles-of-the-witches-and-warlocks.png",
  "is_public": true,
  "updated": "2019-01-23T08:28:52.571661Z",
  "provider_games": [
    {
      "name": "Chronicles of the Witches and Warlocks",
      "slug": "396850",
      "service": "steam"
    }
  ],
  "steamid": 396850,
  "gogid": null,
  "gogslug": "",
  "humblestoreid": "",
  "id": 7480
}