{
  "id": 4706,
  "game_id": 11955,
  "game_slug": "pokemon-revolution-online",
  "name": "Pokemon Revolution Online",
  "year": 2014,
  "user": "paperbenni",
  "runner": "linux",
  "slug": "pokemon-revolution-online-linux",
  "version": "Linux",
  "description": null,
  "notes": "",
  "created_at": "2017-06-28T14:08:35.520000Z",
  "updated_at": "2018-04-06T21:24:21.323853Z",
  "draft": false,
  "published": true,
  "published_by": null,
  "rating": "",
  "steamid": null,
  "gogid": null,
  "gogslug": "",
  "humbleid": "",
  "humblestoreid": "",
  "humblestoreid_real": "",
  "script": {
    "exe": "PROLinux64.x86_64",
    "files": [
      {
        "game": "https://lutris.net/files/games/pokemon-revolution-online/PRO64LinuxSin.zip"
      }
    ],
    "installer": [
      {
        "extract": {
          "dst": "$GAMEDIR",
          "file": "game"
        }
      },
      {
        "chmodx": "$GAMEDIR/PROLinux64.x86_64"
      }
    ]
  },
  "content": "exe: PROLinux64.x86_64\nfiles:\n- game: https://lutris.net/files/games/pokemon-revolution-online/PRO64LinuxSin.zip\ninstaller:\n- extract:\n    dst: $GAMEDIR\n    file: game\n- chmodx: $GAMEDIR/PROLinux64.x86_64\n"
}