{
  "name": "ASTA Online",
  "slug": "asta-online",
  "year": null,
  "description": "",
  "banner_url": "https://lutris.net/games/banner/asta-online.jpg",
  "icon_url": "https://lutris.net/games/icon/asta-online.png",
  "is_public": false,
  "updated": "2019-01-23T08:28:27.595930Z",
  "provider_games": [],
  "steamid": 612290,
  "gogid": null,
  "gogslug": "",
  "humblestoreid": "",
  "id": 11389
}