{
  "name": "Depth Siege Atlantis",
  "slug": "depth-siege-atlantis",
  "year": null,
  "description": "",
  "banner_url": "https://lutris.net/games/banner/depth-siege-atlantis.jpg",
  "icon_url": "https://lutris.net/games/icon/depth-siege-atlantis.png",
  "is_public": false,
  "updated": "2019-01-23T08:29:09.915746Z",
  "provider_games": [],
  "steamid": 849550,
  "gogid": null,
  "gogslug": "",
  "humblestoreid": "",
  "id": 24774
}