{
  "id": 17130,
  "game_id": 30603,
  "game_slug": "heroes-chronicles-all-chapters",
  "name": "Heroes Chronicles: All Chapters",
  "year": 1993,
  "user": "edjaa84",
  "runner": "wine",
  "slug": "heroes-chronicles-all-chapter-gog-the-fiery-moon",
  "version": "GOG The Fiery Moon",
  "description": "Heroes Chronicles: The Fiery Moon (Acceso Directo)\r\n\r\nRaPiMoDEBianPaKaGer",
  "notes": "",
  "created_at": "2019-12-01T01:39:39.721474Z",
  "updated_at": "2019-12-01T01:39:39.721505Z",
  "draft": true,
  "published": false,
  "published_by": null,
  "rating": "",
  "steamid": null,
  "gogid": null,
  "gogslug": "",
  "humbleid": "",
  "humblestoreid": "",
  "humblestoreid_real": "",
  "script": {
    "custom-name": "The Fiery Moon",
    "game": {
      "arch": "win64",
      "exe": "~/Games/heroes-chronicles-all-chapters/drive_c/GOG Games/Heroes Chronicles/The Fiery Moon/FieryMoon.exe",
      "prefix": "~/Games/heroes-chronicles-all-chapters",
      "working_dir": "~/Games/heroes-chronicles-all-chapters/drive_c/GOG Games/Heroes Chronicles/The Fiery Moon/"
    }
  },
  "content": "custom-name: The Fiery Moon\ngame:\n  arch: win64\n  exe: ~/Games/heroes-chronicles-all-chapters/drive_c/GOG Games/Heroes Chronicles/The\n    Fiery Moon/FieryMoon.exe\n  prefix: ~/Games/heroes-chronicles-all-chapters\n  working_dir: ~/Games/heroes-chronicles-all-chapters/drive_c/GOG Games/Heroes Chronicles/The\n    Fiery Moon/\n"
}