{
  "id": 17126,
  "game_id": 30603,
  "game_slug": "heroes-chronicles-all-chapters",
  "name": "Heroes Chronicles: All Chapters",
  "year": 1993,
  "user": "edjaa84",
  "runner": "wine",
  "slug": "heroes-chronicles-all-chapter-gog-conquest-of-the-",
  "version": "GOG Conquest of the Underworld",
  "description": "Heroes Chronicles: Conquest of the Underworld (Acceso Directo)\r\n\r\nRaPiMoDEBianPaKaGer",
  "notes": "",
  "created_at": "2019-12-01T01:03:02.192831Z",
  "updated_at": "2019-12-01T01:03:02.192865Z",
  "draft": true,
  "published": false,
  "published_by": null,
  "rating": "",
  "steamid": null,
  "gogid": null,
  "gogslug": "",
  "humbleid": "",
  "humblestoreid": "",
  "humblestoreid_real": "",
  "script": {
    "custom-name": "Conquest of the Underworld",
    "game": {
      "arch": "win64",
      "exe": "~/Games/heroes-chronicles-all-chapters/drive_c/GOG Games/Heroes Chronicles/Conquest of the Underworld/Underworld.exe",
      "prefix": "~/Games/heroes-chronicles-all-chapters",
      "working_dir": "~/Games/heroes-chronicles-all-chapters/drive_c/GOG Games/Heroes Chronicles/Conquest of the Underworld/"
    }
  },
  "content": "custom-name: Conquest of the Underworld\ngame:\n  arch: win64\n  exe: ~/Games/heroes-chronicles-all-chapters/drive_c/GOG Games/Heroes Chronicles/Conquest\n    of the Underworld/Underworld.exe\n  prefix: ~/Games/heroes-chronicles-all-chapters\n  working_dir: ~/Games/heroes-chronicles-all-chapters/drive_c/GOG Games/Heroes Chronicles/Conquest\n    of the Underworld/\n"
}