{
  "name": "Gears",
  "slug": "gears",
  "year": 2005,
  "description": "",
  "banner_url": "https://lutris.net/games/banner/gears.jpg",
  "icon_url": "",
  "is_public": true,
  "updated": "2019-11-06T03:11:00.459980Z",
  "provider_games": [],
  "steamid": null,
  "gogid": null,
  "gogslug": "",
  "humblestoreid": "",
  "id": 30067
}