{
  "name": "Blasteroids",
  "slug": "blasteroids",
  "year": 1987,
  "description": "",
  "banner_url": "https://lutris.net/games/banner/blasteroids.jpg",
  "icon_url": "https://lutris.net/games/icon/blasteroids.png",
  "is_public": true,
  "updated": "2020-05-26T03:32:18.240631Z",
  "provider_games": [
    {
      "name": "Blasteroids",
      "slug": "blstroid",
      "service": "mame"
    }
  ],
  "steamid": null,
  "gogid": null,
  "gogslug": "",
  "humblestoreid": "",
  "id": 33480
}