{
  "name": "Exowar",
  "slug": "exowar",
  "year": null,
  "description": "",
  "banner_url": "https://lutris.net/games/banner/exowar.jpg",
  "icon_url": "https://lutris.net/games/icon/exowar.png",
  "is_public": false,
  "updated": "2019-01-23T08:29:26.787985Z",
  "provider_games": [],
  "steamid": 358610,
  "gogid": null,
  "gogslug": "",
  "humblestoreid": "",
  "id": 7409
}