{
  "name": "Breeders of the Nephelym",
  "slug": "breeders-of-the-nephelym",
  "year": 2018,
  "description": "",
  "banner_url": "https://lutris.net/games/banner/breeders-of-the-nephelym.jpg",
  "icon_url": "",
  "is_public": true,
  "updated": "2020-05-22T05:18:45.888237Z",
  "provider_games": [],
  "steamid": null,
  "gogid": null,
  "gogslug": "",
  "humblestoreid": "",
  "id": 33190
}