{
  "name": "AridFortress",
  "slug": "aridfortress",
  "year": null,
  "description": "",
  "banner_url": "https://lutris.net/games/banner/aridfortress.jpg",
  "icon_url": "https://lutris.net/games/icon/aridfortress.png",
  "is_public": true,
  "updated": "2020-10-08T09:56:48.052682Z",
  "provider_games": [
    {
      "name": "AridFortress",
      "slug": "868960",
      "service": "steam"
    }
  ],
  "steamid": 868960,
  "gogid": null,
  "gogslug": "",
  "humblestoreid": "",
  "id": 23554
}