{
  "name": "Life is Feudal: Forest Village",
  "slug": "life-is-feudal-forest-village",
  "year": 2017,
  "description": "Life is Feudal: Forest Village is a feature-rich, town building simulator strategy game with engaging survival aspects. Lead your people: a small group of refugees who were forced to start again on an unknown island.\r\nTerraform and shape the land and expand with houses, pastures, orchards, farms, windmills and many other buildings. Forage in the forest, hunt for prey, grow crops and domestic animals for food. As Winter creeps up, ensure you stock up with enough firewood, charcoal and warm clothes to survive, and remember: a lack of vitamins in good rations may lead to disease and could even totally wipe out your village!\r\nYou can oversee your village from a birdseye view or occupy one of your villagers to control and perform tasks in a first person view to speed things up or just to explore.",
  "banner_url": "https://lutris.net/games/banner/life-is-feudal-forest-village.jpg",
  "icon_url": "https://lutris.net/games/icon/life-is-feudal-forest-village.png",
  "is_public": true,
  "updated": "2019-01-23T08:30:10.559732Z",
  "provider_games": [
    {
      "name": "Life is Feudal: Forest Village",
      "slug": "496460",
      "service": "steam"
    }
  ],
  "steamid": 496460,
  "gogid": null,
  "gogslug": "",
  "humblestoreid": "",
  "id": 10382
}