{
  "name": "Gabriel Knight: Sins of the Fathers – 20th Anniversary Edition",
  "slug": "gabriel-knight-sins-of-the-fathers-20th-anniversar",
  "year": 2014,
  "description": "Experience one of adventure gaming’s most stunning masterpieces all over again in this blockbuster retelling of the award-winning 1993 murder-mystery, which adds all-new puzzles, scenes, and HD graphics!\r\n\r\nBlending the best of yesterday and today, it re imagines the 1993 original, voted one of the greatest games of all time, for an entirely new generation of fans. As struggling author and bookstore owner Gabriel Knight, you will investigate a series of savage ritual killings in New Orleans and their connection to voodoo’s sinister mysteries.\r\n\r\nThe deeper you dive into master storyteller Jane Jensen’s tale of terror and suspense, the closer you’ll come to discovering the secrets of Gabriel’s family history–and unfolding his destiny.\r\n\r\n-    Relive one of gaming’s greatest adventures of all-time: Adventure Gamers' 20 Best Adventure Games, Computer Gaming World's Adventure Game of the Year 1994, and Honorable Mention in The A.V. Club's Top 100 Games of All-Time\r\n-    Experience the award-winning voodoo murder-mystery in stunning high-res 3D\r\n-    Adds new puzzles and scenes to familiar challenges\r\n-    Includes remastered soundtrack by original composer Robert Holmes",
  "banner_url": "https://lutris.net/games/banner/gabriel-knight-sins-of-the-fathers-20th-anniversar.jpg",
  "icon_url": "https://lutris.net/games/icon/gabriel-knight-sins-of-the-fathers-20th-anniversar.png",
  "is_public": true,
  "updated": "2020-05-31T00:17:43.137468Z",
  "provider_games": [
    {
      "name": "Gabriel Knight: Sins of the Fathers – 20th Anniversary Edition",
      "slug": "1207666433",
      "service": "gog"
    },
    {
      "name": "Gabriel Knight - Sins of the Fathers",
      "slug": "262000",
      "service": "steam"
    }
  ],
  "steamid": 262000,
  "gogid": 1207666433,
  "gogslug": "gabriel_knight_sins_of_the_fathers_20th_anniversary_edition",
  "humblestoreid": "",
  "id": 24035
}