{
  "name": "Love Sniper",
  "slug": "love-sniper",
  "year": 2013,
  "description": "The main goal of this game is to become the heroine's boyfriend.",
  "banner_url": "https://lutris.net/games/banner/love-sniper.jpg",
  "icon_url": "",
  "is_public": true,
  "updated": "2019-01-23T08:30:13.728596Z",
  "provider_games": [],
  "steamid": null,
  "gogid": null,
  "gogslug": "",
  "humblestoreid": "",
  "id": 19596
}