{
  "name": "imprint-X",
  "slug": "imprint-x",
  "year": null,
  "description": "",
  "banner_url": "https://lutris.net/games/banner/imprint-x.jpg",
  "icon_url": "https://lutris.net/games/icon/imprint-x.png",
  "is_public": true,
  "updated": "2020-10-08T10:14:09.085113Z",
  "provider_games": [
    {
      "name": "imprint-X",
      "slug": "434310",
      "service": "steam"
    }
  ],
  "steamid": 434310,
  "gogid": null,
  "gogslug": "",
  "humblestoreid": "",
  "id": 11997
}