{
  "name": "Dogolrax",
  "slug": "dogolrax",
  "year": null,
  "description": "",
  "banner_url": "https://lutris.net/games/banner/dogolrax.jpg",
  "icon_url": "https://lutris.net/games/icon/dogolrax.png",
  "is_public": true,
  "updated": "2020-10-08T10:04:16.083766Z",
  "provider_games": [
    {
      "name": "Dogolrax",
      "slug": "599960",
      "service": "steam"
    }
  ],
  "steamid": 599960,
  "gogid": null,
  "gogslug": "",
  "humblestoreid": "",
  "id": 10206
}