{
  "name": "Kindred Spirits on the Roof Drama CD Vol.1",
  "slug": "kindred-spirits-on-the-roof-drama-cd-vol1",
  "year": null,
  "description": "",
  "banner_url": "https://lutris.net/games/banner/kindred-spirits-on-the-roof-drama-cd-vol1.jpg",
  "icon_url": "https://lutris.net/games/icon/kindred-spirits-on-the-roof-drama-cd-vol1.png",
  "is_public": true,
  "updated": "2020-10-08T10:13:19.262306Z",
  "provider_games": [
    {
      "name": "Kindred Spirits on the Roof Drama CD Vol.1",
      "slug": "463750",
      "service": "steam"
    }
  ],
  "steamid": 463750,
  "gogid": 1515398578,
  "gogslug": "kindred_spirits_on_the_roof_drama_cd_vol1",
  "humblestoreid": "",
  "id": 15957
}