{
  "name": "Command & Conquer: Red Alert 3 - Uprising",
  "slug": "command-and-conquer-red-alert-3-uprising",
  "year": 2009,
  "description": "",
  "banner_url": "https://lutris.net/games/banner/command-and-conquer-red-alert-3-uprising.jpg",
  "icon_url": "https://lutris.net/games/icon/command-and-conquer-red-alert-3-uprising.png",
  "is_public": true,
  "updated": "2019-09-07T06:18:49.669180Z",
  "provider_games": [
    {
      "name": "Command and Conquer: Red Alert 3 - Uprising",
      "slug": "24800",
      "service": "steam"
    }
  ],
  "steamid": 24800,
  "gogid": null,
  "gogslug": "",
  "humblestoreid": "",
  "id": 630
}