{
  "name": "Atlantic Quest 2 - New Adventure -",
  "slug": "atlantic-quest-2-new-adventure-",
  "year": null,
  "description": "",
  "banner_url": "https://lutris.net/games/banner/atlantic-quest-2-new-adventure-.jpg",
  "icon_url": "https://lutris.net/games/icon/atlantic-quest-2-new-adventure-.png",
  "is_public": true,
  "updated": "2020-10-08T10:14:46.598600Z",
  "provider_games": [
    {
      "name": "Atlantic Quest 2 - New Adventure -",
      "slug": "412530",
      "service": "steam"
    }
  ],
  "steamid": 412530,
  "gogid": null,
  "gogslug": "",
  "humblestoreid": "",
  "id": 22264
}