{
  "name": "Event Horizon",
  "slug": "event-horizon",
  "year": null,
  "description": "",
  "banner_url": "https://lutris.net/games/banner/event-horizon.jpg",
  "icon_url": "https://lutris.net/games/icon/event-horizon.png",
  "is_public": true,
  "updated": "2020-10-08T10:13:16.836897Z",
  "provider_games": [
    {
      "name": "Event Horizon",
      "slug": "465000",
      "service": "steam"
    }
  ],
  "steamid": 465000,
  "gogid": null,
  "gogslug": "",
  "humblestoreid": "",
  "id": 9038
}