{
  "name": "JumpBall 2",
  "slug": "jumpball-2",
  "year": null,
  "description": "",
  "banner_url": "https://lutris.net/games/banner/jumpball-2.jpg",
  "icon_url": "https://lutris.net/games/icon/jumpball-2.png",
  "is_public": true,
  "updated": "2020-10-08T09:58:53.693935Z",
  "provider_games": [
    {
      "name": "JumpBall 2",
      "slug": "750870",
      "service": "steam"
    }
  ],
  "steamid": 750870,
  "gogid": null,
  "gogslug": "",
  "humblestoreid": "",
  "id": 26516
}