{
  "id": 5798,
  "game_id": 2102,
  "game_slug": "constant-c",
  "name": "Constant C",
  "year": null,
  "user": "FakeShemp",
  "runner": "wine",
  "slug": "constant-c-groupees",
  "version": "Groupees",
  "description": "",
  "notes": "",
  "created_at": "2017-09-18T18:54:07.942000Z",
  "updated_at": "2018-05-19T03:41:53.331257Z",
  "draft": false,
  "published": true,
  "published_by": null,
  "rating": "",
  "steamid": 251510,
  "gogid": null,
  "gogslug": "",
  "humbleid": "",
  "humblestoreid": "",
  "humblestoreid_real": "",
  "script": {
    "files": [
      {
        "file1": "N/A:Please select the Groupees installer"
      }
    ],
    "game": {
      "arch": "win32",
      "exe": "drive_c/Program Files/Constant C/ConstantC.exe",
      "prefix": "$GAMEDIR"
    },
    "installer": [
      {
        "task": {
          "app": "xna40",
          "name": "winetricks",
          "prefix": "$GAMEDIR"
        }
      },
      {
        "task": {
          "args": "/sp- /verysilent /norestart /suppressmsgboxes /nogui",
          "executable": "$file1",
          "name": "wineexec",
          "prefix": "$GAMEDIR"
        }
      }
    ]
  },
  "content": "files:\n- file1: N/A:Please select the Groupees installer\ngame:\n  arch: win32\n  exe: drive_c/Program Files/Constant C/ConstantC.exe\n  prefix: $GAMEDIR\ninstaller:\n- task:\n    app: xna40\n    name: winetricks\n    prefix: $GAMEDIR\n- task:\n    args: /sp- /verysilent /norestart /suppressmsgboxes /nogui\n    executable: $file1\n    name: wineexec\n    prefix: $GAMEDIR\n"
}