{
  "id": 17805,
  "game_id": 10089,
  "game_slug": "star-wars-x-wing",
  "name": "STAR WARS®: X-Wing (1993)",
  "year": 1993,
  "user": "eagledelta1",
  "runner": "linux",
  "slug": "star-wars-x-wing-gog-1993",
  "version": "GOG-1993",
  "description": "Installs the original 1993 version of Star Wars: X-Wing.",
  "notes": "",
  "created_at": "2020-01-08T03:48:52.610000Z",
  "updated_at": "2020-03-31T07:51:26.587537Z",
  "draft": false,
  "published": true,
  "published_by": 20548,
  "rating": "",
  "steamid": null,
  "gogid": 1207666383,
  "gogslug": "star_wars_xwing_1993",
  "humbleid": "",
  "humblestoreid": "",
  "humblestoreid_real": "",
  "script": {
    "files": [
      {
        "goginstaller": "N/A:Please select the GOG.com Linux installer"
      }
    ],
    "game": {
      "exe": "start.sh",
      "gogid": 1207666383
    },
    "installer": [
      {
        "extract": {
          "dst": "$CACHE/GOG",
          "file": "goginstaller",
          "format": "zip"
        }
      },
      {
        "merge": {
          "dst": "$GAMEDIR",
          "src": "$CACHE/GOG/data/noarch/"
        }
      }
    ]
  },
  "content": "files:\n- goginstaller: N/A:Please select the GOG.com Linux installer\ngame:\n  exe: start.sh\n  gogid: 1207666383\ninstaller:\n- extract:\n    dst: $CACHE/GOG\n    file: goginstaller\n    format: zip\n- merge:\n    dst: $GAMEDIR\n    src: $CACHE/GOG/data/noarch/\n"
}