{
  "id": 6015,
  "game_id": 12116,
  "game_slug": "dusters",
  "name": "Dusters",
  "year": null,
  "user": "FakeShemp",
  "runner": "wine",
  "slug": "dusters-groupees",
  "version": "Groupees",
  "description": "",
  "notes": "",
  "created_at": "2017-10-20T15:11:25.076998Z",
  "updated_at": "2018-05-19T03:41:56.860603Z",
  "draft": false,
  "published": true,
  "published_by": null,
  "rating": "",
  "steamid": null,
  "gogid": null,
  "gogslug": "",
  "humbleid": "",
  "humblestoreid": "",
  "humblestoreid_real": "",
  "script": {
    "files": [
      {
        "file1": "N/A:Please select the Groupees executable"
      }
    ],
    "game": {
      "arch": "win32",
      "exe": "$file1",
      "prefix": "$GAMEDIR"
    },
    "installer": [
      {
        "merge": {
          "dst": "$GAMEDIR/drive_c/Program Files/Dusters",
          "src": "file1"
        }
      }
    ]
  },
  "content": "files:\n- file1: N/A:Please select the Groupees executable\ngame:\n  arch: win32\n  exe: $file1\n  prefix: $GAMEDIR\ninstaller:\n- merge:\n    dst: $GAMEDIR/drive_c/Program Files/Dusters\n    src: file1\n"
}