{
  "name": "Eternal Man: Jump",
  "slug": "eternal-man-jump",
  "year": null,
  "description": "",
  "banner_url": "https://lutris.net/games/banner/eternal-man-jump.jpg",
  "icon_url": "https://lutris.net/games/icon/eternal-man-jump.png",
  "is_public": true,
  "updated": "2020-10-08T10:08:39.706588Z",
  "provider_games": [
    {
      "name": "Eternal Man: Jump",
      "slug": "822680",
      "service": "steam"
    }
  ],
  "steamid": 822680,
  "gogid": null,
  "gogslug": "",
  "humblestoreid": "",
  "id": 39673
}