{
  "name": "Fly, Glowfly!",
  "slug": "fly-glowfly",
  "year": null,
  "description": "",
  "banner_url": "https://lutris.net/games/banner/fly-glowfly.jpg",
  "icon_url": "https://lutris.net/games/icon/fly-glowfly.png",
  "is_public": true,
  "updated": "2020-10-08T10:14:40.726292Z",
  "provider_games": [
    {
      "name": "Fly, Glowfly!",
      "slug": "415530",
      "service": "steam"
    }
  ],
  "steamid": 415530,
  "gogid": null,
  "gogslug": "",
  "humblestoreid": "",
  "id": 10724
}