{
  "name": "Galactic Command Echo Squad SE",
  "slug": "galactic-command-echo-squad-se",
  "year": null,
  "description": "",
  "banner_url": "https://lutris.net/games/banner/galactic-command-echo-squad-se.jpg",
  "icon_url": "https://lutris.net/games/icon/galactic-command-echo-squad-se.png",
  "is_public": true,
  "updated": "2020-10-08T09:20:37.322713Z",
  "provider_games": [
    {
      "name": "Galactic Command Echo Squad SE",
      "slug": "285670",
      "service": "steam"
    }
  ],
  "steamid": 285670,
  "gogid": null,
  "gogslug": "",
  "humblestoreid": "",
  "id": 10057
}