{
  "name": "Le Fabuleux Voyage de l'Oncle Ernest",
  "slug": "le-fabuleux-voyage-de-loncle-ernest",
  "year": 1999,
  "description": "Avec le Fabuleux Voyage de l’oncle Ernest, enfants et parents retrouveront avec plaisir l’univers poétique et attachant de l’Album secret, transformé cette fois en album de voyage.",
  "banner_url": "https://lutris.net/games/banner/le-fabuleux-voyage-de-loncle-ernest.jpg",
  "icon_url": "",
  "is_public": true,
  "updated": "2020-05-17T08:46:37.302752Z",
  "provider_games": [],
  "steamid": null,
  "gogid": null,
  "gogslug": "",
  "humblestoreid": "",
  "id": 33100
}