{
  "id": 12389,
  "game_id": 26232,
  "game_slug": "session-seven",
  "name": "Session Seven",
  "year": 2019,
  "user": "cxf",
  "runner": "linux",
  "slug": "session-seven-non-steam-english",
  "version": "Non-Steam English",
  "description": null,
  "notes": "",
  "created_at": "2019-03-15T07:34:18.447000Z",
  "updated_at": "2019-03-15T07:38:51.158319Z",
  "draft": false,
  "published": true,
  "published_by": 19464,
  "rating": "",
  "steamid": 915720,
  "gogid": null,
  "gogslug": "",
  "humbleid": "",
  "humblestoreid": "",
  "humblestoreid_real": "",
  "script": {
    "files": [
      {
        "zip": "https://www.sessionseven.com/downloads/linux/sessionseven_en.zip"
      }
    ],
    "game": {
      "exe": "SessionSeven",
      "ld_library_path": "$GAMEDIR/$INPUT_PCARCH"
    },
    "installer": [
      {
        "extract": {
          "file": "zip"
        }
      },
      {
        "input_menu": {
          "description": "Please choose your desired architecture",
          "id": "PCARCH",
          "options": [
            {
              "lib": "x86"
            },
            {
              "lib64": "x86_64"
            }
          ],
          "preselect": "lib"
        }
      },
      {
        "chmodx": "$GAMEDIR/SessionSeven"
      },
      {
        "chmodx": "$GAMEDIR/SessionSeven.bin.x86"
      },
      {
        "chmodx": "$GAMEDIR/SessionSeven.bin.x86_64"
      }
    ],
    "require-binaries": "mono"
  },
  "content": "files:\n- zip: https://www.sessionseven.com/downloads/linux/sessionseven_en.zip\ngame:\n  exe: SessionSeven\n  ld_library_path: $GAMEDIR/$INPUT_PCARCH\ninstaller:\n- extract:\n    file: zip\n- input_menu:\n    description: Please choose your desired architecture\n    id: PCARCH\n    options:\n    - lib: x86\n    - lib64: x86_64\n    preselect: lib\n- chmodx: $GAMEDIR/SessionSeven\n- chmodx: $GAMEDIR/SessionSeven.bin.x86\n- chmodx: $GAMEDIR/SessionSeven.bin.x86_64\nrequire-binaries: mono\n"
}