{
  "name": "FRAMED Collection",
  "slug": "framed-collection",
  "year": 2014,
  "description": "FRAMED Collection is a new compilation of the critically-acclaimed, multi-award winning noir puzzle games FRAMED and FRAMED 2.\r\n\r\nChange the order, change the outcome.\r\n\r\nRearrange the panels of an animated comic book to craft the story of a noir-styled spy adventure. Presented in an extensive series of visual puzzles, requiring logic and imagination, each panel move changes the current narrative, leading to all kinds of comedic blunders, untimely deaths—and when solved correctly—stylish heists, fast getaways and nail-biting escapades.\r\n\r\nWith multi-award winning, genre-bending puzzle design, stylish hand crafted art and animation, a satisfying difficulty curve, and an original live jazz soundtrack--fusing modern themes and funky beats--the FRAMED Collection is a unique experience no other puzzle game can match.",
  "banner_url": "https://lutris.net/games/banner/framed-collection.jpg",
  "icon_url": "https://lutris.net/games/icon/framed-collection.png",
  "is_public": true,
  "updated": "2020-08-15T23:50:34.858402Z",
  "provider_games": [
    {
      "name": "FRAMED Collection",
      "slug": "framedcollection",
      "service": "humblebundle"
    },
    {
      "name": "FRAMED Collection",
      "slug": "322450",
      "service": "steam"
    }
  ],
  "steamid": 322450,
  "gogid": null,
  "gogslug": "",
  "humblestoreid": "framedcollection",
  "id": 26049
}