{
  "id": 15525,
  "game_id": 29380,
  "game_slug": "elvira-ii-the-jaws-of-cerberus",
  "name": "Elvira II: The Jaws of Cerberus",
  "year": 1992,
  "user": "appoloin",
  "runner": "scummvm",
  "slug": "elvira-ii-the-jaws-of-cerberu-ms-dos",
  "version": "MS-DOS",
  "description": null,
  "notes": "",
  "created_at": "2019-09-14T09:28:30.370986Z",
  "updated_at": "2019-09-14T09:28:30.371009Z",
  "draft": false,
  "published": false,
  "published_by": null,
  "rating": "",
  "steamid": null,
  "gogid": null,
  "gogslug": "",
  "humbleid": "",
  "humblestoreid": "",
  "humblestoreid_real": "",
  "script": {
    "files": [
      {
        "game": "N/A:Select the file Setup.exe"
      }
    ],
    "game": {
      "game_id": "elvira2",
      "path": "$GAMEDIR"
    },
    "installer": [
      {
        "write_file": {
          "content": "#!/bin/bash\nsrc=$1\ndst=$2\nsrc_path=$(echo \"$1\" | sed -r \"s/(.+)\\/.+/\\1/\")\nfind \"$src_path\" -type f \\( -iname \"*.MUS\" -o -iname \"*.SND\" -o -iname \"*.VGA\" -o -iname \"GAMEPC\" -o -iname \"ICON.DAT\" -o -iname \"MENUS.DAT\" -o -iname \"MUSIC.DRV\" -o -iname \"MYLIB.FXB\" -o -iname \"START\" -o -iname \"STRIPPED.TXT\" -o -iname \"TABLES*\" -o -iname \"TBLLIST\" -o -iname \"TEXT*\" \\) -exec cp {} \"$dst\" \\;",
          "file": "$CACHE/selectcopy.sh"
        }
      },
      {
        "chmodx": "$CACHE/selectcopy.sh"
      },
      {
        "execute": {
          "args": "$game $GAMEDIR",
          "file": "$CACHE/selectcopy.sh"
        }
      }
    ]
  },
  "content": "files:\n- game: N/A:Select the file Setup.exe\ngame:\n  game_id: elvira2\n  path: $GAMEDIR\ninstaller:\n- write_file:\n    content: '#!/bin/bash\n\n      src=$1\n\n      dst=$2\n\n      src_path=$(echo \"$1\" | sed -r \"s/(.+)\\/.+/\\1/\")\n\n      find \"$src_path\" -type f \\( -iname \"*.MUS\" -o -iname \"*.SND\" -o -iname \"*.VGA\"\n      -o -iname \"GAMEPC\" -o -iname \"ICON.DAT\" -o -iname \"MENUS.DAT\" -o -iname \"MUSIC.DRV\"\n      -o -iname \"MYLIB.FXB\" -o -iname \"START\" -o -iname \"STRIPPED.TXT\" -o -iname \"TABLES*\"\n      -o -iname \"TBLLIST\" -o -iname \"TEXT*\" \\) -exec cp {} \"$dst\" \\;'\n    file: $CACHE/selectcopy.sh\n- chmodx: $CACHE/selectcopy.sh\n- execute:\n    args: $game $GAMEDIR\n    file: $CACHE/selectcopy.sh\n"
}