{
  "name": "An Adventurer's Tale",
  "slug": "an-adventurers-tale",
  "year": 2019,
  "description": "After leaving his home in the capital city in the Kingdom of Gronia, our hero Garth wanders along the countryside seeking fame, glory, and his next misadventure. He finds himself amid various escapades, some as mild and comedic as fleeing the City Guard after a wild night with the Lord's Daughter, and some as serious as bouts with monstrous, lurking horrors. Then, in the small, outlying region of Garasia, he finds something that finally could satisfy his thirst for adventure, recognition, and beautiful women: A Lich King! Born once a millennia, these powerful beings are feared by all things living…and dead. Their mysterious allure attracts all into their bind. Gearing up to take such a threat down, Garth realizes something darker may be lurking around the corner when he confronts the current Lich King, Grisette, a woman he had thought constantly since that fateful day many years ago…",
  "banner_url": "https://lutris.net/games/banner/an-adventurers-tale.jpg",
  "icon_url": "https://lutris.net/games/icon/an-adventurers-tale.png",
  "is_public": true,
  "updated": "2019-10-07T03:28:26.638102Z",
  "provider_games": [
    {
      "name": "An Adventurer's Tale",
      "slug": "942580",
      "service": "steam"
    }
  ],
  "steamid": 942580,
  "gogid": null,
  "gogslug": "",
  "humblestoreid": "",
  "id": 29536
}