{
  "name": "Dynasty Tactics",
  "slug": "dynasty-tactics",
  "year": 2002,
  "description": "THE MIND SHALL VANQUISH THE SWORD!\r\n\r\n\r\nThe makers of Dynasty Warriors present a revolutionary new look at Tactical Simulation entertainment! Fire Attacks! Rockslides! Ambushes! Obliterate entire armies with Tactical Combos! Achieve victory in battle through careful planning! Focus on the tactical elements and plan ahead and unleash powerful sequences of attacks, defeating thousands of enemies instantaneously!\r\n\r\nRecruit powerful officers, build a powerful army and conquer 60 key cities in the land of China\r\n\r\nThe game features multiple endings, which create a faithful re-enactment of history, where player decisions and battle results effect the ending – the possibilities are endless\r\n\r\nUnleash tactical combos! All officers in charge of units have special attacks, and when positioned and timed right, one special attack may set off another unit's special attack, creating a \"tactical combo\"\r\n\r\nDynamic, realistic battlefields! Great environmental effects, such as dust clouds and mud splashes emulate the thrill and suspense of battle. Cinematic effects intensify the exhilaration of combat\r\n\r\nDolby Digital 5.1ch surround sound for thrilling sound effects and music on the battlefield.",
  "banner_url": "https://lutris.net/games/banner/dynasty-tactics.jpg",
  "icon_url": "",
  "is_public": true,
  "updated": "2019-07-01T07:32:53.787409Z",
  "provider_games": [],
  "steamid": null,
  "gogid": null,
  "gogslug": "",
  "humblestoreid": "",
  "id": 28298
}