{
  "id": 13438,
  "game_id": 66,
  "game_slug": "sam-max-hit-the-road",
  "name": "Sam & Max Hit the Road",
  "year": 1993,
  "user": "stooj",
  "runner": "linux",
  "slug": "sam-max-hit-the-road-gog-with-bundled-scu",
  "version": "GOG with bundled ScummVM",
  "description": null,
  "notes": "",
  "created_at": "2019-05-10T14:59:19.830309Z",
  "updated_at": "2019-10-13T23:40:53.317878Z",
  "draft": false,
  "published": true,
  "published_by": null,
  "rating": "",
  "steamid": 355170,
  "gogid": 1207666303,
  "gogslug": "sam_max_hit_the_road",
  "humbleid": "",
  "humblestoreid": "",
  "humblestoreid_real": "",
  "script": {
    "files": [
      {
        "goginstaller": "N/A:Please select the GOG.com Linux installer"
      }
    ],
    "game": {
      "exe": "start.sh"
    },
    "installer": [
      {
        "extract": {
          "dst": "$CACHE/GOG",
          "file": "goginstaller",
          "format": "zip"
        }
      },
      {
        "merge": {
          "dst": "$GAMEDIR",
          "src": "$CACHE/GOG/data/noarch/"
        }
      }
    ]
  },
  "content": "files:\r\n- goginstaller: N/A:Please select the GOG.com Linux installer\r\ngame:\r\n  exe: start.sh\r\ninstaller:\r\n- extract:\r\n    dst: $CACHE/GOG\r\n    file: goginstaller\r\n    format: zip\r\n- merge:\r\n    dst: $GAMEDIR\r\n    src: $CACHE/GOG/data/noarch/"
}