{
  "name": "influence",
  "slug": "influence",
  "year": null,
  "description": "",
  "banner_url": "https://lutris.net/games/banner/influence.jpg",
  "icon_url": "https://lutris.net/games/icon/influence.png",
  "is_public": true,
  "updated": "2020-10-08T10:00:10.881957Z",
  "provider_games": [
    {
      "name": "influence",
      "slug": "731430",
      "service": "steam"
    }
  ],
  "steamid": 731430,
  "gogid": null,
  "gogslug": "",
  "humblestoreid": "",
  "id": 20748
}