{
  "name": "Air Boarder 64",
  "slug": "air-boarder-64",
  "year": 1998,
  "description": "GO FOR IT AND MAKE COOL TRICKS!\r\n\r\nThe year is 2064. The snowboard and skateboard of the previous century have evolved into an AirBoard that hovers about 50cm above the ground.\r\n\r\nThis AirBoard can be ridden over ground, over water, and even along the walls of buildings or from roof top to roof top!\r\n\r\nThere are no courses in AIRBOARDER 64 must be strictly followed, so you afree to ride around the whole field and perform a variety of cool tricks! GO for it and become a Master of Airboarder\r\n\r\n• Seven exciting game modes. Also has 2 players modes.\r\n• Perform original tricks with cool characters and hyper boards.\r\n• On-road, air, lip, drum, by combining these tricks, you can create Unlimited Combos!\r\n• 5 courses. Make the tricks and ride around the board to your heart contents.",
  "banner_url": "https://lutris.net/games/banner/air-boarder-64.jpg",
  "icon_url": "",
  "is_public": true,
  "updated": "2019-01-23T08:28:16.596951Z",
  "provider_games": [],
  "steamid": null,
  "gogid": null,
  "gogslug": "",
  "humblestoreid": "",
  "id": 17310
}