{
  "name": "Creatura",
  "slug": "creatura",
  "year": null,
  "description": "",
  "banner_url": "https://lutris.net/games/banner/creatura.jpg",
  "icon_url": "https://lutris.net/games/icon/creatura.png",
  "is_public": true,
  "updated": "2020-10-08T09:58:10.813066Z",
  "provider_games": [
    {
      "name": "Creatura",
      "slug": "781130",
      "service": "steam"
    }
  ],
  "steamid": 781130,
  "gogid": null,
  "gogslug": "",
  "humblestoreid": "",
  "id": 38777
}