{
  "name": "Flockers Editor",
  "slug": "flockers-editor",
  "year": null,
  "description": "",
  "banner_url": "https://lutris.net/games/banner/flockers-editor.jpg",
  "icon_url": "https://lutris.net/games/icon/flockers-editor.png",
  "is_public": true,
  "updated": "2020-10-08T09:20:30.030099Z",
  "provider_games": [
    {
      "name": "Flockers Editor",
      "slug": "292640",
      "service": "steam"
    }
  ],
  "steamid": 292640,
  "gogid": null,
  "gogslug": "",
  "humblestoreid": "",
  "id": 3062
}