{
  "name": "Far Cry 3 - Blood Dragon",
  "slug": "far-cry-3-blood-dragon",
  "year": 2013,
  "description": "Far Cry® 3: Blood Dragon is THE Kick-Ass Cyber Shooter.\r\nWelcome to an 80’s vision of the future. The year is 2007 and you are Sargent Rex Colt, a Mark IV Cyber Commando. Your mission: get the girl, kill the baddies, and save the world.\r\n\r\nExperience every cliché of a VHS era vision of a nuclear future, where cyborgs, blood dragons, mutants, and Michael Biehn (Terminator, Aliens, Navy Seals) collide.\r\n\r\nPlaying Far Cry® 3 Blood Dragon does not require a copy of Far Cry® 3.",
  "banner_url": "https://lutris.net/games/banner/far-cry-3-blood-dragon.jpg",
  "icon_url": "https://lutris.net/games/icon/far-cry-3-blood-dragon.png",
  "is_public": true,
  "updated": "2019-01-23T08:29:28.626794Z",
  "provider_games": [
    {
      "name": "Far Cry® 3 Blood Dragon",
      "slug": "233270",
      "service": "steam"
    }
  ],
  "steamid": 233270,
  "gogid": null,
  "gogslug": "",
  "humblestoreid": "",
  "id": 845
}