{
  "name": "Combat School",
  "slug": "combat-school",
  "year": 1988,
  "description": "",
  "banner_url": "",
  "icon_url": "https://lutris.net/games/icon/combat-school.png",
  "is_public": true,
  "updated": "2020-05-26T03:32:52.021102Z",
  "provider_games": [
    {
      "name": "Combat School",
      "slug": "combatsc",
      "service": "mame"
    }
  ],
  "steamid": null,
  "gogid": null,
  "gogslug": "",
  "humblestoreid": "",
  "id": 33714
}