{
  "id": 5353,
  "game_id": 4484,
  "game_slug": "east-tower-akio",
  "name": "East Tower - Akio",
  "year": null,
  "user": "FakeShemp",
  "runner": "wine",
  "slug": "east-tower-akio-groupees",
  "version": "Groupees",
  "description": "",
  "notes": "",
  "created_at": "2017-08-12T15:59:36.416000Z",
  "updated_at": "2017-08-27T21:22:02.848428Z",
  "draft": false,
  "published": true,
  "published_by": null,
  "rating": "",
  "steamid": 354950,
  "gogid": null,
  "gogslug": "",
  "humbleid": "",
  "humblestoreid": "",
  "humblestoreid_real": "",
  "script": {
    "files": [
      {
        "file1": "N/A:Please select the Groupees installer"
      }
    ],
    "game": {
      "exe": "drive_c/roseVeRte/East Tower - Akio/East Tower - Akio.exe",
      "prefix": "$GAMEDIR"
    },
    "installer": [
      {
        "task": {
          "args": "/S",
          "executable": "$file1",
          "name": "wineexec",
          "prefix": "$GAMEDIR"
        }
      }
    ]
  },
  "content": "files:\n- file1: N/A:Please select the Groupees installer\ngame:\n  exe: drive_c/roseVeRte/East Tower - Akio/East Tower - Akio.exe\n  prefix: $GAMEDIR\ninstaller:\n- task:\n    args: /S\n    executable: $file1\n    name: wineexec\n    prefix: $GAMEDIR\n"
}