{
  "id": 18835,
  "game_id": 31972,
  "game_slug": "super-bernie-world",
  "name": "Super Bernie World",
  "year": null,
  "user": "vanstaveren",
  "runner": "steam",
  "slug": "super-bernie-world-native",
  "version": "native",
  "description": null,
  "notes": "",
  "created_at": "2020-03-13T16:03:39.339000Z",
  "updated_at": "2020-03-14T09:38:39.213843Z",
  "draft": false,
  "published": true,
  "published_by": 20548,
  "rating": "",
  "steamid": null,
  "gogid": null,
  "gogslug": "",
  "humbleid": "",
  "humblestoreid": "",
  "humblestoreid_real": "",
  "script": {
    "game": {
      "appid": 1258040
    }
  },
  "content": "game:\n  appid: 1258040\n"
}