{
  "name": "Bomb Squad Academy",
  "slug": "bomb-squad-academy",
  "year": null,
  "description": "",
  "banner_url": "https://lutris.net/games/banner/bomb-squad-academy.jpg",
  "icon_url": "https://lutris.net/games/icon/bomb-squad-academy.png",
  "is_public": true,
  "updated": "2020-10-08T10:04:31.583320Z",
  "provider_games": [
    {
      "name": "Bomb Squad Academy",
      "slug": "591380",
      "service": "steam"
    }
  ],
  "steamid": 591380,
  "gogid": null,
  "gogslug": "",
  "humblestoreid": "",
  "id": 11988
}