{
  "name": "Frontier Runner",
  "slug": "frontier-runner",
  "year": null,
  "description": "",
  "banner_url": "https://lutris.net/games/banner/frontier-runner.jpg",
  "icon_url": "https://lutris.net/games/icon/frontier-runner.png",
  "is_public": true,
  "updated": "2020-10-08T09:58:37.627642Z",
  "provider_games": [
    {
      "name": "Frontier Runner",
      "slug": "760490",
      "service": "steam"
    }
  ],
  "steamid": 760490,
  "gogid": null,
  "gogslug": "",
  "humblestoreid": "",
  "id": 17614
}