{
  "name": "GooCubelets: The Algoorithm",
  "slug": "goocubelets-the-algoorithm",
  "year": null,
  "description": "",
  "banner_url": "https://lutris.net/games/banner/goocubelets-the-algoorithm.jpg",
  "icon_url": "https://lutris.net/games/icon/goocubelets-the-algoorithm.png",
  "is_public": false,
  "updated": "2019-01-23T08:29:41.578630Z",
  "provider_games": [],
  "steamid": 431270,
  "gogid": null,
  "gogslug": "",
  "humblestoreid": "",
  "id": 5758
}