{
  "name": "DIG IT! - A Digger Simulator",
  "slug": "dig-it-a-digger-simulator",
  "year": null,
  "description": "",
  "banner_url": "https://lutris.net/games/banner/dig-it-a-digger-simulator.jpg",
  "icon_url": "https://lutris.net/games/icon/dig-it-a-digger-simulator.png",
  "is_public": true,
  "updated": "2020-10-08T09:20:03.509769Z",
  "provider_games": [
    {
      "name": "DIG IT! - A Digger Simulator",
      "slug": "311910",
      "service": "steam"
    }
  ],
  "steamid": 311910,
  "gogid": null,
  "gogslug": "",
  "humblestoreid": "",
  "id": 10623
}