{
  "name": "Desert Bus VR",
  "slug": "desert-bus-vr",
  "year": null,
  "description": "",
  "banner_url": "https://lutris.net/games/banner/desert-bus-vr.jpg",
  "icon_url": "https://lutris.net/games/icon/desert-bus-vr.png",
  "is_public": true,
  "updated": "2019-05-18T07:02:47.020432Z",
  "provider_games": [
    {
      "name": "Desert Bus VR",
      "slug": "638110",
      "service": "steam"
    }
  ],
  "steamid": 638110,
  "gogid": null,
  "gogslug": "",
  "humblestoreid": "",
  "id": 15407
}