{
  "name": "Gods vs Humans",
  "slug": "gods-vs-humans",
  "year": null,
  "description": "",
  "banner_url": "https://lutris.net/games/banner/gods-vs-humans.jpg",
  "icon_url": "https://lutris.net/games/icon/gods-vs-humans.png",
  "is_public": true,
  "updated": "2020-10-08T09:19:45.634632Z",
  "provider_games": [
    {
      "name": "Gods vs Humans",
      "slug": "322980",
      "service": "steam"
    }
  ],
  "steamid": 322980,
  "gogid": null,
  "gogslug": "",
  "humblestoreid": "",
  "id": 3504
}