{
  "name": "Achievement Hunter: Zombie 2",
  "slug": "achievement-hunter-zombie-2",
  "year": null,
  "description": "",
  "banner_url": "https://lutris.net/games/banner/achievement-hunter-zombie-2.jpg",
  "icon_url": "https://lutris.net/games/icon/achievement-hunter-zombie-2.png",
  "is_public": false,
  "updated": "2019-01-23T08:28:11.275130Z",
  "provider_games": [],
  "steamid": 790400,
  "gogid": null,
  "gogslug": "",
  "humblestoreid": "",
  "id": 20072
}