{
  "name": "Azurian Attack",
  "slug": "azurian-attack",
  "year": 1982,
  "description": "",
  "banner_url": "",
  "icon_url": "https://lutris.net/games/icon/azurian-attack.png",
  "is_public": true,
  "updated": "2020-05-26T03:32:01.048794Z",
  "provider_games": [
    {
      "name": "Azurian Attack",
      "slug": "azurian",
      "service": "mame"
    }
  ],
  "steamid": null,
  "gogid": null,
  "gogslug": "",
  "humblestoreid": "",
  "id": 33367
}