{
  "id": 2735,
  "game_id": 3650,
  "game_slug": "freespace-2",
  "name": "Freespace 2",
  "year": 1999,
  "user": "ssf",
  "runner": "linux",
  "slug": "freespace-2-mediavps",
  "version": "MediaVPs",
  "description": "Installs SCP MediaVPs(2014)",
  "notes": "- req. 7z\r\n- starts in 800x600, check the cmd line to change resolution\r\n- runs at very high settings\r\n- see reference ( http://www.hard-light.net/wiki/index.php/Command-Line_Reference ) for all possible options",
  "created_at": "2016-09-13T21:05:33.561870Z",
  "updated_at": "2016-09-22T18:06:00.354830Z",
  "draft": false,
  "published": true,
  "published_by": null,
  "rating": "",
  "steamid": 273620,
  "gogid": 5,
  "gogslug": "freespace_2",
  "humbleid": "",
  "humblestoreid": "",
  "humblestoreid_real": "",
  "script": {
    "exe": "freespace2/fs2_open.sh",
    "files": [
      {
        "MV_Root": "http://www.lunardigitalproductions.com/downloads/MediaVPs2014/MV_Root.7z"
      },
      {
        "MV_Music": "http://www.lunardigitalproductions.com/downloads/MediaVPs2014/MV_Music.7z"
      },
      {
        "MV_Assets": "http://www.lunardigitalproductions.com/downloads/MediaVPs2014/MV_Assets.7z"
      },
      {
        "MV_Effects": "http://www.lunardigitalproductions.com/downloads/MediaVPs2014/MV_Effects.7z"
      },
      {
        "MV_Advanced": "http://www.lunardigitalproductions.com/downloads/MediaVPs2014/MV_Advanced.7z"
      },
      {
        "MV_AGlows": "http://www.lunardigitalproductions.com/downloads/MediaVPs2014/MV_A-Glows.7z"
      },
      {
        "MV_RadarIcons": "http://www.lunardigitalproductions.com/downloads/MediaVPs2014/MV_RadarIcons.7z"
      },
      {
        "MV_CB_ANI_1": "http://www.lunardigitalproductions.com/downloads/MediaVPs2014/MV_CB_ANI_1.7z"
      },
      {
        "MV_CB_ANI_2": "http://www.lunardigitalproductions.com/downloads/MediaVPs2014/MV_CB_ANI_2.7z"
      }
    ],
    "game": {
      "args": "-res 800x600 -fxaa_preset 9 -shadow_quality 2 -bloom_intensity 165 -ambient_factor 0 -spec_exp 17 -spec_point 1.2 -spec_static 1.7 -spec_tube 1.8 -ogl_spec 35 -fxaa -glow -post_process -enable_shadows -soft_particles -fxaa -missile_lighting -3dshockwave -fb_explosions -cache_bitmaps -dualscanlines -ship_choice_3d -weapon_choice_3d -3dwarp -warp_flash -snd_preload -normal -nograb -spec -nomotiondebris -stretch_menu -targetinfo -mod MediaVPs_2014",
      "working_dir": "$GAMEDIR/drive_c/game"
    },
    "installer": [
      {
        "execute": {
          "args": "-c \"7z x -o\\\"$GAMEDIR\\\"/freespace2 $MV_Root\"",
          "file": "/bin/sh",
          "terminal": false
        }
      },
      {
        "execute": {
          "args": "-c \"7z x -o\\\"$GAMEDIR\\\"/freespace2 $MV_Music\"",
          "file": "/bin/sh",
          "terminal": false
        }
      },
      {
        "execute": {
          "args": "-c \"7z x -o\\\"$GAMEDIR\\\"/freespace2 $MV_Assets\"",
          "file": "/bin/sh",
          "terminal": false
        }
      },
      {
        "execute": {
          "args": "-c \"7z x -o\\\"$GAMEDIR\\\"/freespace2 $MV_Effects\"",
          "file": "/bin/sh",
          "terminal": false
        }
      },
      {
        "execute": {
          "args": "-c \"7z x -o\\\"$GAMEDIR\\\"/freespace2 $MV_Advanced\"",
          "file": "/bin/sh",
          "terminal": false
        }
      },
      {
        "execute": {
          "args": "-c \"7z x -o\\\"$GAMEDIR\\\"/freespace2 $MV_AGlows\"",
          "file": "/bin/sh",
          "terminal": false
        }
      },
      {
        "execute": {
          "args": "-c \"7z x -o\\\"$GAMEDIR\\\"/freespace2 $MV_RadarIcons\"",
          "file": "/bin/sh",
          "terminal": false
        }
      },
      {
        "execute": {
          "args": "-c \"7z x -o\\\"$GAMEDIR\\\"/freespace2 $MV_CB_ANI_1\"",
          "file": "/bin/sh",
          "terminal": false
        }
      },
      {
        "execute": {
          "args": "-c \"7z x -o\\\"$GAMEDIR\\\"/freespace2 $MV_CB_ANI_2\"",
          "file": "/bin/sh",
          "terminal": false
        }
      }
    ],
    "requires": "freespace-2-fs2_open"
  },
  "content": "exe: freespace2/fs2_open.sh\nfiles:\n- MV_Root: http://www.lunardigitalproductions.com/downloads/MediaVPs2014/MV_Root.7z\n- MV_Music: http://www.lunardigitalproductions.com/downloads/MediaVPs2014/MV_Music.7z\n- MV_Assets: http://www.lunardigitalproductions.com/downloads/MediaVPs2014/MV_Assets.7z\n- MV_Effects: http://www.lunardigitalproductions.com/downloads/MediaVPs2014/MV_Effects.7z\n- MV_Advanced: http://www.lunardigitalproductions.com/downloads/MediaVPs2014/MV_Advanced.7z\n- MV_AGlows: http://www.lunardigitalproductions.com/downloads/MediaVPs2014/MV_A-Glows.7z\n- MV_RadarIcons: http://www.lunardigitalproductions.com/downloads/MediaVPs2014/MV_RadarIcons.7z\n- MV_CB_ANI_1: http://www.lunardigitalproductions.com/downloads/MediaVPs2014/MV_CB_ANI_1.7z\n- MV_CB_ANI_2: http://www.lunardigitalproductions.com/downloads/MediaVPs2014/MV_CB_ANI_2.7z\ngame:\n  args: -res 800x600 -fxaa_preset 9 -shadow_quality 2 -bloom_intensity 165 -ambient_factor\n    0 -spec_exp 17 -spec_point 1.2 -spec_static 1.7 -spec_tube 1.8 -ogl_spec 35 -fxaa\n    -glow -post_process -enable_shadows -soft_particles -fxaa -missile_lighting -3dshockwave\n    -fb_explosions -cache_bitmaps -dualscanlines -ship_choice_3d -weapon_choice_3d\n    -3dwarp -warp_flash -snd_preload -normal -nograb -spec -nomotiondebris -stretch_menu\n    -targetinfo -mod MediaVPs_2014\n  working_dir: $GAMEDIR/drive_c/game\ninstaller:\n- execute:\n    args: -c \"7z x -o\\\"$GAMEDIR\\\"/freespace2 $MV_Root\"\n    file: /bin/sh\n    terminal: false\n- execute:\n    args: -c \"7z x -o\\\"$GAMEDIR\\\"/freespace2 $MV_Music\"\n    file: /bin/sh\n    terminal: false\n- execute:\n    args: -c \"7z x -o\\\"$GAMEDIR\\\"/freespace2 $MV_Assets\"\n    file: /bin/sh\n    terminal: false\n- execute:\n    args: -c \"7z x -o\\\"$GAMEDIR\\\"/freespace2 $MV_Effects\"\n    file: /bin/sh\n    terminal: false\n- execute:\n    args: -c \"7z x -o\\\"$GAMEDIR\\\"/freespace2 $MV_Advanced\"\n    file: /bin/sh\n    terminal: false\n- execute:\n    args: -c \"7z x -o\\\"$GAMEDIR\\\"/freespace2 $MV_AGlows\"\n    file: /bin/sh\n    terminal: false\n- execute:\n    args: -c \"7z x -o\\\"$GAMEDIR\\\"/freespace2 $MV_RadarIcons\"\n    file: /bin/sh\n    terminal: false\n- execute:\n    args: -c \"7z x -o\\\"$GAMEDIR\\\"/freespace2 $MV_CB_ANI_1\"\n    file: /bin/sh\n    terminal: false\n- execute:\n    args: -c \"7z x -o\\\"$GAMEDIR\\\"/freespace2 $MV_CB_ANI_2\"\n    file: /bin/sh\n    terminal: false\nrequires: freespace-2-fs2_open\n"
}