{
  "name": "Action Rush",
  "slug": "action-rush",
  "year": null,
  "description": "",
  "banner_url": "https://lutris.net/games/banner/action-rush.jpg",
  "icon_url": "https://lutris.net/games/icon/action-rush.png",
  "is_public": true,
  "updated": "2020-10-08T09:58:39.773306Z",
  "provider_games": [
    {
      "name": "Action Rush",
      "slug": "758920",
      "service": "steam"
    }
  ],
  "steamid": 758920,
  "gogid": null,
  "gogslug": "",
  "humblestoreid": "",
  "id": 20171
}