{
  "name": "Konung 2",
  "slug": "konung-2",
  "year": null,
  "description": "",
  "banner_url": "https://lutris.net/games/banner/konung-2.jpg",
  "icon_url": "https://lutris.net/games/icon/konung-2.png",
  "is_public": true,
  "updated": "2020-10-08T09:20:33.759100Z",
  "provider_games": [
    {
      "name": "Konung 2",
      "slug": "289360",
      "service": "steam"
    }
  ],
  "steamid": 289360,
  "gogid": null,
  "gogslug": "",
  "humblestoreid": "",
  "id": 2561
}