{
  "id": 8701,
  "game_id": 3380,
  "game_slug": "dynasty-warriors-8-xtreme-legends-complete-edition",
  "name": "DYNASTY WARRIORS 8: Xtreme Legends Complete Edition",
  "year": null,
  "user": "zdzichu1",
  "runner": "wine",
  "slug": "dynasty-warriors-8-xtreme-leg-manual-installer",
  "version": "Manual installer",
  "description": "Game should be installed into \"C:\\Program Files\\Dynasty Warriors 8 Xtreme Legends\".Before playing this game you'll probably want to configure it. To do it, right click on the game icon in the Lustris window and use \"Run EXE inside wine prefix\".Then navigate to \"drive_c/Program Files/Dynasty Warriors 8 Xtreme Legends/\" and select Config.exe.",
  "notes": "",
  "created_at": "2018-06-12T18:26:40.200000Z",
  "updated_at": "2020-02-06T16:46:03.602281Z",
  "draft": false,
  "published": true,
  "published_by": null,
  "rating": "",
  "steamid": 278080,
  "gogid": null,
  "gogslug": "",
  "humbleid": "",
  "humblestoreid": "",
  "humblestoreid_real": "",
  "script": {
    "files": [
      {
        "installer": "N/A:Select the game's setup file"
      }
    ],
    "game": {
      "arch": "win32",
      "exe": "drive_c/Program Files/Dynasty Warriors 8 Xtreme Legends/Launch.exe",
      "prefix": "$GAMEDIR"
    },
    "installer": [
      {
        "task": {
          "arch": "win32",
          "name": "create_prefix",
          "prefix": "$GAMEDIR"
        }
      },
      {
        "task": {
          "app": "devenum wmp9",
          "arch": "win32",
          "description": "Installing devenum",
          "name": "winetricks",
          "prefix": "$GAMEDIR"
        }
      },
      {
        "task": {
          "arch": "win32",
          "description": "Installing game",
          "executable": "installer",
          "name": "wineexec",
          "prefix": "$GAMEDIR"
        }
      }
    ]
  },
  "content": "files:\r\n- installer: N/A:Select the game's setup file\r\ngame:\r\n  arch: win32\r\n  exe: drive_c/Program Files/Dynasty Warriors 8 Xtreme Legends/Launch.exe\r\n  prefix: $GAMEDIR\r\ninstaller:\r\n- task:\r\n    arch: win32\r\n    name: create_prefix\r\n    prefix: $GAMEDIR\r\n- task:\r\n    app: devenum wmp9\r\n    arch: win32\r\n    description: Installing devenum\r\n    name: winetricks\r\n    prefix: $GAMEDIR\r\n- task:\r\n    arch: win32\r\n    description: Installing game\r\n    executable: installer\r\n    name: wineexec\r\n    prefix: $GAMEDIR"
}