{
  "id": 4315,
  "game_id": 4311,
  "game_slug": "kiai-resonance",
  "name": "Kiai Resonance",
  "year": null,
  "user": "FakeShemp",
  "runner": "wine",
  "slug": "kiai-resonance-indiegamestand",
  "version": "IndieGameStand",
  "description": "",
  "notes": "",
  "created_at": "2017-06-12T18:42:18.398663Z",
  "updated_at": "2018-05-19T03:41:51.069395Z",
  "draft": false,
  "published": true,
  "published_by": null,
  "rating": "",
  "steamid": 360450,
  "gogid": null,
  "gogslug": "",
  "humbleid": "",
  "humblestoreid": "",
  "humblestoreid_real": "",
  "script": {
    "files": [
      {
        "file1": "N/A:Please select the IndieGameStand installer"
      }
    ],
    "game": {
      "arch": "win32",
      "exe": "drive_c/Program Files/Kiai Resonance/Kiai Resonance.exe",
      "prefix": "$GAMEDIR"
    },
    "installer": [
      {
        "task": {
          "args": "\"/D=\"C:\\\\Program Files\\\\Kiai Resonance\"\"",
          "executable": "$file1",
          "name": "wineexec",
          "prefix": "$GAMEDIR"
        }
      }
    ]
  },
  "content": "files:\n- file1: N/A:Please select the IndieGameStand installer\ngame:\n  arch: win32\n  exe: drive_c/Program Files/Kiai Resonance/Kiai Resonance.exe\n  prefix: $GAMEDIR\ninstaller:\n- task:\n    args: '\"/D=\"C:\\\\Program Files\\\\Kiai Resonance\"\"'\n    executable: $file1\n    name: wineexec\n    prefix: $GAMEDIR\n"
}