{
  "name": "Krater",
  "slug": "krater",
  "year": null,
  "description": "",
  "banner_url": "https://lutris.net/games/banner/krater.jpg",
  "icon_url": "https://lutris.net/games/icon/krater.png",
  "is_public": true,
  "updated": "2020-10-08T10:02:07.899837Z",
  "provider_games": [
    {
      "name": "Krater",
      "slug": "42170",
      "service": "steam"
    }
  ],
  "steamid": 42170,
  "gogid": null,
  "gogslug": "",
  "humblestoreid": "",
  "id": 1378
}