{
  "name": "Containment",
  "slug": "containment",
  "year": null,
  "description": "",
  "banner_url": "https://lutris.net/games/banner/containment.jpg",
  "icon_url": "https://lutris.net/games/icon/containment.png",
  "is_public": true,
  "updated": "2020-10-08T09:58:23.454283Z",
  "provider_games": [
    {
      "name": "Containment",
      "slug": "771010",
      "service": "steam"
    }
  ],
  "steamid": 771010,
  "gogid": null,
  "gogslug": "",
  "humblestoreid": "",
  "id": 26641
}