{
  "name": "Il Galeone",
  "slug": "il-galeone",
  "year": 2000,
  "description": "",
  "banner_url": "",
  "icon_url": "https://lutris.net/games/icon/il-galeone.png",
  "is_public": true,
  "updated": "2020-05-26T03:34:41.380431Z",
  "provider_games": [
    {
      "name": "Il Galeone",
      "slug": "galeone",
      "service": "mame"
    }
  ],
  "steamid": null,
  "gogid": null,
  "gogslug": "",
  "humblestoreid": "",
  "id": 34188
}