{
  "name": "Hunahpu: way of the Warrior",
  "slug": "hunahpu-way-of-the-warrior",
  "year": null,
  "description": "",
  "banner_url": "https://lutris.net/games/banner/hunahpu-way-of-the-warrior.jpg",
  "icon_url": "https://lutris.net/games/icon/hunahpu-way-of-the-warrior.png",
  "is_public": false,
  "updated": "2019-01-23T08:29:53.117631Z",
  "provider_games": [],
  "steamid": 595480,
  "gogid": null,
  "gogslug": "",
  "humblestoreid": "",
  "id": 13041
}