{
  "id": 22724,
  "game_id": 20,
  "game_slug": "serious-sam-the-first-encounter",
  "name": "Serious Sam: The First Encounter",
  "year": 2001,
  "user": "JoStro",
  "runner": "linux",
  "slug": "serious-sam-the-first-encount-gog-native",
  "version": "GOG Native",
  "description": "Native version using the open source engine",
  "notes": "",
  "created_at": "2020-08-05T16:22:26.975878Z",
  "updated_at": "2020-08-05T16:22:26.975904Z",
  "draft": true,
  "published": false,
  "published_by": null,
  "rating": "",
  "steamid": 41050,
  "gogid": 1207658876,
  "gogslug": "serious_sam_the_first_encounter",
  "humbleid": "",
  "humblestoreid": "",
  "humblestoreid_real": "serious-sam-hd-the-first-encounter",
  "script": {
    "files": [
      {
        "data": "N/A:Select the game setup file"
      },
      {
        "innoextract": "https://lutris.nyc3.digitaloceanspaces.com/tools/innoextract/innoextract-1.8-dev-2019-01-13-linux.tar.xz"
      },
      {
        "engine": "https://gist.github.com/JopStro/49bef2a1bd17d5a0cba99a6e6511d564/raw/aa0707fb186a4429dd6682017bf08cc6f2f853f9/serious-engine-1.tar.xz"
      }
    ],
    "game": {
      "appid": 41050,
      "gogid": 1207658876
    },
    "installer": [
      {
        "extract": {
          "dst": "$CACHE/tmp/innoextract",
          "file": "innoextract"
        }
      },
      {
        "execute": {
          "args": "--extract $data --output-dir $GAMEDIR",
          "file": "$CACHE/tmp/innoextract/innoextract"
        }
      },
      {
        "extract": {
          "dst": "$GAMEDIR",
          "file": "engine"
        }
      }
    ]
  },
  "content": "files:\n- data: N/A:Select the game setup file\n- innoextract: https://lutris.nyc3.digitaloceanspaces.com/tools/innoextract/innoextract-1.8-dev-2019-01-13-linux.tar.xz\n- engine: https://gist.github.com/JopStro/49bef2a1bd17d5a0cba99a6e6511d564/raw/aa0707fb186a4429dd6682017bf08cc6f2f853f9/serious-engine-1.tar.xz\ngame:\n  appid: 41050\n  gogid: 1207658876\ninstaller:\n- extract:\n    dst: $CACHE/tmp/innoextract\n    file: innoextract\n- execute:\n    args: --extract $data --output-dir $GAMEDIR\n    file: $CACHE/tmp/innoextract/innoextract\n- extract:\n    dst: $GAMEDIR\n    file: engine\n"
}