{
  "name": "Hybrid Wars",
  "slug": "hybrid-wars",
  "year": null,
  "description": "",
  "banner_url": "https://lutris.net/games/banner/hybrid-wars.jpg",
  "icon_url": "https://lutris.net/games/icon/hybrid-wars.png",
  "is_public": true,
  "updated": "2020-05-31T00:17:45.229048Z",
  "provider_games": [
    {
      "name": "Hybrid Wars",
      "slug": "1452686225",
      "service": "gog"
    }
  ],
  "steamid": 411540,
  "gogid": 1452686225,
  "gogslug": "hybrid_wars",
  "humblestoreid": "",
  "id": 10280
}