{
  "name": "Beyond Eyes",
  "slug": "beyond-eyes",
  "year": null,
  "description": "",
  "banner_url": "https://lutris.net/games/banner/beyond-eyes.jpg",
  "icon_url": "https://lutris.net/games/icon/beyond-eyes.png",
  "is_public": true,
  "updated": "2019-01-23T08:28:35.328193Z",
  "provider_games": [
    {
      "name": "Beyond Eyes",
      "slug": "356050",
      "service": "steam"
    }
  ],
  "steamid": 356050,
  "gogid": null,
  "gogslug": "",
  "humblestoreid": "",
  "id": 5239
}