{
  "id": 3272,
  "game_id": 2876,
  "game_slug": "hand-of-fate",
  "name": "Hand Of Fate",
  "year": 2015,
  "user": "FakeShemp",
  "runner": "linux",
  "slug": "hand-of-fate-humble",
  "version": "Humble",
  "description": "",
  "notes": "",
  "created_at": "2017-02-18T15:47:41.900426Z",
  "updated_at": "2017-03-16T22:48:02.344106Z",
  "draft": false,
  "published": true,
  "published_by": null,
  "rating": "",
  "steamid": 266510,
  "gogid": 1424100574,
  "gogslug": "hand_of_fate",
  "humbleid": "handoffate",
  "humblestoreid": "handoffate",
  "humblestoreid_real": "handoffate",
  "script": {
    "exe": "Hand of Fate.x86",
    "exe64": "Hand of Fate.x86_64",
    "files": [
      {
        "file1": "N/A:Please select the Humble archive"
      }
    ],
    "installer": [
      {
        "extract": {
          "file": "file1"
        }
      },
      {
        "chmodx": "$GAMEDIR/Hand of Fate.x86"
      },
      {
        "chmodx": "$GAMEDIR/Hand of Fate.x86_64"
      }
    ]
  },
  "content": "exe: Hand of Fate.x86\nexe64: Hand of Fate.x86_64\nfiles:\n- file1: N/A:Please select the Humble archive\ninstaller:\n- extract:\n    file: file1\n- chmodx: $GAMEDIR/Hand of Fate.x86\n- chmodx: $GAMEDIR/Hand of Fate.x86_64\n"
}