{
  "name": "Hydra Slayer",
  "slug": "hydra-slayer",
  "year": null,
  "description": "",
  "banner_url": "https://lutris.net/games/banner/hydra-slayer.jpg",
  "icon_url": "https://lutris.net/games/icon/hydra-slayer.png",
  "is_public": true,
  "updated": "2020-10-08T10:14:13.896475Z",
  "provider_games": [
    {
      "name": "Hydra Slayer",
      "slug": "432380",
      "service": "steam"
    }
  ],
  "steamid": 432380,
  "gogid": null,
  "gogslug": "",
  "humblestoreid": "",
  "id": 8185
}