{
  "id": 5686,
  "game_id": 796,
  "game_slug": "commandos-3-destination-berlin",
  "name": "Commandos 3: Destination Berlin",
  "year": 2003,
  "user": "FakeShemp",
  "runner": "wine",
  "slug": "commandos-3-destination-berli-groupees",
  "version": "Groupees",
  "description": "",
  "notes": "",
  "created_at": "2017-09-11T12:10:17.844000Z",
  "updated_at": "2018-05-19T03:41:54.018464Z",
  "draft": false,
  "published": true,
  "published_by": null,
  "rating": "",
  "steamid": 6840,
  "gogid": 1207662223,
  "gogslug": "commandos_2_3",
  "humbleid": "",
  "humblestoreid": "",
  "humblestoreid_real": "",
  "script": {
    "files": [
      {
        "file1": "N/A:Please select the Groupees archive"
      }
    ],
    "game": {
      "arch": "win32",
      "exe": "drive_c/Program Files/Pyro Studios/Commandos 3 Destination Berlin/Commandos3.exe",
      "prefix": "$GAMEDIR"
    },
    "installer": [
      {
        "extract": {
          "dst": "$CACHE",
          "file": "$file1"
        }
      },
      {
        "task": {
          "args": "/sp- /verysilent /norestart /suppressmsgboxes /nogui",
          "executable": "$CACHE/setup.exe",
          "name": "wineexec",
          "prefix": "$GAMEDIR"
        }
      }
    ]
  },
  "content": "files:\n- file1: N/A:Please select the Groupees archive\ngame:\n  arch: win32\n  exe: drive_c/Program Files/Pyro Studios/Commandos 3 Destination Berlin/Commandos3.exe\n  prefix: $GAMEDIR\ninstaller:\n- extract:\n    dst: $CACHE\n    file: $file1\n- task:\n    args: /sp- /verysilent /norestart /suppressmsgboxes /nogui\n    executable: $CACHE/setup.exe\n    name: wineexec\n    prefix: $GAMEDIR\n"
}