{
  "name": "Madden NFL 2002",
  "slug": "madden-nfl-2002",
  "year": 2001,
  "description": "",
  "banner_url": "https://lutris.net/games/banner/madden-nfl-2002.jpg",
  "icon_url": "",
  "is_public": false,
  "updated": "2020-03-28T15:45:44.002477Z",
  "provider_games": [],
  "steamid": null,
  "gogid": null,
  "gogslug": "",
  "humblestoreid": "",
  "id": 32164
}