{
  "name": "Dragon Nest",
  "slug": "dragon-nest",
  "year": null,
  "description": "",
  "banner_url": "https://lutris.net/games/banner/dragon-nest.jpg",
  "icon_url": "https://lutris.net/games/icon/dragon-nest.png",
  "is_public": true,
  "updated": "2019-03-25T06:42:57.224164Z",
  "provider_games": [
    {
      "name": "Dragon Nest",
      "slug": "11610",
      "service": "steam"
    }
  ],
  "steamid": 11610,
  "gogid": null,
  "gogslug": "",
  "humblestoreid": "",
  "id": 3195
}