{
  "name": "Light It",
  "slug": "light-it",
  "year": null,
  "description": "",
  "banner_url": "https://lutris.net/games/banner/light-it.jpg",
  "icon_url": "https://lutris.net/games/icon/light-it.png",
  "is_public": true,
  "updated": "2020-10-08T10:04:30.890235Z",
  "provider_games": [
    {
      "name": "Light It",
      "slug": "591640",
      "service": "steam"
    }
  ],
  "steamid": 591640,
  "gogid": null,
  "gogslug": "",
  "humblestoreid": "",
  "id": 30423
}