{
  "name": "Ben and Ed",
  "slug": "ben-and-ed",
  "year": null,
  "description": "",
  "banner_url": "https://lutris.net/games/banner/ben-and-ed.jpg",
  "icon_url": "https://lutris.net/games/icon/ben-and-ed.png",
  "is_public": true,
  "updated": "2020-10-08T10:15:16.681550Z",
  "provider_games": [
    {
      "name": "Ben and Ed",
      "slug": "395200",
      "service": "steam"
    }
  ],
  "steamid": 395200,
  "gogid": null,
  "gogslug": "",
  "humblestoreid": "",
  "id": 8623
}