{
  "name": "Cloud Knights",
  "slug": "cloud-knights",
  "year": null,
  "description": "",
  "banner_url": "https://lutris.net/games/banner/cloud-knights.jpg",
  "icon_url": "https://lutris.net/games/icon/cloud-knights.png",
  "is_public": false,
  "updated": "2019-01-23T08:28:54.721244Z",
  "provider_games": [],
  "steamid": 360130,
  "gogid": null,
  "gogslug": "",
  "humblestoreid": "",
  "id": 5434
}