{
  "name": "Chinese Hero",
  "slug": "chinese-hero",
  "year": 1984,
  "description": "",
  "banner_url": "https://lutris.net/games/banner/chinese-hero.jpg",
  "icon_url": "https://lutris.net/games/icon/chinese-hero.png",
  "is_public": true,
  "updated": "2020-05-26T03:32:47.536025Z",
  "provider_games": [
    {
      "name": "Chinese Hero",
      "slug": "chinhero",
      "service": "mame"
    }
  ],
  "steamid": null,
  "gogid": null,
  "gogslug": "",
  "humblestoreid": "",
  "id": 33668
}