{
  "name": "Atlantis 3: The New World",
  "slug": "atlantis-3-the-new-world",
  "year": 2001,
  "description": "",
  "banner_url": "https://lutris.net/games/banner/atlantis-3-the-new-world.jpg",
  "icon_url": "",
  "is_public": true,
  "updated": "2020-05-31T00:17:35.055550Z",
  "provider_games": [
    {
      "name": "Atlantis 3: The New World",
      "slug": "1207658958",
      "service": "gog"
    }
  ],
  "steamid": null,
  "gogid": 1207658958,
  "gogslug": "atlantis_3_the_new_world",
  "humblestoreid": "",
  "id": 23915
}