{
  "name": "Gunducky Industries",
  "slug": "gunducky-industries",
  "year": 2020,
  "description": "",
  "banner_url": "https://lutris.net/games/banner/gunducky-industries.jpg",
  "icon_url": "",
  "is_public": true,
  "updated": "2020-09-30T05:34:51.821672Z",
  "provider_games": [],
  "steamid": null,
  "gogid": null,
  "gogslug": "",
  "humblestoreid": "",
  "id": 39385
}