{
  "name": "Cybattler",
  "slug": "cybattler",
  "year": 1993,
  "description": "",
  "banner_url": "",
  "icon_url": "https://lutris.net/games/icon/cybattler.png",
  "is_public": true,
  "updated": "2020-05-26T03:33:03.196711Z",
  "provider_games": [
    {
      "name": "Cybattler",
      "slug": "cybattlr",
      "service": "mame"
    }
  ],
  "steamid": null,
  "gogid": null,
  "gogslug": "",
  "humblestoreid": "",
  "id": 33790
}