{
  "name": "Daisyarin [BET]",
  "slug": "daisyarin-bet",
  "year": 1989,
  "description": "",
  "banner_url": "",
  "icon_url": "https://lutris.net/games/icon/daisyarin-bet.png",
  "is_public": true,
  "updated": "2020-05-26T03:33:05.210398Z",
  "provider_games": [
    {
      "name": "Daisyarin [BET]",
      "slug": "daisyari",
      "service": "mame"
    }
  ],
  "steamid": null,
  "gogid": null,
  "gogslug": "",
  "humblestoreid": "",
  "id": 33807
}