{
  "id": 21527,
  "game_id": 5462,
  "game_slug": "dungeon-souls",
  "name": "Dungeon Souls",
  "year": 2015,
  "user": "hapster",
  "runner": "linux",
  "slug": "dungeon-souls-gog",
  "version": "GOG",
  "description": null,
  "notes": "",
  "created_at": "2020-06-15T05:57:25.404197Z",
  "updated_at": "2020-06-15T05:57:25.404224Z",
  "draft": true,
  "published": false,
  "published_by": null,
  "rating": "",
  "steamid": 383230,
  "gogid": 1982030524,
  "gogslug": "dungeon_souls",
  "humbleid": "dungeonsouls",
  "humblestoreid": "dungeonsouls",
  "humblestoreid_real": "dungeonsouls",
  "script": {
    "files": [
      {
        "goginstaller": "N/A:Please select the GOG.com Linux installer"
      }
    ],
    "game": {
      "exe": "start.sh"
    },
    "installer": [
      {
        "extract": {
          "dst": "$CACHE/GOG",
          "file": "goginstaller",
          "format": "zip"
        }
      },
      {
        "merge": {
          "dst": "$GAMEDIR",
          "src": "$CACHE/GOG/data/noarch/"
        }
      }
    ]
  },
  "content": "files:\n- goginstaller: N/A:Please select the GOG.com Linux installer\ngame:\n  exe: start.sh\ninstaller:\n- extract:\n    dst: $CACHE/GOG\n    file: goginstaller\n    format: zip\n- merge:\n    dst: $GAMEDIR\n    src: $CACHE/GOG/data/noarch/\n"
}