{
  "name": "Barrow Hill: Curse of the Ancient Circle",
  "slug": "barrow-hill-curse-of-the-ancient-circle",
  "year": null,
  "description": "",
  "banner_url": "https://lutris.net/games/banner/barrow-hill-curse-of-the-ancient-circle.jpg",
  "icon_url": "https://lutris.net/games/icon/barrow-hill-curse-of-the-ancient-circle.png",
  "is_public": true,
  "updated": "2020-10-08T10:07:34.860514Z",
  "provider_games": [
    {
      "name": "Barrow Hill: Curse of the Ancient Circle",
      "slug": "2133405352",
      "service": "gog"
    },
    {
      "name": "Barrow Hill: Curse of the Ancient Circle",
      "slug": "494360",
      "service": "steam"
    }
  ],
  "steamid": 494360,
  "gogid": 2133405352,
  "gogslug": "barrow_hill_curse_of_the_ancient_circle",
  "humblestoreid": "",
  "id": 8413
}