{
  "name": "Brian Lara Cricket",
  "slug": "brian-lara-cricket",
  "year": 1998,
  "description": "The ball is flying faster than you think. You're playing on gut reaction. Knock it for six and you're a hero - miss it and you're history. Shane Warne Cricket set the benchmark for cricket games on PlayStation and is now part of the Codemasters Best Sellers Value Range. Featuring ultra-realistic graphics, actual teams and cricket grounds, don’t just watch the cricket this summer, live it!",
  "banner_url": "https://lutris.net/games/banner/brian-lara-cricket.jpg",
  "icon_url": "",
  "is_public": true,
  "updated": "2019-01-23T08:28:41.881790Z",
  "provider_games": [],
  "steamid": null,
  "gogid": null,
  "gogslug": "",
  "humblestoreid": "",
  "id": 20888
}