{
  "name": "Giga Girl",
  "slug": "giga-girl",
  "year": null,
  "description": "",
  "banner_url": "https://lutris.net/games/banner/giga-girl.jpg",
  "icon_url": "https://lutris.net/games/icon/giga-girl.png",
  "is_public": true,
  "updated": "2020-10-08T10:13:05.390889Z",
  "provider_games": [
    {
      "name": "Giga Girl",
      "slug": "474620",
      "service": "steam"
    }
  ],
  "steamid": 474620,
  "gogid": null,
  "gogslug": "",
  "humblestoreid": "",
  "id": 10821
}