{
  "name": "Duck in Town - A Rising Knight",
  "slug": "duck-in-town-a-rising-knight",
  "year": 2019,
  "description": "Duck, Duckson's father, takes him to Town, capital of the Duck Kingdom and home of the Duck King. Duckson wants to become the greatest Duck Knight ever. To fullfill his dream, he must explore a peculiar town, full of mysteries and weird places, meet a bunch of quirky villagers and prove that he is worth the title.\r\n\r\nDuck in Town - A Rising Knight is the first chapter in this series of comedy 3D graphic adventure games, heavily inspired by the classics of the genre.",
  "banner_url": "https://lutris.net/games/banner/duck-in-town-a-rising-knight.jpg",
  "icon_url": "",
  "is_public": false,
  "updated": "2020-09-15T02:24:41.919003Z",
  "provider_games": [],
  "steamid": null,
  "gogid": null,
  "gogslug": "",
  "humblestoreid": "",
  "id": 38981
}