{
  "name": "Cyberhunter",
  "slug": "cyberhunter",
  "year": 2019,
  "description": "",
  "banner_url": "https://lutris.net/games/banner/cyberhunter.jpg",
  "icon_url": "",
  "is_public": true,
  "updated": "2019-08-17T06:23:08.407695Z",
  "provider_games": [],
  "steamid": null,
  "gogid": null,
  "gogslug": "",
  "humblestoreid": "",
  "id": 28778
}