{
  "name": "Azure Saga: Pathfinder",
  "slug": "azure-saga-pathfinder",
  "year": null,
  "description": "",
  "banner_url": "https://lutris.net/games/banner/azure-saga-pathfinder.jpg",
  "icon_url": "https://lutris.net/games/icon/azure-saga-pathfinder.png",
  "is_public": true,
  "updated": "2020-10-08T10:09:15.971485Z",
  "provider_games": [
    {
      "name": "Azure Saga: Pathfinder",
      "slug": "672590",
      "service": "steam"
    }
  ],
  "steamid": 672590,
  "gogid": null,
  "gogslug": "",
  "humblestoreid": "",
  "id": 24482
}