{
  "id": 5363,
  "game_id": 5439,
  "game_slug": "gem-wars-attack-of-the-jiblets",
  "name": "Gem Wars: Attack of the Jiblets",
  "year": null,
  "user": "FakeShemp",
  "runner": "wine",
  "slug": "gem-wars-attack-of-the-jiblet-groupees",
  "version": "Groupees",
  "description": "",
  "notes": "",
  "created_at": "2017-08-12T17:07:05.727000Z",
  "updated_at": "2018-05-19T03:41:58.650189Z",
  "draft": false,
  "published": true,
  "published_by": null,
  "rating": "",
  "steamid": 370590,
  "gogid": null,
  "gogslug": "",
  "humbleid": "",
  "humblestoreid": "",
  "humblestoreid_real": "",
  "script": {
    "files": [
      {
        "file1": "N/A:Please select the Groupees archive"
      }
    ],
    "game": {
      "arch": "win32",
      "exe": "drive_c/Program Files/Queen Birdface Productions/Gem Wars Attack of the Jiblets/bin/release/Gem Wars.exe",
      "prefix": "$GAMEDIR"
    },
    "installer": [
      {
        "extract": {
          "dst": "$CACHE",
          "file": "$file1"
        }
      },
      {
        "task": {
          "args": "/s /nr",
          "executable": "$CACHE/Gem Wars Setup.exe",
          "name": "wineexec",
          "prefix": "$GAMEDIR"
        }
      }
    ]
  },
  "content": "files:\n- file1: N/A:Please select the Groupees archive\ngame:\n  arch: win32\n  exe: drive_c/Program Files/Queen Birdface Productions/Gem Wars Attack of the Jiblets/bin/release/Gem\n    Wars.exe\n  prefix: $GAMEDIR\ninstaller:\n- extract:\n    dst: $CACHE\n    file: $file1\n- task:\n    args: /s /nr\n    executable: $CACHE/Gem Wars Setup.exe\n    name: wineexec\n    prefix: $GAMEDIR\n"
}