{
  "name": "Day of Dragons",
  "slug": "day-of-dragons",
  "year": null,
  "description": "",
  "banner_url": "https://lutris.net/games/banner/day-of-dragons.jpg",
  "icon_url": "https://lutris.net/games/icon/day-of-dragons.png",
  "is_public": true,
  "updated": "2020-10-08T10:11:53.491991Z",
  "provider_games": [
    {
      "name": "Day of Dragons",
      "slug": "1088090",
      "service": "steam"
    }
  ],
  "steamid": 1088090,
  "gogid": null,
  "gogslug": "",
  "humblestoreid": "",
  "id": 37774
}