{
  "name": "Julius",
  "slug": "julius",
  "year": 2019,
  "description": "An open source re-implementation of Caesar III, with the same logic as the original, but with some UI enhancements, that is able to be played on multiple platforms.\r\nUI enhancements include:\r\n- Support for widescreen resolutions\r\n- Windowed mode support for 32-bit desktops\r\n- Several small in-game quality of life improvements\r\nJulius requires the original assets (graphics, sounds, etc) from Caesar 3 to run.",
  "banner_url": "https://lutris.net/games/banner/julius.jpg",
  "icon_url": "",
  "is_public": true,
  "updated": "2020-05-17T08:50:05.234426Z",
  "provider_games": [],
  "steamid": null,
  "gogid": null,
  "gogslug": "",
  "humblestoreid": "",
  "id": 32921
}