{
  "name": "Faceswap",
  "slug": "faceswap",
  "year": null,
  "description": "Deepfake software.",
  "banner_url": "https://lutris.net/games/banner/faceswap.jpg",
  "icon_url": "",
  "is_public": false,
  "updated": "2020-11-15T09:44:29.744033Z",
  "provider_games": [],
  "steamid": null,
  "gogid": null,
  "gogslug": "",
  "humblestoreid": "",
  "id": 40263
}