{
  "name": "Holo Impact : Prologue",
  "slug": "holo-impact-prologue",
  "year": null,
  "description": "",
  "banner_url": "https://lutris.net/games/banner/holo-impact-prologue.jpg",
  "icon_url": "https://lutris.net/games/icon/holo-impact-prologue.png",
  "is_public": true,
  "updated": "2020-10-08T10:06:01.656534Z",
  "provider_games": [
    {
      "name": "Holo Impact : Prologue",
      "slug": "543530",
      "service": "steam"
    }
  ],
  "steamid": 543530,
  "gogid": null,
  "gogslug": "",
  "humblestoreid": "",
  "id": 22114
}