{
  "name": "Legionnaire",
  "slug": "legionnaire",
  "year": 1992,
  "description": "",
  "banner_url": "",
  "icon_url": "https://lutris.net/games/icon/legionnaire.png",
  "is_public": true,
  "updated": "2020-05-26T03:35:14.314656Z",
  "provider_games": [
    {
      "name": "Legionnaire",
      "slug": "legionna",
      "service": "mame"
    }
  ],
  "steamid": null,
  "gogid": null,
  "gogslug": "",
  "humblestoreid": "",
  "id": 34711
}