{
  "name": "Arena of the Gods",
  "slug": "arena-of-the-gods",
  "year": null,
  "description": "",
  "banner_url": "https://lutris.net/games/banner/arena-of-the-gods.jpg",
  "icon_url": "https://lutris.net/games/icon/arena-of-the-gods.png",
  "is_public": true,
  "updated": "2020-10-08T10:08:33.158017Z",
  "provider_games": [
    {
      "name": "Arena of the Gods",
      "slug": "827560",
      "service": "steam"
    }
  ],
  "steamid": 827560,
  "gogid": null,
  "gogslug": "",
  "humblestoreid": "",
  "id": 24953
}