{
  "name": "Jagged Alliance 2: Gold Pack",
  "slug": "jagged-alliance-2-gold-pack",
  "year": null,
  "description": "",
  "banner_url": "https://lutris.net/games/banner/jagged-alliance-2-gold-pack.jpg",
  "icon_url": "https://lutris.net/games/icon/jagged-alliance-2-gold-pack.png",
  "is_public": true,
  "updated": "2020-10-08T10:02:38.450325Z",
  "provider_games": [
    {
      "name": "Jagged Alliance 2: Gold Pack",
      "slug": "12370",
      "service": "steam"
    }
  ],
  "steamid": 12370,
  "gogid": null,
  "gogslug": "",
  "humblestoreid": "",
  "id": 1309
}