{
  "name": "Dungeons of Loot",
  "slug": "dungeons-of-loot",
  "year": 2018,
  "description": "Dive into a seemingly harmless dungeon where loot is around every corner.\r\n\r\nJust mind your step, otherwise you might end up floating in the unknown and losing all your loot.",
  "banner_url": "https://lutris.net/games/banner/dungeons-of-loot.jpg",
  "icon_url": "",
  "is_public": false,
  "updated": "2020-09-20T15:04:03.012670Z",
  "provider_games": [],
  "steamid": null,
  "gogid": null,
  "gogslug": "",
  "humblestoreid": "",
  "id": 39145
}