{
  "name": "Christmas Stories: Hans Christian Andersen's Tin Soldier Collector's Edition",
  "slug": "christmas-stories-hans-christian-andersens-tin-sol",
  "year": null,
  "description": "",
  "banner_url": "https://lutris.net/games/banner/christmas-stories-hans-christian-andersens-tin-sol.jpg",
  "icon_url": "https://lutris.net/games/icon/christmas-stories-hans-christian-andersens-tin-sol.png",
  "is_public": true,
  "updated": "2019-05-19T13:13:41.868057Z",
  "provider_games": [
    {
      "name": "Christmas Stories: Hans Christian Andersen's Tin Soldier Collector's Edition",
      "slug": "758600",
      "service": "steam"
    }
  ],
  "steamid": 758600,
  "gogid": null,
  "gogslug": "",
  "humblestoreid": "",
  "id": 27290
}