{
  "name": "Capcom Baseball",
  "slug": "capcom-baseball",
  "year": 1989,
  "description": "",
  "banner_url": "",
  "icon_url": "https://lutris.net/games/icon/capcom-baseball.png",
  "is_public": true,
  "updated": "2020-05-26T03:32:35.257090Z",
  "provider_games": [
    {
      "name": "Capcom Baseball",
      "slug": "cbasebal",
      "service": "mame"
    }
  ],
  "steamid": null,
  "gogid": null,
  "gogslug": "",
  "humblestoreid": "",
  "id": 33615
}