{
  "name": "Ambush",
  "slug": "ambush",
  "year": 1983,
  "description": "",
  "banner_url": "https://lutris.net/games/banner/ambush.jpg",
  "icon_url": "https://lutris.net/games/icon/ambush.png",
  "is_public": true,
  "updated": "2020-05-26T03:31:49.015634Z",
  "provider_games": [
    {
      "name": "Ambush",
      "slug": "ambush",
      "service": "mame"
    }
  ],
  "steamid": null,
  "gogid": null,
  "gogslug": "",
  "humblestoreid": "",
  "id": 33298
}