{
  "name": "Dawn of Man",
  "slug": "dawn-of-man",
  "year": 2019,
  "description": "Lead a settlement of the first humans and guide them through the ages during their struggle for survival. Hunting, collecting, manufacturing tools, researching new technologies and face the challenges that the environment will present.",
  "banner_url": "https://lutris.net/games/banner/dawn-of-man.jpg",
  "icon_url": "https://lutris.net/games/icon/dawn-of-man.png",
  "is_public": true,
  "updated": "2020-05-31T00:17:39.132760Z",
  "provider_games": [
    {
      "name": "Dawn of Man",
      "slug": "1899257943",
      "service": "gog"
    },
    {
      "name": "Dawn of Man",
      "slug": "858810",
      "service": "steam"
    }
  ],
  "steamid": 858810,
  "gogid": 899257943,
  "gogslug": "dawn_of_man",
  "humblestoreid": "",
  "id": 26114
}