{
  "name": "Light Apprentice",
  "slug": "light-apprentice",
  "year": null,
  "description": "",
  "banner_url": "https://lutris.net/games/banner/light-apprentice.jpg",
  "icon_url": "https://lutris.net/games/icon/light-apprentice.png",
  "is_public": true,
  "updated": "2020-10-08T10:05:13.264310Z",
  "provider_games": [
    {
      "name": "Light Apprentice",
      "slug": "569570",
      "service": "steam"
    }
  ],
  "steamid": 569570,
  "gogid": null,
  "gogslug": "",
  "humblestoreid": "",
  "id": 15147
}