{
  "name": "CoMOTION",
  "slug": "comotion",
  "year": 1976,
  "description": "",
  "banner_url": "",
  "icon_url": "https://lutris.net/games/icon/comotion.png",
  "is_public": true,
  "updated": "2020-05-26T03:32:52.646424Z",
  "provider_games": [
    {
      "name": "CoMOTION",
      "slug": "comotion",
      "service": "mame"
    }
  ],
  "steamid": null,
  "gogid": null,
  "gogslug": "",
  "humblestoreid": "",
  "id": 33724
}