{
  "name": "Captain Starshot",
  "slug": "captain-starshot",
  "year": 2019,
  "description": "",
  "banner_url": "https://lutris.net/games/banner/captain-starshot.jpg",
  "icon_url": "",
  "is_public": true,
  "updated": "2019-07-20T02:57:24.888035Z",
  "provider_games": [],
  "steamid": null,
  "gogid": null,
  "gogslug": "",
  "humblestoreid": "",
  "id": 28453
}