{
  "name": "A Legionary's Life",
  "slug": "a-legionarys-life",
  "year": null,
  "description": "",
  "banner_url": "https://lutris.net/games/banner/a-legionarys-life.jpg",
  "icon_url": "",
  "is_public": true,
  "updated": "2020-05-31T19:59:29.180190Z",
  "provider_games": [
    {
      "name": "A Legionary's Life",
      "slug": "1901298062",
      "service": "gog"
    },
    {
      "name": "A Legionary's Life",
      "slug": "1058430",
      "service": "steam"
    }
  ],
  "steamid": 1058430,
  "gogid": 1901298062,
  "gogslug": "a_legionarys_life",
  "humblestoreid": "",
  "id": 36896
}