{
  "name": "Aquanox Deep Descent",
  "slug": "aquanox-deep-descent",
  "year": null,
  "description": "",
  "banner_url": "https://lutris.net/games/banner/aquanox-deep-descent.jpg",
  "icon_url": "https://lutris.net/games/icon/aquanox-deep-descent.png",
  "is_public": true,
  "updated": "2019-01-23T08:28:23.619461Z",
  "provider_games": [
    {
      "name": "Aquanox Deep Descent",
      "slug": "254370",
      "service": "steam"
    }
  ],
  "steamid": 254370,
  "gogid": null,
  "gogslug": "",
  "humblestoreid": "",
  "id": 14399
}