{
  "name": "Gods and Nemesis: of Ghosts from Dragons",
  "slug": "gods-and-nemesis-of-ghosts-from-dragons",
  "year": null,
  "description": "",
  "banner_url": "https://lutris.net/games/banner/gods-and-nemesis-of-ghosts-from-dragons.jpg",
  "icon_url": "https://lutris.net/games/icon/gods-and-nemesis-of-ghosts-from-dragons.png",
  "is_public": true,
  "updated": "2020-10-08T10:07:10.832167Z",
  "provider_games": [
    {
      "name": "Gods and Nemesis: of Ghosts from Dragons",
      "slug": "509530",
      "service": "steam"
    }
  ],
  "steamid": 509530,
  "gogid": null,
  "gogslug": "",
  "humblestoreid": "",
  "id": 13308
}