{
  "name": "Bloons TD Battles",
  "slug": "bloons-td-battles",
  "year": null,
  "description": "",
  "banner_url": "https://lutris.net/games/banner/bloons-td-battles.jpg",
  "icon_url": "https://lutris.net/games/icon/bloons-td-battles.png",
  "is_public": true,
  "updated": "2019-01-23T08:28:39.381776Z",
  "provider_games": [
    {
      "name": "Bloons TD Battles",
      "slug": "444640",
      "service": "steam"
    }
  ],
  "steamid": 444640,
  "gogid": null,
  "gogslug": "",
  "humblestoreid": "",
  "id": 6402
}