{
  "name": "Disassembly 3D",
  "slug": "disassembly-3d",
  "year": null,
  "description": "",
  "banner_url": "https://lutris.net/games/banner/disassembly-3d.jpg",
  "icon_url": "https://lutris.net/games/icon/disassembly-3d.png",
  "is_public": true,
  "updated": "2020-10-08T09:58:57.881304Z",
  "provider_games": [
    {
      "name": "Disassembly 3D",
      "slug": "747910",
      "service": "steam"
    }
  ],
  "steamid": 747910,
  "gogid": null,
  "gogslug": "",
  "humblestoreid": "",
  "id": 21369
}