{
  "name": "Bare Metal",
  "slug": "bare-metal",
  "year": null,
  "description": "",
  "banner_url": "https://lutris.net/games/banner/bare-metal.jpg",
  "icon_url": "https://lutris.net/games/icon/bare-metal.png",
  "is_public": true,
  "updated": "2020-10-08T10:09:13.999544Z",
  "provider_games": [
    {
      "name": "Bare Metal",
      "slug": "674130",
      "service": "steam"
    }
  ],
  "steamid": 674130,
  "gogid": null,
  "gogslug": "",
  "humblestoreid": "",
  "id": 15440
}