{
  "name": "Breath of Fire: Dragon Quarter",
  "slug": "breath-of-fire-dragon-quarter",
  "year": 2003,
  "description": "They live in another time, another place. A labyrinth-like world devoid of all light: where civilisation has been forced to live underground for generations. Man has no recollection of how life once was. Yet a Ranger named Ryu is determined to discover the world above and begins an adventure to make his way to the surface. Can he lead his people back to freedom?\r\n\r\n    For the first time on PlayStation 2 comes a brand new Breath of Fire instalment.\r\n\r\n    Visually stunning cel-shaded subterranean world settings.\r\n\r\n    Revolutionary new battle system that allows players to set up traps and decoys before going into battle.\r\n\r\n    3-D underground worlds evolve based on your playing style for a different gameplay experience each time.\r\n\r\n    Encounter countless challenges, battles and adventures in this action-packed RPG adventure.",
  "banner_url": "https://lutris.net/games/banner/breath-of-fire-dragon-quarter.jpg",
  "icon_url": "",
  "is_public": true,
  "updated": "2019-01-23T08:28:41.815157Z",
  "provider_games": [],
  "steamid": null,
  "gogid": null,
  "gogslug": "",
  "humblestoreid": "",
  "id": 21391
}