{
  "id": 4491,
  "game_id": 6851,
  "game_slug": "at-the-mountains-of-madness",
  "name": "At the Mountains of Madness",
  "year": null,
  "user": "FakeShemp",
  "runner": "wine",
  "slug": "at-the-mountains-of-madness-indiegamestand",
  "version": "IndieGameStand",
  "description": "",
  "notes": "",
  "created_at": "2017-06-18T21:32:28.926000Z",
  "updated_at": "2018-05-19T03:41:51.104594Z",
  "draft": false,
  "published": true,
  "published_by": null,
  "rating": "",
  "steamid": 393820,
  "gogid": null,
  "gogslug": "",
  "humbleid": "",
  "humblestoreid": "",
  "humblestoreid_real": "",
  "script": {
    "files": [
      {
        "file1": "N/A:Please select the IndieGameStand archive"
      }
    ],
    "game": {
      "arch": "win32",
      "exe": "drive_c/Program Files/At the Mountains of Madness/mountainsofmadness2.exe",
      "prefix": "$GAMEDIR"
    },
    "installer": [
      {
        "task": {
          "arch": "win64",
          "name": "create_prefix",
          "prefix": "$GAMEDIR"
        }
      },
      {
        "extract": {
          "dst": "$GAMEDIR/drive_c/Program Files/At the Mountains of Madness",
          "file": "$file1"
        }
      },
      {
        "task": {
          "app": "d3d11_43",
          "name": "winetricks",
          "prefix": "$GAMEDIR"
        }
      }
    ]
  },
  "content": "files:\n- file1: N/A:Please select the IndieGameStand archive\ngame:\n  arch: win32\n  exe: drive_c/Program Files/At the Mountains of Madness/mountainsofmadness2.exe\n  prefix: $GAMEDIR\ninstaller:\n- task:\n    arch: win64\n    name: create_prefix\n    prefix: $GAMEDIR\n- extract:\n    dst: $GAMEDIR/drive_c/Program Files/At the Mountains of Madness\n    file: $file1\n- task:\n    app: d3d11_43\n    name: winetricks\n    prefix: $GAMEDIR\n"
}