{
  "name": "Elementium",
  "slug": "elementium",
  "year": null,
  "description": "",
  "banner_url": "https://lutris.net/games/banner/elementium.jpg",
  "icon_url": "https://lutris.net/games/icon/elementium.png",
  "is_public": true,
  "updated": "2020-10-08T09:58:08.205372Z",
  "provider_games": [
    {
      "name": "Elementium",
      "slug": "783420",
      "service": "steam"
    }
  ],
  "steamid": 783420,
  "gogid": null,
  "gogslug": "",
  "humblestoreid": "",
  "id": 20410
}