{
  "name": "Brazed",
  "slug": "brazed",
  "year": null,
  "description": "",
  "banner_url": "https://lutris.net/games/banner/brazed.jpg",
  "icon_url": "https://lutris.net/games/icon/brazed.png",
  "is_public": true,
  "updated": "2020-10-08T10:07:49.627780Z",
  "provider_games": [
    {
      "name": "Brazed",
      "slug": "485630",
      "service": "steam"
    }
  ],
  "steamid": 485630,
  "gogid": null,
  "gogslug": "",
  "humblestoreid": "",
  "id": 24900
}