{
  "name": "MAGIX Music Maker 2016 Premium",
  "slug": "magix-music-maker-2016-premium",
  "year": null,
  "description": "",
  "banner_url": "https://lutris.net/games/banner/magix-music-maker-2016-premium.jpg",
  "icon_url": "https://lutris.net/games/icon/magix-music-maker-2016-premium.png",
  "is_public": true,
  "updated": "2020-10-08T10:14:33.172344Z",
  "provider_games": [
    {
      "name": "MAGIX Music Maker 2016 Premium",
      "slug": "420630",
      "service": "steam"
    }
  ],
  "steamid": 420630,
  "gogid": null,
  "gogslug": "",
  "humblestoreid": "",
  "id": 20015
}