{
  "name": "BLIK",
  "slug": "blik",
  "year": null,
  "description": "",
  "banner_url": "https://lutris.net/games/banner/blik.jpg",
  "icon_url": "https://lutris.net/games/icon/blik.png",
  "is_public": true,
  "updated": "2020-10-08T10:00:16.040252Z",
  "provider_games": [
    {
      "name": "BLIK",
      "slug": "727190",
      "service": "steam"
    }
  ],
  "steamid": 727190,
  "gogid": null,
  "gogslug": "",
  "humblestoreid": "",
  "id": 22584
}