{
  "name": "Battle Bruise",
  "slug": "battle-bruise",
  "year": null,
  "description": "",
  "banner_url": "https://lutris.net/games/banner/battle-bruise.jpg",
  "icon_url": "https://lutris.net/games/icon/battle-bruise.png",
  "is_public": true,
  "updated": "2020-10-08T10:03:40.463678Z",
  "provider_games": [
    {
      "name": "Battle Bruise",
      "slug": "618510",
      "service": "steam"
    }
  ],
  "steamid": 618510,
  "gogid": null,
  "gogslug": "",
  "humblestoreid": "",
  "id": 13147
}