{
  "name": "Janken Cards",
  "slug": "janken-cards",
  "year": null,
  "description": "",
  "banner_url": "https://lutris.net/games/banner/janken-cards.jpg",
  "icon_url": "https://lutris.net/games/icon/janken-cards.png",
  "is_public": true,
  "updated": "2020-10-08T10:06:29.955373Z",
  "provider_games": [
    {
      "name": "Janken Cards",
      "slug": "527210",
      "service": "steam"
    }
  ],
  "steamid": 527210,
  "gogid": null,
  "gogslug": "",
  "humblestoreid": "",
  "id": 12735
}