{
  "name": "LISA: The Hopeful",
  "slug": "lisa-the-hopeful",
  "year": 2017,
  "description": "Based in the setting established by Lisa the Painful creator Dingaling, go on another apocalyptic journey with a band of idiots looking to be the first to find the last living girl.\r\n\r\nFeatures:\r\nA whole new part of Olathe to explore with five main acts (Around 4+ hours of gameplay)\r\nA brand new perspective and sweet delicious plot that will keep your attention\r\nChallenging yet fun battles against monsters, mutants, idiots and lovely people\r\nThree main characters with a diverse set of skills and abilities that allow the player to come up with their own tactics and strategies\r\nPAIN MODE for masochists and fun-haters\r\nA main familiar choice that will alter the course of your story, and two main endings... and maybe more?",
  "banner_url": "https://lutris.net/games/banner/lisa-the-hopeful.jpg",
  "icon_url": "",
  "is_public": true,
  "updated": "2019-10-22T22:04:43.701182Z",
  "provider_games": [],
  "steamid": null,
  "gogid": null,
  "gogslug": "",
  "humblestoreid": "",
  "id": 29525
}