{
  "name": "JAILBREAK",
  "slug": "jailbreak",
  "year": null,
  "description": "",
  "banner_url": "https://lutris.net/games/banner/jailbreak.jpg",
  "icon_url": "https://lutris.net/games/icon/jailbreak.png",
  "is_public": false,
  "updated": "2019-01-23T08:29:59.730335Z",
  "provider_games": [],
  "steamid": 778420,
  "gogid": null,
  "gogslug": "",
  "humblestoreid": "",
  "id": 18054
}