{
  "name": "At the Mountains of Madness",
  "slug": "at-the-mountains-of-madness",
  "year": null,
  "description": "",
  "banner_url": "https://lutris.net/games/banner/at-the-mountains-of-madness.jpg",
  "icon_url": "https://lutris.net/games/icon/at-the-mountains-of-madness.png",
  "is_public": true,
  "updated": "2019-01-23T08:28:28.665344Z",
  "provider_games": [
    {
      "name": "At the Mountains of Madness",
      "slug": "393820",
      "service": "steam"
    }
  ],
  "steamid": 393820,
  "gogid": null,
  "gogslug": "",
  "humblestoreid": "",
  "id": 6851
}