{
  "name": "Epanalepsis",
  "slug": "epanalepsis",
  "year": null,
  "description": "",
  "banner_url": "https://lutris.net/games/banner/epanalepsis.jpg",
  "icon_url": "https://lutris.net/games/icon/epanalepsis.png",
  "is_public": true,
  "updated": "2020-10-08T09:19:29.244415Z",
  "provider_games": [
    {
      "name": "Epanalepsis",
      "slug": "333690",
      "service": "steam"
    }
  ],
  "steamid": 333690,
  "gogid": null,
  "gogslug": "",
  "humblestoreid": "",
  "id": 10171
}