{
  "name": "Bloons TD 6",
  "slug": "bloons-td-6",
  "year": null,
  "description": "",
  "banner_url": "https://lutris.net/games/banner/bloons-td-6.jpg",
  "icon_url": "https://lutris.net/games/icon/bloons-td-6.png",
  "is_public": true,
  "updated": "2020-10-08T10:17:35.564414Z",
  "provider_games": [
    {
      "name": "Bloons TD 6",
      "slug": "960090",
      "service": "steam"
    }
  ],
  "steamid": 960090,
  "gogid": null,
  "gogslug": "",
  "humblestoreid": "",
  "id": 24381
}