{
  "name": "Galaxy Wars",
  "slug": "galaxy-wars",
  "year": 1979,
  "description": "",
  "banner_url": "https://lutris.net/games/banner/galaxy-wars.jpg",
  "icon_url": "https://lutris.net/games/icon/galaxy-wars.png",
  "is_public": true,
  "updated": "2020-05-26T03:34:00.946820Z",
  "provider_games": [
    {
      "name": "Galaxy Wars",
      "slug": "galxwars",
      "service": "mame"
    }
  ],
  "steamid": null,
  "gogid": null,
  "gogslug": "",
  "humblestoreid": "",
  "id": 34197
}