{
  "name": "Hard Head",
  "slug": "hard-head",
  "year": 1988,
  "description": "",
  "banner_url": "",
  "icon_url": "https://lutris.net/games/icon/hard-head.png",
  "is_public": true,
  "updated": "2020-05-26T03:34:28.326426Z",
  "provider_games": [
    {
      "name": "Hard Head",
      "slug": "hardhead",
      "service": "mame"
    }
  ],
  "steamid": null,
  "gogid": null,
  "gogslug": "",
  "humblestoreid": "",
  "id": 34366
}