{
  "name": "Auto-Staccato",
  "slug": "auto-staccato",
  "year": null,
  "description": "",
  "banner_url": "https://lutris.net/games/banner/auto-staccato.jpg",
  "icon_url": "https://lutris.net/games/icon/auto-staccato.png",
  "is_public": true,
  "updated": "2020-10-08T10:01:03.191390Z",
  "provider_games": [
    {
      "name": "Auto-Staccato",
      "slug": "697600",
      "service": "steam"
    }
  ],
  "steamid": 697600,
  "gogid": null,
  "gogslug": "",
  "humblestoreid": "",
  "id": 28718
}