{
  "name": "Magic 2015 - Duels of the Planeswalkers",
  "slug": "magic-2015",
  "year": 2014,
  "description": "Hunt bigger game on a bold new adventure with Magic 2015—Duels of the Planeswalkers! Command powerful creatures and wield devastating spells to defeat your opponents in this epic game of strategy.\r\n\r\nHone your skills as you battle your way across the planes of the Multiverse. Beware though, Planeswalker. Your biggest danger lies ahead. Garruk Wildspeaker, the greatest hunter known, has fallen under the curse of the Chain Veil. He now mercilessly stalks his own kind. Find him and stop him ... before he finds you!\r\n\r\nExplore the rich storyline of Magic 2015 and sharpen your game:\r\n• The best way to learn to play Magic: A detailed tutorial makes it easy to get started.\r\n• Deck building: Open virtual booster packs of Magic cards to build decks and battle in single- and multi-player modes.\r\n• Hours of gameplay: Travel across five different fantastic planes, battle incredible creatures, and save the Multiverse from a terrible fate.",
  "banner_url": "https://lutris.net/games/banner/magic-2015.jpg",
  "icon_url": "https://lutris.net/games/icon/magic-2015.png",
  "is_public": true,
  "updated": "2019-01-23T08:30:15.481243Z",
  "provider_games": [
    {
      "name": "Magic 2015",
      "slug": "255420",
      "service": "steam"
    }
  ],
  "steamid": 255420,
  "gogid": null,
  "gogslug": "",
  "humblestoreid": "",
  "id": 3160
}