{
  "name": "Cluster Dust",
  "slug": "cluster-dust",
  "year": null,
  "description": "",
  "banner_url": "https://lutris.net/games/banner/cluster-dust.jpg",
  "icon_url": "https://lutris.net/games/icon/cluster-dust.png",
  "is_public": true,
  "updated": "2020-10-08T09:57:45.435017Z",
  "provider_games": [
    {
      "name": "Cluster Dust",
      "slug": "802070",
      "service": "steam"
    }
  ],
  "steamid": 802070,
  "gogid": null,
  "gogslug": "",
  "humblestoreid": "",
  "id": 22726
}