{
  "name": "Cannons Lasers Rockets",
  "slug": "cannons-lasers-rockets",
  "year": null,
  "description": "",
  "banner_url": "https://lutris.net/games/banner/cannons-lasers-rockets.jpg",
  "icon_url": "https://lutris.net/games/icon/cannons-lasers-rockets.png",
  "is_public": true,
  "updated": "2019-01-23T08:28:45.484586Z",
  "provider_games": [
    {
      "name": "Cannons Lasers Rockets",
      "slug": "265770",
      "service": "steam"
    }
  ],
  "steamid": 265770,
  "gogid": null,
  "gogslug": "",
  "humblestoreid": "",
  "id": 2223
}