{
  "name": "Deck Casters",
  "slug": "deck-casters",
  "year": null,
  "description": "",
  "banner_url": "https://lutris.net/games/banner/deck-casters.jpg",
  "icon_url": "https://lutris.net/games/icon/deck-casters.png",
  "is_public": true,
  "updated": "2020-10-08T09:59:10.268435Z",
  "provider_games": [
    {
      "name": "Deck Casters",
      "slug": "739050",
      "service": "steam"
    }
  ],
  "steamid": 739050,
  "gogid": null,
  "gogslug": "",
  "humblestoreid": "",
  "id": 25836
}