{
  "name": "Akalabeth: World of Doom",
  "slug": "akalabeth-world-of-doom",
  "year": 1979,
  "description": "'Tis said that long ago peace and tranquility covered the lands. Food and drink flowed freely, man and beast lived in peace, gold and silver abounded – it was the Golden Age of Akalabeth.\r\nMondain, second born of Wolfgang, a great king of old, wished to gain his brother's inheritance and so he used his great powers for evil, creating deep dungeons guarded by daemons and Balrogs. Now blood flowed freely in Akalabeth, and foul creatures soon came to roam near the surface. Mondain cast such sickness and pestilence upon Akalabeth, that both man and beast lived in constant fear. Thus was the Dark Age of Akalabeth.\r\nThere arose from the land a man, pure and just, to battle the Dark Lord. British, Champion of the White Light, did battle with Mondain deep within the labyrinth of dungeons, eventually driving him from Akalabeth forever. British of the White Light was proclaimed Lord British, Protector of Akalabeth. Alas, much damage had been suffered unto the lands. The Revival of Akalabest has begun.\r\n'Tis thy duty to rid Akalabeth of the foul creatures which infest it, whilst trying to stay alive!\r\n\r\n* Developed in 1979, Akalabeth is the first game made by the legendary creator of the Ultima Series, Richard Garriot.\r\n* Designed by the teenage Garriot in Applesoft BASIC for the Apple II, Akalabeth is one of the earliest known examples of a computer role-playing game, and is considered by many to be \"Ultima 0.\"\r\n* Featuring 10 different monsters, procedurally generated dungeon crawling, and wire frame 3D graphics, Akalabeth was highly advanced for its time and is still widely regarded as one of the most historically significant RPGs ever created.",
  "banner_url": "https://lutris.net/games/banner/akalabeth-world-of-doom.jpg",
  "icon_url": "",
  "is_public": true,
  "updated": "2020-05-31T00:17:33.835350Z",
  "provider_games": [
    {
      "name": "Akalabeth: World of Doom",
      "slug": "1207666073",
      "service": "gog"
    }
  ],
  "steamid": null,
  "gogid": 1207666073,
  "gogslug": "akalabeth_world_of_doom",
  "humblestoreid": "",
  "id": 3562
}