{
  "id": 11709,
  "game_id": 5601,
  "game_slug": "distraint",
  "name": "DISTRAINT",
  "year": 2015,
  "user": "rican-linux",
  "runner": "wine",
  "slug": "distraint-gog-deluxe-edition",
  "version": "GOG Deluxe Edition",
  "description": null,
  "notes": "",
  "created_at": "2019-01-25T04:02:19.098000Z",
  "updated_at": "2019-02-07T00:27:09.181010Z",
  "draft": false,
  "published": true,
  "published_by": 19464,
  "rating": "",
  "steamid": 395170,
  "gogid": 1180040534,
  "gogslug": "distraint_deluxe_edition",
  "humbleid": "",
  "humblestoreid": "",
  "humblestoreid_real": "",
  "script": {
    "files": [
      {
        "goginstaller": "N/A:Please select the GOG.com Windows installer"
      }
    ],
    "game": {
      "arch": "win64",
      "exe": "drive_c/GOG Games/DISTRAINT Deluxe Edition/deluxe/distraintdeluxe.exe",
      "prefix": "$GAMEDIR"
    },
    "installer": [
      {
        "task": {
          "arch": "win64",
          "name": "create_prefix",
          "prefix": "$GAMEDIR"
        }
      },
      {
        "task": {
          "arch": "win64",
          "args": "/LANG=English /SP- /SUPPRESSMSGBOXES",
          "executable": "goginstaller",
          "name": "wineexec",
          "prefix": "$GAMEDIR"
        }
      }
    ]
  },
  "content": "files:\n- goginstaller: N/A:Please select the GOG.com Windows installer\ngame:\n  arch: win64\n  exe: drive_c/GOG Games/DISTRAINT Deluxe Edition/deluxe/distraintdeluxe.exe\n  prefix: $GAMEDIR\ninstaller:\n- task:\n    arch: win64\n    name: create_prefix\n    prefix: $GAMEDIR\n- task:\n    arch: win64\n    args: /LANG=English /SP- /SUPPRESSMSGBOXES\n    executable: goginstaller\n    name: wineexec\n    prefix: $GAMEDIR\n"
}