{
  "name": "Airmen",
  "slug": "airmen",
  "year": null,
  "description": "",
  "banner_url": "https://lutris.net/games/banner/airmen.jpg",
  "icon_url": "https://lutris.net/games/icon/airmen.png",
  "is_public": true,
  "updated": "2020-10-08T10:09:39.188230Z",
  "provider_games": [
    {
      "name": "Airmen",
      "slug": "647740",
      "service": "steam"
    }
  ],
  "steamid": 647740,
  "gogid": null,
  "gogslug": "",
  "humblestoreid": "",
  "id": 21038
}