{
  "name": "Immersion Chess",
  "slug": "immersion-chess",
  "year": null,
  "description": "",
  "banner_url": "https://lutris.net/games/banner/immersion-chess.jpg",
  "icon_url": "https://lutris.net/games/icon/immersion-chess.png",
  "is_public": true,
  "updated": "2020-10-08T10:03:14.204296Z",
  "provider_games": [
    {
      "name": "Immersion Chess",
      "slug": "631660",
      "service": "steam"
    }
  ],
  "steamid": 631660,
  "gogid": null,
  "gogslug": "",
  "humblestoreid": "",
  "id": 13384
}