{
  "name": "Galactic Inheritors",
  "slug": "galactic-inheritors",
  "year": null,
  "description": "",
  "banner_url": "https://lutris.net/games/banner/galactic-inheritors.jpg",
  "icon_url": "https://lutris.net/games/icon/galactic-inheritors.png",
  "is_public": true,
  "updated": "2020-10-08T09:19:46.536777Z",
  "provider_games": [
    {
      "name": "Galactic Inheritors",
      "slug": "322540",
      "service": "steam"
    }
  ],
  "steamid": 322540,
  "gogid": null,
  "gogslug": "",
  "humblestoreid": "",
  "id": 10654
}