{
  "name": "HyperRogue",
  "slug": "hyperrogue",
  "year": null,
  "description": "",
  "banner_url": "https://lutris.net/games/banner/hyperrogue.jpg",
  "icon_url": "https://lutris.net/games/icon/hyperrogue.png",
  "is_public": true,
  "updated": "2020-10-08T10:16:51.890558Z",
  "provider_games": [
    {
      "name": "HyperRogue",
      "slug": "342610",
      "service": "steam"
    }
  ],
  "steamid": 342610,
  "gogid": null,
  "gogslug": "",
  "humblestoreid": "",
  "id": 5044
}