{
  "name": "Dimensional Intersection",
  "slug": "dimensional-intersection",
  "year": null,
  "description": "",
  "banner_url": "https://lutris.net/games/banner/dimensional-intersection.jpg",
  "icon_url": "https://lutris.net/games/icon/dimensional-intersection.png",
  "is_public": true,
  "updated": "2020-10-08T10:13:46.633849Z",
  "provider_games": [
    {
      "name": "Dimensional Intersection",
      "slug": "447690",
      "service": "steam"
    }
  ],
  "steamid": 447690,
  "gogid": null,
  "gogslug": "",
  "humblestoreid": "",
  "id": 29335
}