{
  "name": "Aveyond: Gates of Night",
  "slug": "aveyond-gates-of-night",
  "year": null,
  "description": "",
  "banner_url": "https://lutris.net/games/banner/aveyond-gates-of-night.jpg",
  "icon_url": "https://lutris.net/games/icon/aveyond-gates-of-night.png",
  "is_public": true,
  "updated": "2020-10-08T09:20:45.510164Z",
  "provider_games": [
    {
      "name": "Aveyond 3-2: Gates of Night",
      "slug": "278490",
      "service": "steam"
    }
  ],
  "steamid": 278490,
  "gogid": null,
  "gogslug": "",
  "humblestoreid": "",
  "id": 3965
}