{
  "name": "Heavy Bullets",
  "slug": "heavy-bullets",
  "year": null,
  "description": "",
  "banner_url": "https://lutris.net/games/banner/heavy-bullets.jpg",
  "icon_url": "https://lutris.net/games/icon/heavy-bullets.png",
  "is_public": true,
  "updated": "2019-01-23T08:29:48.334671Z",
  "provider_games": [
    {
      "name": "Heavy Bullets",
      "slug": "297120",
      "service": "steam"
    }
  ],
  "steamid": 297120,
  "gogid": null,
  "gogslug": "",
  "humblestoreid": "",
  "id": 2461
}