{
  "name": "AER Memories of Old",
  "slug": "aer-memories-of-old",
  "year": 2017,
  "description": "The gods of old are forgotten, lost in the events that shattered the world, leaving only fragments of islands in the sky. This mystic world of endless skies, colorful islands and ancient ruins is in danger of falling into darkness. As one of the last few shapeshifters, you are sent on a pilgrimage to the Land of Gods. Uncover the secrets that will help save reality itself.\r\n\r\nKey Features:\r\n- Fly and explore by transforming into a bird at will\r\n- A large open world of hidden secrets and new discoveries\r\n- A pilgrimage of mysteries, puzzles and temples\r\n- Strong focus on atmosphere and aesthetics with a vibrant minimalisitic art style",
  "banner_url": "https://lutris.net/games/banner/aer-memories-of-old.jpg",
  "icon_url": "https://lutris.net/games/icon/aer-memories-of-old.png",
  "is_public": true,
  "updated": "2020-05-31T00:17:33.624571Z",
  "provider_games": [
    {
      "name": "AER – Memories of Old",
      "slug": "1509324336",
      "service": "gog"
    },
    {
      "name": "AER Memories of Old",
      "slug": "331870",
      "service": "steam"
    }
  ],
  "steamid": 331870,
  "gogid": 1509324336,
  "gogslug": "aer",
  "humblestoreid": "",
  "id": 15784
}