{
  "name": "Cubic",
  "slug": "cubic",
  "year": null,
  "description": "",
  "banner_url": "https://lutris.net/games/banner/cubic.jpg",
  "icon_url": "https://lutris.net/games/icon/cubic.png",
  "is_public": true,
  "updated": "2020-10-08T10:00:30.779989Z",
  "provider_games": [
    {
      "name": "Cubic",
      "slug": "718330",
      "service": "steam"
    }
  ],
  "steamid": 718330,
  "gogid": null,
  "gogslug": "",
  "humblestoreid": "",
  "id": 15121
}