{
  "name": "Drunk-Fu: Wasted Masters",
  "slug": "drunk-fu-wasted-masters",
  "year": null,
  "description": "",
  "banner_url": "https://lutris.net/games/banner/drunk-fu-wasted-masters.jpg",
  "icon_url": "https://lutris.net/games/icon/drunk-fu-wasted-masters.png",
  "is_public": true,
  "updated": "2020-10-08T10:03:42.262646Z",
  "provider_games": [
    {
      "name": "Drunk-Fu: Wasted Masters",
      "slug": "617680",
      "service": "steam"
    }
  ],
  "steamid": 617680,
  "gogid": null,
  "gogslug": "",
  "humblestoreid": "",
  "id": 31499
}