{
  "name": "KOLOBOK",
  "slug": "kolobok",
  "year": null,
  "description": "",
  "banner_url": "https://lutris.net/games/banner/kolobok.jpg",
  "icon_url": "https://lutris.net/games/icon/kolobok.png",
  "is_public": true,
  "updated": "2020-10-08T09:58:41.448114Z",
  "provider_games": [
    {
      "name": "KOLOBOK",
      "slug": "757170",
      "service": "steam"
    }
  ],
  "steamid": 757170,
  "gogid": null,
  "gogslug": "",
  "humblestoreid": "",
  "id": 15055
}