{
  "name": "Gemcrush",
  "slug": "gemcrush",
  "year": 1996,
  "description": "",
  "banner_url": "",
  "icon_url": "https://lutris.net/games/icon/gemcrush.png",
  "is_public": true,
  "updated": "2020-05-26T03:34:04.764671Z",
  "provider_games": [
    {
      "name": "Gemcrush",
      "slug": "gemcrush",
      "service": "mame"
    }
  ],
  "steamid": null,
  "gogid": null,
  "gogslug": "",
  "humblestoreid": "",
  "id": 34220
}