{
  "name": "Dark Passenger",
  "slug": "dark-passenger",
  "year": null,
  "description": "",
  "banner_url": "https://lutris.net/games/banner/dark-passenger.jpg",
  "icon_url": "https://lutris.net/games/icon/dark-passenger.png",
  "is_public": true,
  "updated": "2020-10-08T10:03:51.029457Z",
  "provider_games": [
    {
      "name": "Dark Passenger",
      "slug": "611140",
      "service": "steam"
    }
  ],
  "steamid": 611140,
  "gogid": null,
  "gogslug": "",
  "humblestoreid": "",
  "id": 13116
}