{
  "id": 6331,
  "game_id": 13526,
  "game_slug": "loot-rascals",
  "name": "Loot Rascals",
  "year": null,
  "user": "FakeShemp",
  "runner": "wine",
  "slug": "loot-rascals-humble",
  "version": "Humble",
  "description": null,
  "notes": "",
  "created_at": "2017-11-14T12:47:12.724061Z",
  "updated_at": "2018-05-19T03:41:51.902336Z",
  "draft": false,
  "published": true,
  "published_by": null,
  "rating": "",
  "steamid": 443880,
  "gogid": null,
  "gogslug": "",
  "humbleid": "",
  "humblestoreid": "",
  "humblestoreid_real": "",
  "script": {
    "files": [
      {
        "file1": "N/A:Please select the Humble archive"
      }
    ],
    "game": {
      "arch": "win32",
      "exe": "drive_c/Program Files/Loot Rascals/LootRascals.exe",
      "prefix": "$GAMEDIR"
    },
    "installer": [
      {
        "extract": {
          "dst": "$GAMEDIR/drive_c/Program Files/Loot Rascals",
          "file": "$file1"
        }
      }
    ]
  },
  "content": "files:\n- file1: N/A:Please select the Humble archive\ngame:\n  arch: win32\n  exe: drive_c/Program Files/Loot Rascals/LootRascals.exe\n  prefix: $GAMEDIR\ninstaller:\n- extract:\n    dst: $GAMEDIR/drive_c/Program Files/Loot Rascals\n    file: $file1\n"
}