{
  "id": 24674,
  "game_id": 24201,
  "game_slug": "mafia-ii-directors-cut",
  "name": "Mafia II: Director’s Cut",
  "year": 2011,
  "user": "alex37330",
  "runner": "wine",
  "slug": "mafia-ii-directors-cut-1",
  "version": "1",
  "description": null,
  "notes": "copy from the starndar edition",
  "created_at": "2020-11-23T00:32:02.875762Z",
  "updated_at": "2020-11-23T00:32:02.875789Z",
  "draft": false,
  "published": false,
  "published_by": null,
  "rating": "",
  "steamid": null,
  "gogid": 1816059595,
  "gogslug": "mafia_ii_directors_cut",
  "humbleid": "",
  "humblestoreid": "",
  "humblestoreid_real": "",
  "script": {
    "files": [
      {
        "install": "N/A:Select the Windows setup file downloaded from GOG"
      }
    ],
    "game": {
      "exe": "$GAMEDIR/drive_c/GOG Games/Mafia II/pc/mafia2.exe",
      "prefix": "$GAMEDIR"
    },
    "installer": [
      {
        "task": {
          "app": "d3dx9 physx vcrun2008 vcrun2010",
          "description": "Installing needed libraries",
          "name": "winetricks",
          "prefix": "$GAMEDIR"
        }
      },
      {
        "task": {
          "description": "Installing the game",
          "executable": "install",
          "name": "wineexec",
          "prefix": "$GAMEDIR"
        }
      }
    ]
  },
  "content": "files:\n- install: N/A:Select the Windows setup file downloaded from GOG\ngame:\n  exe: $GAMEDIR/drive_c/GOG Games/Mafia II/pc/mafia2.exe\n  prefix: $GAMEDIR\ninstaller:\n- task:\n    app: d3dx9 physx vcrun2008 vcrun2010\n    description: Installing needed libraries\n    name: winetricks\n    prefix: $GAMEDIR\n- task:\n    description: Installing the game\n    executable: install\n    name: wineexec\n    prefix: $GAMEDIR\n"
}