{
  "name": "BattleQuiz",
  "slug": "battlequiz",
  "year": null,
  "description": "",
  "banner_url": "https://lutris.net/games/banner/battlequiz.jpg",
  "icon_url": "https://lutris.net/games/icon/battlequiz.png",
  "is_public": true,
  "updated": "2020-10-08T10:15:12.177691Z",
  "provider_games": [
    {
      "name": "BattleQuiz",
      "slug": "397800",
      "service": "steam"
    }
  ],
  "steamid": 397800,
  "gogid": null,
  "gogslug": "",
  "humblestoreid": "",
  "id": 11657
}