{
  "name": "Escort Simulator",
  "slug": "escort-simulator",
  "year": null,
  "description": "",
  "banner_url": "https://lutris.net/games/banner/escort-simulator.jpg",
  "icon_url": "https://lutris.net/games/icon/escort-simulator.png",
  "is_public": true,
  "updated": "2020-10-08T09:59:34.944936Z",
  "provider_games": [
    {
      "name": "Escort Simulator",
      "slug": "1347800",
      "service": "steam"
    }
  ],
  "steamid": 1347800,
  "gogid": null,
  "gogslug": "",
  "humblestoreid": "",
  "id": 37729
}