{
  "name": "Destructamundo",
  "slug": "destructamundo",
  "year": null,
  "description": "",
  "banner_url": "https://lutris.net/games/banner/destructamundo.jpg",
  "icon_url": "https://lutris.net/games/icon/destructamundo.png",
  "is_public": true,
  "updated": "2020-10-08T09:19:45.732568Z",
  "provider_games": [
    {
      "name": "Destructamundo",
      "slug": "323020",
      "service": "steam"
    }
  ],
  "steamid": 323020,
  "gogid": null,
  "gogslug": "",
  "humblestoreid": "",
  "id": 16459
}