{
  "name": "Hot Squat",
  "slug": "hot-squat",
  "year": null,
  "description": "",
  "banner_url": "https://lutris.net/games/banner/hot-squat.jpg",
  "icon_url": "https://lutris.net/games/icon/hot-squat.png",
  "is_public": true,
  "updated": "2020-10-08T10:05:41.733301Z",
  "provider_games": [
    {
      "name": "Hot Squat",
      "slug": "553590",
      "service": "steam"
    }
  ],
  "steamid": 553590,
  "gogid": null,
  "gogslug": "",
  "humblestoreid": "",
  "id": 9656
}