{
  "name": "16 Bit Arena",
  "slug": "16-bit-arena",
  "year": null,
  "description": "",
  "banner_url": "https://lutris.net/games/banner/16-bit-arena.jpg",
  "icon_url": "https://lutris.net/games/icon/16-bit-arena.png",
  "is_public": true,
  "updated": "2020-10-08T10:16:41.552486Z",
  "provider_games": [
    {
      "name": "16 Bit Arena",
      "slug": "347630",
      "service": "steam"
    }
  ],
  "steamid": 347630,
  "gogid": null,
  "gogslug": "",
  "humblestoreid": "",
  "id": 4463
}