{
  "name": "Fidel Dungeon Rescue",
  "slug": "fidel-dungeon-rescue",
  "year": null,
  "description": "",
  "banner_url": "https://lutris.net/games/banner/fidel-dungeon-rescue.jpg",
  "icon_url": "https://lutris.net/games/icon/fidel-dungeon-rescue.png",
  "is_public": true,
  "updated": "2020-10-08T10:05:07.010396Z",
  "provider_games": [
    {
      "name": "Fidel Dungeon Rescue",
      "slug": "573170",
      "service": "steam"
    }
  ],
  "steamid": 573170,
  "gogid": null,
  "gogslug": "",
  "humblestoreid": "",
  "id": 15228
}