{
  "name": "LQVE: Lion Quest Versus Expanded",
  "slug": "lqve-lion-quest-versus-expanded",
  "year": null,
  "description": "",
  "banner_url": "https://lutris.net/games/banner/lqve-lion-quest-versus-expanded.jpg",
  "icon_url": "https://lutris.net/games/icon/lqve-lion-quest-versus-expanded.png",
  "is_public": true,
  "updated": "2020-10-08T10:10:13.546214Z",
  "provider_games": [
    {
      "name": "LQVE: Lion Quest Versus Expanded",
      "slug": "659570",
      "service": "steam"
    }
  ],
  "steamid": 659570,
  "gogid": null,
  "gogslug": "",
  "humblestoreid": "",
  "id": 16979
}