{
  "name": "Erusal",
  "slug": "erusal",
  "year": null,
  "description": "",
  "banner_url": "https://lutris.net/games/banner/erusal.jpg",
  "icon_url": "https://lutris.net/games/icon/erusal.png",
  "is_public": true,
  "updated": "2020-10-08T10:07:10.401645Z",
  "provider_games": [
    {
      "name": "Erusal",
      "slug": "509230",
      "service": "steam"
    }
  ],
  "steamid": 509230,
  "gogid": null,
  "gogslug": "",
  "humblestoreid": "",
  "id": 11277
}