{
  "name": "Freedom Cry",
  "slug": "freedom-cry",
  "year": null,
  "description": "",
  "banner_url": "https://lutris.net/games/banner/freedom-cry.jpg",
  "icon_url": "https://lutris.net/games/icon/freedom-cry.png",
  "is_public": true,
  "updated": "2020-10-08T10:15:17.073380Z",
  "provider_games": [
    {
      "name": "Freedom Cry",
      "slug": "395400",
      "service": "steam"
    }
  ],
  "steamid": 395400,
  "gogid": null,
  "gogslug": "",
  "humblestoreid": "",
  "id": 10003
}