{
  "name": "Alien Shooter TD",
  "slug": "alien-shooter-td",
  "year": null,
  "description": "",
  "banner_url": "https://lutris.net/games/banner/alien-shooter-td.jpg",
  "icon_url": "https://lutris.net/games/icon/alien-shooter-td.png",
  "is_public": true,
  "updated": "2020-10-08T10:06:05.119473Z",
  "provider_games": [
    {
      "name": "Alien Shooter TD",
      "slug": "541230",
      "service": "steam"
    }
  ],
  "steamid": 541230,
  "gogid": null,
  "gogslug": "",
  "humblestoreid": "",
  "id": 11766
}