{
  "name": "ALONE?",
  "slug": "alone",
  "year": 2016,
  "description": "Explore and experience a fully immersive world as you embark on an ghostly adventure unlike anything you have played before. Come face-to-face with terror itself as you navigate around a haunted house, underground caverns, caves, and an old decrepit morgue. But beware: some mysteries are better left alone.",
  "banner_url": "https://lutris.net/games/banner/alone.jpg",
  "icon_url": "https://lutris.net/games/icon/alone.png",
  "is_public": true,
  "updated": "2019-01-23T08:28:19.614486Z",
  "provider_games": [
    {
      "name": "ALONE?",
      "slug": "514240",
      "service": "steam"
    }
  ],
  "steamid": 514240,
  "gogid": null,
  "gogslug": "",
  "humblestoreid": "",
  "id": 8907
}