{
  "name": "Gravity Core - Braintwisting Space Odyssey",
  "slug": "gravity-core-braintwisting-space-odyssey",
  "year": null,
  "description": "",
  "banner_url": "https://lutris.net/games/banner/gravity-core-braintwisting-space-odyssey.jpg",
  "icon_url": "https://lutris.net/games/icon/gravity-core-braintwisting-space-odyssey.png",
  "is_public": false,
  "updated": "2019-01-23T08:29:42.954239Z",
  "provider_games": [],
  "steamid": 374140,
  "gogid": null,
  "gogslug": "",
  "humblestoreid": "",
  "id": 5151
}