{
  "name": "Asura Blade - Sword of Dynasty",
  "slug": "asura-blade-sword-of-dynasty-1",
  "year": 1998,
  "description": "",
  "banner_url": "",
  "icon_url": "https://lutris.net/games/icon/asura-blade-sword-of-dynasty-1.png",
  "is_public": true,
  "updated": "2020-05-26T03:31:57.656268Z",
  "provider_games": [
    {
      "name": "Asura Blade - Sword of Dynasty",
      "slug": "asurabld",
      "service": "mame"
    }
  ],
  "steamid": null,
  "gogid": null,
  "gogslug": "",
  "humblestoreid": "",
  "id": 33350
}