{
  "name": "Aveyond 3-3: The Lost Orb",
  "slug": "aveyond-3-3-the-lost-orb",
  "year": null,
  "description": "",
  "banner_url": "https://lutris.net/games/banner/aveyond-3-3-the-lost-orb.jpg",
  "icon_url": "https://lutris.net/games/icon/aveyond-3-3-the-lost-orb.png",
  "is_public": true,
  "updated": "2020-10-08T09:19:48.233585Z",
  "provider_games": [
    {
      "name": "Aveyond 3-3: The Lost Orb",
      "slug": "321880",
      "service": "steam"
    }
  ],
  "steamid": 321880,
  "gogid": null,
  "gogslug": "",
  "humblestoreid": "",
  "id": 15898
}