{
  "name": "Cartoon Network Journeys VR",
  "slug": "cartoon-network-journeys-vr",
  "year": null,
  "description": "",
  "banner_url": "https://lutris.net/games/banner/cartoon-network-journeys-vr.jpg",
  "icon_url": "https://lutris.net/games/icon/cartoon-network-journeys-vr.png",
  "is_public": true,
  "updated": "2020-10-08T10:12:19.144879Z",
  "provider_games": [
    {
      "name": "Cartoon Network Journeys VR",
      "slug": "1063530",
      "service": "steam"
    }
  ],
  "steamid": 1063530,
  "gogid": null,
  "gogslug": "",
  "humblestoreid": "",
  "id": 29727
}