{
  "name": "Driver Booster 5 for Steam",
  "slug": "driver-booster-5-for-steam",
  "year": null,
  "description": "",
  "banner_url": "https://lutris.net/games/banner/driver-booster-5-for-steam.jpg",
  "icon_url": "https://lutris.net/games/icon/driver-booster-5-for-steam.png",
  "is_public": true,
  "updated": "2020-10-08T10:00:05.195038Z",
  "provider_games": [
    {
      "name": "Driver Booster 5 for Steam",
      "slug": "735360",
      "service": "steam"
    }
  ],
  "steamid": 735360,
  "gogid": null,
  "gogslug": "",
  "humblestoreid": "",
  "id": 17683
}