{
  "name": "Gender Bender DNA Twister Extreme",
  "slug": "gender-bender-dna-twister-extreme",
  "year": 2014,
  "description": "Gender Bender DNA Twister Extreme is a crazy visual novel that follows a cast of characters that have their genders flipped due to unforeseen and ridiculous circumstances. Pick a character from a massive cast and follow their unique stories as they find romance and experience a range of outrageous transformations.",
  "banner_url": "https://lutris.net/games/banner/gender-bender-dna-twister-extreme.jpg",
  "icon_url": "https://lutris.net/games/icon/gender-bender-dna-twister-extreme.png",
  "is_public": true,
  "updated": "2019-01-23T08:29:38.879026Z",
  "provider_games": [
    {
      "name": "Gender Bender DNA Twister Extreme",
      "slug": "321060",
      "service": "steam"
    }
  ],
  "steamid": 321060,
  "gogid": null,
  "gogslug": "",
  "humblestoreid": "",
  "id": 3406
}