{
  "name": "After Reset RPG",
  "slug": "after-reset-rpg",
  "year": null,
  "description": "",
  "banner_url": "https://lutris.net/games/banner/after-reset-rpg.jpg",
  "icon_url": "https://lutris.net/games/icon/after-reset-rpg.png",
  "is_public": true,
  "updated": "2020-10-08T09:19:25.672869Z",
  "provider_games": [
    {
      "name": "After Reset RPG",
      "slug": "335850",
      "service": "steam"
    }
  ],
  "steamid": 335850,
  "gogid": null,
  "gogslug": "",
  "humblestoreid": "",
  "id": 5234
}