{
  "name": "DROPSHIP",
  "slug": "dropship",
  "year": 2020,
  "description": "DROPSHIP is a precision, gravity-bending, flying game that will test your skills and nerves. Use gravity to your advantage and drop to the landing pad before you run out of fuel!",
  "banner_url": "https://lutris.net/games/banner/dropship.jpg",
  "icon_url": "",
  "is_public": false,
  "updated": "2020-09-09T20:08:14.077697Z",
  "provider_games": [],
  "steamid": null,
  "gogid": null,
  "gogslug": "",
  "humblestoreid": "",
  "id": 38743
}