{
  "name": "Evowars.io",
  "slug": "evowarsio",
  "year": null,
  "description": "",
  "banner_url": "https://lutris.net/games/banner/evowarsio.jpg",
  "icon_url": "",
  "is_public": true,
  "updated": "2020-05-22T05:18:44.480292Z",
  "provider_games": [],
  "steamid": null,
  "gogid": null,
  "gogslug": "",
  "humblestoreid": "",
  "id": 33197
}