{
  "name": "Bootombaa",
  "slug": "bootombaa",
  "year": null,
  "description": "",
  "banner_url": "https://lutris.net/games/banner/bootombaa.jpg",
  "icon_url": "https://lutris.net/games/icon/bootombaa.png",
  "is_public": false,
  "updated": "2019-01-23T08:28:40.437366Z",
  "provider_games": [],
  "steamid": 605910,
  "gogid": null,
  "gogslug": "",
  "humblestoreid": "",
  "id": 13100
}