{
  "name": "Crash Landing",
  "slug": "crash-landing",
  "year": null,
  "description": "",
  "banner_url": "https://lutris.net/games/banner/crash-landing.jpg",
  "icon_url": "https://lutris.net/games/icon/crash-landing.png",
  "is_public": true,
  "updated": "2020-10-08T10:14:11.861336Z",
  "provider_games": [
    {
      "name": "Crash Landing",
      "slug": "433120",
      "service": "steam"
    }
  ],
  "steamid": 433120,
  "gogid": null,
  "gogslug": "",
  "humblestoreid": "",
  "id": 10750
}