{
  "id": 1805,
  "game_id": 5396,
  "game_slug": "heretic",
  "name": "Heretic",
  "year": 1994,
  "user": "strider",
  "runner": "zdoom",
  "slug": "heretic-all-pc-brutal-hereti",
  "version": "All PC + Brutal Heretic RPG mod",
  "description": "This script will facilitate you install of this game on Linux OS:\r\n\"HERETIC\"  all PC version using GZDoom Lutris runner with \"Brutal Heretic RPG mod\".\r\nDuring install please let all options by default.\r\nThanks to the people who helped us play this game in the best conditions on Linux platform.",
  "notes": "- During install, you will need to provide:\r\n-- \"HERETIC.WAD\" file from \"HERETIC\" PC game\r\n-- \"Brutal Heretic RPG\" mod available for download at https://forum.zdoom.org/viewtopic.php?t=68735\r\n- To play \"Heretic\" vanilla, just clear all \"PWAD files\" list from Lutris \"Game Options\" tab\r\n- Please report issue concerning this script on my Github page:\r\nhttps://github.com/legluondunet/MyLittleLutrisScripts",
  "created_at": "2015-12-30T02:27:32.826000Z",
  "updated_at": "2020-11-06T13:27:11.125321Z",
  "draft": false,
  "published": true,
  "published_by": 494,
  "rating": "",
  "steamid": 2390,
  "gogid": null,
  "gogslug": "",
  "humbleid": "",
  "humblestoreid": "",
  "humblestoreid_real": "",
  "script": {
    "custom-name": "HERETIC - Brutal Heretic RPG mod - GZDoom",
    "files": [
      {
        "brutalmod": "N/A:Please select the Brutal Heretic RPG mod file available at https://forum.zdoom.org/viewtopic.php?t=68735"
      }
    ],
    "game": {
      "files": [
        "mods/BrutalHereticRPG_V2.2.pk3",
        "mods/H20MUS.wad",
        "mods/heretic_gz.pk3"
      ],
      "main_file": "heretic.wad",
      "savedir": "saves"
    },
    "installer": [
      {
        "extract": {
          "dst": "$CACHE",
          "src": "brutalmod"
        }
      },
      {
        "execute": {
          "command": "mkdir \"$GAMEDIR/mods\"; find \"$CACHE\" \\( -iname \"*.pk3\" -o -iname \"*.wad\" \\) -exec cp {} \"$GAMEDIR/mods\" \\;"
        }
      },
      {
        "insert-disc": {
          "description": "Please browse folder where is located HERETIC.WAD file. Autodetect will not work here, use \"Browse\" button.",
          "requires": "heretic.wad"
        }
      },
      {
        "execute": {
          "command": "ls \"$DISC\" | grep -i heretic.wad | xargs -I {} cp \"$DISC/{}\" \"$GAMEDIR/heretic.wad\"; mkdir \"$GAMEDIR/saves\";"
        }
      },
      {
        "write_file": {
          "content": "[SoundfontSearch.Directories]\nPath=soundfonts\n[GlobalSettings]\nfreelook=true\n",
          "file": "$GAMEDIR/gzdoom.ini"
        }
      }
    ],
    "zdoom": {
      "config": "$GAMEDIR/gzdoom.ini"
    }
  },
  "content": "custom-name: HERETIC - Brutal Heretic RPG mod - GZDoom\nfiles:\n- brutalmod: N/A:Please select the Brutal Heretic RPG mod file available at https://forum.zdoom.org/viewtopic.php?t=68735\ngame:\n  files:\n  - mods/BrutalHereticRPG_V2.2.pk3\n  - mods/H20MUS.wad\n  - mods/heretic_gz.pk3\n  main_file: heretic.wad\n  savedir: saves\ninstaller:\n- extract:\n    dst: $CACHE\n    src: brutalmod\n- execute:\n    command: mkdir \"$GAMEDIR/mods\"; find \"$CACHE\" \\( -iname \"*.pk3\" -o -iname \"*.wad\"\n      \\) -exec cp {} \"$GAMEDIR/mods\" \\;\n- insert-disc:\n    description: Please browse folder where is located HERETIC.WAD file. Autodetect\n      will not work here, use \"Browse\" button.\n    requires: heretic.wad\n- execute:\n    command: ls \"$DISC\" | grep -i heretic.wad | xargs -I {} cp \"$DISC/{}\" \"$GAMEDIR/heretic.wad\";\n      mkdir \"$GAMEDIR/saves\";\n- write_file:\n    content: '[SoundfontSearch.Directories]\n\n      Path=soundfonts\n\n      [GlobalSettings]\n\n      freelook=true\n\n      '\n    file: $GAMEDIR/gzdoom.ini\nzdoom:\n  config: $GAMEDIR/gzdoom.ini\n"
}