{
  "name": "Edge Of Eternity",
  "slug": "edge-of-eternity",
  "year": null,
  "description": "",
  "banner_url": "https://lutris.net/games/banner/edge-of-eternity.jpg",
  "icon_url": "https://lutris.net/games/icon/edge-of-eternity.png",
  "is_public": true,
  "updated": "2020-10-08T10:17:30.098784Z",
  "provider_games": [
    {
      "name": "Edge Of Eternity",
      "slug": "269190",
      "service": "steam"
    }
  ],
  "steamid": 269190,
  "gogid": null,
  "gogslug": "",
  "humblestoreid": "",
  "id": 24299
}