{
  "name": "Loot Box Simulator 20!8",
  "slug": "loot-box-simulator-208",
  "year": null,
  "description": "",
  "banner_url": "https://lutris.net/games/banner/loot-box-simulator-208.jpg",
  "icon_url": "https://lutris.net/games/icon/loot-box-simulator-208.png",
  "is_public": true,
  "updated": "2020-10-08T09:58:05.297540Z",
  "provider_games": [
    {
      "name": "Loot Box Simulator 20!8",
      "slug": "786670",
      "service": "steam"
    }
  ],
  "steamid": 786670,
  "gogid": null,
  "gogslug": "",
  "humblestoreid": "",
  "id": 23468
}