{
  "name": "Bloody and cruel story of toys",
  "slug": "bloody-and-cruel-story-of-toys",
  "year": null,
  "description": "",
  "banner_url": "https://lutris.net/games/banner/bloody-and-cruel-story-of-toys.jpg",
  "icon_url": "https://lutris.net/games/icon/bloody-and-cruel-story-of-toys.png",
  "is_public": true,
  "updated": "2020-10-08T09:57:41.319042Z",
  "provider_games": [
    {
      "name": "Bloody and cruel story of toys",
      "slug": "806150",
      "service": "steam"
    }
  ],
  "steamid": 806150,
  "gogid": null,
  "gogslug": "",
  "humblestoreid": "",
  "id": 24730
}