{
  "name": "Cricket Captain 2015",
  "slug": "cricket-captain-2015",
  "year": null,
  "description": "",
  "banner_url": "https://lutris.net/games/banner/cricket-captain-2015.jpg",
  "icon_url": "https://lutris.net/games/icon/cricket-captain-2015.png",
  "is_public": true,
  "updated": "2020-10-08T10:16:35.343000Z",
  "provider_games": [
    {
      "name": "Cricket Captain 2015",
      "slug": "351050",
      "service": "steam"
    }
  ],
  "steamid": 351050,
  "gogid": null,
  "gogslug": "",
  "humblestoreid": "",
  "id": 9881
}