{
  "name": "Luna Sky",
  "slug": "luna-sky",
  "year": null,
  "description": "",
  "banner_url": "https://lutris.net/games/banner/luna-sky.jpg",
  "icon_url": "https://lutris.net/games/icon/luna-sky.png",
  "is_public": true,
  "updated": "2020-10-08T10:16:16.009837Z",
  "provider_games": [
    {
      "name": "Luna Sky",
      "slug": "361600",
      "service": "steam"
    }
  ],
  "steamid": 361600,
  "gogid": null,
  "gogslug": "",
  "humblestoreid": "",
  "id": 6958
}