{
  "name": "Diablo II: Lord of Destruction",
  "slug": "diablo-ii-lord-of-destruction",
  "year": 2001,
  "description": "",
  "banner_url": "https://lutris.net/games/banner/diablo-ii-lord-of-destruction.jpg",
  "icon_url": "",
  "is_public": true,
  "updated": "2019-01-23T08:29:11.218665Z",
  "provider_games": [],
  "steamid": null,
  "gogid": null,
  "gogslug": "",
  "humblestoreid": "",
  "id": 11301
}