{
  "name": "Dungeon Kingdom: Sign of the Moon",
  "slug": "dungeon-kingdom-sign-of-the-moon",
  "year": null,
  "description": "",
  "banner_url": "https://lutris.net/games/banner/dungeon-kingdom-sign-of-the-moon.jpg",
  "icon_url": "https://lutris.net/games/icon/dungeon-kingdom-sign-of-the-moon.png",
  "is_public": true,
  "updated": "2020-10-08T09:19:37.075893Z",
  "provider_games": [
    {
      "name": "Dungeon Kingdom: Sign of the Moon",
      "slug": "329040",
      "service": "steam"
    }
  ],
  "steamid": 329040,
  "gogid": null,
  "gogslug": "",
  "humblestoreid": "",
  "id": 6730
}