{
  "id": 2819,
  "game_id": 7774,
  "game_slug": "lander",
  "name": "Lander",
  "year": 1999,
  "user": "Lulu",
  "runner": "wine",
  "slug": "lander-cd",
  "version": "CD",
  "description": "",
  "notes": "CD must be inserted for single-player mode. Multiplayer works without.\r\n\r\nSet Wine config to: Windows 98",
  "created_at": "2016-09-30T22:28:52.014776Z",
  "updated_at": "2018-05-19T03:41:48.750006Z",
  "draft": false,
  "published": true,
  "published_by": null,
  "rating": "",
  "steamid": null,
  "gogid": null,
  "gogslug": "",
  "humbleid": "",
  "humblestoreid": "",
  "humblestoreid_real": "",
  "script": {
    "exe": "drive_c/Program Files/Psygnosis/Lander/lndrd3dr/lander.EXE",
    "game": {
      "arch": "win32",
      "prefix": "$GAMEDIR"
    },
    "installer": [
      {
        "insert-disc": {
          "requires": "SETUP.EXE"
        }
      },
      {
        "task": {
          "executable": "$DISC/SETUP.EXE",
          "name": "wineexec",
          "prefix": "$GAMEDIR"
        }
      }
    ]
  },
  "content": "exe: drive_c/Program Files/Psygnosis/Lander/lndrd3dr/lander.EXE\ngame:\n  arch: win32\n  prefix: $GAMEDIR\ninstaller:\n- insert-disc:\n    requires: SETUP.EXE\n- task:\n    executable: $DISC/SETUP.EXE\n    name: wineexec\n    prefix: $GAMEDIR\n"
}