{
  "name": "Duck Hunting",
  "slug": "duck-hunting",
  "year": null,
  "description": "",
  "banner_url": "https://lutris.net/games/banner/duck-hunting.jpg",
  "icon_url": "https://lutris.net/games/icon/duck-hunting.png",
  "is_public": true,
  "updated": "2019-08-17T06:23:08.430110Z",
  "provider_games": [
    {
      "name": "Duck Hunting",
      "slug": "619330",
      "service": "steam"
    }
  ],
  "steamid": 619330,
  "gogid": null,
  "gogslug": "",
  "humblestoreid": "",
  "id": 28775
}