{
  "id": 12009,
  "game_id": 23859,
  "game_slug": "septerra-core-legacy-of-the-creator",
  "name": "Septerra Core: Legacy of the Creator",
  "year": 1999,
  "user": "blindcoder",
  "runner": "linux",
  "slug": "septerra-core-legacy-of-the-c-gog",
  "version": "GOG",
  "description": null,
  "notes": "",
  "created_at": "2019-02-14T08:25:53.453000Z",
  "updated_at": "2019-02-15T06:22:22.904141Z",
  "draft": false,
  "published": true,
  "published_by": 19464,
  "rating": "",
  "steamid": null,
  "gogid": 1207658742,
  "gogslug": "septerra_core_legacy_of_the_creator",
  "humbleid": "",
  "humblestoreid": "",
  "humblestoreid_real": "",
  "script": {
    "files": [
      {
        "goginstaller": "N/A:Please select the GOG.com Linux installer"
      }
    ],
    "game": {
      "exe": "start.sh"
    },
    "installer": [
      {
        "extract": {
          "dst": "$CACHE/GOG",
          "file": "goginstaller",
          "format": "zip"
        }
      },
      {
        "merge": {
          "dst": "$GAMEDIR",
          "src": "$CACHE/GOG/data/noarch/"
        }
      }
    ]
  },
  "content": "files:\n- goginstaller: N/A:Please select the GOG.com Linux installer\ngame:\n  exe: start.sh\ninstaller:\n- extract:\n    dst: $CACHE/GOG\n    file: goginstaller\n    format: zip\n- merge:\n    dst: $GAMEDIR\n    src: $CACHE/GOG/data/noarch/\n"
}