{
  "name": "A Plot Story",
  "slug": "a-plot-story",
  "year": null,
  "description": "",
  "banner_url": "https://lutris.net/games/banner/a-plot-story.jpg",
  "icon_url": "https://lutris.net/games/icon/a-plot-story.png",
  "is_public": true,
  "updated": "2020-10-08T10:00:59.965719Z",
  "provider_games": [
    {
      "name": "A Plot Story",
      "slug": "699160",
      "service": "steam"
    }
  ],
  "steamid": 699160,
  "gogid": null,
  "gogslug": "",
  "humblestoreid": "",
  "id": 15355
}