{
  "name": "For The King",
  "slug": "for-the-king",
  "year": 2018,
  "description": "The King is dead, murdered by an unknown assailant. Now the once peaceful kingdom of Fahrul is in chaos.\r\n\r\nWith nowhere left to turn and stretched beyond her means, the queen has put out a desperate plea to the citizens of the land to rise up and help stem the tide of impending doom. Set off with your make-shift party, either single player, local, or online co-op. Choose to split your party up and cover more ground, or stick together for protection. A sound strategy can mean the difference between life and death.\r\n\r\nFor The King is a challenging blend of Strategy, JRPG Combat, and Roguelike elements. Each play through is made unique with procedural maps, quests, and events. Brave the relentless elements, fight the wicked creatures, sail the seas and delve into the dark underworld. None before you have returned from their journey. Will you be the one to put an end to the Chaos?\r\n\r\nFight and die as a party in fast paced and brutal turn-based combat using a unique slot system for attacks and special abilities. Find and gather herbs for your trusty pipe to heal your wounds and cure your maladies. Set up safe camps or brave the horrors that nightfall brings.\r\n\r\nJust remember adventurer, you do this not for the riches or fame but for your village, for your realm, For The King!",
  "banner_url": "https://lutris.net/games/banner/for-the-king.jpg",
  "icon_url": "https://lutris.net/games/icon/for-the-king.png",
  "is_public": true,
  "updated": "2020-05-31T00:17:42.838227Z",
  "provider_games": [
    {
      "name": "For The King",
      "slug": "1376475724",
      "service": "gog"
    },
    {
      "name": "For The King",
      "slug": "527230",
      "service": "steam"
    }
  ],
  "steamid": 527230,
  "gogid": 1376475724,
  "gogslug": "for_the_king",
  "humblestoreid": "",
  "id": 11907
}