{
  "name": "Domino Block",
  "slug": "domino-block",
  "year": 1996,
  "description": "",
  "banner_url": "",
  "icon_url": "https://lutris.net/games/icon/domino-block.png",
  "is_public": true,
  "updated": "2020-05-26T03:33:19.052518Z",
  "provider_games": [
    {
      "name": "Domino Block",
      "slug": "dominob",
      "service": "mame"
    }
  ],
  "steamid": null,
  "gogid": null,
  "gogslug": "",
  "humblestoreid": "",
  "id": 33925
}