{
  "name": "Blue Hawk",
  "slug": "blue-hawk",
  "year": 1993,
  "description": "",
  "banner_url": "",
  "icon_url": "https://lutris.net/games/icon/blue-hawk.png",
  "is_public": true,
  "updated": "2020-05-26T03:32:21.061828Z",
  "provider_games": [
    {
      "name": "Blue Hawk",
      "slug": "bluehawk",
      "service": "mame"
    }
  ],
  "steamid": null,
  "gogid": null,
  "gogslug": "",
  "humblestoreid": "",
  "id": 33482
}