{
  "name": "Blasphemous",
  "slug": "blasphemous",
  "year": 2019,
  "description": "Blasphemous is a punishing action-platformer that combines the fast-paced, skilled combat of a hack-n-slash game with a deep and evocative narrative core, delivered through exploration of a huge universe which is brutal and marked by Christian belief.",
  "banner_url": "https://lutris.net/games/banner/blasphemous.jpg",
  "icon_url": "",
  "is_public": true,
  "updated": "2020-05-31T00:17:36.277984Z",
  "provider_games": [
    {
      "name": "Blasphemous",
      "slug": "2068474256",
      "service": "gog"
    },
    {
      "name": "Blasphemous",
      "slug": "774361",
      "service": "steam"
    }
  ],
  "steamid": 774361,
  "gogid": 2068474256,
  "gogslug": "blasphemous",
  "humblestoreid": "",
  "id": 29356
}