{
  "name": "Chronicles of Magic: Divided Kingdoms",
  "slug": "chronicles-of-magic-divided-kingdoms",
  "year": 2018,
  "description": "The peace in the White Kingdom is marred by the appearance of the mysterious Black Knight. His identity and intentions are unknown, but when he kidnaps your only son Nevin, you follow him in pursuit. As Gillian, explore two worlds and use the Magic Scrolls to discover the truth about a forgotten royal lineage.\r\n\r\nLong ago, the twin kingdoms destroyed each other in war. The White Kingdom was rebuilt with magic, but the Black Kingdom is still cursed – dark clouds envelop the sky, and dangerous vines destroy fields and houses. The noble Queen Mariette in the White Castle looks after her own subjects, but also supports the suffering inhabitants of the dark land. During your dangerous journey you will meet the inhabitants of both the White and Black Kingdoms. It won’t be immediately clear who is really trustworthy. The boundaries between good and evil, magic and technology, and black and white will begin to blur, and the fate of the two kingdoms – and your son’s life – will be in your hands. Will you work with the most unexpected allies? Will you stop the evil and solve the mystery of the royal blood?",
  "banner_url": "https://lutris.net/games/banner/chronicles-of-magic-divided-kingdoms.jpg",
  "icon_url": "https://lutris.net/games/icon/chronicles-of-magic-divided-kingdoms.png",
  "is_public": true,
  "updated": "2019-06-13T06:23:27.707683Z",
  "provider_games": [
    {
      "name": "Chronicles of Magic: Divided Kingdoms",
      "slug": "746840",
      "service": "steam"
    }
  ],
  "steamid": 746840,
  "gogid": null,
  "gogslug": "",
  "humblestoreid": "",
  "id": 22021
}