{
  "name": "Bloonz Toonz",
  "slug": "bloonz-toonz",
  "year": null,
  "description": "",
  "banner_url": "https://lutris.net/games/banner/bloonz-toonz.jpg",
  "icon_url": "https://lutris.net/games/icon/bloonz-toonz.png",
  "is_public": true,
  "updated": "2020-10-08T09:20:12.373916Z",
  "provider_games": [
    {
      "name": "Bloonz Toonz",
      "slug": "304190",
      "service": "steam"
    }
  ],
  "steamid": 304190,
  "gogid": null,
  "gogslug": "",
  "humblestoreid": "",
  "id": 10650
}