{
  "name": "Hentai Girl Division",
  "slug": "hentai-girl-division",
  "year": null,
  "description": "",
  "banner_url": "https://lutris.net/games/banner/hentai-girl-division.jpg",
  "icon_url": "https://lutris.net/games/icon/hentai-girl-division.png",
  "is_public": true,
  "updated": "2020-10-08T10:11:20.160470Z",
  "provider_games": [
    {
      "name": "Hentai Girl Division",
      "slug": "1113680",
      "service": "steam"
    }
  ],
  "steamid": 1113680,
  "gogid": null,
  "gogslug": "",
  "humblestoreid": "",
  "id": 29588
}