{
  "name": "Drunk Wizards",
  "slug": "drunk-wizards",
  "year": null,
  "description": "",
  "banner_url": "https://lutris.net/games/banner/drunk-wizards.jpg",
  "icon_url": "https://lutris.net/games/icon/drunk-wizards.png",
  "is_public": true,
  "updated": "2020-10-08T10:13:01.196288Z",
  "provider_games": [
    {
      "name": "Drunk Wizards",
      "slug": "479170",
      "service": "steam"
    }
  ],
  "steamid": 479170,
  "gogid": null,
  "gogslug": "",
  "humblestoreid": "",
  "id": 7584
}