{
  "name": "Boogie Wings",
  "slug": "boogie-wings",
  "year": 1992,
  "description": "",
  "banner_url": "",
  "icon_url": "https://lutris.net/games/icon/boogie-wings.png",
  "is_public": true,
  "updated": "2020-05-26T03:32:23.881016Z",
  "provider_games": [
    {
      "name": "Boogie Wings",
      "slug": "boogwing",
      "service": "mame"
    }
  ],
  "steamid": null,
  "gogid": null,
  "gogslug": "",
  "humblestoreid": "",
  "id": 33517
}