{
  "name": "Imperatum",
  "slug": "imperatum",
  "year": null,
  "description": "",
  "banner_url": "https://lutris.net/games/banner/imperatum.jpg",
  "icon_url": "https://lutris.net/games/icon/imperatum.png",
  "is_public": true,
  "updated": "2020-10-08T10:09:34.338880Z",
  "provider_games": [
    {
      "name": "Imperatum",
      "slug": "650810",
      "service": "steam"
    }
  ],
  "steamid": 650810,
  "gogid": null,
  "gogslug": "",
  "humblestoreid": "",
  "id": 25642
}