{
  "name": "Garden of the Sea",
  "slug": "garden-of-the-sea",
  "year": null,
  "description": "",
  "banner_url": "https://lutris.net/games/banner/garden-of-the-sea.jpg",
  "icon_url": "https://lutris.net/games/icon/garden-of-the-sea.png",
  "is_public": true,
  "updated": "2020-10-08T10:11:55.173757Z",
  "provider_games": [
    {
      "name": "Garden of the Sea",
      "slug": "1086850",
      "service": "steam"
    }
  ],
  "steamid": 1086850,
  "gogid": null,
  "gogslug": "",
  "humblestoreid": "",
  "id": 31314
}