{
  "name": "Burnin' Rubber",
  "slug": "burnin-rubber",
  "year": 1982,
  "description": "",
  "banner_url": "https://lutris.net/games/banner/burnin-rubber.jpg",
  "icon_url": "https://lutris.net/games/icon/burnin-rubber.png",
  "is_public": true,
  "updated": "2020-05-26T03:32:30.946137Z",
  "provider_games": [
    {
      "name": "Burnin' Rubber",
      "slug": "brubber",
      "service": "mame"
    }
  ],
  "steamid": null,
  "gogid": null,
  "gogslug": "",
  "humblestoreid": "",
  "id": 33546
}