{
  "name": "Beyond the Void",
  "slug": "beyond-the-void",
  "year": null,
  "description": "",
  "banner_url": "https://lutris.net/games/banner/beyond-the-void.jpg",
  "icon_url": "https://lutris.net/games/icon/beyond-the-void.png",
  "is_public": true,
  "updated": "2020-10-08T10:00:57.178883Z",
  "provider_games": [
    {
      "name": "Beyond the Void",
      "slug": "700570",
      "service": "steam"
    }
  ],
  "steamid": 700570,
  "gogid": null,
  "gogslug": "",
  "humblestoreid": "",
  "id": 15481
}