{
  "name": "JamG",
  "slug": "jamg",
  "year": null,
  "description": "",
  "banner_url": "https://lutris.net/games/banner/jamg.jpg",
  "icon_url": "https://lutris.net/games/icon/jamg.png",
  "is_public": true,
  "updated": "2020-10-08T10:15:40.115468Z",
  "provider_games": [
    {
      "name": "JamG",
      "slug": "383010",
      "service": "steam"
    }
  ],
  "steamid": 383010,
  "gogid": null,
  "gogslug": "",
  "humblestoreid": "",
  "id": 11496
}