{
  "name": "Battle Worlds: Kronos",
  "slug": "battle-worlds-kronos",
  "year": null,
  "description": "",
  "banner_url": "https://lutris.net/games/banner/battle-worlds-kronos.jpg",
  "icon_url": "https://lutris.net/games/icon/battle-worlds-kronos.png",
  "is_public": true,
  "updated": "2020-05-31T00:17:35.765522Z",
  "provider_games": [
    {
      "name": "Battle Worlds: Kronos",
      "slug": "1207660124",
      "service": "gog"
    },
    {
      "name": "Battle Worlds: Kronos",
      "slug": "237470",
      "service": "steam"
    }
  ],
  "steamid": 237470,
  "gogid": 1207660124,
  "gogslug": "battle_worlds_kronos",
  "humblestoreid": "",
  "id": 1350
}