{
  "id": 7534,
  "game_id": 17372,
  "game_slug": "drawkanoid",
  "name": "Drawkanoid",
  "year": 2018,
  "user": "toby3d",
  "runner": "wine",
  "slug": "drawkanoid-humble-bundle",
  "version": "Humble Bundle",
  "description": null,
  "notes": "If there are any problems with the sound, try activate the \"Reset PulseAudio\" and/or \"Reduce PulseAudio latency\" options in the settings.",
  "created_at": "2018-03-14T21:03:53.806000Z",
  "updated_at": "2019-10-28T20:39:57.228597Z",
  "draft": false,
  "published": true,
  "published_by": 51687,
  "rating": "",
  "steamid": null,
  "gogid": null,
  "gogslug": "",
  "humbleid": "",
  "humblestoreid": "",
  "humblestoreid_real": "",
  "script": {
    "files": [
      {
        "archive": "N/A:Select the game archive"
      }
    ],
    "game": {
      "exe": "drive_c/Games/Drawkanoid/Drawkanoid.exe",
      "prefix": "$GAMEDIR",
      "working_dir": "drive_c/Games/Drawkanoid/"
    },
    "installer": [
      {
        "extract": {
          "dst": "$GAMEDIR/drive_c/Games/Drawkanoid/",
          "file": "$archive",
          "format": "zip"
        }
      },
      {
        "chmodx": "$GAMEDIR/drive_c/Games/Drawkanoid/Drawkanoid.exe"
      }
    ]
  },
  "content": "files:\n- archive: N/A:Select the game archive\ngame:\n  exe: drive_c/Games/Drawkanoid/Drawkanoid.exe\n  prefix: $GAMEDIR\n  working_dir: drive_c/Games/Drawkanoid/\ninstaller:\n- extract:\n    dst: $GAMEDIR/drive_c/Games/Drawkanoid/\n    file: $archive\n    format: zip\n- chmodx: $GAMEDIR/drive_c/Games/Drawkanoid/Drawkanoid.exe\n"
}