{
  "name": "Astronaut Simulator",
  "slug": "astronaut-simulator",
  "year": null,
  "description": "",
  "banner_url": "https://lutris.net/games/banner/astronaut-simulator.jpg",
  "icon_url": "https://lutris.net/games/icon/astronaut-simulator.png",
  "is_public": true,
  "updated": "2020-10-08T10:16:25.013456Z",
  "provider_games": [
    {
      "name": "Astronaut Simulator",
      "slug": "356770",
      "service": "steam"
    }
  ],
  "steamid": 356770,
  "gogid": null,
  "gogslug": "",
  "humblestoreid": "",
  "id": 13465
}