{
  "name": "9th Company - Roots of Terror",
  "slug": "9th-company-roots-of-terror",
  "year": null,
  "description": "",
  "banner_url": "https://lutris.net/games/banner/9th-company-roots-of-terror.jpg",
  "icon_url": "",
  "is_public": true,
  "updated": "2020-10-08T10:02:38.764938Z",
  "provider_games": [
    {
      "name": "9th Company - Roots of Terror",
      "slug": "12480",
      "service": "steam"
    }
  ],
  "steamid": 12480,
  "gogid": null,
  "gogslug": "",
  "humblestoreid": "",
  "id": 3750
}