{
  "name": "Image of Perfection",
  "slug": "image-of-perfection",
  "year": 2019,
  "description": "Image of Perfection is a creepy, atmospheric RPG about confronting fears- rather than being a pure horror game, it's a story-driven RPG about accepting who you are.",
  "banner_url": "https://lutris.net/games/banner/image-of-perfection.jpg",
  "icon_url": "",
  "is_public": true,
  "updated": "2020-09-30T05:32:47.315569Z",
  "provider_games": [],
  "steamid": null,
  "gogid": null,
  "gogslug": "",
  "humblestoreid": "",
  "id": 39440
}