{
  "name": "Always Remember Me",
  "slug": "always-remember-me",
  "year": 2011,
  "description": "Amy is desperate! Her boyfriend Aaron doesn't remember her anymore after a car accident!\r\n\r\nWill you be able to make him remember again?\r\n\r\nOr perhaps it's time to move on. Maybe Amy will fall in love with someone else?\r\n\r\nIt's up to you to decide. Play this life simulation game with dating sim elements and shape Amy's destiny.\r\n\r\nFeaturing a very detailed life simulation game. Explore the town using the map, find what actions you can do on each location and at which day of the week and time of the day.\r\n\r\nIt's a real living world, where you must find the right strategy to raise the skill needed to win the heart of each of the four dateable boys: Aaron, Lawrence, Eddy and Hugh.",
  "banner_url": "https://lutris.net/games/banner/always-remember-me.jpg",
  "icon_url": "https://lutris.net/games/icon/always-remember-me.png",
  "is_public": true,
  "updated": "2019-01-23T08:28:20.167864Z",
  "provider_games": [
    {
      "name": "Always Remember Me",
      "slug": "291030",
      "service": "steam"
    }
  ],
  "steamid": 291030,
  "gogid": null,
  "gogslug": "",
  "humblestoreid": "",
  "id": 2578
}