{
  "name": "Askutron Quiz Show",
  "slug": "askutron-quiz-show",
  "year": null,
  "description": "",
  "banner_url": "https://lutris.net/games/banner/askutron-quiz-show.jpg",
  "icon_url": "https://lutris.net/games/icon/askutron-quiz-show.png",
  "is_public": true,
  "updated": "2020-10-08T10:00:56.911212Z",
  "provider_games": [
    {
      "name": "Askutron Quiz Show",
      "slug": "701280",
      "service": "steam"
    }
  ],
  "steamid": 701280,
  "gogid": null,
  "gogslug": "",
  "humblestoreid": "",
  "id": 14833
}