{
  "id": 3231,
  "game_id": 9799,
  "game_slug": "acceptance",
  "name": "Acceptance",
  "year": 2015,
  "user": "FakeShemp",
  "runner": "linux",
  "slug": "acceptance-itchio",
  "version": "itch.io",
  "description": "",
  "notes": "",
  "created_at": "2017-02-05T16:28:57.188780Z",
  "updated_at": "2017-03-16T22:49:03.748891Z",
  "draft": false,
  "published": true,
  "published_by": null,
  "rating": "",
  "steamid": null,
  "gogid": null,
  "gogslug": "",
  "humbleid": "",
  "humblestoreid": "",
  "humblestoreid_real": "",
  "script": {
    "exe": "Acceptance.sh",
    "files": [
      {
        "game": "N/A:Please select the itch.io zip file"
      }
    ],
    "installer": [
      {
        "extract": {
          "dst": "$GAMEDIR",
          "file": "game"
        }
      }
    ]
  },
  "content": "exe: Acceptance.sh\nfiles:\n- game: N/A:Please select the itch.io zip file\ninstaller:\n- extract:\n    dst: $GAMEDIR\n    file: game\n"
}