{
  "name": "Family Feud 3: Dream Home",
  "slug": "family-feud-3-dream-home",
  "year": null,
  "description": "",
  "banner_url": "https://lutris.net/games/banner/family-feud-3-dream-home.jpg",
  "icon_url": "https://lutris.net/games/icon/family-feud-3-dream-home.png",
  "is_public": true,
  "updated": "2020-10-08T10:02:11.659295Z",
  "provider_games": [
    {
      "name": "Family Feud 3: Dream Home",
      "slug": "37940",
      "service": "steam"
    }
  ],
  "steamid": 37940,
  "gogid": null,
  "gogslug": "",
  "humblestoreid": "",
  "id": 14366
}