{
  "name": "Clustertruck",
  "slug": "clustertruck",
  "year": 2016,
  "description": "Clustertruck is a chaotic physics based truckformer. Jump your way through insane levels in a game of \"the floor is lava\" on top of speeding trucks driven by terrible drivers.",
  "banner_url": "https://lutris.net/games/banner/clustertruck.jpg",
  "icon_url": "https://lutris.net/games/icon/clustertruck.png",
  "is_public": true,
  "updated": "2020-05-31T00:17:37.740041Z",
  "provider_games": [
    {
      "name": "Clustertruck",
      "slug": "1661530902",
      "service": "gog"
    },
    {
      "name": "Clustertruck",
      "slug": "397950",
      "service": "steam"
    }
  ],
  "steamid": 397950,
  "gogid": 1661530902,
  "gogslug": "clustertruck",
  "humblestoreid": "",
  "id": 8023
}