{
  "name": "Dawn",
  "slug": "dawn",
  "year": null,
  "description": "",
  "banner_url": "https://lutris.net/games/banner/dawn.jpg",
  "icon_url": "https://lutris.net/games/icon/dawn.png",
  "is_public": true,
  "updated": "2020-10-08T10:04:05.562068Z",
  "provider_games": [
    {
      "name": "Dawn",
      "slug": "605610",
      "service": "steam"
    }
  ],
  "steamid": 605610,
  "gogid": null,
  "gogslug": "",
  "humblestoreid": "",
  "id": 13354
}