{
  "name": "Alphabeats: Master Edition",
  "slug": "alphabeats-master-edition",
  "year": null,
  "description": "",
  "banner_url": "https://lutris.net/games/banner/alphabeats-master-edition.jpg",
  "icon_url": "https://lutris.net/games/icon/alphabeats-master-edition.png",
  "is_public": true,
  "updated": "2019-01-23T08:28:19.749162Z",
  "provider_games": [
    {
      "name": "Alphabeats: Master Edition",
      "slug": "420160",
      "service": "steam"
    }
  ],
  "steamid": 420160,
  "gogid": null,
  "gogslug": "",
  "humblestoreid": "",
  "id": 6886
}