{
  "name": "Little Jack's Adventures",
  "slug": "little-jacks-adventures",
  "year": null,
  "description": "",
  "banner_url": "https://lutris.net/games/banner/little-jacks-adventures.jpg",
  "icon_url": "https://lutris.net/games/icon/little-jacks-adventures.png",
  "is_public": true,
  "updated": "2020-10-08T10:05:09.880988Z",
  "provider_games": [
    {
      "name": "Little Jack's Adventures",
      "slug": "571870",
      "service": "steam"
    }
  ],
  "steamid": 571870,
  "gogid": null,
  "gogslug": "",
  "humblestoreid": "",
  "id": 12927
}