{
  "name": "Hyper Gods",
  "slug": "hyper-gods",
  "year": null,
  "description": "",
  "banner_url": "https://lutris.net/games/banner/hyper-gods.jpg",
  "icon_url": "https://lutris.net/games/icon/hyper-gods.png",
  "is_public": true,
  "updated": "2020-10-08T10:14:26.608061Z",
  "provider_games": [
    {
      "name": "Hyper Gods",
      "slug": "423730",
      "service": "steam"
    }
  ],
  "steamid": 423730,
  "gogid": null,
  "gogslug": "",
  "humblestoreid": "",
  "id": 30506
}