{
  "name": "Castaway VR",
  "slug": "castaway-vr",
  "year": null,
  "description": "",
  "banner_url": "https://lutris.net/games/banner/castaway-vr.jpg",
  "icon_url": "https://lutris.net/games/icon/castaway-vr.png",
  "is_public": false,
  "updated": "2019-01-23T08:28:47.224728Z",
  "provider_games": [],
  "steamid": 706840,
  "gogid": null,
  "gogslug": "",
  "humblestoreid": "",
  "id": 18286
}