{
  "name": "Exile III: Ruined World",
  "slug": "exile-iii-ruined-world",
  "year": 1996,
  "description": "Exile III: Ruined World is the triumphant conclusion to the Exile trilogy, a massive epic withelegant interface, fascinating plot, and beautiful grapics and sound. A more fascinating and playable game, one will be very hard pressed to find.\r\n\r\nIn Exile, you were cast down into the underworld by the Empire. In Exile II, you claimed the pit as your own, and fought off the Empire. In Exile III, your battle is to return home, to return to the surface and the sunlight you had thought lost forever. The problem - the surface is being destroyed, and nobody knows how or why. Move fast, or there will be nothing left for you to return to.",
  "banner_url": "https://lutris.net/games/banner/exile-iii-ruined-world.jpg",
  "icon_url": "",
  "is_public": true,
  "updated": "2020-04-20T07:22:47.589011Z",
  "provider_games": [],
  "steamid": null,
  "gogid": null,
  "gogslug": "",
  "humblestoreid": "",
  "id": 32129
}