{
  "name": "Age of Chivalry",
  "slug": "age-of-chivalry",
  "year": 2007,
  "description": "",
  "banner_url": "https://lutris.net/games/banner/age-of-chivalry.jpg",
  "icon_url": "https://lutris.net/games/icon/age-of-chivalry.png",
  "is_public": true,
  "updated": "2019-01-23T08:28:14.050017Z",
  "provider_games": [
    {
      "name": "Age of Chivalry",
      "slug": "17510",
      "service": "steam"
    }
  ],
  "steamid": 17510,
  "gogid": null,
  "gogslug": "",
  "humblestoreid": "",
  "id": 675
}