{
  "name": "Chicku",
  "slug": "chicku",
  "year": null,
  "description": "",
  "banner_url": "https://lutris.net/games/banner/chicku.jpg",
  "icon_url": "https://lutris.net/games/icon/chicku.png",
  "is_public": true,
  "updated": "2020-10-08T10:13:53.738135Z",
  "provider_games": [
    {
      "name": "Chicku",
      "slug": "443630",
      "service": "steam"
    }
  ],
  "steamid": 443630,
  "gogid": null,
  "gogslug": "",
  "humblestoreid": "",
  "id": 12322
}