{
  "name": "InnerCube",
  "slug": "innercube",
  "year": null,
  "description": "",
  "banner_url": "https://lutris.net/games/banner/innercube.jpg",
  "icon_url": "https://lutris.net/games/icon/innercube.png",
  "is_public": true,
  "updated": "2020-10-08T10:16:46.717351Z",
  "provider_games": [
    {
      "name": "InnerCube",
      "slug": "344270",
      "service": "steam"
    }
  ],
  "steamid": 344270,
  "gogid": null,
  "gogslug": "",
  "humblestoreid": "",
  "id": 5423
}