{
  "name": "Frontline : Road to Moscow",
  "slug": "frontline-road-to-moscow",
  "year": null,
  "description": "",
  "banner_url": "https://lutris.net/games/banner/frontline-road-to-moscow.jpg",
  "icon_url": "https://lutris.net/games/icon/frontline-road-to-moscow.png",
  "is_public": true,
  "updated": "2020-10-08T09:20:08.325978Z",
  "provider_games": [
    {
      "name": "Frontline : Road to Moscow",
      "slug": "306620",
      "service": "steam"
    }
  ],
  "steamid": 306620,
  "gogid": null,
  "gogslug": "",
  "humblestoreid": "",
  "id": 6136
}