{
  "name": "Dishonored®: Death of the Outsider™ ",
  "slug": "dishonored-death-of-the-outsidertm",
  "year": null,
  "description": "",
  "banner_url": "https://lutris.net/games/banner/dishonored-death-of-the-outsidertm.jpg",
  "icon_url": "https://lutris.net/games/icon/dishonored-death-of-the-outsidertm.png",
  "is_public": true,
  "updated": "2020-10-08T10:17:21.930846Z",
  "provider_games": [
    {
      "name": "Dishonored®: Death of the Outsider™",
      "slug": "1707860700",
      "service": "gog"
    },
    {
      "name": "Dishonored®: Death of the Outsider™ ",
      "slug": "614570",
      "service": "steam"
    }
  ],
  "steamid": 614570,
  "gogid": 1707860700,
  "gogslug": "dishonored_death_of_the_outsider",
  "humblestoreid": "",
  "id": 15199
}