{
  "id": 17770,
  "game_id": 29442,
  "game_slug": "alien-breed",
  "name": "Alien Breed",
  "year": 1991,
  "user": "appoloin",
  "runner": "dosbox",
  "slug": "alien-breed-gog",
  "version": "GOG",
  "description": null,
  "notes": "",
  "created_at": "2020-01-05T17:49:54.085000Z",
  "updated_at": "2020-06-01T06:43:33.836084Z",
  "draft": false,
  "published": true,
  "published_by": 1,
  "rating": "",
  "steamid": null,
  "gogid": 1207663733,
  "gogslug": "alien_breed",
  "humbleid": "",
  "humblestoreid": "",
  "humblestoreid_real": "",
  "script": {
    "files": [
      {
        "game": "N/A:Select GOG installer"
      },
      {
        "inno": "https://lutris.nyc3.digitaloceanspaces.com/tools/innoextract/innoextract-1.8-dev-2019-01-13-linux.tar.xz"
      }
    ],
    "game": {
      "main_file": "$GAMEDIR/alien.conf"
    },
    "installer": [
      {
        "extract": {
          "dst": "$CACHE",
          "file": "$inno"
        }
      },
      {
        "execute": {
          "args": "-I app -d \"$CACHE\" \"$game\"",
          "file": "$CACHE/innoextract"
        }
      },
      {
        "execute": {
          "args": "$GAMEDIR/HDD $GAMEDIR/HDD/alien",
          "file": "mkdir"
        }
      },
      {
        "merge": {
          "dst": "$GAMEDIR/HDD/alien",
          "src": "$CACHE/app"
        }
      },
      {
        "write_file": {
          "content": "[sdl]\nsensitivity=20\n[autoexec]\nmount C \"$GAMEDIR/HDD\" -t dir\nC:\ncd alien\nconfig.EXE\nexit",
          "file": "$GAMEDIR/alien-setup.conf"
        }
      },
      {
        "task": {
          "config_file": "$GAMEDIR/alien-setup.conf",
          "name": "dosexec",
          "working_dir": "$GAMEDIR/HDD"
        }
      },
      {
        "write_file": {
          "content": "[sdl]\nsensitivity=20\n[autoexec]\nmount C \"$GAMEDIR/HDD\" -t dir\nC:\ncd alien\nalien.EXE\nexit",
          "file": "$GAMEDIR/alien.conf"
        }
      }
    ]
  },
  "content": "files:\n- game: N/A:Select GOG installer\n- inno: https://lutris.nyc3.digitaloceanspaces.com/tools/innoextract/innoextract-1.8-dev-2019-01-13-linux.tar.xz\ngame:\n  main_file: $GAMEDIR/alien.conf\ninstaller:\n- extract:\n    dst: $CACHE\n    file: $inno\n- execute:\n    args: -I app -d \"$CACHE\" \"$game\"\n    file: $CACHE/innoextract\n- execute:\n    args: $GAMEDIR/HDD $GAMEDIR/HDD/alien\n    file: mkdir\n- merge:\n    dst: $GAMEDIR/HDD/alien\n    src: $CACHE/app\n- write_file:\n    content: '[sdl]\n\n      sensitivity=20\n\n      [autoexec]\n\n      mount C \"$GAMEDIR/HDD\" -t dir\n\n      C:\n\n      cd alien\n\n      config.EXE\n\n      exit'\n    file: $GAMEDIR/alien-setup.conf\n- task:\n    config_file: $GAMEDIR/alien-setup.conf\n    name: dosexec\n    working_dir: $GAMEDIR/HDD\n- write_file:\n    content: '[sdl]\n\n      sensitivity=20\n\n      [autoexec]\n\n      mount C \"$GAMEDIR/HDD\" -t dir\n\n      C:\n\n      cd alien\n\n      alien.EXE\n\n      exit'\n    file: $GAMEDIR/alien.conf\n"
}