{
  "name": "Doors Push or Pull",
  "slug": "doors-push-or-pull",
  "year": null,
  "description": "",
  "banner_url": "https://lutris.net/games/banner/doors-push-or-pull.jpg",
  "icon_url": "https://lutris.net/games/icon/doors-push-or-pull.png",
  "is_public": true,
  "updated": "2020-10-08T09:57:06.438835Z",
  "provider_games": [
    {
      "name": "Doors Push or Pull",
      "slug": "854390",
      "service": "steam"
    }
  ],
  "steamid": 854390,
  "gogid": null,
  "gogslug": "",
  "humblestoreid": "",
  "id": 22850
}