{
  "id": 2676,
  "game_id": 1546,
  "game_slug": "syder-arcade",
  "name": "Syder Arcade",
  "year": null,
  "user": "Lulu",
  "runner": "linux",
  "slug": "syder-arcade-humble-bundle",
  "version": "Humble Bundle",
  "description": "",
  "notes": "",
  "created_at": "2016-09-04T17:23:17.284791Z",
  "updated_at": "2016-09-08T01:41:05.617823Z",
  "draft": false,
  "published": true,
  "published_by": null,
  "rating": "",
  "steamid": 252310,
  "gogid": null,
  "gogslug": "",
  "humbleid": "syderarcade_bundle",
  "humblestoreid": "syderarcade_bundle",
  "humblestoreid_real": "syderarcade_bundle",
  "script": {
    "exe": "Game/SyderArcade_Humble.x86",
    "exe64": "Game/SyderArcade_Humble.x86_64",
    "files": [
      {
        "game": "N/A:Select the Linux archive downloaded from Humble Bundle"
      },
      {
        "unzip": "http://lutris.net/files/tools/unzip.tar.gz"
      }
    ],
    "installer": [
      {
        "extract": {
          "dst": "$CACHE",
          "file": "$unzip"
        }
      },
      {
        "execute": {
          "args": "$game -d \"$GAMEDIR\" \"Linux/*\"",
          "file": "$CACHE/unzip"
        }
      },
      {
        "rename": {
          "dst": "$GAMEDIR/Game",
          "src": "$GAMEDIR/Linux"
        }
      },
      {
        "chmodx": "Game/SyderArcade_Humble.x86"
      },
      {
        "chmodx": "Game/SyderArcade_Humble.x86_64"
      }
    ]
  },
  "content": "exe: Game/SyderArcade_Humble.x86\nexe64: Game/SyderArcade_Humble.x86_64\nfiles:\n- game: N/A:Select the Linux archive downloaded from Humble Bundle\n- unzip: http://lutris.net/files/tools/unzip.tar.gz\ninstaller:\n- extract:\n    dst: $CACHE\n    file: $unzip\n- execute:\n    args: $game -d \"$GAMEDIR\" \"Linux/*\"\n    file: $CACHE/unzip\n- rename:\n    dst: $GAMEDIR/Game\n    src: $GAMEDIR/Linux\n- chmodx: Game/SyderArcade_Humble.x86\n- chmodx: Game/SyderArcade_Humble.x86_64\n"
}