{
  "name": "Brief Karate Foolish",
  "slug": "brief-karate-foolish",
  "year": null,
  "description": "",
  "banner_url": "https://lutris.net/games/banner/brief-karate-foolish.jpg",
  "icon_url": "https://lutris.net/games/icon/brief-karate-foolish.png",
  "is_public": true,
  "updated": "2020-10-08T10:05:56.103004Z",
  "provider_games": [
    {
      "name": "Brief Karate Foolish",
      "slug": "546390",
      "service": "steam"
    }
  ],
  "steamid": 546390,
  "gogid": null,
  "gogslug": "",
  "humblestoreid": "",
  "id": 9637
}