{
  "name": "Bit Blaster XL",
  "slug": "bit-blaster-xl",
  "year": null,
  "description": "",
  "banner_url": "https://lutris.net/games/banner/bit-blaster-xl.jpg",
  "icon_url": "https://lutris.net/games/icon/bit-blaster-xl.png",
  "is_public": true,
  "updated": "2019-01-23T08:28:36.479348Z",
  "provider_games": [
    {
      "name": "Bit Blaster XL",
      "slug": "433950",
      "service": "steam"
    }
  ],
  "steamid": 433950,
  "gogid": null,
  "gogslug": "",
  "humblestoreid": "",
  "id": 5909
}