{
  "name": "Cute Things Dying Violently",
  "slug": "cute-things-dying-violently",
  "year": null,
  "description": "",
  "banner_url": "https://lutris.net/games/banner/cute-things-dying-violently.jpg",
  "icon_url": "https://lutris.net/games/icon/cute-things-dying-violently.png",
  "is_public": true,
  "updated": "2020-10-08T09:20:08.653345Z",
  "provider_games": [
    {
      "name": "Cute Things Dying Violently",
      "slug": "305820",
      "service": "steam"
    }
  ],
  "steamid": 305820,
  "gogid": null,
  "gogslug": "",
  "humblestoreid": "",
  "id": 8651
}