{
  "id": 21767,
  "game_id": 37391,
  "game_slug": "a-nightmares-trip",
  "name": "A Nightmare's Trip",
  "year": 2016,
  "user": "jimj316",
  "runner": "linux",
  "slug": "a-nightmares-trip-itchio",
  "version": "Itch.io",
  "description": null,
  "notes": "",
  "created_at": "2020-06-21T20:13:10.854047Z",
  "updated_at": "2020-06-21T20:13:10.854075Z",
  "draft": false,
  "published": false,
  "published_by": null,
  "rating": "",
  "steamid": null,
  "gogid": null,
  "gogslug": "",
  "humbleid": "",
  "humblestoreid": "",
  "humblestoreid_real": "",
  "script": {
    "files": [
      {
        "file": "N/A:Please select the file NIGHTMARESTRIP-1.0-linux.tar.bz2"
      }
    ],
    "game": {
      "exe": "$GAMEDIR/NIGHTMARESTRIP.sh",
      "working_dir": "$GAMEDIR"
    },
    "installer": [
      {
        "extract": {
          "dst": "$GAMEDIR",
          "src": "file"
        }
      },
      {
        "chmodx": "$GAMEDIR/NIGHTMARESTRIP.sh"
      }
    ]
  },
  "content": "files:\n- file: N/A:Please select the file NIGHTMARESTRIP-1.0-linux.tar.bz2\ngame:\n  exe: $GAMEDIR/NIGHTMARESTRIP.sh\n  working_dir: $GAMEDIR\ninstaller:\n- extract:\n    dst: $GAMEDIR\n    src: file\n- chmodx: $GAMEDIR/NIGHTMARESTRIP.sh\n"
}