{
  "name": "He Plays the Piano",
  "slug": "he-plays-the-piano",
  "year": 2018,
  "description": "Play the piano in a dimly lit jazz club, isolated from the rest of the world.",
  "banner_url": "https://lutris.net/games/banner/he-plays-the-piano.jpg",
  "icon_url": "",
  "is_public": true,
  "updated": "2020-09-30T05:32:39.389234Z",
  "provider_games": [],
  "steamid": null,
  "gogid": null,
  "gogslug": "",
  "humblestoreid": "",
  "id": 39456
}