{
  "name": "Kukui",
  "slug": "kukui",
  "year": null,
  "description": "",
  "banner_url": "https://lutris.net/games/banner/kukui.jpg",
  "icon_url": "https://lutris.net/games/icon/kukui.png",
  "is_public": true,
  "updated": "2020-10-08T10:09:04.536280Z",
  "provider_games": [
    {
      "name": "Kukui",
      "slug": "680040",
      "service": "steam"
    }
  ],
  "steamid": 680040,
  "gogid": null,
  "gogslug": "",
  "humblestoreid": "",
  "id": 22508
}