{
  "name": "Blazer",
  "slug": "blazer",
  "year": 1987,
  "description": "",
  "banner_url": "",
  "icon_url": "https://lutris.net/games/icon/blazer.png",
  "is_public": true,
  "updated": "2020-05-26T03:32:18.872802Z",
  "provider_games": [
    {
      "name": "Blazer",
      "slug": "blazer",
      "service": "mame"
    }
  ],
  "steamid": null,
  "gogid": null,
  "gogslug": "",
  "humblestoreid": "",
  "id": 33460
}