{
  "name": "Attack Pla Rail",
  "slug": "attack-pla-rail",
  "year": 1998,
  "description": "",
  "banner_url": "",
  "icon_url": "https://lutris.net/games/icon/attack-pla-rail.png",
  "is_public": true,
  "updated": "2020-05-26T03:31:59.713695Z",
  "provider_games": [
    {
      "name": "Attack Pla Rail",
      "slug": "aplarail",
      "service": "mame"
    }
  ],
  "steamid": null,
  "gogid": null,
  "gogslug": "",
  "humblestoreid": "",
  "id": 33313
}