{
  "name": "Fight'N Rage",
  "slug": "fightn-rage",
  "year": 2017,
  "description": "Fight’N Rage is a brand new old-school side-scroller beat’em up. Inspired by the classics from the “golden age”, and with an art style that mimics the aesthetic from the 90's arcade gems, this game pays homage to all classic gameplay features that makes this genre one of the best from its time!",
  "banner_url": "https://lutris.net/games/banner/fightn-rage.jpg",
  "icon_url": "https://lutris.net/games/icon/fightn-rage.png",
  "is_public": true,
  "updated": "2020-05-31T00:17:42.525670Z",
  "provider_games": [
    {
      "name": "Fight'N Rage",
      "slug": "1608965204",
      "service": "gog"
    },
    {
      "name": "Fight'N Rage",
      "slug": "674520",
      "service": "steam"
    }
  ],
  "steamid": 674520,
  "gogid": 1608965204,
  "gogslug": "fightn_rage",
  "humblestoreid": "",
  "id": 19068
}