{
  "name": "Crankies Workshop: Bozzbot Assembly",
  "slug": "crankies-workshop-bozzbot-assembly",
  "year": null,
  "description": "",
  "banner_url": "https://lutris.net/games/banner/crankies-workshop-bozzbot-assembly.jpg",
  "icon_url": "https://lutris.net/games/icon/crankies-workshop-bozzbot-assembly.png",
  "is_public": false,
  "updated": "2019-01-23T08:28:59.315049Z",
  "provider_games": [],
  "steamid": 705400,
  "gogid": null,
  "gogslug": "",
  "humblestoreid": "",
  "id": 18779
}