{
  "name": "JUMPER : SPEEDRUN",
  "slug": "jumper-speedrun",
  "year": null,
  "description": "",
  "banner_url": "https://lutris.net/games/banner/jumper-speedrun.jpg",
  "icon_url": "https://lutris.net/games/icon/jumper-speedrun.png",
  "is_public": true,
  "updated": "2020-10-08T10:01:15.298401Z",
  "provider_games": [
    {
      "name": "JUMPER : SPEEDRUN",
      "slug": "688150",
      "service": "steam"
    }
  ],
  "steamid": 688150,
  "gogid": null,
  "gogslug": "",
  "humblestoreid": "",
  "id": 23701
}