{
  "name": "Grotesque Tactics 2 - Dungeons and Donuts",
  "slug": "grotesque-tactics-2-dungeons-and-donuts",
  "year": null,
  "description": "",
  "banner_url": "https://lutris.net/games/banner/grotesque-tactics-2-dungeons-and-donuts.jpg",
  "icon_url": "https://lutris.net/games/icon/grotesque-tactics-2-dungeons-and-donuts.png",
  "is_public": true,
  "updated": "2020-10-08T10:02:03.084345Z",
  "provider_games": [
    {
      "name": "Grotesque Tactics 2 - Dungeons and Donuts",
      "slug": "46570",
      "service": "steam"
    }
  ],
  "steamid": 46570,
  "gogid": null,
  "gogslug": "",
  "humblestoreid": "",
  "id": 912
}