{
  "id": 22977,
  "game_id": 4135,
  "game_slug": "dirt-3-complete-edition",
  "name": "DiRT 3 Complete Edition",
  "year": 2015,
  "user": "Marmotte",
  "runner": "steam",
  "slug": "dirt-3-complete-edition-proton",
  "version": "Proton",
  "description": null,
  "notes": "",
  "created_at": "2020-08-22T09:46:56.926145Z",
  "updated_at": "2020-08-22T09:46:56.926177Z",
  "draft": false,
  "published": false,
  "published_by": null,
  "rating": "",
  "steamid": 321040,
  "gogid": null,
  "gogslug": "",
  "humbleid": "",
  "humblestoreid": "",
  "humblestoreid_real": "dirt-3-complete-edition",
  "script": {
    "game": {
      "appid": 321040
    }
  },
  "content": "game:\n  appid: 321040\n"
}