{
  "name": "Dynamic Country Club",
  "slug": "dynamic-country-club",
  "year": 1991,
  "description": "",
  "banner_url": "",
  "icon_url": "https://lutris.net/games/icon/dynamic-country-club.png",
  "is_public": true,
  "updated": "2020-05-26T03:33:30.252941Z",
  "provider_games": [
    {
      "name": "Dynamic Country Club",
      "slug": "dcclub",
      "service": "mame"
    }
  ],
  "steamid": null,
  "gogid": null,
  "gogslug": "",
  "humblestoreid": "",
  "id": 33841
}