{
  "name": "E.Z",
  "slug": "ez",
  "year": null,
  "description": "",
  "banner_url": "https://lutris.net/games/banner/ez.jpg",
  "icon_url": "https://lutris.net/games/icon/ez.png",
  "is_public": true,
  "updated": "2020-10-08T09:57:53.824746Z",
  "provider_games": [
    {
      "name": "E.Z",
      "slug": "795040",
      "service": "steam"
    }
  ],
  "steamid": 795040,
  "gogid": null,
  "gogslug": "",
  "humblestoreid": "",
  "id": 22710
}