{
  "id": 16476,
  "game_id": 397,
  "game_slug": "the-witcher-2-assassins-of-kings-enhanced-edition",
  "name": "The Witcher 2: Assassins of Kings Enhanced Edition",
  "year": 2011,
  "user": "appoloin",
  "runner": "wine",
  "slug": "the-witcher-2-assassins-of-ki-gog-34025-galliumnin",
  "version": "GOG  3.4.0.25 + GalliumNine",
  "description": null,
  "notes": "Gallium Nine is for AMD and INTEL GPU's only \r\n\r\nImportant: <b>You must supply the exe and bin files yourself.</b> \r\n\r\nIf launcher doesn't work first time run the executable  in \r\n\"drive_c/GOG Games/The Witcher 2 Enhanced Edition/bin/witcher2.exe\"\r\nlauncher should now work\r\n\"drive_c/GOG Games/The Witcher 2 Enhanced Edition/Launcher.exe\"\r\n\r\nIf you get an import DLL error, open a console using winetricks and enable GalliumNine with this command \"wine ninewinecfg\"",
  "created_at": "2019-10-29T15:46:51.060000Z",
  "updated_at": "2019-10-31T00:48:11.474479Z",
  "draft": false,
  "published": true,
  "published_by": 19464,
  "rating": "",
  "steamid": 20920,
  "gogid": 1207658930,
  "gogslug": "the_witcher_2",
  "humbleid": "",
  "humblestoreid": "",
  "humblestoreid_real": "the-witcher-2-assassins-of-kings-enhanced-edition",
  "script": {
    "files": [
      {
        "setup": "N/A:Select the game's setup file from GOG"
      }
    ],
    "game": {
      "arch": "win32",
      "exe": "$GAMEDIR/drive_c/GOG Games/The Witcher 2 Enhanced Edition/Launcher.exe",
      "prefix": "$GAMEDIR"
    },
    "installer": [
      {
        "task": {
          "arch": "win32",
          "install_mono": false,
          "name": "create_prefix",
          "prefix": "$GAMEDIR"
        }
      },
      {
        "task": {
          "app": "d3dx9_36",
          "arch": "win32",
          "name": "winetricks",
          "prefix": "$GAMEDIR"
        }
      },
      {
        "task": {
          "app": "d3dx9_39",
          "arch": "win32",
          "name": "winetricks",
          "prefix": "$GAMEDIR"
        }
      },
      {
        "task": {
          "app": "gdiplus",
          "arch": "win32",
          "name": "winetricks",
          "prefix": "$GAMEDIR"
        }
      },
      {
        "task": {
          "app": "dotnet40",
          "arch": "win32",
          "name": "winetricks",
          "prefix": "$GAMEDIR"
        }
      },
      {
        "task": {
          "app": "vcrun2010 win7",
          "arch": "win32",
          "name": "winetricks",
          "prefix": "$GAMEDIR"
        }
      },
      {
        "task": {
          "args": "/nogui",
          "description": "Installing Witcher 2",
          "executable": "setup",
          "name": "wineexec",
          "prefix": "$GAMEDIR"
        }
      },
      {
        "task": {
          "app": "galliumnine",
          "arch": "win32",
          "name": "winetricks",
          "prefix": "$GAMEDIR"
        }
      },
      {
        "task": {
          "executable": "ninewinecfg",
          "name": "wineexec",
          "prefix": "$GAMEDIR"
        }
      },
      {
        "task": {
          "description": "Setup",
          "executable": "$GAMEDIR/drive_c/GOG Games/The Witcher 2 Enhanced Edition/bin/Configurator.exe",
          "name": "wineexec",
          "prefix": "$GAMEDIR"
        }
      }
    ],
    "system": {
      "env": {
        "__GL_THREADED_OPTIMIZATIONS": "1"
      }
    },
    "wine": {
      "Desktop": true
    }
  },
  "content": "files:\n- setup: N/A:Select the game's setup file from GOG\ngame:\n  arch: win32\n  exe: $GAMEDIR/drive_c/GOG Games/The Witcher 2 Enhanced Edition/Launcher.exe\n  prefix: $GAMEDIR\ninstaller:\n- task:\n    arch: win32\n    install_mono: false\n    name: create_prefix\n    prefix: $GAMEDIR\n- task:\n    app: d3dx9_36\n    arch: win32\n    name: winetricks\n    prefix: $GAMEDIR\n- task:\n    app: d3dx9_39\n    arch: win32\n    name: winetricks\n    prefix: $GAMEDIR\n- task:\n    app: gdiplus\n    arch: win32\n    name: winetricks\n    prefix: $GAMEDIR\n- task:\n    app: dotnet40\n    arch: win32\n    name: winetricks\n    prefix: $GAMEDIR\n- task:\n    app: vcrun2010 win7\n    arch: win32\n    name: winetricks\n    prefix: $GAMEDIR\n- task:\n    args: /nogui\n    description: Installing Witcher 2\n    executable: setup\n    name: wineexec\n    prefix: $GAMEDIR\n- task:\n    app: galliumnine\n    arch: win32\n    name: winetricks\n    prefix: $GAMEDIR\n- task:\n    executable: ninewinecfg\n    name: wineexec\n    prefix: $GAMEDIR\n- task:\n    description: Setup\n    executable: $GAMEDIR/drive_c/GOG Games/The Witcher 2 Enhanced Edition/bin/Configurator.exe\n    name: wineexec\n    prefix: $GAMEDIR\nsystem:\n  env:\n    __GL_THREADED_OPTIMIZATIONS: '1'\nwine:\n  Desktop: true\n"
}