{
  "id": 8376,
  "game_id": 1512,
  "game_slug": "tomb-raider-i",
  "name": "Tomb Raider I",
  "year": 1996,
  "user": "nastys",
  "runner": "wine",
  "slug": "tomb-raider-i-gold-cd-glrage",
  "version": "Gold CD GLRage",
  "description": "Native Windows version of Unfinished Business and Shadow of the Cat. PC (DOS) CD of Tomb Raider (not the bonus disc) required.",
  "notes": "Currently only the main menu is working.",
  "created_at": "2018-05-22T13:49:39.478000Z",
  "updated_at": "2019-10-28T20:47:18.178226Z",
  "draft": false,
  "published": true,
  "published_by": 51687,
  "rating": "",
  "steamid": 224960,
  "gogid": 1207663463,
  "gogslug": "tomb_raider_1",
  "humbleid": "",
  "humblestoreid": "",
  "humblestoreid_real": "",
  "script": {
    "files": [
      {
        "trub": {
          "filename": "trubsoft.zip",
          "referer": "http://tombraiders.net/",
          "url": "http://tombraiders.net/stella/files/gamefiles/TR1files/trubsoft.exe"
        }
      },
      {
        "trati": "https://web.archive.org/web/20081121063015if_/http://ftp.eidos-france.fr/pub/fr/tomb_raider/patches/tombatiragepro.zip"
      },
      {
        "tratiub": "https://web.archive.org/web/20081120212648if_/http://ftp.eidos-france.fr/pub/fr/tomb_raider/patches/tombati.zip"
      },
      {
        "glrage": "https://github.com/ata4/glrage/releases/download/r10/glrage_r10.zip"
      }
    ],
    "game": {
      "arch": "win32",
      "exe": "$GAMEDIR/drive_c/TOMBGOLD/Tombub.exe",
      "prefix": "$GAMEDIR"
    },
    "installer": [
      {
        "insert-disc": {
          "requires": "tomb.exe"
        }
      },
      {
        "task": {
          "arch": "win32",
          "description": "Creating Wine prefix...",
          "name": "create_prefix",
          "prefix": "$GAMEDIR"
        }
      },
      {
        "merge": {
          "description": "Copying game files...",
          "dst": "$GAMEDIR/drive_c/TOMBGOLD",
          "src": "$DISC"
        }
      },
      {
        "extract": {
          "description": "Installing 3D Rage Pro patch...",
          "dst": "$GAMEDIR/drive_c/TOMBGOLD",
          "src": "trati"
        }
      },
      {
        "move": {
          "description": "Installing 3D Rage Pro patch...",
          "dst": "$GAMEDIR/drive_c/TOMBGOLD/ATI.zip",
          "src": "$GAMEDIR/drive_c/TOMBGOLD/ATI.exe"
        }
      },
      {
        "extract": {
          "description": "Installing 3D Rage Pro patch...",
          "dst": "$GAMEDIR/drive_c/TOMBGOLD",
          "src": "$GAMEDIR/drive_c/TOMBGOLD/ATI.zip"
        }
      },
      {
        "extract": {
          "description": "Installing GLRage...",
          "dst": "$GAMEDIR/drive_c/TOMBGOLD",
          "src": "glrage"
        }
      },
      {
        "extract": {
          "description": "Installing Tomb Raider Unfinished Business and Shadow of the Cat...",
          "dst": "$GAMEDIR/drive_c/TOMBGOLD",
          "src": "trub"
        }
      },
      {
        "move": {
          "description": "Installing Tomb Raider Unfinished Business and Shadow of the Cat...",
          "dst": "$GAMEDIR/drive_c/TOMBGOLD/data/cat.tub",
          "src": "$GAMEDIR/drive_c/TOMBGOLD/DATA/CAT.TUB"
        }
      },
      {
        "move": {
          "description": "Installing Tomb Raider Unfinished Business and Shadow of the Cat...",
          "dst": "$GAMEDIR/drive_c/TOMBGOLD/data/cred0.pcx",
          "src": "$GAMEDIR/drive_c/TOMBGOLD/DATA/CRED0.PCX"
        }
      },
      {
        "move": {
          "description": "Installing Tomb Raider Unfinished Business and Shadow of the Cat...",
          "dst": "$GAMEDIR/drive_c/TOMBGOLD/data/egypt.tub",
          "src": "$GAMEDIR/drive_c/TOMBGOLD/DATA/EGYPT.TUB"
        }
      },
      {
        "move": {
          "description": "Installing Tomb Raider Unfinished Business and Shadow of the Cat...",
          "dst": "$GAMEDIR/drive_c/TOMBGOLD/data/end.tub",
          "src": "$GAMEDIR/drive_c/TOMBGOLD/DATA/END.TUB"
        }
      },
      {
        "move": {
          "description": "Installing Tomb Raider Unfinished Business and Shadow of the Cat...",
          "dst": "$GAMEDIR/drive_c/TOMBGOLD/data/end2.tub",
          "src": "$GAMEDIR/drive_c/TOMBGOLD/DATA/END2.TUB"
        }
      },
      {
        "move": {
          "description": "Installing Tomb Raider Unfinished Business and Shadow of the Cat...",
          "dst": "$GAMEDIR/drive_c/TOMBGOLD/data/titleh.pcx",
          "src": "$GAMEDIR/drive_c/TOMBGOLD/DATA/TITLEH.PCX"
        }
      },
      {
        "move": {
          "description": "Installing Tomb Raider Unfinished Business and Shadow of the Cat...",
          "dst": "$GAMEDIR/drive_c/TOMBGOLD/DATA_",
          "src": "$GAMEDIR/drive_c/TOMBGOLD/DATA"
        }
      },
      {
        "extract": {
          "description": "Installing 3D Rage Pro patch for Unfinished Business and Shadow of the Cat...",
          "dst": "$GAMEDIR/drive_c/TOMBGOLD",
          "src": "tratiub"
        }
      }
    ],
    "script": null,
    "wine": {
      "overrides": {
        "ddraw.dll": "n,b"
      }
    }
  },
  "content": "files:\n- trub:\n    filename: trubsoft.zip\n    referer: http://tombraiders.net/\n    url: http://tombraiders.net/stella/files/gamefiles/TR1files/trubsoft.exe\n- trati: https://web.archive.org/web/20081121063015if_/http://ftp.eidos-france.fr/pub/fr/tomb_raider/patches/tombatiragepro.zip\n- tratiub: https://web.archive.org/web/20081120212648if_/http://ftp.eidos-france.fr/pub/fr/tomb_raider/patches/tombati.zip\n- glrage: https://github.com/ata4/glrage/releases/download/r10/glrage_r10.zip\ngame:\n  arch: win32\n  exe: $GAMEDIR/drive_c/TOMBGOLD/Tombub.exe\n  prefix: $GAMEDIR\ninstaller:\n- insert-disc:\n    requires: tomb.exe\n- task:\n    arch: win32\n    description: Creating Wine prefix...\n    name: create_prefix\n    prefix: $GAMEDIR\n- merge:\n    description: Copying game files...\n    dst: $GAMEDIR/drive_c/TOMBGOLD\n    src: $DISC\n- extract:\n    description: Installing 3D Rage Pro patch...\n    dst: $GAMEDIR/drive_c/TOMBGOLD\n    src: trati\n- move:\n    description: Installing 3D Rage Pro patch...\n    dst: $GAMEDIR/drive_c/TOMBGOLD/ATI.zip\n    src: $GAMEDIR/drive_c/TOMBGOLD/ATI.exe\n- extract:\n    description: Installing 3D Rage Pro patch...\n    dst: $GAMEDIR/drive_c/TOMBGOLD\n    src: $GAMEDIR/drive_c/TOMBGOLD/ATI.zip\n- extract:\n    description: Installing GLRage...\n    dst: $GAMEDIR/drive_c/TOMBGOLD\n    src: glrage\n- extract:\n    description: Installing Tomb Raider Unfinished Business and Shadow of the Cat...\n    dst: $GAMEDIR/drive_c/TOMBGOLD\n    src: trub\n- move:\n    description: Installing Tomb Raider Unfinished Business and Shadow of the Cat...\n    dst: $GAMEDIR/drive_c/TOMBGOLD/data/cat.tub\n    src: $GAMEDIR/drive_c/TOMBGOLD/DATA/CAT.TUB\n- move:\n    description: Installing Tomb Raider Unfinished Business and Shadow of the Cat...\n    dst: $GAMEDIR/drive_c/TOMBGOLD/data/cred0.pcx\n    src: $GAMEDIR/drive_c/TOMBGOLD/DATA/CRED0.PCX\n- move:\n    description: Installing Tomb Raider Unfinished Business and Shadow of the Cat...\n    dst: $GAMEDIR/drive_c/TOMBGOLD/data/egypt.tub\n    src: $GAMEDIR/drive_c/TOMBGOLD/DATA/EGYPT.TUB\n- move:\n    description: Installing Tomb Raider Unfinished Business and Shadow of the Cat...\n    dst: $GAMEDIR/drive_c/TOMBGOLD/data/end.tub\n    src: $GAMEDIR/drive_c/TOMBGOLD/DATA/END.TUB\n- move:\n    description: Installing Tomb Raider Unfinished Business and Shadow of the Cat...\n    dst: $GAMEDIR/drive_c/TOMBGOLD/data/end2.tub\n    src: $GAMEDIR/drive_c/TOMBGOLD/DATA/END2.TUB\n- move:\n    description: Installing Tomb Raider Unfinished Business and Shadow of the Cat...\n    dst: $GAMEDIR/drive_c/TOMBGOLD/data/titleh.pcx\n    src: $GAMEDIR/drive_c/TOMBGOLD/DATA/TITLEH.PCX\n- move:\n    description: Installing Tomb Raider Unfinished Business and Shadow of the Cat...\n    dst: $GAMEDIR/drive_c/TOMBGOLD/DATA_\n    src: $GAMEDIR/drive_c/TOMBGOLD/DATA\n- extract:\n    description: Installing 3D Rage Pro patch for Unfinished Business and Shadow of\n      the Cat...\n    dst: $GAMEDIR/drive_c/TOMBGOLD\n    src: tratiub\nscript: null\nwine:\n  overrides:\n    ddraw.dll: n,b\n"
}