{
  "id": 2627,
  "game_id": 1512,
  "game_slug": "tomb-raider-i",
  "name": "Tomb Raider I",
  "year": 1996,
  "user": "strider",
  "runner": "dosbox",
  "slug": "tomb-raider-i-gold",
  "version": "Gold",
  "description": "",
  "notes": "",
  "created_at": "2016-08-29T19:47:19.911113Z",
  "updated_at": "2016-08-29T19:55:54.811907Z",
  "draft": false,
  "published": true,
  "published_by": null,
  "rating": "",
  "steamid": 224960,
  "gogid": 1207663463,
  "gogslug": "tomb_raider_1",
  "humbleid": "",
  "humblestoreid": "",
  "humblestoreid_real": "",
  "script": {
    "game": {
      "main_file": "$GAMEDIR/tomb-play.conf"
    },
    "installer": [
      {
        "insert-disc": {
          "description": "Insert the Tomb Raider CD",
          "requires": "TOMB.EXE"
        }
      },
      {
        "task": {
          "commands": [
            "C:",
            "CD TOMBRAID",
            "TOMB.EXE"
          ],
          "drives": {
            "c": "$GAMEDIR",
            "d": "$DISC"
          },
          "name": "makeconfig",
          "path": "$GAMEDIR/tomb-play.conf"
        }
      },
      {
        "task": {
          "commands": [
            "D:",
            "INSTALL.BAT",
            "exit"
          ],
          "drives": {
            "c": "$GAMEDIR",
            "d": "$DISC"
          },
          "name": "makeconfig",
          "path": "$GAMEDIR/tomb-install.conf"
        }
      },
      {
        "task": {
          "config_file": "$GAMEDIR/tomb-install.conf",
          "name": "dosexec",
          "working_dir": "$GAMEDIR"
        }
      },
      {
        "insert-disc": {
          "description": "Insert the Tomb Raider bonus CD",
          "requires": "TOMBUB.EXE"
        }
      },
      {
        "task": {
          "commands": [
            "D:",
            "instr.bat",
            "exit"
          ],
          "drives": {
            "c": "$GAMEDIR",
            "d": "$DISC"
          },
          "name": "makeconfig",
          "path": "$GAMEDIR/tomb-install-ub.conf"
        }
      },
      {
        "task": {
          "config_file": "$GAMEDIR/tomb-install-ub.conf",
          "name": "dosexec",
          "working_dir": "$GAMEDIR"
        }
      }
    ]
  },
  "content": "game:\n  main_file: $GAMEDIR/tomb-play.conf\ninstaller:\n- insert-disc:\n    description: Insert the Tomb Raider CD\n    requires: TOMB.EXE\n- task:\n    commands:\n    - 'C:'\n    - CD TOMBRAID\n    - TOMB.EXE\n    drives:\n      c: $GAMEDIR\n      d: $DISC\n    name: makeconfig\n    path: $GAMEDIR/tomb-play.conf\n- task:\n    commands:\n    - 'D:'\n    - INSTALL.BAT\n    - exit\n    drives:\n      c: $GAMEDIR\n      d: $DISC\n    name: makeconfig\n    path: $GAMEDIR/tomb-install.conf\n- task:\n    config_file: $GAMEDIR/tomb-install.conf\n    name: dosexec\n    working_dir: $GAMEDIR\n- insert-disc:\n    description: Insert the Tomb Raider bonus CD\n    requires: TOMBUB.EXE\n- task:\n    commands:\n    - 'D:'\n    - instr.bat\n    - exit\n    drives:\n      c: $GAMEDIR\n      d: $DISC\n    name: makeconfig\n    path: $GAMEDIR/tomb-install-ub.conf\n- task:\n    config_file: $GAMEDIR/tomb-install-ub.conf\n    name: dosexec\n    working_dir: $GAMEDIR\n"
}