{
  "id": 3678,
  "game_id": 5826,
  "game_slug": "diablo",
  "name": "Diablo",
  "year": 1996,
  "user": "gugutz",
  "runner": "wine",
  "slug": "diablo-original",
  "version": "Original",
  "description": "Original vanilla game, without any patches or mods.",
  "notes": "- Original CD required. Mount it before you play.\r\n- Use default options during the Windows setup. \r\n- Close the game with Alt+F4 if it launches automatically at the end.",
  "created_at": "2017-05-14T13:25:13.428000Z",
  "updated_at": "2018-05-19T03:41:52.288140Z",
  "draft": false,
  "published": true,
  "published_by": null,
  "rating": "",
  "steamid": null,
  "gogid": 1412601690,
  "gogslug": "diablo",
  "humbleid": "",
  "humblestoreid": "",
  "humblestoreid_real": "",
  "script": {
    "exe": "drive_c/Program Files/Diablo/diablo.exe",
    "game": {
      "arch": "win32",
      "prefix": "$GAMEDIR"
    },
    "installer": [
      {
        "insert-disc": {
          "requires": "diabdat.mpq"
        }
      },
      {
        "task": {
          "executable": "$DISC/setup.exe",
          "name": "wineexec",
          "prefix": "$GAMEDIR"
        }
      },
      {
        "merge": {
          "dst": "$GAMEDIR",
          "src": "$DISC/diabdat.mpq"
        }
      }
    ]
  },
  "content": "exe: drive_c/Program Files/Diablo/diablo.exe\ngame:\n  arch: win32\n  prefix: $GAMEDIR\ninstaller:\n- insert-disc:\n    requires: diabdat.mpq\n- task:\n    executable: $DISC/setup.exe\n    name: wineexec\n    prefix: $GAMEDIR\n- merge:\n    dst: $GAMEDIR\n    src: $DISC/diabdat.mpq\n"
}