{
  "id": 3679,
  "game_id": 5826,
  "game_slug": "diablo",
  "name": "Diablo",
  "year": 1996,
  "user": "gugutz",
  "runner": "wine",
  "slug": "diablo-no-cd-ipx",
  "version": "No CD / IPX",
  "description": "Includes Diablo No-Cd Loader\r\nIncludes IPX Wrapper, to allow playing over LAN.",
  "notes": "- Uses No-Cd Loader, but you still have to provide diabdat.mpq from the original CD.\r\n- Use default options during the Windows setup. \r\n- Close the game with Alt+F4 if it launches automatically at the end.",
  "created_at": "2017-05-14T13:39:45.383000Z",
  "updated_at": "2019-09-25T09:04:41.065622Z",
  "draft": false,
  "published": true,
  "published_by": 494,
  "rating": "",
  "steamid": null,
  "gogid": 1412601690,
  "gogslug": "diablo",
  "humbleid": "",
  "humblestoreid": "",
  "humblestoreid_real": "",
  "script": {
    "game": {
      "arch": "win32",
      "exe": "drive_c/Program Files/Diablo/diablo.exe",
      "prefix": "$GAMEDIR"
    },
    "installer": [
      {
        "insert-disc": {
          "requires": "setup.exe"
        }
      },
      {
        "task": {
          "arch": "win32",
          "name": "create_prefix",
          "prefix": "$GAMEDIR"
        }
      },
      {
        "task": {
          "arch": "win32",
          "executable": "$DISC/setup.exe",
          "name": "wineexec",
          "prefix": "$GAMEDIR"
        }
      }
    ]
  },
  "content": "game:\n  arch: win32\n  exe: drive_c/Program Files/Diablo/diablo.exe\n  prefix: $GAMEDIR\ninstaller:\n- insert-disc:\n    requires: setup.exe\n- task:\n    arch: win32\n    name: create_prefix\n    prefix: $GAMEDIR\n- task:\n    arch: win32\n    executable: $DISC/setup.exe\n    name: wineexec\n    prefix: $GAMEDIR\n"
}