{
  "id": 5206,
  "game_id": 12390,
  "game_slug": "ellaria-cotton-cream",
  "name": "Ellaria: Cotton & Cream",
  "year": 2016,
  "user": "FakeShemp",
  "runner": "linux",
  "slug": "ellaria-cotton-cream-itchio",
  "version": "itch.io",
  "description": "",
  "notes": "",
  "created_at": "2017-07-25T21:49:42.640338Z",
  "updated_at": "2017-08-15T04:25:28.991017Z",
  "draft": false,
  "published": true,
  "published_by": null,
  "rating": "",
  "steamid": null,
  "gogid": null,
  "gogslug": "",
  "humbleid": "",
  "humblestoreid": "",
  "humblestoreid_real": "",
  "script": {
    "exe": "C&C.sh",
    "files": [
      {
        "file1": "N/A:Please select the itch.io archive"
      }
    ],
    "installer": [
      {
        "extract": {
          "file": "$file1"
        }
      }
    ]
  },
  "content": "exe: C&C.sh\nfiles:\n- file1: N/A:Please select the itch.io archive\ninstaller:\n- extract:\n    file: $file1\n"
}