{
  "name": "Hidden Expedition: The Crown of Solomon Collector's Edition",
  "slug": "hidden-expedition-the-crown-of-solomon-collectors-",
  "year": null,
  "description": "",
  "banner_url": "https://lutris.net/games/banner/hidden-expedition-the-crown-of-solomon-collectors-.jpg",
  "icon_url": "https://lutris.net/games/icon/hidden-expedition-the-crown-of-solomon-collectors-.png",
  "is_public": true,
  "updated": "2020-10-08T10:13:15.460102Z",
  "provider_games": [
    {
      "name": "Hidden Expedition: The Crown of Solomon Collector's Edition",
      "slug": "465990",
      "service": "steam"
    }
  ],
  "steamid": 465990,
  "gogid": null,
  "gogslug": "",
  "humblestoreid": "",
  "id": 30534
}