{
  "name": "Dysan the Shapeshifter",
  "slug": "dysan-the-shapeshifter",
  "year": null,
  "description": "",
  "banner_url": "https://lutris.net/games/banner/dysan-the-shapeshifter.jpg",
  "icon_url": "https://lutris.net/games/icon/dysan-the-shapeshifter.png",
  "is_public": false,
  "updated": "2019-01-23T08:29:20.525614Z",
  "provider_games": [],
  "steamid": 303410,
  "gogid": null,
  "gogslug": "",
  "humblestoreid": "",
  "id": 2163
}