{
  "name": "Green Elephant 2D",
  "slug": "green-elephant-2d",
  "year": null,
  "description": "",
  "banner_url": "https://lutris.net/games/banner/green-elephant-2d.jpg",
  "icon_url": "https://lutris.net/games/icon/green-elephant-2d.png",
  "is_public": true,
  "updated": "2020-10-08T10:04:36.095016Z",
  "provider_games": [
    {
      "name": "Green Elephant 2D",
      "slug": "589770",
      "service": "steam"
    }
  ],
  "steamid": 589770,
  "gogid": null,
  "gogslug": "",
  "humblestoreid": "",
  "id": 24619
}