{
  "name": "Heaven Forest NIGHTS",
  "slug": "heaven-forest-nights",
  "year": null,
  "description": "",
  "banner_url": "https://lutris.net/games/banner/heaven-forest-nights.jpg",
  "icon_url": "https://lutris.net/games/icon/heaven-forest-nights.png",
  "is_public": true,
  "updated": "2020-10-08T10:16:16.204873Z",
  "provider_games": [
    {
      "name": "Heaven Forest NIGHTS",
      "slug": "360970",
      "service": "steam"
    }
  ],
  "steamid": 360970,
  "gogid": null,
  "gogslug": "",
  "humblestoreid": "",
  "id": 11251
}