{
  "id": 10387,
  "game_id": 22003,
  "game_slug": "depth-of-extinction",
  "name": "Depth of Extinction",
  "year": 2018,
  "user": "Talvi",
  "runner": "linux",
  "slug": "depth-of-extinction-gog",
  "version": "GOG",
  "description": null,
  "notes": "",
  "created_at": "2018-10-01T09:53:30.956000Z",
  "updated_at": "2019-03-30T01:03:22.955584Z",
  "draft": false,
  "published": true,
  "published_by": 19464,
  "rating": "",
  "steamid": 636320,
  "gogid": 1397277197,
  "gogslug": "depth_of_extinction",
  "humbleid": "",
  "humblestoreid": "",
  "humblestoreid_real": "",
  "script": {
    "files": [
      {
        "goginstaller": "N/A:Please select the GOG.com Linux installer"
      }
    ],
    "game": {
      "exe": "start.sh"
    },
    "installer": [
      {
        "extract": {
          "dst": "$CACHE/GOG",
          "file": "goginstaller",
          "format": "zip"
        }
      },
      {
        "merge": {
          "dst": "$GAMEDIR",
          "src": "$CACHE/GOG/data/noarch/"
        }
      }
    ]
  },
  "content": "files:\n- goginstaller: N/A:Please select the GOG.com Linux installer\ngame:\n  exe: start.sh\ninstaller:\n- extract:\n    dst: $CACHE/GOG\n    file: goginstaller\n    format: zip\n- merge:\n    dst: $GAMEDIR\n    src: $CACHE/GOG/data/noarch/\n"
}