{
  "name": "Kingpin: Life of Crime",
  "slug": "kingpin-life-of-crime",
  "year": 1999,
  "description": "As a thug beaten to the brink of death you have started your mission of revenge. You want to bury those bastards six feet under for what they have done to you, but to do so you need to start your own gang and recruit right from the streets. If a new gang member turns out to be a punk, blast him, and make room for new ones. Move up in the world, but watch out for the Kingpin, eventually you're going to have to take him on.\r\n\r\nSomewhere in the past that never crossed paths with the future lies the world of the Kingpin. Burned out buildings and urban decay are the landscape. Local gangs roam the streets, protecting their turf and scooping out opportunities.\r\n\r\nRecruit a gang of thugs and rule the streets, snuff out rivals with a single head-shot and watch them bleed to death. Or put them on fire and watch them suffer. You will deliver an extremely brutal and violent death to those who messed you up. Kill everyone who stands in your way and become new Kingpin - crime lord of every thief, murderer and dirty thug in the city.",
  "banner_url": "https://lutris.net/games/banner/kingpin-life-of-crime.jpg",
  "icon_url": "",
  "is_public": true,
  "updated": "2020-05-31T00:17:46.680447Z",
  "provider_games": [
    {
      "name": "Kingpin: Life of Crime",
      "slug": "9",
      "service": "gog"
    }
  ],
  "steamid": null,
  "gogid": 9,
  "gogslug": "kingpin_life_of_crime",
  "humblestoreid": "",
  "id": 23707
}