{
  "name": "Dribbling",
  "slug": "dribbling",
  "year": 1983,
  "description": "",
  "banner_url": "",
  "icon_url": "https://lutris.net/games/icon/dribbling.png",
  "is_public": true,
  "updated": "2020-05-26T03:33:27.866035Z",
  "provider_games": [
    {
      "name": "Dribbling",
      "slug": "dribling",
      "service": "mame"
    }
  ],
  "steamid": null,
  "gogid": null,
  "gogslug": "",
  "humblestoreid": "",
  "id": 33957
}