{
  "id": 4183,
  "game_id": 820,
  "game_slug": "deadlight",
  "name": "Deadlight",
  "year": 2012,
  "user": "FakeShemp",
  "runner": "wine",
  "slug": "deadlight-humble",
  "version": "Humble",
  "description": "",
  "notes": "",
  "created_at": "2017-06-06T21:20:38.948000Z",
  "updated_at": "2018-05-19T03:41:50.442864Z",
  "draft": false,
  "published": true,
  "published_by": null,
  "rating": "",
  "steamid": 211400,
  "gogid": null,
  "gogslug": "",
  "humbleid": "",
  "humblestoreid": "",
  "humblestoreid_real": "",
  "script": {
    "files": [
      {
        "file1": "N/A:Please select the Humble archive"
      }
    ],
    "game": {
      "arch": "win32",
      "exe": "drive_c/Program Files/Deadlight/Binaries/Win32/LOTDGame.exe",
      "prefix": "$GAMEDIR"
    },
    "installer": [
      {
        "extract": {
          "dst": "$CACHE",
          "file": "$file1"
        }
      },
      {
        "task": {
          "executable": "$CACHE/setup.exe",
          "name": "wineexec",
          "prefix": "$GAMEDIR"
        }
      }
    ]
  },
  "content": "files:\n- file1: N/A:Please select the Humble archive\ngame:\n  arch: win32\n  exe: drive_c/Program Files/Deadlight/Binaries/Win32/LOTDGame.exe\n  prefix: $GAMEDIR\ninstaller:\n- extract:\n    dst: $CACHE\n    file: $file1\n- task:\n    executable: $CACHE/setup.exe\n    name: wineexec\n    prefix: $GAMEDIR\n"
}