{
  "name": "Greed: Black Border",
  "slug": "greed-black-border",
  "year": null,
  "description": "",
  "banner_url": "https://lutris.net/games/banner/greed-black-border.jpg",
  "icon_url": "https://lutris.net/games/icon/greed-black-border.png",
  "is_public": true,
  "updated": "2020-10-08T10:02:02.669142Z",
  "provider_games": [
    {
      "name": "Greed: Black Border",
      "slug": "46400",
      "service": "steam"
    }
  ],
  "steamid": 46400,
  "gogid": null,
  "gogslug": "",
  "humblestoreid": "",
  "id": 887
}