{
  "id": 2569,
  "game_id": 1437,
  "game_slug": "shadow-warrior",
  "name": "Shadow Warrior",
  "year": 2013,
  "user": "ssf",
  "runner": "linux",
  "slug": "shadow-warrior-gog",
  "version": "GOG",
  "description": null,
  "notes": "",
  "created_at": "2016-08-23T16:19:06.735000Z",
  "updated_at": "2020-04-09T10:37:53.482912Z",
  "draft": false,
  "published": true,
  "published_by": 20548,
  "rating": "",
  "steamid": 233130,
  "gogid": 1207659573,
  "gogslug": "shadow_warrior",
  "humbleid": "shadowwarrior",
  "humblestoreid": "shadowwarrior",
  "humblestoreid_real": "shadow-warrior",
  "script": {
    "files": [
      {
        "goginstaller": "N/A:Please select the GOG.com Linux installer."
      }
    ],
    "game": {
      "exe": "start.sh",
      "gogid": 1430392753
    },
    "installer": [
      {
        "extract": {
          "dst": "$CACHE/GOG",
          "file": "goginstaller",
          "format": "zip"
        }
      },
      {
        "merge": {
          "dst": "$GAMEDIR",
          "src": "$CACHE/GOG/data/noarch/"
        }
      }
    ]
  },
  "content": "files:\n- goginstaller: N/A:Please select the GOG.com Linux installer.\ngame:\n  exe: start.sh\n  gogid: 1430392753\ninstaller:\n- extract:\n    dst: $CACHE/GOG\n    file: goginstaller\n    format: zip\n- merge:\n    dst: $GAMEDIR\n    src: $CACHE/GOG/data/noarch/\n"
}