{
  "name": "Arcadecraft",
  "slug": "arcadecraft",
  "year": null,
  "description": "",
  "banner_url": "https://lutris.net/games/banner/arcadecraft.jpg",
  "icon_url": "https://lutris.net/games/icon/arcadecraft.png",
  "is_public": true,
  "updated": "2020-10-08T09:20:21.750468Z",
  "provider_games": [
    {
      "name": "Arcadecraft",
      "slug": "297330",
      "service": "steam"
    }
  ],
  "steamid": 297330,
  "gogid": null,
  "gogslug": "",
  "humblestoreid": "",
  "id": 4406
}