{
  "name": "D'LIRIUM",
  "slug": "dlirium",
  "year": null,
  "description": "",
  "banner_url": "https://lutris.net/games/banner/dlirium.jpg",
  "icon_url": "https://lutris.net/games/icon/dlirium.png",
  "is_public": true,
  "updated": "2020-10-08T10:09:19.039262Z",
  "provider_games": [
    {
      "name": "D'LIRIUM",
      "slug": "670160",
      "service": "steam"
    }
  ],
  "steamid": 670160,
  "gogid": null,
  "gogslug": "",
  "humblestoreid": "",
  "id": 19407
}