{
  "name": "Hollow Throne",
  "slug": "hollow-throne",
  "year": null,
  "description": "",
  "banner_url": "https://lutris.net/games/banner/hollow-throne.jpg",
  "icon_url": "https://lutris.net/games/icon/hollow-throne.png",
  "is_public": true,
  "updated": "2020-10-08T09:58:53.576947Z",
  "provider_games": [
    {
      "name": "Hollow Throne",
      "slug": "750790",
      "service": "steam"
    }
  ],
  "steamid": 750790,
  "gogid": null,
  "gogslug": "",
  "humblestoreid": "",
  "id": 24667
}