{
  "name": "BPM: BULLETS PER MINUTE",
  "slug": "bpm-bullets-per-minute",
  "year": null,
  "description": "",
  "banner_url": "https://lutris.net/games/banner/bpm-bullets-per-minute.jpg",
  "icon_url": "https://lutris.net/games/icon/bpm-bullets-per-minute.png",
  "is_public": true,
  "updated": "2020-10-08T09:55:19.968168Z",
  "provider_games": [
    {
      "name": "BPM: BULLETS PER MINUTE",
      "slug": "1286350",
      "service": "steam"
    }
  ],
  "steamid": 1286350,
  "gogid": null,
  "gogslug": "",
  "humblestoreid": "",
  "id": 39142
}