{
  "name": "Fancy Skulls",
  "slug": "fancy-skulls",
  "year": null,
  "description": "",
  "banner_url": "https://lutris.net/games/banner/fancy-skulls.jpg",
  "icon_url": "https://lutris.net/games/icon/fancy-skulls.png",
  "is_public": true,
  "updated": "2019-01-23T08:29:28.348906Z",
  "provider_games": [
    {
      "name": "Fancy Skulls",
      "slug": "307090",
      "service": "steam"
    }
  ],
  "steamid": 307090,
  "gogid": null,
  "gogslug": "",
  "humblestoreid": "",
  "id": 2166
}