{
  "name": "Camera Obscura",
  "slug": "camera-obscura",
  "year": null,
  "description": "",
  "banner_url": "https://lutris.net/games/banner/camera-obscura.jpg",
  "icon_url": "https://lutris.net/games/icon/camera-obscura.png",
  "is_public": true,
  "updated": "2020-10-08T09:19:15.805963Z",
  "provider_games": [
    {
      "name": "Camera Obscura",
      "slug": "341500",
      "service": "steam"
    }
  ],
  "steamid": 341500,
  "gogid": null,
  "gogslug": "",
  "humblestoreid": "",
  "id": 4614
}