{
  "name": "Ambre - a heartbreaking kinetic novel",
  "slug": "ambre-a-heartbreaking-kinetic-novel",
  "year": 2017,
  "description": "As he is passing by a park, a depressed thirty years old named Tristan Mallory discovers a lost little girl. Touched, he decides to help by taking her in. But something is off about their relationship, very off. Will you be able to figure out their terrible secret?\r\n\r\nAmbre is a kinetic novel, thus you cannot choose the fate of the characters. However the story will take you on an emotional roller-coaster you won’t quite see coming. Even if things seem wrong, do not ever give up…or you’ll regret it.",
  "banner_url": "https://lutris.net/games/banner/ambre-a-heartbreaking-kinetic-novel.jpg",
  "icon_url": "https://lutris.net/games/icon/ambre-a-heartbreaking-kinetic-novel.png",
  "is_public": true,
  "updated": "2019-01-23T08:28:20.534769Z",
  "provider_games": [
    {
      "name": "Ambre - a heartbreaking kinetic novel",
      "slug": "623840",
      "service": "steam"
    }
  ],
  "steamid": 623840,
  "gogid": null,
  "gogslug": "",
  "humblestoreid": "",
  "id": 11875
}