{
  "name": "AssaultCube",
  "slug": "assault-cube",
  "year": 2013,
  "description": "AssaultCube is a FREE multiplayer first-person shooter game. Taking place in realistic environments, with fast, arcade gameplay, it's addictive and fun!",
  "banner_url": "https://lutris.net/games/banner/assault-cube.jpg",
  "icon_url": "https://lutris.net/games/icon/assault-cube.png",
  "is_public": true,
  "updated": "2019-01-23T08:28:27.497673Z",
  "provider_games": [],
  "steamid": null,
  "gogid": null,
  "gogslug": "",
  "humblestoreid": "",
  "id": 84
}