{
  "name": "a completely normal dating simulation that is definitely completely sweet, innocent and normal",
  "slug": "a-completely-normal-dating-simulation-that-is-defi",
  "year": 2019,
  "description": "this game is very normal and not terrifying at all.",
  "banner_url": "https://lutris.net/games/banner/a-completely-normal-dating-simulation-that-is-defi.jpg",
  "icon_url": "",
  "is_public": true,
  "updated": "2020-09-28T14:25:51.019199Z",
  "provider_games": [],
  "steamid": null,
  "gogid": null,
  "gogslug": "",
  "humblestoreid": "",
  "id": 39434
}