{
  "name": "Legend of Himari",
  "slug": "legend-of-himari",
  "year": null,
  "description": "",
  "banner_url": "https://lutris.net/games/banner/legend-of-himari.jpg",
  "icon_url": "https://lutris.net/games/icon/legend-of-himari.png",
  "is_public": true,
  "updated": "2020-10-08T10:03:10.498406Z",
  "provider_games": [
    {
      "name": "Legend of Himari",
      "slug": "634340",
      "service": "steam"
    }
  ],
  "steamid": 634340,
  "gogid": null,
  "gogslug": "",
  "humblestoreid": "",
  "id": 22443
}