{
  "id": 4779,
  "game_id": 7958,
  "game_slug": "tick-tock-isle",
  "name": "Tick Tock Isle",
  "year": null,
  "user": "FakeShemp",
  "runner": "wine",
  "slug": "tick-tock-isle-humble",
  "version": "Humble",
  "description": "",
  "notes": "",
  "created_at": "2017-07-03T17:40:26.200438Z",
  "updated_at": "2018-05-19T03:41:54.813963Z",
  "draft": false,
  "published": true,
  "published_by": null,
  "rating": "",
  "steamid": 418440,
  "gogid": null,
  "gogslug": "",
  "humbleid": "",
  "humblestoreid": "",
  "humblestoreid_real": "",
  "script": {
    "files": [
      {
        "file1": "N/A:Please select the Humble archive"
      }
    ],
    "game": {
      "arch": "win32",
      "exe": "drive_c/Program Files/Tick Tock Isle/Tick Tock Isle.exe",
      "prefix": "$GAMEDIR"
    },
    "installer": [
      {
        "extract": {
          "dst": "$GAMEDIR/drive_c/Program Files/Tick Tock Isle",
          "file": "$file1"
        }
      }
    ]
  },
  "content": "files:\n- file1: N/A:Please select the Humble archive\ngame:\n  arch: win32\n  exe: drive_c/Program Files/Tick Tock Isle/Tick Tock Isle.exe\n  prefix: $GAMEDIR\ninstaller:\n- extract:\n    dst: $GAMEDIR/drive_c/Program Files/Tick Tock Isle\n    file: $file1\n"
}