{
  "name": "Burning Cars",
  "slug": "burning-cars",
  "year": null,
  "description": "",
  "banner_url": "https://lutris.net/games/banner/burning-cars.jpg",
  "icon_url": "https://lutris.net/games/icon/burning-cars.png",
  "is_public": true,
  "updated": "2019-01-23T08:28:43.458061Z",
  "provider_games": [
    {
      "name": "Burning Cars",
      "slug": "269430",
      "service": "steam"
    }
  ],
  "steamid": 269430,
  "gogid": null,
  "gogslug": "",
  "humblestoreid": "",
  "id": 3071
}