{
  "name": "Grand Cross v1.02F",
  "slug": "grand-cross-v102f",
  "year": 1994,
  "description": "",
  "banner_url": "",
  "icon_url": "https://lutris.net/games/icon/grand-cross-v102f.png",
  "is_public": true,
  "updated": "2020-05-26T03:34:15.216199Z",
  "provider_games": [
    {
      "name": "Grand Cross v1.02F",
      "slug": "gcpinbal",
      "service": "mame"
    }
  ],
  "steamid": null,
  "gogid": null,
  "gogslug": "",
  "humblestoreid": "",
  "id": 34211
}