{
  "name": "DeadCore",
  "slug": "deadcore",
  "year": null,
  "description": "",
  "banner_url": "https://lutris.net/games/banner/deadcore.jpg",
  "icon_url": "https://lutris.net/games/icon/deadcore.png",
  "is_public": true,
  "updated": "2019-01-23T08:29:06.118197Z",
  "provider_games": [
    {
      "name": "DeadCore",
      "slug": "284460",
      "service": "steam"
    }
  ],
  "steamid": 284460,
  "gogid": null,
  "gogslug": "",
  "humblestoreid": "",
  "id": 3403
}