{
  "name": "Jagged Alliance 2 Gold: Unfinished Business",
  "slug": "jagged-alliance-2-gold-unfinished-business",
  "year": null,
  "description": "",
  "banner_url": "https://lutris.net/games/banner/jagged-alliance-2-gold-unfinished-business.jpg",
  "icon_url": "https://lutris.net/games/icon/jagged-alliance-2-gold-unfinished-business.png",
  "is_public": true,
  "updated": "2020-10-08T10:02:38.483144Z",
  "provider_games": [
    {
      "name": "Jagged Alliance 2 Gold: Unfinished Business",
      "slug": "12380",
      "service": "steam"
    }
  ],
  "steamid": 12380,
  "gogid": null,
  "gogslug": "",
  "humblestoreid": "",
  "id": 1310
}