{
  "name": "Armored Core 3",
  "slug": "armored-core-3",
  "year": 2002,
  "description": "CONTROL OF THE EARTH IS STILL UNDECIDED...\r\n\r\n\r\nIt's been 20 years since the Earth Government and the Corporations battled for supremacy. Another mysterious entity has entered the picture - snapping up all the available Ravens for intense missions that only their custom-built Armored Core Units can handle. As a Raven, you know there's always another mission waiting for you - does it really matter who hires you? We didn't think so. But just the same, keep your back covered, Raven.\r\n\r\nAll-New Engine!\r\nEvery element of gameplay has been redesigned to get you into action - immediately!\r\n\r\n50 All-New Solo Missions!\r\nNew \"Wingman\" Feature allows you to take an A.I. controlled partner on your solo missions!\r\n\r\nAll-New Weapons & Upgrades!\r\nEvery part, piece, weapon, everything has been completely reinvented!\r\n\r\nAll-New Graphics & Tighter Gameplay!\r\nThe series has never looked better - and the DUALSHOCK Analog Controller handles the AC's movements like never before!\r\n\r\nAll-New 4-Player Mode!\r\nYou and three of your friends can pit your custom-designed AC's against each other in the new Versus Mode!\r\n\r\nAll-New Drop Feature!\r\nJettison empty weapons from your AC to move faster!\r\n\r\nAll this and Dolby Surround sound for incredible sound FX!",
  "banner_url": "https://lutris.net/games/banner/armored-core-3.jpg",
  "icon_url": "",
  "is_public": true,
  "updated": "2019-08-18T14:38:23.204672Z",
  "provider_games": [],
  "steamid": null,
  "gogid": null,
  "gogslug": "",
  "humblestoreid": "",
  "id": 28886
}