{
  "name": "Farm Frenzy: Hurricane Season",
  "slug": "farm-frenzy-hurricane-season",
  "year": null,
  "description": "",
  "banner_url": "https://lutris.net/games/banner/farm-frenzy-hurricane-season.jpg",
  "icon_url": "https://lutris.net/games/icon/farm-frenzy-hurricane-season.png",
  "is_public": true,
  "updated": "2020-10-08T10:16:16.974289Z",
  "provider_games": [
    {
      "name": "Farm Frenzy: Hurricane Season",
      "slug": "361930",
      "service": "steam"
    }
  ],
  "steamid": 361930,
  "gogid": null,
  "gogslug": "",
  "humblestoreid": "",
  "id": 15905
}