{
  "name": "Bitcoin Farm",
  "slug": "bitcoin-farm",
  "year": null,
  "description": "",
  "banner_url": "https://lutris.net/games/banner/bitcoin-farm.jpg",
  "icon_url": "https://lutris.net/games/icon/bitcoin-farm.png",
  "is_public": true,
  "updated": "2020-10-08T09:58:37.057698Z",
  "provider_games": [
    {
      "name": "Bitcoin Farm",
      "slug": "760930",
      "service": "steam"
    }
  ],
  "steamid": 760930,
  "gogid": null,
  "gogslug": "",
  "humblestoreid": "",
  "id": 18360
}