{
  "name": "Command & Conquer™ Remastered Collection",
  "slug": "command-conquertm-remastered-collection",
  "year": null,
  "description": "",
  "banner_url": "https://lutris.net/games/banner/command-conquertm-remastered-collection.jpg",
  "icon_url": "https://lutris.net/games/icon/command-conquertm-remastered-collection.png",
  "is_public": true,
  "updated": "2020-10-08T10:17:19.082371Z",
  "provider_games": [
    {
      "name": "Command & Conquer™ Remastered Collection",
      "slug": "1213210",
      "service": "steam"
    }
  ],
  "steamid": 1213210,
  "gogid": null,
  "gogslug": "",
  "humblestoreid": "",
  "id": 37196
}