{
  "name": "Dragonflight",
  "slug": "dragonflight",
  "year": null,
  "description": "",
  "banner_url": "https://lutris.net/games/banner/dragonflight.jpg",
  "icon_url": "https://lutris.net/games/icon/dragonflight.png",
  "is_public": true,
  "updated": "2020-10-08T10:15:31.328468Z",
  "provider_games": [
    {
      "name": "Dragonflight",
      "slug": "386930",
      "service": "steam"
    }
  ],
  "steamid": 386930,
  "gogid": null,
  "gogslug": "",
  "humblestoreid": "",
  "id": 28227
}