{
  "id": 4512,
  "game_id": 3247,
  "game_slug": "audiosurf",
  "name": "Audiosurf",
  "year": 2008,
  "user": "FakeShemp",
  "runner": "wine",
  "slug": "audiosurf-humble",
  "version": "Humble",
  "description": "",
  "notes": "",
  "created_at": "2017-06-19T21:24:09.592938Z",
  "updated_at": "2018-05-19T03:41:51.752513Z",
  "draft": false,
  "published": true,
  "published_by": null,
  "rating": "",
  "steamid": 12900,
  "gogid": null,
  "gogslug": "",
  "humbleid": "",
  "humblestoreid": "",
  "humblestoreid_real": "audiosurf",
  "script": {
    "files": [
      {
        "file1": "N/A:Please select the Humble archive"
      }
    ],
    "game": {
      "arch": "win32",
      "exe": "drive_c/Program Files/Audiosurf/Audiosurf.exe",
      "prefix": "$GAMEDIR"
    },
    "installer": [
      {
        "extract": {
          "dst": "$GAMEDIR/drive_c/Program Files/Audiosurf",
          "file": "$file1"
        }
      }
    ]
  },
  "content": "files:\n- file1: N/A:Please select the Humble archive\ngame:\n  arch: win32\n  exe: drive_c/Program Files/Audiosurf/Audiosurf.exe\n  prefix: $GAMEDIR\ninstaller:\n- extract:\n    dst: $GAMEDIR/drive_c/Program Files/Audiosurf\n    file: $file1\n"
}