{
  "name": "Along the Edge",
  "slug": "along-the-edge",
  "year": null,
  "description": "",
  "banner_url": "https://lutris.net/games/banner/along-the-edge.jpg",
  "icon_url": "https://lutris.net/games/icon/along-the-edge.png",
  "is_public": true,
  "updated": "2020-10-08T10:07:17.486970Z",
  "provider_games": [
    {
      "name": "Along the Edge",
      "slug": "504390",
      "service": "steam"
    }
  ],
  "steamid": 504390,
  "gogid": null,
  "gogslug": "",
  "humblestoreid": "",
  "id": 13519
}