{
  "name": "Avernum 6",
  "slug": "avernum-6",
  "year": null,
  "description": "",
  "banner_url": "https://lutris.net/games/banner/avernum-6.jpg",
  "icon_url": "https://lutris.net/games/icon/avernum-6.png",
  "is_public": true,
  "updated": "2020-05-31T00:17:35.233389Z",
  "provider_games": [
    {
      "name": "Avernum 6",
      "slug": "1207663443",
      "service": "gog"
    },
    {
      "name": "Avernum 6",
      "slug": "206060",
      "service": "steam"
    }
  ],
  "steamid": 206060,
  "gogid": 1207663443,
  "gogslug": "avernum_6",
  "humblestoreid": "",
  "id": 802
}