{
  "name": "Judas Goat",
  "slug": "judas-goat",
  "year": null,
  "description": "",
  "banner_url": "https://lutris.net/games/banner/judas-goat.jpg",
  "icon_url": "https://lutris.net/games/icon/judas-goat.png",
  "is_public": true,
  "updated": "2020-10-08T10:04:37.876949Z",
  "provider_games": [
    {
      "name": "Judas Goat",
      "slug": "589190",
      "service": "steam"
    }
  ],
  "steamid": 589190,
  "gogid": null,
  "gogslug": "",
  "humblestoreid": "",
  "id": 24470
}