{
  "id": 10036,
  "game_id": 418,
  "game_slug": "alan-wake",
  "name": "Alan Wake",
  "year": 2010,
  "user": "OsamaBinlada",
  "runner": "wine",
  "slug": "alan-wake-gog",
  "version": "GOG",
  "description": null,
  "notes": "",
  "created_at": "2018-09-04T08:35:14.516000Z",
  "updated_at": "2019-12-29T17:44:40.124491Z",
  "draft": false,
  "published": true,
  "published_by": null,
  "rating": "",
  "steamid": 108710,
  "gogid": 1207659037,
  "gogslug": "alan_wake",
  "humbleid": "",
  "humblestoreid": "",
  "humblestoreid_real": "",
  "script": {
    "files": [
      {
        "install": "N/A:Select the Windows setup file downloaded from GOG"
      }
    ],
    "game": {
      "arch": "win32",
      "exe": "$GAMEDIR/drive_c/GOG Games/Alan Wake/alanwake.exe",
      "prefix": "$GAMEDIR"
    },
    "installer": [
      {
        "task": {
          "app": "d3dcompiler_43",
          "arch": "win32",
          "description": "Installing d3dcompiler_43",
          "name": "winetricks",
          "prefix": "$GAMEDIR"
        }
      },
      {
        "task": {
          "app": "d3dx9",
          "arch": "win32",
          "description": "Installing d3dx9",
          "name": "winetricks",
          "prefix": "$GAMEDIR"
        }
      },
      {
        "task": {
          "app": "gdiplus",
          "arch": "win32",
          "description": "Installing gdiplus",
          "name": "winetricks",
          "prefix": "$GAMEDIR"
        }
      },
      {
        "task": {
          "app": "vcrun2005",
          "arch": "win32",
          "description": "Installing vcrun2005",
          "name": "winetricks",
          "prefix": "$GAMEDIR"
        }
      },
      {
        "task": {
          "arch": "win32",
          "description": "Installing the Game",
          "executable": "install",
          "name": "wineexec",
          "prefix": "$GAMEDIR"
        }
      }
    ],
    "wine": {
      "dxvk": true
    }
  },
  "content": "files:\r\n- install: N/A:Select the Windows setup file downloaded from GOG\r\ngame:\r\n  arch: win32\r\n  exe: $GAMEDIR/drive_c/GOG Games/Alan Wake/alanwake.exe\r\n  prefix: $GAMEDIR\r\ninstaller:\r\n- task:\r\n    app: d3dcompiler_43\r\n    arch: win32\r\n    description: Installing d3dcompiler_43\r\n    name: winetricks\r\n    prefix: $GAMEDIR\r\n- task:\r\n    app: d3dx9\r\n    arch: win32\r\n    description: Installing d3dx9\r\n    name: winetricks\r\n    prefix: $GAMEDIR\r\n- task:\r\n    app: gdiplus\r\n    arch: win32\r\n    description: Installing gdiplus\r\n    name: winetricks\r\n    prefix: $GAMEDIR\r\n- task:\r\n    app: vcrun2005\r\n    arch: win32\r\n    description: Installing vcrun2005\r\n    name: winetricks\r\n    prefix: $GAMEDIR\r\n- task:\r\n    arch: win32\r\n    description: Installing the Game\r\n    executable: install\r\n    name: wineexec\r\n    prefix: $GAMEDIR\r\nwine:\r\n  dxvk: true"
}