{
  "id": 24565,
  "game_id": 38308,
  "game_slug": "a-total-war-saga-troy",
  "name": "A Total War Saga: TROY",
  "year": 2020,
  "user": "AirstrikeIvanov",
  "runner": "wine",
  "slug": "a-total-war-saga-troy-epic-store",
  "version": "Epic Store",
  "description": "You will have to start Epic Games and install the game manually.",
  "notes": "",
  "created_at": "2020-11-16T20:28:44.478382Z",
  "updated_at": "2020-11-16T20:28:44.478409Z",
  "draft": true,
  "published": false,
  "published_by": null,
  "rating": "",
  "steamid": null,
  "gogid": null,
  "gogslug": "",
  "humbleid": "",
  "humblestoreid": "",
  "humblestoreid_real": "",
  "script": {
    "files": [
      {
        "file_id": "https://launcher-public-service-prod06.ol.epicgames.com/launcher/api/installer/download/EpicGamesLauncherInstaller.msi"
      },
      {
        "unredistribuable_file": "N/A"
      }
    ],
    "installer": [
      {
        "move": {
          "dst": "$GAMEDIR",
          "src": "file_id"
        }
      }
    ]
  },
  "content": "files:\n- file_id: https://launcher-public-service-prod06.ol.epicgames.com/launcher/api/installer/download/EpicGamesLauncherInstaller.msi\n- unredistribuable_file: N/A\ninstaller:\n- move:\n    dst: $GAMEDIR\n    src: file_id\n"
}