{
  "name": "Kautic - The Bald Wizard",
  "slug": "kautic-the-bald-wizard",
  "year": null,
  "description": "",
  "banner_url": "https://lutris.net/games/banner/kautic-the-bald-wizard.jpg",
  "icon_url": "https://lutris.net/games/icon/kautic-the-bald-wizard.png",
  "is_public": true,
  "updated": "2020-10-08T10:04:14.193803Z",
  "provider_games": [
    {
      "name": "Kautic - The Bald Wizard",
      "slug": "600530",
      "service": "steam"
    }
  ],
  "steamid": 600530,
  "gogid": null,
  "gogslug": "",
  "humblestoreid": "",
  "id": 22413
}