{
  "name": "Fog of War",
  "slug": "fog-of-war",
  "year": null,
  "description": "",
  "banner_url": "https://lutris.net/games/banner/fog-of-war.jpg",
  "icon_url": "https://lutris.net/games/icon/fog-of-war.png",
  "is_public": true,
  "updated": "2020-10-08T10:05:05.304639Z",
  "provider_games": [
    {
      "name": "Fog of War",
      "slug": "574080",
      "service": "steam"
    }
  ],
  "steamid": 574080,
  "gogid": null,
  "gogslug": "",
  "humblestoreid": "",
  "id": 22385
}