{
  "name": "BattleTime",
  "slug": "battletime",
  "year": null,
  "description": "",
  "banner_url": "https://lutris.net/games/banner/battletime.jpg",
  "icon_url": "https://lutris.net/games/icon/battletime.png",
  "is_public": true,
  "updated": "2020-10-08T10:07:11.003254Z",
  "provider_games": [
    {
      "name": "BattleTime",
      "slug": "509600",
      "service": "steam"
    }
  ],
  "steamid": 509600,
  "gogid": null,
  "gogslug": "",
  "humblestoreid": "",
  "id": 9294
}