{
  "name": "Fish for gold",
  "slug": "fish-for-gold",
  "year": null,
  "description": "",
  "banner_url": "https://lutris.net/games/banner/fish-for-gold.jpg",
  "icon_url": "https://lutris.net/games/icon/fish-for-gold.png",
  "is_public": false,
  "updated": "2019-01-23T08:29:31.607614Z",
  "provider_games": [],
  "steamid": 672260,
  "gogid": null,
  "gogslug": "",
  "humblestoreid": "",
  "id": 18322
}