{
  "name": "ChuSingura46+1 S",
  "slug": "chusingura461-s",
  "year": null,
  "description": "",
  "banner_url": "https://lutris.net/games/banner/chusingura461-s.jpg",
  "icon_url": "https://lutris.net/games/icon/chusingura461-s.png",
  "is_public": true,
  "updated": "2020-10-08T10:13:18.044163Z",
  "provider_games": [
    {
      "name": "ChuSingura46+1 S",
      "slug": "464780",
      "service": "steam"
    }
  ],
  "steamid": 464780,
  "gogid": null,
  "gogslug": "",
  "humblestoreid": "",
  "id": 8411
}