{
  "name": "Gataela",
  "slug": "gataela",
  "year": 2017,
  "description": "A Victorian Steampunk RPG where saving the Kingdom requires more than just brains and brawn: you also need to talk to people! Featuring a debate battle system, talk, debate, convince and negotiate with NPCs in order to save the country!",
  "banner_url": "https://lutris.net/games/banner/gataela.jpg",
  "icon_url": "",
  "is_public": false,
  "updated": "2020-09-17T04:48:27.056338Z",
  "provider_games": [],
  "steamid": null,
  "gogid": null,
  "gogslug": "",
  "humblestoreid": "",
  "id": 39058
}