{
  "name": "Curling World Cup",
  "slug": "curling-world-cup",
  "year": null,
  "description": "",
  "banner_url": "https://lutris.net/games/banner/curling-world-cup.jpg",
  "icon_url": "https://lutris.net/games/icon/curling-world-cup.png",
  "is_public": true,
  "updated": "2020-10-08T09:57:20.274208Z",
  "provider_games": [
    {
      "name": "Curling World Cup",
      "slug": "844310",
      "service": "steam"
    }
  ],
  "steamid": 844310,
  "gogid": null,
  "gogslug": "",
  "humblestoreid": "",
  "id": 23327
}