{
  "name": "KILL THE EMOJI",
  "slug": "kill-the-emoji",
  "year": null,
  "description": "",
  "banner_url": "https://lutris.net/games/banner/kill-the-emoji.jpg",
  "icon_url": "https://lutris.net/games/icon/kill-the-emoji.png",
  "is_public": false,
  "updated": "2019-01-23T08:30:03.555554Z",
  "provider_games": [],
  "steamid": 698720,
  "gogid": null,
  "gogslug": "",
  "humblestoreid": "",
  "id": 14361
}