{
  "name": "Cannon Ball",
  "slug": "cannon-ball",
  "year": 1995,
  "description": "",
  "banner_url": "",
  "icon_url": "https://lutris.net/games/icon/cannon-ball.png",
  "is_public": true,
  "updated": "2020-05-26T03:32:34.830693Z",
  "provider_games": [
    {
      "name": "Cannon Ball",
      "slug": "cannball",
      "service": "mame"
    }
  ],
  "steamid": null,
  "gogid": null,
  "gogslug": "",
  "humblestoreid": "",
  "id": 33588
}