{
  "id": 4537,
  "game_id": 921,
  "game_slug": "gratuitous-tank-battles",
  "name": "Gratuitous Tank Battles",
  "year": null,
  "user": "FakeShemp",
  "runner": "wine",
  "slug": "gratuitous-tank-battles-humble",
  "version": "Humble",
  "description": "",
  "notes": "",
  "created_at": "2017-06-22T10:22:35.891000Z",
  "updated_at": "2018-05-19T03:41:50.217719Z",
  "draft": false,
  "published": true,
  "published_by": null,
  "rating": "",
  "steamid": 205530,
  "gogid": null,
  "gogslug": "",
  "humbleid": "",
  "humblestoreid": "",
  "humblestoreid_real": "",
  "script": {
    "files": [
      {
        "file1": "N/A:Please select the Humble installer"
      }
    ],
    "game": {
      "arch": "win32",
      "exe": "drive_c/Program Files/Gratuitous Tank Battles/GTB.exe",
      "prefix": "$GAMEDIR"
    },
    "installer": [
      {
        "task": {
          "executable": "$file1",
          "name": "wineexec",
          "prefix": "$GAMEDIR"
        }
      }
    ]
  },
  "content": "files:\n- file1: N/A:Please select the Humble installer\ngame:\n  arch: win32\n  exe: drive_c/Program Files/Gratuitous Tank Battles/GTB.exe\n  prefix: $GAMEDIR\ninstaller:\n- task:\n    executable: $file1\n    name: wineexec\n    prefix: $GAMEDIR\n"
}