{
  "name": "Crazy Taxi 2",
  "slug": "crazy-taxi-2",
  "year": 2001,
  "description": "It's time to get crazy again as the yellow cab returns, but this time to terrorise the streets of New York!. With 4 new drivers, a \"Crazy Jump\" feature added and multiple pickup's for those big fares, all you have to do is ask yourself one question \"Do I feel crazy?\".",
  "banner_url": "https://lutris.net/games/banner/crazy-taxi-2.jpg",
  "icon_url": "",
  "is_public": true,
  "updated": "2019-01-23T08:29:00.250375Z",
  "provider_games": [],
  "steamid": null,
  "gogid": null,
  "gogslug": "",
  "humblestoreid": "",
  "id": 6620
}