{
  "name": "Christmas Stories: Nutcracker Collector's Edition",
  "slug": "christmas-stories-nutcracker-collectors-edition",
  "year": null,
  "description": "",
  "banner_url": "https://lutris.net/games/banner/christmas-stories-nutcracker-collectors-edition.jpg",
  "icon_url": "https://lutris.net/games/icon/christmas-stories-nutcracker-collectors-edition.png",
  "is_public": true,
  "updated": "2019-05-19T13:13:42.255053Z",
  "provider_games": [
    {
      "name": "Christmas Stories: Nutcracker Collector's Edition",
      "slug": "565600",
      "service": "steam"
    }
  ],
  "steamid": 565600,
  "gogid": null,
  "gogslug": "",
  "humblestoreid": "",
  "id": 27287
}