{
  "id": 21156,
  "game_id": 909,
  "game_slug": "geneforge-3",
  "name": "Geneforge III",
  "year": null,
  "user": "appoloin",
  "runner": "wine",
  "slug": "geneforge-iii-gog",
  "version": "GOG",
  "description": null,
  "notes": "",
  "created_at": "2020-06-02T17:00:07.840000Z",
  "updated_at": "2020-06-10T07:17:54.645923Z",
  "draft": false,
  "published": true,
  "published_by": 20548,
  "rating": "",
  "steamid": 200990,
  "gogid": 1207662953,
  "gogslug": "geneforge_3",
  "humbleid": "",
  "humblestoreid": "",
  "humblestoreid_real": "",
  "script": {
    "files": [
      {
        "setup": "N/A:Select installer"
      }
    ],
    "game": {
      "arch": "win32",
      "exe": "$GAMEDIR/drive_c/GOG Games/Geneforge 3/Geneforge 3.exe",
      "prefix": "$GAMEDIR"
    },
    "installer": [
      {
        "task": {
          "arch": "win32",
          "install_gecko": false,
          "install_mono": false,
          "name": "create_prefix",
          "prefix": "$GAMEDIR"
        }
      },
      {
        "task": {
          "executable": "$setup",
          "name": "wineexec",
          "prefix": "$GAMEDIR"
        }
      }
    ],
    "system": {
      "reset_desktop": true,
      "resolution": "800x600"
    },
    "wine": {
      "Desktop": true,
      "WineDesktop": "800x600"
    }
  },
  "content": "files:\n- setup: N/A:Select installer\ngame:\n  arch: win32\n  exe: $GAMEDIR/drive_c/GOG Games/Geneforge 3/Geneforge 3.exe\n  prefix: $GAMEDIR\ninstaller:\n- task:\n    arch: win32\n    install_gecko: false\n    install_mono: false\n    name: create_prefix\n    prefix: $GAMEDIR\n- task:\n    executable: $setup\n    name: wineexec\n    prefix: $GAMEDIR\nsystem:\n  reset_desktop: true\n  resolution: 800x600\nwine:\n  Desktop: true\n  WineDesktop: 800x600\n"
}