{
  "id": 4771,
  "game_id": 909,
  "game_slug": "geneforge-3",
  "name": "Geneforge III",
  "year": null,
  "user": "FakeShemp",
  "runner": "wine",
  "slug": "geneforge-iii-humble",
  "version": "Humble",
  "description": "From \"The Geneforge Saga\"",
  "notes": "",
  "created_at": "2017-07-03T14:57:55.172732Z",
  "updated_at": "2018-05-19T03:41:54.928673Z",
  "draft": false,
  "published": true,
  "published_by": null,
  "rating": "",
  "steamid": 200990,
  "gogid": 1207662953,
  "gogslug": "geneforge_3",
  "humbleid": "",
  "humblestoreid": "",
  "humblestoreid_real": "",
  "script": {
    "files": [
      {
        "file1": "N/A:Please select the Humble archive"
      }
    ],
    "game": {
      "arch": "win32",
      "exe": "drive_c/Program Files/Geneforge 3/Geneforge 3.exe",
      "prefix": "$GAMEDIR"
    },
    "installer": [
      {
        "extract": {
          "dst": "$CACHE",
          "file": "$file1"
        }
      },
      {
        "task": {
          "executable": "$CACHE/Geneforge3Fullv10.exe",
          "name": "wineexec",
          "prefix": "$GAMEDIR"
        }
      }
    ]
  },
  "content": "files:\n- file1: N/A:Please select the Humble archive\ngame:\n  arch: win32\n  exe: drive_c/Program Files/Geneforge 3/Geneforge 3.exe\n  prefix: $GAMEDIR\ninstaller:\n- extract:\n    dst: $CACHE\n    file: $file1\n- task:\n    executable: $CACHE/Geneforge3Fullv10.exe\n    name: wineexec\n    prefix: $GAMEDIR\n"
}