{
  "name": "DreadOut 2",
  "slug": "dreadout-2",
  "year": null,
  "description": "",
  "banner_url": "https://lutris.net/games/banner/dreadout-2.jpg",
  "icon_url": "https://lutris.net/games/icon/dreadout-2.png",
  "is_public": true,
  "updated": "2020-10-08T09:17:16.141552Z",
  "provider_games": [
    {
      "name": "DreadOut 2",
      "slug": "945710",
      "service": "steam"
    }
  ],
  "steamid": 945710,
  "gogid": null,
  "gogslug": "",
  "humblestoreid": "",
  "id": 32545
}