{
  "name": "Island Dash",
  "slug": "island-dash",
  "year": null,
  "description": "",
  "banner_url": "https://lutris.net/games/banner/island-dash.jpg",
  "icon_url": "https://lutris.net/games/icon/island-dash.png",
  "is_public": true,
  "updated": "2020-10-08T10:09:10.076880Z",
  "provider_games": [
    {
      "name": "Island Dash",
      "slug": "676770",
      "service": "steam"
    }
  ],
  "steamid": 676770,
  "gogid": null,
  "gogslug": "",
  "humblestoreid": "",
  "id": 15444
}