{
  "id": 4086,
  "game_id": 11541,
  "game_slug": "alea",
  "name": "ALEA",
  "year": 2015,
  "user": "FakeShemp",
  "runner": "linux",
  "slug": "alea-humble",
  "version": "Humble",
  "description": "",
  "notes": "",
  "created_at": "2017-06-03T19:46:41.725402Z",
  "updated_at": "2017-06-04T21:55:37.446668Z",
  "draft": false,
  "published": true,
  "published_by": null,
  "rating": "",
  "steamid": null,
  "gogid": null,
  "gogslug": "",
  "humbleid": "",
  "humblestoreid": "",
  "humblestoreid_real": "",
  "script": {
    "exe": "ALEA.x86",
    "exe64": "ALEA.x86_64",
    "files": [
      {
        "file1": "N/A:Please select the Humble archive"
      }
    ],
    "installer": [
      {
        "extract": {
          "file": "$file1"
        }
      },
      {
        "chmodx": "$GAMEDIR/ALEA.x86"
      },
      {
        "chmodx": "$GAMEDIR/ALEA.x86_64"
      }
    ]
  },
  "content": "exe: ALEA.x86\nexe64: ALEA.x86_64\nfiles:\n- file1: N/A:Please select the Humble archive\ninstaller:\n- extract:\n    file: $file1\n- chmodx: $GAMEDIR/ALEA.x86\n- chmodx: $GAMEDIR/ALEA.x86_64\n"
}