{
  "name": "Carnivore Land",
  "slug": "carnivore-land",
  "year": null,
  "description": "",
  "banner_url": "https://lutris.net/games/banner/carnivore-land.jpg",
  "icon_url": "https://lutris.net/games/icon/carnivore-land.png",
  "is_public": true,
  "updated": "2019-01-23T08:28:46.801674Z",
  "provider_games": [
    {
      "name": "Carnivore Land",
      "slug": "397860",
      "service": "steam"
    }
  ],
  "steamid": 397860,
  "gogid": null,
  "gogslug": "",
  "humblestoreid": "",
  "id": 10412
}