{
  "id": 4048,
  "game_id": 1123,
  "game_slug": "ai-war-fleet-command",
  "name": "AI War: Fleet Command",
  "year": 2009,
  "user": "FakeShemp",
  "runner": "linux",
  "slug": "ai-war-fleet-command-humble",
  "version": "Humble",
  "description": "AI War Collection 2013 & 2014",
  "notes": "",
  "created_at": "2017-06-02T15:17:39.256000Z",
  "updated_at": "2019-10-27T09:21:46.358883Z",
  "draft": false,
  "published": true,
  "published_by": 19464,
  "rating": "",
  "steamid": 40400,
  "gogid": 1207665323,
  "gogslug": "ai_war_fleet_command",
  "humbleid": "",
  "humblestoreid": "",
  "humblestoreid_real": "",
  "script": {
    "exe": "AIWarLinux.x86",
    "exe64": "AIWarLinux.x86_64",
    "files": [
      {
        "file1": "N/A:Please select the Humble archive"
      }
    ],
    "installer": [
      {
        "extract": {
          "file": "$file1"
        }
      },
      {
        "chmodx": "$GAMEDIR/AIWarLinux.x86"
      },
      {
        "chmodx": "$GAMEDIR/AIWarLinux.x86_64"
      }
    ]
  },
  "content": "exe: AIWarLinux.x86\nexe64: AIWarLinux.x86_64\nfiles:\n- file1: N/A:Please select the Humble archive\ninstaller:\n- extract:\n    file: $file1\n- chmodx: $GAMEDIR/AIWarLinux.x86\n- chmodx: $GAMEDIR/AIWarLinux.x86_64\n"
}