{
  "id": 5111,
  "game_id": 6238,
  "game_slug": "magical-brickout",
  "name": "Magical Brickout",
  "year": null,
  "user": "FakeShemp",
  "runner": "linux",
  "slug": "magical-brickout-groupees",
  "version": "Groupees",
  "description": "",
  "notes": "",
  "created_at": "2017-07-20T12:07:49.509967Z",
  "updated_at": "2017-08-27T22:20:42.507657Z",
  "draft": false,
  "published": true,
  "published_by": null,
  "rating": "",
  "steamid": 384940,
  "gogid": null,
  "gogslug": "",
  "humbleid": "",
  "humblestoreid": "",
  "humblestoreid_real": "",
  "script": {
    "exe": "MagicalBrickoutDemo_Linux.x86",
    "files": [
      {
        "file1": "N/A:Please select the Groupees archive"
      }
    ],
    "installer": [
      {
        "extract": {
          "file": "$file1"
        }
      },
      {
        "chmodx": "$GAMEDIR/MagicalBrickoutDemo_Linux.x86"
      }
    ]
  },
  "content": "exe: MagicalBrickoutDemo_Linux.x86\nfiles:\n- file1: N/A:Please select the Groupees archive\ninstaller:\n- extract:\n    file: $file1\n- chmodx: $GAMEDIR/MagicalBrickoutDemo_Linux.x86\n"
}