{
  "id": 19984,
  "game_id": 1232,
  "game_slug": "super-street-fighter-iv-arcade-edition",
  "name": "Ultra Street Fighter IV",
  "year": 2008,
  "user": "welblade",
  "runner": "steam",
  "slug": "ultra-street-fighter-iv-proton",
  "version": "Proton",
  "description": "Super Street Fighter IV Arcade Edition",
  "notes": "",
  "created_at": "2020-04-25T21:10:23.722766Z",
  "updated_at": "2020-04-25T21:10:23.722790Z",
  "draft": false,
  "published": false,
  "published_by": null,
  "rating": "",
  "steamid": 45760,
  "gogid": null,
  "gogslug": "",
  "humbleid": "",
  "humblestoreid": "",
  "humblestoreid_real": "",
  "script": {
    "game": {
      "appid": 45760
    }
  },
  "content": "game:\n  appid: 45760\n"
}