{
  "name": "Forza Horizon 3",
  "slug": "forza-horizon-3",
  "year": 2016,
  "description": "",
  "banner_url": "https://lutris.net/games/banner/forza-horizon-3.jpg",
  "icon_url": "",
  "is_public": true,
  "updated": "2019-11-04T03:04:36.156929Z",
  "provider_games": [],
  "steamid": null,
  "gogid": null,
  "gogslug": "",
  "humblestoreid": "",
  "id": 20007
}