{
  "name": "Imagine Earth",
  "slug": "imagine-earth",
  "year": null,
  "description": "",
  "banner_url": "https://lutris.net/games/banner/imagine-earth.jpg",
  "icon_url": "https://lutris.net/games/icon/imagine-earth.png",
  "is_public": true,
  "updated": "2020-10-08T09:20:43.634098Z",
  "provider_games": [
    {
      "name": "Imagine Earth",
      "slug": "280720",
      "service": "steam"
    }
  ],
  "steamid": 280720,
  "gogid": null,
  "gogslug": "",
  "humblestoreid": "",
  "id": 16824
}