{
  "name": "Adam's Venture Episode 2: Solomon's Secret",
  "slug": "adams-venture-episode-2-solomons-secret",
  "year": null,
  "description": "",
  "banner_url": "https://lutris.net/games/banner/adams-venture-episode-2-solomons-secret.jpg",
  "icon_url": "https://lutris.net/games/icon/adams-venture-episode-2-solomons-secret.png",
  "is_public": true,
  "updated": "2020-04-23T08:04:28.358625Z",
  "provider_games": [
    {
      "name": "Adam's Venture Episode 2: Solomon's Secret",
      "slug": "210390",
      "service": "steam"
    }
  ],
  "steamid": 210390,
  "gogid": null,
  "gogslug": "",
  "humblestoreid": "",
  "id": 3081
}