{
  "name": "Chowdertwo",
  "slug": "chowdertwo",
  "year": null,
  "description": "",
  "banner_url": "https://lutris.net/games/banner/chowdertwo.jpg",
  "icon_url": "https://lutris.net/games/icon/chowdertwo.png",
  "is_public": true,
  "updated": "2020-10-08T10:04:43.414104Z",
  "provider_games": [
    {
      "name": "Chowdertwo",
      "slug": "585750",
      "service": "steam"
    }
  ],
  "steamid": 585750,
  "gogid": null,
  "gogslug": "",
  "humblestoreid": "",
  "id": 12993
}