{
  "name": "Krog Wars",
  "slug": "krog-wars",
  "year": null,
  "description": "",
  "banner_url": "https://lutris.net/games/banner/krog-wars.jpg",
  "icon_url": "https://lutris.net/games/icon/krog-wars.png",
  "is_public": false,
  "updated": "2019-01-23T08:30:06.739638Z",
  "provider_games": [],
  "steamid": 457940,
  "gogid": null,
  "gogslug": "",
  "humblestoreid": "",
  "id": 6194
}