{
  "id": 2390,
  "game_id": 5961,
  "game_slug": "enter-the-gungeon",
  "name": "Enter the Gungeon",
  "year": 2016,
  "user": "Lulu",
  "runner": "linux",
  "slug": "enter-the-gungeon-gog",
  "version": "GOG",
  "description": null,
  "notes": "",
  "created_at": "2016-08-07T18:16:41.489000Z",
  "updated_at": "2019-05-08T06:25:08.005486Z",
  "draft": false,
  "published": true,
  "published_by": 19464,
  "rating": "",
  "steamid": 311690,
  "gogid": 1456912569,
  "gogslug": "enter_the_gungeon",
  "humbleid": "",
  "humblestoreid": "",
  "humblestoreid_real": "",
  "script": {
    "files": [
      {
        "goginstaller": "N/A:Please select the GOG.com Linux installer"
      }
    ],
    "game": {
      "exe": "start.sh"
    },
    "installer": [
      {
        "extract": {
          "dst": "$CACHE/GOG",
          "file": "goginstaller",
          "format": "zip"
        }
      },
      {
        "merge": {
          "dst": "$GAMEDIR",
          "src": "$CACHE/GOG/data/noarch/"
        }
      }
    ]
  },
  "content": "files:\n- goginstaller: N/A:Please select the GOG.com Linux installer\ngame:\n  exe: start.sh\ninstaller:\n- extract:\n    dst: $CACHE/GOG\n    file: goginstaller\n    format: zip\n- merge:\n    dst: $GAMEDIR\n    src: $CACHE/GOG/data/noarch/\n"
}