{
  "name": "Championship Manager 2010",
  "slug": "championship-manager-2010",
  "year": null,
  "description": "",
  "banner_url": "https://lutris.net/games/banner/championship-manager-2010.jpg",
  "icon_url": "https://lutris.net/games/icon/championship-manager-2010.png",
  "is_public": true,
  "updated": "2020-10-08T10:02:14.631055Z",
  "provider_games": [
    {
      "name": "Championship Manager 2010",
      "slug": "35030",
      "service": "steam"
    }
  ],
  "steamid": 35030,
  "gogid": null,
  "gogslug": "",
  "humblestoreid": "",
  "id": 1505
}