{
  "name": "Chess 2: The Sequel",
  "slug": "chess-2-the-sequel",
  "year": null,
  "description": "",
  "banner_url": "https://lutris.net/games/banner/chess-2-the-sequel.jpg",
  "icon_url": "https://lutris.net/games/icon/chess-2-the-sequel.png",
  "is_public": true,
  "updated": "2020-10-08T09:19:59.723213Z",
  "provider_games": [
    {
      "name": "Chess 2: The Sequel",
      "slug": "314340",
      "service": "steam"
    }
  ],
  "steamid": 314340,
  "gogid": null,
  "gogslug": "",
  "humblestoreid": "",
  "id": 3606
}