{
  "id": 468,
  "game_id": 306,
  "game_slug": "super-hexagon",
  "name": "Super Hexagon",
  "year": 2012,
  "user": "strider",
  "runner": "linux",
  "slug": "super-hexagon-humble-bundle",
  "version": "Humble Bundle",
  "description": null,
  "notes": "",
  "created_at": "2014-05-12T11:44:06.666000Z",
  "updated_at": "2020-10-01T03:36:48.262425Z",
  "draft": false,
  "published": true,
  "published_by": 1,
  "rating": "",
  "steamid": 221640,
  "gogid": 1207660213,
  "gogslug": "super_hexagon",
  "humbleid": "superhexagon_android_pc",
  "humblestoreid": "superhexagon_android_pc",
  "humblestoreid_real": "super-hexagon",
  "script": {
    "exe": "SuperHexagon",
    "files": [
      {
        "game": "N/A:Select the installer downloaded from Humble Bundle."
      },
      {
        "patch": "https://lutris.net/files/games/super-hexagon/SuperHexagon_linux-04192013.tar.gz"
      }
    ],
    "installer": [
      {
        "execute": {
          "args": "--destination=$GAMEDIR",
          "file": "game",
          "terminal": true
        }
      },
      {
        "extract": {
          "dst": "$GAMEDIR",
          "file": "patch"
        }
      }
    ]
  },
  "content": "exe: SuperHexagon\nfiles:\n- game: N/A:Select the installer downloaded from Humble Bundle.\n- patch: https://lutris.net/files/games/super-hexagon/SuperHexagon_linux-04192013.tar.gz\ninstaller:\n- execute:\n    args: --destination=$GAMEDIR\n    file: game\n    terminal: true\n- extract:\n    dst: $GAMEDIR\n    file: patch\n"
}