{
  "id": 2547,
  "game_id": 306,
  "game_slug": "super-hexagon",
  "name": "Super Hexagon",
  "year": 2012,
  "user": "ssf",
  "runner": "linux",
  "slug": "super-hexagon-gogcom",
  "version": "GOG.com",
  "description": null,
  "notes": "",
  "created_at": "2016-08-22T16:02:38.205000Z",
  "updated_at": "2019-10-21T04:26:51.315686Z",
  "draft": false,
  "published": true,
  "published_by": 19464,
  "rating": "",
  "steamid": 221640,
  "gogid": 1207660213,
  "gogslug": "super_hexagon",
  "humbleid": "superhexagon_android_pc",
  "humblestoreid": "superhexagon_android_pc",
  "humblestoreid_real": "super-hexagon",
  "script": {
    "files": [
      {
        "goginstaller": "N/A:Please select the GOG.com Linux installer"
      }
    ],
    "game": {
      "exe": "start.sh"
    },
    "installer": [
      {
        "extract": {
          "dst": "$CACHE/GOG",
          "file": "goginstaller",
          "format": "zip"
        }
      },
      {
        "merge": {
          "dst": "$GAMEDIR",
          "src": "$CACHE/GOG/data/noarch/"
        }
      }
    ]
  },
  "content": "files:\n- goginstaller: N/A:Please select the GOG.com Linux installer\ngame:\n  exe: start.sh\ninstaller:\n- extract:\n    dst: $CACHE/GOG\n    file: goginstaller\n    format: zip\n- merge:\n    dst: $GAMEDIR\n    src: $CACHE/GOG/data/noarch/\n"
}