{
  "id": 17322,
  "game_id": 3364,
  "game_slug": "guild-wars-2",
  "name": "Guild Wars 2",
  "year": 2012,
  "user": "eagledelta1",
  "runner": "wine",
  "slug": "guild-wars-2-nvidia-optimized",
  "version": "Nvidia optimized",
  "description": "This game requires an SSD hard drive as 3D models are lazy loaded constantly.",
  "notes": "To improve perfomance, <a href=\"https://i.imgur.com/fhEr0rW.jpg\">these settings</a>. are suggested. Based on <a href=\"https://en-forum.guildwars2.com/discussion/31192/playing-guild-wars-2-on-linux-performance-optimizations-and-more/p1\"> this</a> thread.",
  "created_at": "2019-12-13T21:24:45.675000Z",
  "updated_at": "2020-04-13T21:15:11.159967Z",
  "draft": false,
  "published": false,
  "published_by": 68872,
  "rating": "",
  "steamid": null,
  "gogid": null,
  "gogslug": "",
  "humbleid": "",
  "humblestoreid": "",
  "humblestoreid_real": "",
  "script": {
    "files": [
      {
        "client": "https://s3.amazonaws.com/gw2cdn/client/branches/Gw2Setup-64.exe"
      }
    ],
    "game": {
      "arch": "win64",
      "exe": "drive_c/Program Files/Guild Wars 2/GW2-64.exe",
      "prefix": "$GAMEDIR"
    },
    "installer": [
      {
        "task": {
          "arch": "win64",
          "description": "Creating win64 prefix",
          "name": "create_prefix",
          "prefix": "$GAMEDIR"
        }
      },
      {
        "execute": {
          "command": "mkdir -p \"$GAMEDIR/drive_c/Program Files/Guild Wars 2\""
        }
      },
      {
        "move": {
          "dst": "$GAMEDIR/drive_c/Program Files/Guild Wars 2/GW2-64.exe",
          "src": "client"
        }
      }
    ],
    "system": {
      "disable_compositor": "true",
      "env": {
        "DXVK_HUD": 0,
        "DXVK_LOG_LEVEL": "none",
        "LD_PRELOAD": "libpthread.so.0 libGL.so.1",
        "STAGING_SHARED_MEMORY": 1,
        "WINEARCH": "wine64",
        "WINEDEBUG": "-all",
        "__GL_DEFAULT_LOG_ANISO": 0,
        "__GL_FSAA_MODE": 0,
        "__GL_SHADER_DISK_CACHE_PATH": "$GAMEDIR",
        "__GL_SHADER_DISK_CACHE_SKIP_CLEANUP": 1,
        "__GL_SYNC_TO_VBLANK": 0,
        "__GL_THREADED_OPTIMIZATIONS": 1,
        "__GL_YIELD": "NOTHING",
        "__NV_PRIME_RENDER_OFFLOAD": 1
      }
    },
    "wine": {
      "UseGLSL": "disabled",
      "dxvk": true,
      "esync": true,
      "overrides": {
        "d3d10": "native",
        "d3d10_1": "native",
        "d3d10core": "native",
        "d3d11": "native",
        "d3d9": "native",
        "dxgi": "native",
        "nvapi": "disabled",
        "nvapi64": "disabled"
      }
    }
  },
  "content": "files:\r\n- client: https://s3.amazonaws.com/gw2cdn/client/branches/Gw2Setup-64.exe\r\ngame:\r\n  arch: win64\r\n  exe: drive_c/Program Files/Guild Wars 2/GW2-64.exe\r\n  prefix: $GAMEDIR\r\ninstaller:\r\n- task:\r\n    arch: win64\r\n    description: Creating win64 prefix\r\n    name: create_prefix\r\n    prefix: $GAMEDIR\r\n- execute:\r\n    command: mkdir -p \"$GAMEDIR/drive_c/Program Files/Guild Wars 2\"\r\n- move:\r\n    dst: $GAMEDIR/drive_c/Program Files/Guild Wars 2/GW2-64.exe\r\n    src: client\r\nsystem:\r\n  disable_compositor: 'true'\r\n  env:\r\n    DXVK_HUD: 0\r\n    DXVK_LOG_LEVEL: none\r\n    LD_PRELOAD: libpthread.so.0 libGL.so.1\r\n    STAGING_SHARED_MEMORY: 1\r\n    WINEARCH: wine64\r\n    WINEDEBUG: -all\r\n    __GL_DEFAULT_LOG_ANISO: 0\r\n    __GL_FSAA_MODE: 0\r\n    __GL_SHADER_DISK_CACHE_PATH: $GAMEDIR\r\n    __GL_SHADER_DISK_CACHE_SKIP_CLEANUP: 1\r\n    __GL_SYNC_TO_VBLANK: 0\r\n    __GL_THREADED_OPTIMIZATIONS: 1\r\n    __GL_YIELD: NOTHING\r\n    __NV_PRIME_RENDER_OFFLOAD: 1\r\nwine:\r\n  UseGLSL: disabled\r\n  dxvk: true\r\n  esync: true\r\n  overrides:\r\n    d3d10: native\r\n    d3d10_1: native\r\n    d3d10core: native\r\n    d3d11: native\r\n    d3d9: native\r\n    dxgi: native\r\n    nvapi: disabled\r\n    nvapi64: disabled"
}