{
  "name": "DeadTruth: The Dark Path Ahead",
  "slug": "deadtruth-the-dark-path-ahead",
  "year": null,
  "description": "",
  "banner_url": "https://lutris.net/games/banner/deadtruth-the-dark-path-ahead.jpg",
  "icon_url": "https://lutris.net/games/icon/deadtruth-the-dark-path-ahead.png",
  "is_public": true,
  "updated": "2020-10-08T10:05:09.265491Z",
  "provider_games": [
    {
      "name": "DeadTruth: The Dark Path Ahead",
      "slug": "572170",
      "service": "steam"
    }
  ],
  "steamid": 572170,
  "gogid": null,
  "gogslug": "",
  "humblestoreid": "",
  "id": 25809
}