{
  "name": "Bucky O'Hare",
  "slug": "bucky-ohare",
  "year": 1992,
  "description": "Captain Bucky O'Hare and his loyal crew - Blinky, Deadeye, Jenny and Willy - fight to save the Aniverse from the scourge of the Toad Armada. That is, until Bucky's ship is attacked and his crew taken prisoner. Now a lone bunny on a mission, Bucky must fight to rescue his comrades from four hostile planets and then confront the Air Marshall on his flagship.\r\n\r\nBucky O'Hare is a side-scrolling action game based on the cartoon of the same name. Bucky's main abilities are a jump and a blaster weapon, which he can charge up to make an even more powerful jump. Life and Weapon bars are displayed at the bottom of the screen. Bucky can obtain new weapons throughout the game from his crew members.",
  "banner_url": "https://lutris.net/games/banner/bucky-ohare.jpg",
  "icon_url": "https://lutris.net/games/icon/bucky-ohare.png",
  "is_public": true,
  "updated": "2020-05-26T03:32:29.062345Z",
  "provider_games": [
    {
      "name": "Bucky O'Hare",
      "slug": "bucky",
      "service": "mame"
    }
  ],
  "steamid": null,
  "gogid": null,
  "gogslug": "",
  "humblestoreid": "",
  "id": 18438
}