{
  "name": "Jack Lumber",
  "slug": "jack-lumber",
  "year": 2013,
  "description": "A tree killed his granny and now he is out for revenge. Meet Jack Lumber, the supernatural lumberjack who hates trees, loves animals, and hates trees. Did we say that twice? The guy really hates trees, and boy does he have an axe to grind.\r\n\r\nUse the supernatural powers of Jack Lumber to massacre the forest in this time-warping, line-drawing, log-slicing, pun-filled lumberjacking mashup! Bust out your flannel to muster the strength and burlyness to solve the skill and logic puzzles (flannel not actually required).\r\n\r\nFight the forest and make Granny proud! Eff trees! ",
  "banner_url": "https://lutris.net/games/banner/jack-lumber.jpg",
  "icon_url": "https://lutris.net/games/icon/jack-lumber.png",
  "is_public": true,
  "updated": "2020-08-15T23:50:35.289957Z",
  "provider_games": [
    {
      "name": "Jack Lumber",
      "slug": "jacklumber_asm",
      "service": "humblebundle"
    },
    {
      "name": "Jack Lumber",
      "slug": "jacklumber_bundle",
      "service": "humblebundle"
    },
    {
      "name": "Jack Lumber",
      "slug": "220900",
      "service": "steam"
    }
  ],
  "steamid": 220900,
  "gogid": null,
  "gogslug": "",
  "humblestoreid": "jacklumber_asm",
  "id": 626
}