{
  "name": "Dracula: Love Kills",
  "slug": "dracula-love-kills",
  "year": null,
  "description": "",
  "banner_url": "https://lutris.net/games/banner/dracula-love-kills.jpg",
  "icon_url": "https://lutris.net/games/icon/dracula-love-kills.png",
  "is_public": true,
  "updated": "2020-05-31T00:17:40.511054Z",
  "provider_games": [
    {
      "name": "Dracula: Love Kills",
      "slug": "1396287570",
      "service": "gog"
    },
    {
      "name": "Dracula: Love Kills",
      "slug": "252890",
      "service": "steam"
    }
  ],
  "steamid": 252890,
  "gogid": 1396287570,
  "gogslug": "dracula_love_kills",
  "humblestoreid": "",
  "id": 1653
}