{
  "name": "Dungeon Siege III",
  "slug": "dungeon-siege-iii",
  "year": null,
  "description": "",
  "banner_url": "https://lutris.net/games/banner/dungeon-siege-iii.jpg",
  "icon_url": "https://lutris.net/games/icon/dungeon-siege-iii.png",
  "is_public": true,
  "updated": "2019-01-23T08:29:19.610442Z",
  "provider_games": [
    {
      "name": "Dungeon Siege III",
      "slug": "39160",
      "service": "steam"
    }
  ],
  "steamid": 39160,
  "gogid": null,
  "gogslug": "",
  "humblestoreid": "",
  "id": 818
}