{
  "id": 15529,
  "game_id": 29187,
  "game_slug": "3-skulls-of-the-toltecs",
  "name": "3 Skulls of the Toltecs",
  "year": 1996,
  "user": "appoloin",
  "runner": "scummvm",
  "slug": "3-skulls-of-the-toltecs-ms-dos",
  "version": "MS-DOS",
  "description": null,
  "notes": "",
  "created_at": "2019-09-14T10:36:35.078441Z",
  "updated_at": "2019-09-14T10:36:35.078474Z",
  "draft": false,
  "published": false,
  "published_by": null,
  "rating": "",
  "steamid": null,
  "gogid": null,
  "gogslug": "",
  "humbleid": "",
  "humblestoreid": "",
  "humblestoreid_real": "",
  "script": {
    "files": [
      {
        "game": "N/A:Select the file SAMPLE.AD"
      }
    ],
    "game": {
      "game_id": "Toltecs",
      "path": "$GAMEDIR"
    },
    "installer": [
      {
        "write_file": {
          "content": "#!/bin/bash\nsrc=$1\ndst=$2\nsrc_path=$(echo \"$1\" | sed -r \"s/(.+)\\/.+/\\1/\")\nfind \"$src_path\" -type f \\( -name \"SAMPLE.AD\" -o -name \"SAMPLE.OPL\" -o -name \"WESTERN\" \\) -exec cp {} \"$dst\" \\;",
          "file": "$CACHE/selectcopy.sh"
        }
      },
      {
        "chmodx": "$CACHE/selectcopy.sh"
      },
      {
        "execute": {
          "args": "$game $GAMEDIR",
          "file": "$CACHE/selectcopy.sh"
        }
      }
    ]
  },
  "content": "files:\n- game: N/A:Select the file SAMPLE.AD\ngame:\n  game_id: Toltecs\n  path: $GAMEDIR\ninstaller:\n- write_file:\n    content: '#!/bin/bash\n\n      src=$1\n\n      dst=$2\n\n      src_path=$(echo \"$1\" | sed -r \"s/(.+)\\/.+/\\1/\")\n\n      find \"$src_path\" -type f \\( -name \"SAMPLE.AD\" -o -name \"SAMPLE.OPL\" -o -name\n      \"WESTERN\" \\) -exec cp {} \"$dst\" \\;'\n    file: $CACHE/selectcopy.sh\n- chmodx: $CACHE/selectcopy.sh\n- execute:\n    args: $game $GAMEDIR\n    file: $CACHE/selectcopy.sh\n"
}