{
  "id": 4521,
  "game_id": 347,
  "game_slug": "hector-ep-2",
  "name": "Hector: Badge of Carnage – Episode 2: Senseless Acts of Justice",
  "year": 2011,
  "user": "FakeShemp",
  "runner": "wine",
  "slug": "hector-badge-of-carnage-episo-humble-2",
  "version": "Humble",
  "description": "",
  "notes": "",
  "created_at": "2017-06-20T20:16:26.729714Z",
  "updated_at": "2018-05-19T03:41:50.898276Z",
  "draft": false,
  "published": true,
  "published_by": null,
  "rating": "",
  "steamid": 94610,
  "gogid": null,
  "gogslug": "hector_badge_of_carnage",
  "humbleid": "",
  "humblestoreid": "",
  "humblestoreid_real": "",
  "script": {
    "files": [
      {
        "file1": "N/A:Please select the Humble archive"
      }
    ],
    "game": {
      "arch": "win32",
      "exe": "drive_c/Program Files/Telltale Games/Hector - Badge of Carnage/Hector Episode 2/Hector102.exe",
      "prefix": "$GAMEDIR"
    },
    "installer": [
      {
        "extract": {
          "dst": "$CACHE",
          "file": "$file1"
        }
      },
      {
        "task": {
          "executable": "$CACHE/Hector102_201108221214_full_nodrm.exe",
          "name": "wineexec",
          "prefix": "$GAMEDIR"
        }
      }
    ]
  },
  "content": "files:\n- file1: N/A:Please select the Humble archive\ngame:\n  arch: win32\n  exe: drive_c/Program Files/Telltale Games/Hector - Badge of Carnage/Hector Episode\n    2/Hector102.exe\n  prefix: $GAMEDIR\ninstaller:\n- extract:\n    dst: $CACHE\n    file: $file1\n- task:\n    executable: $CACHE/Hector102_201108221214_full_nodrm.exe\n    name: wineexec\n    prefix: $GAMEDIR\n"
}