{
  "id": 3864,
  "game_id": 236,
  "game_slug": "shank-2",
  "name": "Shank 2",
  "year": 2012,
  "user": "FakeShemp",
  "runner": "linux",
  "slug": "shank-2-humble",
  "version": "Humble",
  "description": "",
  "notes": "",
  "created_at": "2017-05-25T08:03:28.888741Z",
  "updated_at": "2017-05-28T00:03:56.434453Z",
  "draft": false,
  "published": true,
  "published_by": null,
  "rating": "",
  "steamid": 102840,
  "gogid": null,
  "gogslug": "",
  "humbleid": "shank2",
  "humblestoreid": "shank2",
  "humblestoreid_real": "shank2",
  "script": {
    "exe": "bin/shank2-bin",
    "files": [
      {
        "file1": "N/A:Please select the Humble archive"
      }
    ],
    "installer": [
      {
        "extract": {
          "file": "$file1"
        }
      }
    ]
  },
  "content": "exe: bin/shank2-bin\nfiles:\n- file1: N/A:Please select the Humble archive\ninstaller:\n- extract:\n    file: $file1\n"
}