{
  "name": "Lolly Joe",
  "slug": "lolly-joe",
  "year": null,
  "description": "",
  "banner_url": "https://lutris.net/games/banner/lolly-joe.jpg",
  "icon_url": "https://lutris.net/games/icon/lolly-joe.png",
  "is_public": true,
  "updated": "2019-01-23T08:30:12.410578Z",
  "provider_games": [
    {
      "name": "Lolly Joe",
      "slug": "436060",
      "service": "steam"
    }
  ],
  "steamid": 436060,
  "gogid": null,
  "gogslug": "",
  "humblestoreid": "",
  "id": 6896
}