{
  "name": "Acro FS",
  "slug": "acro-fs",
  "year": null,
  "description": "",
  "banner_url": "https://lutris.net/games/banner/acro-fs.jpg",
  "icon_url": "https://lutris.net/games/icon/acro-fs.png",
  "is_public": true,
  "updated": "2020-10-08T09:57:30.871980Z",
  "provider_games": [
    {
      "name": "Acro FS",
      "slug": "834880",
      "service": "steam"
    }
  ],
  "steamid": 834880,
  "gogid": null,
  "gogslug": "",
  "humblestoreid": "",
  "id": 23089
}