{
  "id": 4376,
  "game_id": 2687,
  "game_slug": "data-hacker-initiation",
  "name": "Data Hacker: Initiation",
  "year": null,
  "user": "FakeShemp",
  "runner": "wine",
  "slug": "data-hacker-initiation-indiegamestand",
  "version": "IndieGameStand",
  "description": "",
  "notes": "",
  "created_at": "2017-06-15T20:02:53.244000Z",
  "updated_at": "2018-05-19T03:41:50.201142Z",
  "draft": false,
  "published": true,
  "published_by": null,
  "rating": "",
  "steamid": 311860,
  "gogid": null,
  "gogslug": "",
  "humbleid": "",
  "humblestoreid": "",
  "humblestoreid_real": "",
  "script": {
    "files": [
      {
        "file1": "N/A:Please select the IndieGameStand installer"
      }
    ],
    "game": {
      "arch": "win32",
      "exe": "drive_c/Program Files/Data Hacker Initiation/Game.exe",
      "prefix": "$GAMEDIR"
    },
    "installer": [
      {
        "task": {
          "executable": "$file1",
          "name": "wineexec",
          "prefix": "$GAMEDIR"
        }
      }
    ]
  },
  "content": "files:\n- file1: N/A:Please select the IndieGameStand installer\ngame:\n  arch: win32\n  exe: drive_c/Program Files/Data Hacker Initiation/Game.exe\n  prefix: $GAMEDIR\ninstaller:\n- task:\n    executable: $file1\n    name: wineexec\n    prefix: $GAMEDIR\n"
}