{
  "name": "Hold your houses",
  "slug": "hold-your-houses",
  "year": null,
  "description": "",
  "banner_url": "https://lutris.net/games/banner/hold-your-houses.jpg",
  "icon_url": "https://lutris.net/games/icon/hold-your-houses.png",
  "is_public": true,
  "updated": "2020-10-08T10:04:41.674689Z",
  "provider_games": [
    {
      "name": "Hold your houses",
      "slug": "586790",
      "service": "steam"
    }
  ],
  "steamid": 586790,
  "gogid": null,
  "gogslug": "",
  "humblestoreid": "",
  "id": 13007
}