{
  "name": "Cool Boarders",
  "slug": "cool-boarders",
  "year": 1996,
  "description": "The first title in the long-running PlayStation snowboarding series.\r\n\r\nImagine riding down the slopes, avoiding the trees and trying to hit the jumps. When you catch enough air, you grab your board, twist, and land a perfect trick.\r\n\r\nChoose from several different riders and 10 boards, and then hit one of the five courses. On each track you can earn three different trophies: one trophy is awarded for getting down the hill in the quickest time; catch big air to pull off big tricks to earn the highest trick point trophy; or win the final trophy by getting the highest total score, which is based on both time and trick points.\r\n\r\nIf the competition seems a little rough, race against the ghost from your last run and find a smoother line down the mountain.",
  "banner_url": "https://lutris.net/games/banner/cool-boarders.jpg",
  "icon_url": "",
  "is_public": true,
  "updated": "2020-06-16T20:36:07.137569Z",
  "provider_games": [],
  "steamid": null,
  "gogid": null,
  "gogslug": "",
  "humblestoreid": "",
  "id": 37181
}