{
  "name": "Ballistic Overkill Dedicated Server",
  "slug": "ballistic-overkill-dedicated-server",
  "year": 2017,
  "description": "",
  "banner_url": "https://lutris.net/games/banner/ballistic-overkill-dedicated-server.jpg",
  "icon_url": "https://lutris.net/games/icon/ballistic-overkill-dedicated-server.png",
  "is_public": true,
  "updated": "2019-01-23T08:28:31.108558Z",
  "provider_games": [
    {
      "name": "Ballistic Overkill Dedicated Server",
      "slug": "416880",
      "service": "steam"
    }
  ],
  "steamid": 416880,
  "gogid": null,
  "gogslug": "",
  "humblestoreid": "",
  "id": 6671
}