{
  "name": "Flyball",
  "slug": "flyball",
  "year": 1976,
  "description": "",
  "banner_url": "https://lutris.net/games/banner/flyball.jpg",
  "icon_url": "https://lutris.net/games/icon/flyball.png",
  "is_public": true,
  "updated": "2020-05-26T03:33:50.390246Z",
  "provider_games": [
    {
      "name": "Flyball",
      "slug": "flyball",
      "service": "mame"
    }
  ],
  "steamid": null,
  "gogid": null,
  "gogslug": "",
  "humblestoreid": "",
  "id": 34121
}