{
  "name": "Casino Fever 6.1",
  "slug": "casino-fever-61",
  "year": 2000,
  "description": "",
  "banner_url": "",
  "icon_url": "https://lutris.net/games/icon/casino-fever-61.png",
  "is_public": true,
  "updated": "2020-05-26T03:32:39.316031Z",
  "provider_games": [
    {
      "name": "Casino Fever 6.1",
      "slug": "cfever61",
      "service": "mame"
    }
  ],
  "steamid": null,
  "gogid": null,
  "gogslug": "",
  "humblestoreid": "",
  "id": 33634
}