{
  "id": 21386,
  "game_id": 14337,
  "game_slug": "beglitched",
  "name": "Beglitched",
  "year": null,
  "user": "ndavis",
  "runner": "linux",
  "slug": "beglitched-itchio",
  "version": "itch.io",
  "description": null,
  "notes": "",
  "created_at": "2020-06-11T00:59:18.996857Z",
  "updated_at": "2020-06-11T00:59:18.996883Z",
  "draft": true,
  "published": false,
  "published_by": null,
  "rating": "",
  "steamid": 461220,
  "gogid": null,
  "gogslug": "",
  "humbleid": "",
  "humblestoreid": "",
  "humblestoreid_real": "",
  "script": {
    "files": [
      {
        "zipfile": "N/A:Please select the Itch.io zip file"
      }
    ],
    "game": {
      "exe": "Beglitched.x86_64"
    },
    "installer": [
      {
        "extract": {
          "dst": "$CACHE",
          "file": "zipfile",
          "format": "zip"
        }
      },
      {
        "merge": {
          "dst": "$GAMEDIR",
          "src": "$CACHE"
        }
      }
    ]
  },
  "content": "files:\n- zipfile: N/A:Please select the Itch.io zip file\ngame:\n  exe: Beglitched.x86_64\ninstaller:\n- extract:\n    dst: $CACHE\n    file: zipfile\n    format: zip\n- merge:\n    dst: $GAMEDIR\n    src: $CACHE\n"
}