{
  "name": "Dungeon Tail",
  "slug": "dungeon-tail",
  "year": 2020,
  "description": "Enjoy a lewd dungeon romp through the Enchanted Caverns with Iris the bunny mage and Vyncent the wolf rogue, students of the prestigious Dungeon Delver Academy. Who knows what sorts of misadventures they'll run into~\r\n\r\nThe game is a visual novel featuring various branching paths and puzzles/mini-games. Of course, there are plenty of detailed lewd scenes and animations to discover and enjoy as well!",
  "banner_url": "https://lutris.net/games/banner/dungeon-tail.jpg",
  "icon_url": "",
  "is_public": true,
  "updated": "2020-04-17T08:19:27.480628Z",
  "provider_games": [],
  "steamid": null,
  "gogid": null,
  "gogslug": "",
  "humblestoreid": "",
  "id": 32328
}