{
  "name": "Eternal Battlefield",
  "slug": "eternal-battlefield",
  "year": null,
  "description": "",
  "banner_url": "https://lutris.net/games/banner/eternal-battlefield.jpg",
  "icon_url": "",
  "is_public": true,
  "updated": "2020-06-16T20:38:50.355063Z",
  "provider_games": [],
  "steamid": null,
  "gogid": null,
  "gogslug": "",
  "humblestoreid": "",
  "id": 36632
}