{
  "id": 8789,
  "game_id": 19386,
  "game_slug": "playstation-now",
  "name": "PlayStation Now",
  "year": 2018,
  "user": "cxf",
  "runner": "wine",
  "slug": "playstation-now-latest",
  "version": "Latest",
  "description": "Play Playstation 1,2,3,4 games on Linux.",
  "notes": "- This script will download the latest PSNow client version from PlayStation official servers\r\n- x360 and PS3 Dualshock 3 compatible\r\n- Known issues: \r\n-- \"PlayStation Now\" does not exit cleanly with Wine. Workaround: Focus the DOS terminal window located in the top left corner and press a key to force PS Now to exit\r\n-- White rectangular window at the right bottom corner. Workaround: use PSNow window in fullscreen (press F11). Same method if main Window becomes  black or white, press F11 to refresh it\r\n-- no Directx11 or DXVK compatible for the moment (Wine bug https://bugs.winehq.org/show_bug.cgi?id=48581)",
  "created_at": "2018-06-18T21:19:20.940000Z",
  "updated_at": "2020-11-16T20:58:48.785939Z",
  "draft": false,
  "published": true,
  "published_by": 494,
  "rating": "",
  "steamid": null,
  "gogid": null,
  "gogslug": "",
  "humbleid": "",
  "humblestoreid": "",
  "humblestoreid_real": "",
  "script": {
    "files": [
      {
        "psnowsetup": {
          "filename": "psnowlatest.exe",
          "url": "https://download-psnow.playstation.com/downloads/psnow/pc/latest"
        }
      }
    ],
    "game": {
      "args": "c:\\\\psnow.bat",
      "exe": "drive_c/windows/syswow64/wineconsole.exe",
      "prefix": "$GAMEDIR"
    },
    "installer": [
      {
        "task": {
          "arch": "win64",
          "install_gecko": false,
          "install_mono": false,
          "name": "create_prefix",
          "prefix": "$GAMEDIR"
        }
      },
      {
        "task": {
          "app": "d3dcompiler_47 vcrun2013 win7",
          "arch": "win64",
          "name": "winetricks",
          "prefix": "$GAMEDIR"
        }
      },
      {
        "task": {
          "arch": "win64",
          "executable": "psnowsetup",
          "name": "wineexec",
          "prefix": "$GAMEDIR"
        }
      },
      {
        "task": {
          "app": "winxp",
          "arch": "win64",
          "name": "winetricks",
          "prefix": "$GAMEDIR"
        }
      },
      {
        "write_file": {
          "content": "@echo off\ntitle Focus this windows and press a key to force PS Now to quit.\nc:\ncd \\\ncd Program Files (x86)\\PlayStationNow\nstart psnowlauncher.exe\necho. ===========================================================\necho. focus this windows and press a key to force PS Now to quit.\necho. ===========================================================\necho.\necho.\npause\ntaskkill /F /IM psnowlauncher.exe",
          "file": "$GAMEDIR/drive_c/psnow.bat"
        }
      },
      {
        "task": {
          "arch": "win64",
          "key": "background",
          "name": "set_regedit",
          "path": "HKEY_CURRENT_USER\\Control Panel\\Colors\\",
          "prefix": "$GAMEDIR",
          "type": "REG_SZ",
          "value": "0 0 0"
        }
      },
      {
        "execute": {
          "command": "cd \"$GAMEDIR/drive_c/Program Files (x86)/PlayStationNow/\"; sed -i \"s/URL.*/URL=/\" unidater.ini;"
        }
      }
    ],
    "wine": {
      "Desktop": true,
      "dxvk": false,
      "overrides": {
        "d3d9": "b"
      }
    }
  },
  "content": "files:\n- psnowsetup:\n    filename: psnowlatest.exe\n    url: https://download-psnow.playstation.com/downloads/psnow/pc/latest\ngame:\n  args: c:\\\\psnow.bat\n  exe: drive_c/windows/syswow64/wineconsole.exe\n  prefix: $GAMEDIR\ninstaller:\n- task:\n    arch: win64\n    install_gecko: false\n    install_mono: false\n    name: create_prefix\n    prefix: $GAMEDIR\n- task:\n    app: d3dcompiler_47 vcrun2013 win7\n    arch: win64\n    name: winetricks\n    prefix: $GAMEDIR\n- task:\n    arch: win64\n    executable: psnowsetup\n    name: wineexec\n    prefix: $GAMEDIR\n- task:\n    app: winxp\n    arch: win64\n    name: winetricks\n    prefix: $GAMEDIR\n- write_file:\n    content: '@echo off\n\n      title Focus this windows and press a key to force PS Now to quit.\n\n      c:\n\n      cd \\\n\n      cd Program Files (x86)\\PlayStationNow\n\n      start psnowlauncher.exe\n\n      echo. ===========================================================\n\n      echo. focus this windows and press a key to force PS Now to quit.\n\n      echo. ===========================================================\n\n      echo.\n\n      echo.\n\n      pause\n\n      taskkill /F /IM psnowlauncher.exe'\n    file: $GAMEDIR/drive_c/psnow.bat\n- task:\n    arch: win64\n    key: background\n    name: set_regedit\n    path: HKEY_CURRENT_USER\\Control Panel\\Colors\\\n    prefix: $GAMEDIR\n    type: REG_SZ\n    value: 0 0 0\n- execute:\n    command: cd \"$GAMEDIR/drive_c/Program Files (x86)/PlayStationNow/\"; sed -i \"s/URL.*/URL=/\"\n      unidater.ini;\nwine:\n  Desktop: true\n  dxvk: false\n  overrides:\n    d3d9: b\n"
}