{
  "name": "Knightfall™: Rivals",
  "slug": "knightfalltm-rivals",
  "year": null,
  "description": "",
  "banner_url": "https://lutris.net/games/banner/knightfalltm-rivals.jpg",
  "icon_url": "https://lutris.net/games/icon/knightfalltm-rivals.png",
  "is_public": true,
  "updated": "2020-10-08T10:04:39.659186Z",
  "provider_games": [
    {
      "name": "Knightfall™: Rivals",
      "slug": "587460",
      "service": "steam"
    }
  ],
  "steamid": 587460,
  "gogid": null,
  "gogslug": "",
  "humblestoreid": "",
  "id": 11506
}