{
  "name": "Ghost in the Shell 2.0",
  "slug": "ghost-in-the-shell-20",
  "year": null,
  "description": "",
  "banner_url": "https://lutris.net/games/banner/ghost-in-the-shell-20.jpg",
  "icon_url": "https://lutris.net/games/icon/ghost-in-the-shell-20.png",
  "is_public": true,
  "updated": "2020-10-08T10:04:36.326469Z",
  "provider_games": [
    {
      "name": "Ghost in the Shell 2.0",
      "slug": "589900",
      "service": "steam"
    }
  ],
  "steamid": 589900,
  "gogid": null,
  "gogslug": "",
  "humblestoreid": "",
  "id": 14463
}