{
  "name": "Kiara And My Ara Ara Adventure",
  "slug": "kiara-and-my-ara-ara-adventure",
  "year": null,
  "description": "",
  "banner_url": "https://lutris.net/games/banner/kiara-and-my-ara-ara-adventure.jpg",
  "icon_url": "https://lutris.net/games/icon/kiara-and-my-ara-ara-adventure.png",
  "is_public": true,
  "updated": "2020-10-08T09:59:38.616577Z",
  "provider_games": [
    {
      "name": "Kiara And My Ara Ara Adventure",
      "slug": "1343090",
      "service": "steam"
    }
  ],
  "steamid": 1343090,
  "gogid": null,
  "gogslug": "",
  "humblestoreid": "",
  "id": 38821
}