{
  "id": 5465,
  "game_id": 5730,
  "game_slug": "atonement-scourge-of-time",
  "name": "Atonement: Scourge of Time",
  "year": null,
  "user": "FakeShemp",
  "runner": "wine",
  "slug": "atonement-scourge-of-time-groupees",
  "version": "Groupees",
  "description": "",
  "notes": "",
  "created_at": "2017-08-21T21:19:14.348000Z",
  "updated_at": "2018-05-19T03:41:53.146585Z",
  "draft": false,
  "published": true,
  "published_by": null,
  "rating": "",
  "steamid": 385070,
  "gogid": null,
  "gogslug": "",
  "humbleid": "",
  "humblestoreid": "",
  "humblestoreid_real": "",
  "script": {
    "files": [
      {
        "file1": "N/A:Please select the Groupees installer"
      }
    ],
    "game": {
      "arch": "win32",
      "exe": "drive_c/Program Files/Atonement Scourge of Time/Atonement Scourge of Time complete/Game.exe",
      "prefix": "$GAMEDIR"
    },
    "installer": [
      {
        "task": {
          "executable": "$file1",
          "name": "wineexec",
          "prefix": "$GAMEDIR"
        }
      }
    ]
  },
  "content": "files:\n- file1: N/A:Please select the Groupees installer\ngame:\n  arch: win32\n  exe: drive_c/Program Files/Atonement Scourge of Time/Atonement Scourge of Time complete/Game.exe\n  prefix: $GAMEDIR\ninstaller:\n- task:\n    executable: $file1\n    name: wineexec\n    prefix: $GAMEDIR\n"
}