{
  "name": "Lucky 74",
  "slug": "lucky-74",
  "year": 1988,
  "description": "",
  "banner_url": "",
  "icon_url": "https://lutris.net/games/icon/lucky-74.png",
  "is_public": true,
  "updated": "2020-05-26T03:35:21.636761Z",
  "provider_games": [
    {
      "name": "Lucky 74",
      "slug": "lucky74",
      "service": "mame"
    }
  ],
  "steamid": null,
  "gogid": null,
  "gogslug": "",
  "humblestoreid": "",
  "id": 34755
}