{
  "name": "Buildanauts",
  "slug": "buildanauts",
  "year": null,
  "description": "",
  "banner_url": "https://lutris.net/games/banner/buildanauts.jpg",
  "icon_url": "https://lutris.net/games/icon/buildanauts.png",
  "is_public": false,
  "updated": "2020-10-24T16:56:28.396441Z",
  "provider_games": [],
  "steamid": 394490,
  "gogid": null,
  "gogslug": "",
  "humblestoreid": "",
  "id": 39984
}