{
  "name": "BRINK",
  "slug": "brink",
  "year": 2011,
  "description": "A fun shooter with great customization and and intuitive but primitive parkour system. With shining strengths and glaring weaknesses this game received mixed reviews but is well worth trying for the gimmicks alone.",
  "banner_url": "https://lutris.net/games/banner/brink.jpg",
  "icon_url": "https://lutris.net/games/icon/brink.png",
  "is_public": true,
  "updated": "2019-01-23T08:28:42.225179Z",
  "provider_games": [
    {
      "name": "BRINK",
      "slug": "22350",
      "service": "steam"
    }
  ],
  "steamid": 22350,
  "gogid": null,
  "gogslug": "",
  "humblestoreid": "",
  "id": 252
}