{
  "name": "Carmilla",
  "slug": "carmilla",
  "year": 2018,
  "description": "Carmilla takes a close look at the Age of Enlightenment and encourages us to ask whether—alongside all the progress and benefits modern science has brought about— we might have lost something valuable in the process.\r\n\r\nlength: approximately 5 hours\r\n\r\nPrologue\r\n\r\nDr. Martin Heselius, a German physician, dedicates himself exclusively to those cases that promise to further his inquiry into the relation between the physical—, the spiritual—, and the divine sphere of existence. \r\nAda Brunswick edits and translates the doctor's manuscripts.\r\nUnder the name Visual Gothic they publish those cases that might benefit a wider public while illuminating the interplay between the rational, the supernatural, and the superstitious.\r\n\r\nThe Story\r\n\r\nLaura, narrator and heroine of the story, lives an idyllic life with her father in an old castle in Styria. Geographically isolated she is often lonely. A carriage accident delivers a mysterious young girl, named Carmilla, to the castle's doorsteps, hence putting a sudden end to Laura's solitude.\r\nThe two girls grow close quickly, yet Laura occasionally feels overwhelmed and confused by Carmilla's passionate advances which ignite in her fascination and abhorrence in equal parts. However, these tense situations do little to tarnish the camaraderie that permeates their everyday life.\r\nToo soon this life is increasingly overshadowed as Laura starts to experience disquieting nightly visions and strange physical symptoms ...\r\n\r\nWhat is it About?\r\n\r\nCarmilla has often been called a 'Lesbian Vampire Story', which is pointing out the obvious and missing its point at the same time. On its surface it is also a romance, a tale of bonding between two lonely girls in an isolated environment with a dash of mystery for good merit.\r\nNot far beneath this entertaining level of the story, readers who prefer their text to play the role of teacher or moralist will readily discover a lesson here: Do not allow dogmatic rationalism to replace superstition and blind you to the truth!\r\nHowever, at its center Carmilla is an exploration of the human condition after the Enlightenment cemented the distinction between mind and matter, the so called mind-body-dualism, with its clear preference for mind over matter. Today, this duality is hardly ever questioned. \r\n\r\nThe editors have appended a collection of notes that might serve to illustrate the birth of this new paradigm and assist in carving a path to the real heart of the story.",
  "banner_url": "https://lutris.net/games/banner/carmilla.jpg",
  "icon_url": "",
  "is_public": true,
  "updated": "2019-12-15T18:15:57.483606Z",
  "provider_games": [],
  "steamid": null,
  "gogid": null,
  "gogslug": "",
  "humblestoreid": "",
  "id": 30585
}