{
  "name": "1bitHeart",
  "slug": "1bitheart",
  "year": 2017,
  "description": "This is the story of a world in which pretty much everything is controlled and watched over by computer programs.\r\nOne day, Nanashi―a young boy who has been cooped up in his room―meets a mysterious girl.\r\n“Let’s make some friends.”\r\n“OK!”\r\nNanashi accepts the young girl’s sudden invitation without giving it much thought.\r\nAt that very moment, some very strange things begin to occur in town...",
  "banner_url": "https://lutris.net/games/banner/1bitheart.jpg",
  "icon_url": "https://lutris.net/games/icon/1bitheart.png",
  "is_public": true,
  "updated": "2019-01-23T08:28:08.315954Z",
  "provider_games": [
    {
      "name": "1bitHeart",
      "slug": "618720",
      "service": "steam"
    }
  ],
  "steamid": 618720,
  "gogid": null,
  "gogslug": "",
  "humblestoreid": "",
  "id": 16074
}