{
  "name": "Hare In The Hat",
  "slug": "hare-in-the-hat",
  "year": null,
  "description": "",
  "banner_url": "https://lutris.net/games/banner/hare-in-the-hat.jpg",
  "icon_url": "https://lutris.net/games/icon/hare-in-the-hat.png",
  "is_public": true,
  "updated": "2020-10-08T10:16:20.074102Z",
  "provider_games": [
    {
      "name": "Hare In The Hat",
      "slug": "359810",
      "service": "steam"
    }
  ],
  "steamid": 359810,
  "gogid": null,
  "gogslug": "",
  "humblestoreid": "",
  "id": 4156
}