{
  "name": "Cars 2",
  "slug": "cars-2",
  "year": 2011,
  "description": "Cars 2 is a racing game based on the Disney and Pixar movie. As a C.H.R.O.M.E. (Command Headquarters for Recon Operations & Motorized Espionage) agent, the player can participate in various events, using one of the many characters from the Cars franchise. The game has a mission mode, which is made of different missions accessed when the required clearance level has been reached. Clearing missions will award the points necessary to unlock higher clearance levels.\r\n\r\nThe races play in a manner similar to Mario Kart games: while racing, the player can use a number of maneuvers such as drifting, jumping, driving backwards or on two wheel, as well as use a turbo using energy, or the 'In the Zone' turbo, which will be in effect as long as there is energy remaining. Some tracks allows the use of weapons (spy gadgets) to take down competitors. Such weapons include missiles, machine guns, and oil patches.",
  "banner_url": "https://lutris.net/games/banner/cars-2.jpg",
  "icon_url": "https://lutris.net/games/icon/cars-2.png",
  "is_public": true,
  "updated": "2019-01-23T08:28:46.925785Z",
  "provider_games": [
    {
      "name": "Cars 2",
      "slug": "301760",
      "service": "steam"
    }
  ],
  "steamid": 301760,
  "gogid": null,
  "gogslug": "",
  "humblestoreid": "",
  "id": 12455
}