{
  "name": "King's Field III: Pilot Style",
  "slug": "kings-field-iii-pilot-style",
  "year": 1996,
  "description": "King's Field III: Pilot Style is a Role-Playing game, developed and published by From Software, which was released in Japan in 1996.",
  "banner_url": "https://lutris.net/games/banner/kings-field-iii-pilot-style.jpg",
  "icon_url": "",
  "is_public": true,
  "updated": "2020-08-29T22:36:48.600773Z",
  "provider_games": [],
  "steamid": null,
  "gogid": null,
  "gogslug": "",
  "humblestoreid": "",
  "id": 37882
}