{
  "name": "MAGIX Music Maker 2014 Premium",
  "slug": "magix-music-maker-2014-premium",
  "year": null,
  "description": "",
  "banner_url": "https://lutris.net/games/banner/magix-music-maker-2014-premium.jpg",
  "icon_url": "https://lutris.net/games/icon/magix-music-maker-2014-premium.png",
  "is_public": true,
  "updated": "2020-10-08T09:21:12.073993Z",
  "provider_games": [
    {
      "name": "MAGIX Music Maker 2014 Premium",
      "slug": "255010",
      "service": "steam"
    }
  ],
  "steamid": 255010,
  "gogid": null,
  "gogslug": "",
  "humblestoreid": "",
  "id": 4886
}