{
  "name": "California Games",
  "slug": "california-games",
  "year": 1989,
  "description": "",
  "banner_url": "https://lutris.net/games/banner/california-games.jpg",
  "icon_url": "",
  "is_public": true,
  "updated": "2019-01-23T08:28:44.358597Z",
  "provider_games": [],
  "steamid": null,
  "gogid": null,
  "gogslug": "",
  "humblestoreid": "",
  "id": 13734
}