{
  "name": "Godly Corp",
  "slug": "godly-corp",
  "year": null,
  "description": "",
  "banner_url": "https://lutris.net/games/banner/godly-corp.jpg",
  "icon_url": "https://lutris.net/games/icon/godly-corp.png",
  "is_public": true,
  "updated": "2020-10-08T09:57:49.310375Z",
  "provider_games": [
    {
      "name": "Godly Corp",
      "slug": "799260",
      "service": "steam"
    }
  ],
  "steamid": 799260,
  "gogid": null,
  "gogslug": "",
  "humblestoreid": "",
  "id": 30458
}