{
  "name": "MAGICAL×SPIRAL",
  "slug": "magicalspiral",
  "year": null,
  "description": "",
  "banner_url": "https://lutris.net/games/banner/magicalspiral.jpg",
  "icon_url": "https://lutris.net/games/icon/magicalspiral.png",
  "is_public": true,
  "updated": "2020-10-08T10:06:42.525328Z",
  "provider_games": [
    {
      "name": "MAGICAL×SPIRAL",
      "slug": "521510",
      "service": "steam"
    }
  ],
  "steamid": 521510,
  "gogid": null,
  "gogslug": "",
  "humblestoreid": "",
  "id": 20778
}