{
  "name": "Draw 88 Poker",
  "slug": "draw-88-poker",
  "year": 1988,
  "description": "",
  "banner_url": "",
  "icon_url": "https://lutris.net/games/icon/draw-88-poker.png",
  "is_public": true,
  "updated": "2020-05-26T03:33:26.508879Z",
  "provider_games": [
    {
      "name": "Draw 88 Poker",
      "slug": "draw88pkr",
      "service": "mame"
    }
  ],
  "steamid": null,
  "gogid": null,
  "gogslug": "",
  "humblestoreid": "",
  "id": 33947
}