{
  "name": "Jupiter Hell",
  "slug": "jupiter-hell",
  "year": 2019,
  "description": "Jupiter Hell is a turn-based shooter from the depths of cosmic hell, built on a classic roguelike framework updated with modern 3d graphics. Rip and tear zombies, demons, and heavy metal monstrosities with chainguns and chainsaws. Like chess... with shotguns!",
  "banner_url": "https://lutris.net/games/banner/jupiter-hell.jpg",
  "icon_url": "https://lutris.net/games/icon/jupiter-hell.png",
  "is_public": true,
  "updated": "2020-10-08T09:57:34.458850Z",
  "provider_games": [
    {
      "name": "Jupiter Hell",
      "slug": "1603513052",
      "service": "gog"
    },
    {
      "name": "Jupiter Hell",
      "slug": "811320",
      "service": "steam"
    }
  ],
  "steamid": 811320,
  "gogid": 1603513052,
  "gogslug": "jupiter_hell",
  "humblestoreid": "",
  "id": 28965
}