{
  "name": "Golden Poker",
  "slug": "golden-poker",
  "year": 1986,
  "description": "",
  "banner_url": "",
  "icon_url": "https://lutris.net/games/icon/golden-poker.png",
  "is_public": true,
  "updated": "2020-05-26T03:34:11.157484Z",
  "provider_games": [
    {
      "name": "Golden Poker",
      "slug": "gldnpkr",
      "service": "mame"
    }
  ],
  "steamid": null,
  "gogid": null,
  "gogslug": "",
  "humblestoreid": "",
  "id": 34250
}