{
  "name": "Conflict of Heroes: Awakening the Bear",
  "slug": "conflict-of-heroes-awakening-the-bear",
  "year": null,
  "description": "",
  "banner_url": "https://lutris.net/games/banner/conflict-of-heroes-awakening-the-bear.jpg",
  "icon_url": "https://lutris.net/games/icon/conflict-of-heroes-awakening-the-bear.png",
  "is_public": true,
  "updated": "2020-10-08T10:07:07.078395Z",
  "provider_games": [
    {
      "name": "Conflict of Heroes: Awakening the Bear",
      "slug": "510320",
      "service": "steam"
    }
  ],
  "steamid": 510320,
  "gogid": null,
  "gogslug": "",
  "humblestoreid": "",
  "id": 26565
}