{
  "name": "Hawken - All the Thrusters Pack",
  "slug": "hawken-all-the-thrusters-pack",
  "year": null,
  "description": "",
  "banner_url": "https://lutris.net/games/banner/hawken-all-the-thrusters-pack.jpg",
  "icon_url": "https://lutris.net/games/icon/hawken-all-the-thrusters-pack.png",
  "is_public": false,
  "updated": "2019-01-23T08:29:47.806905Z",
  "provider_games": [],
  "steamid": 372400,
  "gogid": null,
  "gogslug": "",
  "humblestoreid": "",
  "id": 14969
}