{
  "name": "Grav Blazer Squared",
  "slug": "grav-blazer-squared",
  "year": null,
  "description": "",
  "banner_url": "https://lutris.net/games/banner/grav-blazer-squared.jpg",
  "icon_url": "https://lutris.net/games/icon/grav-blazer-squared.png",
  "is_public": true,
  "updated": "2020-10-08T10:00:54.129698Z",
  "provider_games": [
    {
      "name": "Grav Blazer Squared",
      "slug": "703530",
      "service": "steam"
    }
  ],
  "steamid": 703530,
  "gogid": null,
  "gogslug": "",
  "humblestoreid": "",
  "id": 15268
}