{
  "id": 4623,
  "game_id": 2801,
  "game_slug": "freddi-fish-5-the-case-of-the-creature-of-coral-co",
  "name": "Freddi Fish 5: The Case of the Creature of Coral Cove",
  "year": 2001,
  "user": "FakeShemp",
  "runner": "scummvm",
  "slug": "freddi-fish-5-the-case-of-the-humble",
  "version": "Humble",
  "description": "Uses the files from the Windows installer from Humble.",
  "notes": "",
  "created_at": "2017-06-26T09:15:56.664000Z",
  "updated_at": "2017-07-04T18:06:01.161325Z",
  "draft": false,
  "published": true,
  "published_by": null,
  "rating": "",
  "steamid": 294570,
  "gogid": null,
  "gogslug": "",
  "humbleid": "",
  "humblestoreid": "",
  "humblestoreid_real": "",
  "script": {
    "files": [
      {
        "file1": "N/A:Please select the Humble installer"
      }
    ],
    "game": {
      "game_id": "freddicove",
      "path": "$GAMEDIR",
      "subtitles": true
    },
    "installer": [
      {
        "task": {
          "args": "/S",
          "executable": "$file1",
          "name": "wine.wineexec",
          "prefix": "$CACHE"
        }
      },
      {
        "merge": {
          "dst": "$GAMEDIR",
          "src": "$CACHE/drive_c/Games/Humongous Entertainment/Freddi Fish 5"
        }
      }
    ],
    "scummvm": {
      "gfx-mode": "2x"
    }
  },
  "content": "files:\n- file1: N/A:Please select the Humble installer\ngame:\n  game_id: freddicove\n  path: $GAMEDIR\n  subtitles: true\ninstaller:\n- task:\n    args: /S\n    executable: $file1\n    name: wine.wineexec\n    prefix: $CACHE\n- merge:\n    dst: $GAMEDIR\n    src: $CACHE/drive_c/Games/Humongous Entertainment/Freddi Fish 5\nscummvm:\n  gfx-mode: 2x\n"
}