{
  "name": "A Kishoutenketsu in the countryside",
  "slug": "a-kishoutenketsu-in-the-countryside",
  "year": 2017,
  "description": "Explore the outdoors, find your way through the mazes, face four puzzles and live great adventures !",
  "banner_url": "https://lutris.net/games/banner/a-kishoutenketsu-in-the-countryside.jpg",
  "icon_url": "",
  "is_public": false,
  "updated": "2020-09-13T02:30:34.854549Z",
  "provider_games": [],
  "steamid": null,
  "gogid": null,
  "gogslug": "",
  "humblestoreid": "",
  "id": 38856
}