{
  "name": "Gold key",
  "slug": "gold-key",
  "year": null,
  "description": "",
  "banner_url": "https://lutris.net/games/banner/gold-key.jpg",
  "icon_url": "https://lutris.net/games/icon/gold-key.png",
  "is_public": false,
  "updated": "2019-01-31T04:45:38.336150Z",
  "provider_games": [],
  "steamid": 736510,
  "gogid": null,
  "gogslug": "",
  "humblestoreid": "",
  "id": 25479
}