{
  "id": 13150,
  "game_id": 11073,
  "game_slug": "beat-cop",
  "name": "Beat Cop",
  "year": 2017,
  "user": "CharlyDelta",
  "runner": "linux",
  "slug": "beat-cop-gog",
  "version": "GOG",
  "description": null,
  "notes": "",
  "created_at": "2019-04-27T14:54:46.282178Z",
  "updated_at": "2019-04-27T14:56:03.350725Z",
  "draft": false,
  "published": true,
  "published_by": null,
  "rating": "",
  "steamid": 461950,
  "gogid": 1584866499,
  "gogslug": "beat_cop",
  "humbleid": "beatcop",
  "humblestoreid": "beatcop",
  "humblestoreid_real": "beatcop",
  "script": {
    "files": [
      {
        "goginstaller": "N/A:Please select the GOG.com Linux installer"
      }
    ],
    "game": {
      "exe": "start.sh"
    },
    "installer": [
      {
        "extract": {
          "dst": "$CACHE/GOG",
          "file": "goginstaller",
          "format": "zip"
        }
      },
      {
        "merge": {
          "dst": "$GAMEDIR",
          "src": "$CACHE/GOG/data/noarch/"
        }
      }
    ]
  },
  "content": "files:\n- goginstaller: N/A:Please select the GOG.com Linux installer\ngame:\n  exe: start.sh\ninstaller:\n- extract:\n    dst: $CACHE/GOG\n    file: goginstaller\n    format: zip\n- merge:\n    dst: $GAMEDIR\n    src: $CACHE/GOG/data/noarch/\n"
}