{
  "name": "In Vitra",
  "slug": "in-vitra",
  "year": null,
  "description": "",
  "banner_url": "https://lutris.net/games/banner/in-vitra.jpg",
  "icon_url": "https://lutris.net/games/icon/in-vitra.png",
  "is_public": true,
  "updated": "2020-10-08T10:05:25.464213Z",
  "provider_games": [
    {
      "name": "In Vitra",
      "slug": "563270",
      "service": "steam"
    }
  ],
  "steamid": 563270,
  "gogid": null,
  "gogslug": "",
  "humblestoreid": "",
  "id": 20909
}