{
  "name": "Fifth axis",
  "slug": "fifth-axis",
  "year": 1987,
  "description": "RELEASED:  February 15, 1987 by TRIAD\r\nCSDB ID:  19213",
  "banner_url": "https://lutris.net/games/banner/fifth-axis.jpg",
  "icon_url": "",
  "is_public": true,
  "updated": "2019-01-23T08:29:30.407795Z",
  "provider_games": [],
  "steamid": null,
  "gogid": null,
  "gogslug": "",
  "humblestoreid": "",
  "id": 19152
}