{
  "name": "Dragon's Dungeon: Awakening",
  "slug": "dragons-dungeon-awakening",
  "year": null,
  "description": "",
  "banner_url": "https://lutris.net/games/banner/dragons-dungeon-awakening.jpg",
  "icon_url": "https://lutris.net/games/icon/dragons-dungeon-awakening.png",
  "is_public": false,
  "updated": "2019-01-23T08:29:16.718801Z",
  "provider_games": [],
  "steamid": 640430,
  "gogid": null,
  "gogslug": "",
  "humblestoreid": "",
  "id": 15220
}