{
  "name": "China Town",
  "slug": "china-town",
  "year": 1991,
  "description": "",
  "banner_url": "",
  "icon_url": "https://lutris.net/games/icon/china-town.png",
  "is_public": true,
  "updated": "2020-05-26T03:32:47.237506Z",
  "provider_games": [
    {
      "name": "China Town",
      "slug": "chinatwn",
      "service": "mame"
    }
  ],
  "steamid": null,
  "gogid": null,
  "gogslug": "",
  "humblestoreid": "",
  "id": 33667
}