{
  "name": "Blitz Breaker",
  "slug": "blitz-breaker",
  "year": null,
  "description": "",
  "banner_url": "https://lutris.net/games/banner/blitz-breaker.jpg",
  "icon_url": "https://lutris.net/games/icon/blitz-breaker.png",
  "is_public": true,
  "updated": "2019-01-23T08:28:38.380096Z",
  "provider_games": [
    {
      "name": "Blitz Breaker",
      "slug": "416110",
      "service": "steam"
    }
  ],
  "steamid": 416110,
  "gogid": null,
  "gogslug": "",
  "humblestoreid": "",
  "id": 7003
}