{
  "name": "Floating Point",
  "slug": "floating-point",
  "year": 2014,
  "description": "Floating Point is a free, peaceful game about using a grappling hook to swing yourself gracefully through randomly generated spaces. In the air, you're fighting gravity. When you splash down beneath the water, you're fighting your own buoyancy to swing yourself further into the depths.\r\n\r\nThe only objective is to collect points, and the only thing that increases your points is swinging swiftly, smoothly and elegantly without hitting anything. As you pick up momentum, you start to glow, the bars you're collecting rise up, the music kicks in, and your trajectory burns a bright red line in the air, drawing huge, beautiful mathematical curves of your arcing flight.\r\n\r\nAlso the name is a pun, so that's cool. ",
  "banner_url": "https://lutris.net/games/banner/floating-point.jpg",
  "icon_url": "https://lutris.net/games/icon/floating-point.png",
  "is_public": true,
  "updated": "2019-01-23T08:29:32.419301Z",
  "provider_games": [
    {
      "name": "Floating Point",
      "slug": "302380",
      "service": "steam"
    }
  ],
  "steamid": 302380,
  "gogid": null,
  "gogslug": "",
  "humblestoreid": "",
  "id": 2165
}