{
  "name": "Driftland: The Magic Revival",
  "slug": "driftland-the-magic-revival",
  "year": null,
  "description": "",
  "banner_url": "https://lutris.net/games/banner/driftland-the-magic-revival.jpg",
  "icon_url": "https://lutris.net/games/icon/driftland-the-magic-revival.png",
  "is_public": true,
  "updated": "2020-10-08T10:00:31.216672Z",
  "provider_games": [
    {
      "name": "Driftland: The Magic Revival",
      "slug": "1502340752",
      "service": "gog"
    },
    {
      "name": "Driftland: The Magic Revival",
      "slug": "718650",
      "service": "steam"
    }
  ],
  "steamid": 718650,
  "gogid": 1502340752,
  "gogslug": "driftland_the_magic_revival",
  "humblestoreid": "",
  "id": 15598
}