{
  "name": "GiroTutto",
  "slug": "girotutto",
  "year": 2000,
  "description": "",
  "banner_url": "",
  "icon_url": "https://lutris.net/games/icon/girotutto.png",
  "is_public": true,
  "updated": "2020-05-26T03:34:08.009684Z",
  "provider_games": [
    {
      "name": "GiroTutto",
      "slug": "girotutt",
      "service": "mame"
    }
  ],
  "steamid": null,
  "gogid": null,
  "gogslug": "",
  "humblestoreid": "",
  "id": 34245
}