{
  "name": "Break Ups",
  "slug": "break-ups",
  "year": null,
  "description": "",
  "banner_url": "https://lutris.net/games/banner/break-ups.jpg",
  "icon_url": "https://lutris.net/games/icon/break-ups.png",
  "is_public": true,
  "updated": "2020-10-08T10:13:09.779701Z",
  "provider_games": [
    {
      "name": "Break Ups",
      "slug": "470250",
      "service": "steam"
    }
  ],
  "steamid": 470250,
  "gogid": null,
  "gogslug": "",
  "humblestoreid": "",
  "id": 15963
}