{
  "id": 5389,
  "game_id": 2148,
  "game_slug": "cinders",
  "name": "Cinders",
  "year": 2012,
  "user": "FakeShemp",
  "runner": "wine",
  "slug": "cinders-groupees",
  "version": "Groupees",
  "description": "",
  "notes": "",
  "created_at": "2017-08-13T19:57:21.093000Z",
  "updated_at": "2018-05-19T03:41:58.517331Z",
  "draft": false,
  "published": true,
  "published_by": null,
  "rating": "",
  "steamid": 293680,
  "gogid": 1098996397,
  "gogslug": "cinders",
  "humbleid": "",
  "humblestoreid": "",
  "humblestoreid_real": "",
  "script": {
    "files": [
      {
        "file1": "N/A:Please select the Groupees installer"
      }
    ],
    "game": {
      "arch": "win32",
      "exe": "drive_c/Program Files/Cinders/Cinders.exe",
      "prefix": "$GAMEDIR"
    },
    "installer": [
      {
        "task": {
          "args": "/sp- /verysilent /norestart /suppressmsgboxes /nogui",
          "executable": "$file1",
          "name": "wineexec",
          "prefix": "$GAMEDIR"
        }
      }
    ]
  },
  "content": "files:\n- file1: N/A:Please select the Groupees installer\ngame:\n  arch: win32\n  exe: drive_c/Program Files/Cinders/Cinders.exe\n  prefix: $GAMEDIR\ninstaller:\n- task:\n    args: /sp- /verysilent /norestart /suppressmsgboxes /nogui\n    executable: $file1\n    name: wineexec\n    prefix: $GAMEDIR\n"
}