{
  "id": 21651,
  "game_id": 11693,
  "game_slug": "cultures",
  "name": "Cultures",
  "year": 2001,
  "user": "megavolt",
  "runner": "wine",
  "slug": "cultures-gog",
  "version": "GOG",
  "description": null,
  "notes": "No known issues. Works out of the box.",
  "created_at": "2020-06-18T05:05:25.772538Z",
  "updated_at": "2020-06-18T05:05:25.772564Z",
  "draft": false,
  "published": false,
  "published_by": null,
  "rating": "",
  "steamid": null,
  "gogid": 1207663793,
  "gogslug": "cultures",
  "humbleid": "",
  "humblestoreid": "",
  "humblestoreid_real": "",
  "script": {
    "files": [
      {
        "game": "N/A:Select the Windows setup file downloaded from GOG"
      }
    ],
    "game": {
      "arch": "win32",
      "exe": "drive_c/GOG Games/Cultures/Cultures.exe",
      "prefix": "$GAMEDIR"
    },
    "installer": [
      {
        "task": {
          "arch": "win32",
          "name": "create_prefix",
          "prefix": "$GAMEDIR"
        }
      },
      {
        "task": {
          "arch": "win32",
          "executable": "game",
          "name": "wineexec",
          "prefix": "$GAMEDIR"
        }
      }
    ]
  },
  "content": "files:\n- game: N/A:Select the Windows setup file downloaded from GOG\ngame:\n  arch: win32\n  exe: drive_c/GOG Games/Cultures/Cultures.exe\n  prefix: $GAMEDIR\ninstaller:\n- task:\n    arch: win32\n    name: create_prefix\n    prefix: $GAMEDIR\n- task:\n    arch: win32\n    executable: game\n    name: wineexec\n    prefix: $GAMEDIR\n"
}