{
  "name": "Christmas party",
  "slug": "christmas-party",
  "year": null,
  "description": "",
  "banner_url": "https://lutris.net/games/banner/christmas-party.jpg",
  "icon_url": "https://lutris.net/games/icon/christmas-party.png",
  "is_public": false,
  "updated": "2019-01-23T08:28:52.235651Z",
  "provider_games": [],
  "steamid": 764060,
  "gogid": null,
  "gogslug": "",
  "humblestoreid": "",
  "id": 19642
}