{
  "name": "Fly Simulator",
  "slug": "fly-simulator",
  "year": null,
  "description": "",
  "banner_url": "https://lutris.net/games/banner/fly-simulator.jpg",
  "icon_url": "https://lutris.net/games/icon/fly-simulator.png",
  "is_public": true,
  "updated": "2019-01-23T08:29:32.874829Z",
  "provider_games": [
    {
      "name": "Fly Simulator",
      "slug": "655790",
      "service": "steam"
    }
  ],
  "steamid": 655790,
  "gogid": null,
  "gogslug": "",
  "humblestoreid": "",
  "id": 19279
}