{
  "name": "Dark Years",
  "slug": "dark-years",
  "year": null,
  "description": "",
  "banner_url": "https://lutris.net/games/banner/dark-years.jpg",
  "icon_url": "https://lutris.net/games/icon/dark-years.png",
  "is_public": true,
  "updated": "2020-10-08T10:15:41.871410Z",
  "provider_games": [
    {
      "name": "Dark Years",
      "slug": "382160",
      "service": "steam"
    }
  ],
  "steamid": 382160,
  "gogid": null,
  "gogslug": "",
  "humblestoreid": "",
  "id": 9886
}