{
  "name": "ArcaniA – Gothic 4",
  "slug": "arcania-gothic-4",
  "year": null,
  "description": "",
  "banner_url": "https://lutris.net/games/banner/arcania-gothic-4.jpg",
  "icon_url": "https://lutris.net/games/icon/arcania-gothic-4.png",
  "is_public": true,
  "updated": "2019-01-23T08:28:24.065356Z",
  "provider_games": [
    {
      "name": "ArcaniA",
      "slug": "39690",
      "service": "steam"
    }
  ],
  "steamid": 39690,
  "gogid": null,
  "gogslug": "",
  "humblestoreid": "",
  "id": 363
}