{
  "name": "Axis Game Factory",
  "slug": "axis-game-factory",
  "year": 2013,
  "description": "AGF is an independent product that empowers users to create game levels and environments for many types of game genres, and the AGFPRO v3.0 PREMIUM version is also designed to work in concert with the Free and Pro versions of the Unity 5 game engine to allow further customization and game publishing. AGF runs on the PC, MAC and LINUX systems.\r\n\r\nAGF allows developers to rapidly create game maps, sculpt terrain and design levels quickly and easily. With over 1000+ assets pre-stocked in the warehouse, along with 48 pre-set themes and 8 sample maps, developers and enthusiasts can begin creating levels in minutes. AGFPRO v3.0 includes all of the necessary tools to allow users the ability to import AGF scenes into Unity3d Free and Pro 5.\r\n\r\nCreating game levels and maps in AGFPRO is easy and fun - now ANYONE can create their own quality game maps without having to program, model or animate!",
  "banner_url": "https://lutris.net/games/banner/axis-game-factory.jpg",
  "icon_url": "https://lutris.net/games/icon/axis-game-factory.png",
  "is_public": true,
  "updated": "2019-01-23T08:28:30.008898Z",
  "provider_games": [
    {
      "name": "Axis Game Factory's AGFPRO 3.0",
      "slug": "253370",
      "service": "steam"
    }
  ],
  "steamid": 253370,
  "gogid": null,
  "gogslug": "",
  "humblestoreid": "",
  "id": 2245
}