{
  "id": 2720,
  "game_id": 7638,
  "game_slug": "alundra",
  "name": "Alundra",
  "year": 1997,
  "user": "ssf",
  "runner": "pcsxr",
  "slug": "alundra-retail",
  "version": "Retail",
  "description": "",
  "notes": "",
  "created_at": "2016-09-10T17:09:14.006786Z",
  "updated_at": "2016-09-13T16:08:22.096740Z",
  "draft": false,
  "published": true,
  "published_by": null,
  "rating": "",
  "steamid": null,
  "gogid": null,
  "gogslug": "",
  "humbleid": "",
  "humblestoreid": "",
  "humblestoreid_real": "",
  "script": {
    "files": [
      {
        "iso_file": "N/A:Please select the PlayStation ISO file."
      }
    ],
    "installer": [
      {
        "merge": {
          "dst": "$GAMEDIR",
          "src": "iso_file"
        }
      }
    ],
    "iso": "iso_file"
  },
  "content": "files:\n- iso_file: N/A:Please select the PlayStation ISO file.\ninstaller:\n- merge:\n    dst: $GAMEDIR\n    src: iso_file\niso: iso_file\n"
}