{
  "name": "Angels of Fasaria 2D RPG",
  "slug": "angels-of-fasaria-2d-rpg",
  "year": null,
  "description": "",
  "banner_url": "https://lutris.net/games/banner/angels-of-fasaria-2d-rpg.jpg",
  "icon_url": "https://lutris.net/games/icon/angels-of-fasaria-2d-rpg.png",
  "is_public": true,
  "updated": "2020-10-08T09:19:25.750592Z",
  "provider_games": [
    {
      "name": "Angels of Fasaria: Version 2.0",
      "slug": "335900",
      "service": "steam"
    }
  ],
  "steamid": 335900,
  "gogid": null,
  "gogslug": "",
  "humblestoreid": "",
  "id": 3623
}