{
  "id": 8958,
  "game_id": 19605,
  "game_slug": "pinewood-island",
  "name": "Pinewood Island",
  "year": 2017,
  "user": "kimchitea",
  "runner": "linux",
  "slug": "pinewood-island-itchio",
  "version": "itch.io",
  "description": null,
  "notes": "",
  "created_at": "2018-06-30T17:06:23.646000Z",
  "updated_at": "2018-07-01T03:32:58.726913Z",
  "draft": false,
  "published": true,
  "published_by": null,
  "rating": "",
  "steamid": 710950,
  "gogid": null,
  "gogslug": "",
  "humbleid": "",
  "humblestoreid": "",
  "humblestoreid_real": "",
  "script": {
    "exe": "Pinewood-Island.sh",
    "files": [
      {
        "file1": "N/A:Please select the itch.io archive"
      }
    ],
    "installer": [
      {
        "extract": {
          "file": "$file1"
        }
      },
      {
        "chmodx": "$GAMEDIR/Pinewood-Island.sh"
      },
      {
        "chmodx": "$GAMEDIR/lib/linux-i686/Pinewood-Island"
      },
      {
        "chmodx": "$GAMEDIR/lib/linux-x86_64/Pinewood-Island"
      }
    ]
  },
  "content": "exe: Pinewood-Island.sh\nfiles:\n- file1: N/A:Please select the itch.io archive\ninstaller:\n- extract:\n    file: $file1\n- chmodx: $GAMEDIR/Pinewood-Island.sh\n- chmodx: $GAMEDIR/lib/linux-i686/Pinewood-Island\n- chmodx: $GAMEDIR/lib/linux-x86_64/Pinewood-Island\n"
}