{
  "name": "Investigator",
  "slug": "investigator",
  "year": null,
  "description": "",
  "banner_url": "https://lutris.net/games/banner/investigator.jpg",
  "icon_url": "https://lutris.net/games/icon/investigator.png",
  "is_public": true,
  "updated": "2019-01-23T08:29:58.139488Z",
  "provider_games": [
    {
      "name": "Investigator",
      "slug": "482300",
      "service": "steam"
    }
  ],
  "steamid": 482300,
  "gogid": null,
  "gogslug": "",
  "humblestoreid": "",
  "id": 7585
}