{
  "name": "Cursed Town",
  "slug": "cursed-town",
  "year": null,
  "description": "",
  "banner_url": "https://lutris.net/games/banner/cursed-town.jpg",
  "icon_url": "https://lutris.net/games/icon/cursed-town.png",
  "is_public": true,
  "updated": "2020-10-08T09:57:11.684127Z",
  "provider_games": [
    {
      "name": "Deadly Station",
      "slug": "850310",
      "service": "steam"
    }
  ],
  "steamid": 850310,
  "gogid": null,
  "gogslug": "",
  "humblestoreid": "",
  "id": 23099
}