{
  "id": 24152,
  "game_id": 85,
  "game_slug": "world-of-tanks",
  "name": "World of Tanks",
  "year": 2010,
  "user": "Dude803",
  "runner": "wine",
  "slug": "world-of-tanks-na-dxvk-esync-promod",
  "version": "NA + DXVK + ESYNC + PROMOD",
  "description": null,
  "notes": "",
  "created_at": "2020-10-27T01:08:52.429656Z",
  "updated_at": "2020-10-27T01:08:52.429691Z",
  "draft": true,
  "published": false,
  "published_by": null,
  "rating": "",
  "steamid": null,
  "gogid": null,
  "gogslug": "",
  "humbleid": "",
  "humblestoreid": "",
  "humblestoreid_real": "",
  "script": {
    "files": [
      {
        "wotinstaller": "https://redirect.wargaming.net/WoT/latest_web_install_na"
      },
      {
        "promod": "https://www.oldskool.vip/promod/ProMod.zip"
      }
    ],
    "game": {
      "arch": "win64",
      "exe": "drive_c/Program Files (x86)/Wargaming.net/GameCenter/wgc.exe",
      "name": "World of Tanks",
      "prefix": "$GAMEDIR"
    },
    "installer": [
      {
        "task": {
          "app": "corefonts dotnet48 dsound dmusic faudio win10",
          "arch": "win64",
          "description": "Installing dependencies",
          "name": "winetricks",
          "prefix": "$GAMEDIR"
        }
      },
      {
        "move": {
          "dst": "$CACHE/wot/WoTInstaller.exe",
          "src": "wotinstaller"
        }
      },
      {
        "task": {
          "description": "Installing World of Tanks",
          "executable": "$CACHE/wot/WoTInstaller.exe",
          "name": "wineexec",
          "prefix": "$GAMEDIR"
        }
      },
      {
        "move": {
          "dst": "$CACHE/wot/ProMod.zip",
          "src": "promod"
        }
      },
      {
        "extract": {
          "dst": "drive_c/ProMod",
          "file": "$CACHE/wot/ProMod.zip",
          "format": "zip"
        }
      },
      {
        "task": {
          "description": "Installing ProMod",
          "executable": "drive_c/ProMod/modpack1.exe",
          "name": "wineexec",
          "prefix": "$GAMEDIR"
        }
      }
    ],
    "system": {
      "disable_runtime": false,
      "env": {
        "DXVK_HUD": "fps,compiler,framtimes",
        "__GL_SHADER_DISK_CACHE": 1,
        "__GL_SHADER_DISK_CACHE_PATH": "$GAMEDIR"
      }
    },
    "wine": {
      "dxvk": true,
      "esync": true,
      "overrides": {
        "xaudio2_7": "native,builtin"
      }
    }
  },
  "content": "files:\n- wotinstaller: https://redirect.wargaming.net/WoT/latest_web_install_na\n- promod: https://www.oldskool.vip/promod/ProMod.zip\ngame:\n  arch: win64\n  exe: drive_c/Program Files (x86)/Wargaming.net/GameCenter/wgc.exe\n  name: World of Tanks\n  prefix: $GAMEDIR\ninstaller:\n- task:\n    app: corefonts dotnet48 dsound dmusic faudio win10\n    arch: win64\n    description: Installing dependencies\n    name: winetricks\n    prefix: $GAMEDIR\n- move:\n    dst: $CACHE/wot/WoTInstaller.exe\n    src: wotinstaller\n- task:\n    description: Installing World of Tanks\n    executable: $CACHE/wot/WoTInstaller.exe\n    name: wineexec\n    prefix: $GAMEDIR\n- move:\n    dst: $CACHE/wot/ProMod.zip\n    src: promod\n- extract:\n    dst: drive_c/ProMod\n    file: $CACHE/wot/ProMod.zip\n    format: zip\n- task:\n    description: Installing ProMod\n    executable: drive_c/ProMod/modpack1.exe\n    name: wineexec\n    prefix: $GAMEDIR\nsystem:\n  disable_runtime: false\n  env:\n    DXVK_HUD: fps,compiler,framtimes\n    __GL_SHADER_DISK_CACHE: 1\n    __GL_SHADER_DISK_CACHE_PATH: $GAMEDIR\nwine:\n  dxvk: true\n  esync: true\n  overrides:\n    xaudio2_7: native,builtin\n"
}